{
    "comments": [
        {
            "administrator_id": null, 
            "alignment": 1, 
            "ancestry": null, 
            "as": null, 
            "author": {
                "avatar_image": "https://decidim.barcelona/assets/avatar-866795c99abc33a3160d1f3fa93ada46eb75e54134e777666b9ed16215b26534.png", 
                "erased": false, 
                "hidden": false, 
                "id": 7229, 
                "name": "benua", 
                "official": false, 
                "official_level": 0, 
                "role": null, 
                "verified_organization": null
            }, 
            "body": "<p>No s'ha de habilitar provisionalment el solar de l'IES Vallarca...s'ha de contru\u00efr el Institut ja.</p>", 
            "commentable_id": 7, 
            "commentable_type": "Proposal", 
            "created_at": "22/02/2016 13:46:03", 
            "flagged": false, 
            "hidden": false, 
            "id": 2360, 
            "moderator_id": null, 
            "permissions": {
                "hide": false, 
                "hide_author": false, 
                "vote": false
            }, 
            "total_dislikes": 0, 
            "total_likes": 0, 
            "total_votes": 0
        }, 
        {
            "administrator_id": null, 
            "alignment": 1, 
            "ancestry": null, 
            "as": null, 
            "author": {
                "avatar_image": "https://decidim.barcelona/assets/avatar-866795c99abc33a3160d1f3fa93ada46eb75e54134e777666b9ed16215b26534.png", 
                "erased": false, 
                "hidden": false, 
                "id": 7229, 
                "name": "benua", 
                "official": false, 
                "official_level": 0, 
                "role": null, 
                "verified_organization": null
            }, 
            "body": "<p>Tornar a redactar el projecte i iniciar les obres.</p>", 
            "commentable_id": 7, 
            "commentable_type": "Proposal", 
            "created_at": "22/02/2016 13:49:20", 
            "flagged": false, 
            "hidden": false, 
            "id": 2361, 
            "moderator_id": null, 
            "permissions": {
                "hide": false, 
                "hide_author": false, 
                "vote": false
            }, 
            "total_dislikes": 0, 
            "total_likes": 0, 
            "total_votes": 0
        }, 
        {
            "administrator_id": null, 
            "alignment": 1, 
            "ancestry": null, 
            "as": null, 
            "author": {
                "avatar_image": "https://decidim.barcelona/assets/avatar-866795c99abc33a3160d1f3fa93ada46eb75e54134e777666b9ed16215b26534.png", 
                "erased": false, 
                "hidden": false, 
                "id": 7293, 
                "name": "Llu\u00eds Mat\u00e9 L\u00f3pez", 
                "official": false, 
                "official_level": 0, 
                "role": null, 
                "verified_organization": null
            }, 
            "body": "<p>Volem que el solar serveixi de base de reivindicaci\u00f3 de l'Institut Vallcarca. No volem cap us temporal que serveixi per eternitzar la demora.\n<br />Volem que els nostres fills puguin estudiar al seu barri.</p>", 
            "commentable_id": 7, 
            "commentable_type": "Proposal", 
            "created_at": "22/02/2016 16:25:55", 
            "flagged": false, 
            "hidden": false, 
            "id": 2388, 
            "moderator_id": null, 
            "permissions": {
                "hide": false, 
                "hide_author": false, 
                "vote": false
            }, 
            "total_dislikes": 0, 
            "total_likes": 3, 
            "total_votes": 3
        }, 
        {
            "administrator_id": null, 
            "alignment": 0, 
            "ancestry": null, 
            "as": null, 
            "author": {
                "avatar_image": "https://decidim.barcelona/assets/avatar-866795c99abc33a3160d1f3fa93ada46eb75e54134e777666b9ed16215b26534.png", 
                "erased": false, 
                "hidden": false, 
                "id": 7337, 
                "name": "Marta Poch Sapena", 
                "official": false, 
                "official_level": 0, 
                "role": null, 
                "verified_organization": null
            }, 
            "body": "<p>Volem institut Vallcarca</p>", 
            "commentable_id": 7, 
            "commentable_type": "Proposal", 
            "created_at": "22/02/2016 21:55:47", 
            "flagged": false, 
            "hidden": false, 
            "id": 2424, 
            "moderator_id": null, 
            "permissions": {
                "hide": false, 
                "hide_author": false, 
                "vote": false
            }, 
            "total_dislikes": 0, 
            "total_likes": 0, 
            "total_votes": 0
        }, 
        {
            "administrator_id": null, 
            "alignment": 1, 
            "ancestry": null, 
            "as": null, 
            "author": {
                "avatar_image": "https://decidim.barcelona/assets/avatar-866795c99abc33a3160d1f3fa93ada46eb75e54134e777666b9ed16215b26534.png", 
                "erased": false, 
                "hidden": false, 
                "id": 7447, 
                "name": "Eva Galoz", 
                "official": false, 
                "official_level": 0, 
                "role": null, 
                "verified_organization": null
            }, 
            "body": "<p>Vergony\u00f2s que un institut aprovat el 2007 encara estigui en aquesta fase, fins quan els nostres fills hauran de marxar del barri per anar a l'Institut? I amb 11 anys que comencen molts!! Institut Vallcarca ja!</p>", 
            "commentable_id": 7, 
            "commentable_type": "Proposal", 
            "created_at": "23/02/2016 14:50:07", 
            "flagged": false, 
            "hidden": false, 
            "id": 2470, 
            "moderator_id": null, 
            "permissions": {
                "hide": false, 
                "hide_author": false, 
                "vote": false
            }, 
            "total_dislikes": 0, 
            "total_likes": 1, 
            "total_votes": 1
        }, 
        {
            "administrator_id": null, 
            "alignment": 1, 
            "ancestry": null, 
            "as": null, 
            "author": {
                "avatar_image": "https://decidim.barcelona/assets/avatar-866795c99abc33a3160d1f3fa93ada46eb75e54134e777666b9ed16215b26534.png", 
                "erased": false, 
                "hidden": false, 
                "id": 7607, 
                "name": "Martona ", 
                "official": false, 
                "official_level": 0, 
                "role": null, 
                "verified_organization": null
            }, 
            "body": "<p>institut JAAAA !!!!</p>", 
            "commentable_id": 7, 
            "commentable_type": "Proposal", 
            "created_at": "23/02/2016 17:23:04", 
            "flagged": false, 
            "hidden": false, 
            "id": 2479, 
            "moderator_id": null, 
            "permissions": {
                "hide": false, 
                "hide_author": false, 
                "vote": false
            }, 
            "total_dislikes": 0, 
            "total_likes": 0, 
            "total_votes": 0
        }, 
        {
            "administrator_id": null, 
            "alignment": 1, 
            "ancestry": null, 
            "as": null, 
            "author": {
                "avatar_image": "https://decidim.barcelona/assets/avatar-866795c99abc33a3160d1f3fa93ada46eb75e54134e777666b9ed16215b26534.png", 
                "erased": false, 
                "hidden": false, 
                "id": 7614, 
                "name": "DANIELE MARONI", 
                "official": false, 
                "official_level": 0, 
                "role": null, 
                "verified_organization": null
            }, 
            "body": "<p>La ra\u00f3 per  la qual volem un Institut al Barri, no nom\u00e9s \u00e9s la comoditat; n'hi moltes d'altres de caire medi-ambiental, territorial i social que poden tenir un pes a l'hora de prendre la decisi\u00f3, estrictament POL\u00cdTICA, de tirar endavant aquest projecte ja existent:\n<br />1) RAONS MEDIAMBIENTALS PER AFAVORIR LA MOBILITAT SOSTENIBLE: afavorir els despla\u00e7ament casa-centre d'estudi A PEU o en BICICLETA, en modes no motoritzats, en l\u00ednia amb tots els Plans Directors i sectorials i tots els  Instruments Urban\u00edstics vigents, com: \n<br />PDM: Pla Director de la Mobilitat 2013-2018 (ATM, Barcelona, 2014)\n<br />PMU:  Pla de mobilitat urbana de Barcelona i AMB\n<br />PECCAT Pla de l\u2019energia i canvi clim\u00e0tic de Catalunya\n<br />PAMQA Pla d\u2019Actuaci\u00f3 per la Millora de la Qualitat de l\u2019Aire\n<br />PTMB Pla territorial metropolit\u00e0 de Barcelona</p>\n\n<p>2) RAONS TERRITORIALS : el grau de cohesi\u00f3 territorial i auto contenci\u00f3 d'un barri i un Districte es veu molt afectats pels despla\u00e7aments efectuats per motiu casa-escola, REDU\u00cfM-LOS!\n<br />3) \n<br /> </p>", 
            "commentable_id": 7, 
            "commentable_type": "Proposal", 
            "created_at": "23/02/2016 17:46:58", 
            "flagged": false, 
            "hidden": false, 
            "id": 2482, 
            "moderator_id": null, 
            "permissions": {
                "hide": false, 
                "hide_author": false, 
                "vote": false
            }, 
            "total_dislikes": 0, 
            "total_likes": 5, 
            "total_votes": 5
        }, 
        {
            "administrator_id": null, 
            "alignment": 1, 
            "ancestry": null, 
            "as": null, 
            "author": {
                "avatar_image": "https://decidim.barcelona/assets/avatar-866795c99abc33a3160d1f3fa93ada46eb75e54134e777666b9ed16215b26534.png", 
                "erased": false, 
                "hidden": false, 
                "id": 7369, 
                "name": "Fuensanta", 
                "official": false, 
                "official_level": 0, 
                "role": null, 
                "verified_organization": null
            }, 
            "body": "<p>Volem Institut ja!!</p>", 
            "commentable_id": 7, 
            "commentable_type": "Proposal", 
            "created_at": "23/02/2016 19:20:36", 
            "flagged": false, 
            "hidden": false, 
            "id": 2491, 
            "moderator_id": null, 
            "permissions": {
                "hide": false, 
                "hide_author": false, 
                "vote": false
            }, 
            "total_dislikes": 0, 
            "total_likes": 3, 
            "total_votes": 3
        }, 
        {
            "administrator_id": null, 
            "alignment": 1, 
            "ancestry": null, 
            "as": null, 
            "author": {
                "avatar_image": "https://decidim.barcelona/assets/avatar-866795c99abc33a3160d1f3fa93ada46eb75e54134e777666b9ed16215b26534.png", 
                "erased": false, 
                "hidden": false, 
                "id": 7662, 
                "name": "Montse Molinero Iglesias", 
                "official": false, 
                "official_level": 0, 
                "role": null, 
                "verified_organization": null
            }, 
            "body": "<p>Volem Institut Vallcarca!! </p>", 
            "commentable_id": 7, 
            "commentable_type": "Proposal", 
            "created_at": "23/02/2016 19:30:14", 
            "flagged": false, 
            "hidden": false, 
            "id": 2492, 
            "moderator_id": null, 
            "permissions": {
                "hide": false, 
                "hide_author": false, 
                "vote": false
            }, 
            "total_dislikes": 0, 
            "total_likes": 3, 
            "total_votes": 3
        }, 
        {
            "administrator_id": null, 
            "alignment": 1, 
            "ancestry": null, 
            "as": null, 
            "author": {
                "avatar_image": "https://decidim.barcelona/assets/avatar-866795c99abc33a3160d1f3fa93ada46eb75e54134e777666b9ed16215b26534.png", 
                "erased": false, 
                "hidden": false, 
                "id": 7922, 
                "name": "N\u00far C. Coll", 
                "official": false, 
                "official_level": 0, 
                "role": null, 
                "verified_organization": null
            }, 
            "body": "<p>S\u00f3c mare de dues nenes. La primera acaba ja esta a l'\u00a1Escola p\u00fablica, que acabar\u00e1 a 6e de Prim\u00e0ria. Necessitem un institut al barri, a prop de casa, sense que hagin d'agafar transport p\u00fablic. Estem b\u00e9 d'escoles, pero fatal d'Instituts. Els nens de El Coll- Vallcarca i Penitents necessiten un institut!</p>", 
            "commentable_id": 7, 
            "commentable_type": "Proposal", 
            "created_at": "24/02/2016 11:08:57", 
            "flagged": false, 
            "hidden": false, 
            "id": 2538, 
            "moderator_id": null, 
            "permissions": {
                "hide": false, 
                "hide_author": false, 
                "vote": false
            }, 
            "total_dislikes": 0, 
            "total_likes": 4, 
            "total_votes": 4
        }, 
        {
            "administrator_id": null, 
            "alignment": 0, 
            "ancestry": null, 
            "as": null, 
            "author": {
                "avatar_image": "https://decidim.barcelona/assets/avatar-866795c99abc33a3160d1f3fa93ada46eb75e54134e777666b9ed16215b26534.png", 
                "erased": false, 
                "hidden": false, 
                "id": 7936, 
                "name": "Jaume Clofent", 
                "official": false, 
                "official_level": 0, 
                "role": null, 
                "verified_organization": null
            }, 
            "body": "<p>Es imcomprensible com l'Ajuntament de Barcelona oblida any rere any aquest tant ansiat Institut per el nostre barri. Necessitem el maxim de suport de tots els ve\u00efns de la zona.\n<br />Perque els nostres infants, creixin on toca</p>", 
            "commentable_id": 7, 
            "commentable_type": "Proposal", 
            "created_at": "24/02/2016 11:49:25", 
            "flagged": false, 
            "hidden": false, 
            "id": 2547, 
            "moderator_id": null, 
            "permissions": {
                "hide": false, 
                "hide_author": false, 
                "vote": false
            }, 
            "total_dislikes": 0, 
            "total_likes": 4, 
            "total_votes": 4
        }, 
        {
            "administrator_id": null, 
            "alignment": 1, 
            "ancestry": null, 
            "as": null, 
            "author": {
                "avatar_image": "https://decidim.barcelona/assets/avatar-866795c99abc33a3160d1f3fa93ada46eb75e54134e777666b9ed16215b26534.png", 
                "erased": false, 
                "hidden": false, 
                "id": 8810, 
                "name": "Guille", 
                "official": false, 
                "official_level": 0, 
                "role": null, 
                "verified_organization": null
            }, 
            "body": "<p>volem l'institut!!!</p>", 
            "commentable_id": 7, 
            "commentable_type": "Proposal", 
            "created_at": "26/02/2016 21:34:36", 
            "flagged": false, 
            "hidden": false, 
            "id": 2865, 
            "moderator_id": null, 
            "permissions": {
                "hide": false, 
                "hide_author": false, 
                "vote": false
            }, 
            "total_dislikes": 0, 
            "total_likes": 1, 
            "total_votes": 1
        }, 
        {
            "administrator_id": null, 
            "alignment": 1, 
            "ancestry": null, 
            "as": null, 
            "author": {
                "avatar_image": "https://decidim.barcelona/assets/avatar-866795c99abc33a3160d1f3fa93ada46eb75e54134e777666b9ed16215b26534.png", 
                "erased": false, 
                "hidden": false, 
                "id": 8842, 
                "name": "Ariari", 
                "official": false, 
                "official_level": 0, 
                "role": null, 
                "verified_organization": null
            }, 
            "body": "<p>Volem Institut Vallcarca!</p>", 
            "commentable_id": 7, 
            "commentable_type": "Proposal", 
            "created_at": "27/02/2016 00:18:52", 
            "flagged": false, 
            "hidden": false, 
            "id": 2882, 
            "moderator_id": null, 
            "permissions": {
                "hide": false, 
                "hide_author": false, 
                "vote": false
            }, 
            "total_dislikes": 0, 
            "total_likes": 1, 
            "total_votes": 1
        }, 
        {
            "administrator_id": null, 
            "alignment": 1, 
            "ancestry": null, 
            "as": null, 
            "author": {
                "avatar_image": "https://decidim.barcelona/assets/avatar-866795c99abc33a3160d1f3fa93ada46eb75e54134e777666b9ed16215b26534.png", 
                "erased": false, 
                "hidden": false, 
                "id": 8978, 
                "name": "Judith G", 
                "official": false, 
                "official_level": 0, 
                "role": null, 
                "verified_organization": null
            }, 
            "body": "<p>VOLEM INSTITUT A VALLCARCA</p>", 
            "commentable_id": 7, 
            "commentable_type": "Proposal", 
            "created_at": "27/02/2016 18:02:55", 
            "flagged": false, 
            "hidden": false, 
            "id": 2908, 
            "moderator_id": null, 
            "permissions": {
                "hide": false, 
                "hide_author": false, 
                "vote": false
            }, 
            "total_dislikes": 0, 
            "total_likes": 1, 
            "total_votes": 1
        }, 
        {
            "administrator_id": null, 
            "alignment": 1, 
            "ancestry": null, 
            "as": "organization", 
            "author": {
                "avatar_image": "https://decidim.barcelona/assets/avatar-866795c99abc33a3160d1f3fa93ada46eb75e54134e777666b9ed16215b26534.png", 
                "erased": false, 
                "hidden": false, 
                "id": 11290, 
                "name": "Grup d'Estudis Coll Vallcarca", 
                "official": false, 
                "official_level": 0, 
                "role": "organization", 
                "verified_organization": false
            }, 
            "body": "<p>Des del Grup d'Estudis Coll-Vallcarca teniu tot el nostre suport per aquesta proposta.\n</p>", 
            "commentable_id": 7, 
            "commentable_type": "Proposal", 
            "created_at": "14/03/2016 13:25:00", 
            "flagged": false, 
            "hidden": false, 
            "id": 4806, 
            "moderator_id": null, 
            "permissions": {
                "hide": false, 
                "hide_author": false, 
                "vote": false
            }, 
            "total_dislikes": 0, 
            "total_likes": 4, 
            "total_votes": 4
        }, 
        {
            "administrator_id": null, 
            "alignment": 1, 
            "ancestry": null, 
            "as": null, 
            "author": {
                "avatar_image": "https://decidim.barcelona/assets/avatar-866795c99abc33a3160d1f3fa93ada46eb75e54134e777666b9ed16215b26534.png", 
                "erased": false, 
                "hidden": false, 
                "id": 12484, 
                "name": "Moises", 
                "official": false, 
                "official_level": 0, 
                "role": null, 
                "verified_organization": null
            }, 
            "body": "<p>Que passa amb aquest projecte? Per que el tenim oblidat? Volem l'institut JA!!!</p>", 
            "commentable_id": 7, 
            "commentable_type": "Proposal", 
            "created_at": "15/03/2016 10:50:01", 
            "flagged": false, 
            "hidden": false, 
            "id": 4974, 
            "moderator_id": null, 
            "permissions": {
                "hide": false, 
                "hide_author": false, 
                "vote": false
            }, 
            "total_dislikes": 0, 
            "total_likes": 0, 
            "total_votes": 0
        }, 
        {
            "administrator_id": null, 
            "alignment": 1, 
            "ancestry": null, 
            "as": null, 
            "author": {
                "avatar_image": "https://decidim.barcelona/assets/avatar-866795c99abc33a3160d1f3fa93ada46eb75e54134e777666b9ed16215b26534.png", 
                "erased": false, 
                "hidden": false, 
                "id": 12484, 
                "name": "Moises", 
                "official": false, 
                "official_level": 0, 
                "role": null, 
                "verified_organization": null
            }, 
            "body": "<p>Que passa amb aquest projecte? Per que el tenim oblidat? Volem l'institut JA!!!</p>", 
            "commentable_id": 7, 
            "commentable_type": "Proposal", 
            "created_at": "15/03/2016 10:50:05", 
            "flagged": false, 
            "hidden": false, 
            "id": 4975, 
            "moderator_id": null, 
            "permissions": {
                "hide": false, 
                "hide_author": false, 
                "vote": false
            }, 
            "total_dislikes": 0, 
            "total_likes": 1, 
            "total_votes": 1
        }, 
        {
            "administrator_id": null, 
            "alignment": 1, 
            "ancestry": null, 
            "as": null, 
            "author": {
                "avatar_image": "https://decidim.barcelona/assets/avatar-866795c99abc33a3160d1f3fa93ada46eb75e54134e777666b9ed16215b26534.png", 
                "erased": false, 
                "hidden": false, 
                "id": 12179, 
                "name": "suport.decidim1", 
                "official": false, 
                "official_level": 0, 
                "role": null, 
                "verified_organization": null
            }, 
            "body": "<p>Proposta debatuda en la cita presencial: Consell de Barri El Coll. \"Projecte constructiu de l'IES Vallcarca\"</p>", 
            "commentable_id": 7, 
            "commentable_type": "Proposal", 
            "created_at": "15/03/2016 12:09:57", 
            "flagged": false, 
            "hidden": false, 
            "id": 4995, 
            "moderator_id": null, 
            "permissions": {
                "hide": false, 
                "hide_author": false, 
                "vote": false
            }, 
            "total_dislikes": 0, 
            "total_likes": 0, 
            "total_votes": 0
        }, 
        {
            "administrator_id": null, 
            "alignment": 0, 
            "ancestry": null, 
            "as": null, 
            "author": {
                "avatar_image": "https://decidim.barcelona/assets/avatar-866795c99abc33a3160d1f3fa93ada46eb75e54134e777666b9ed16215b26534.png", 
                "erased": false, 
                "hidden": false, 
                "id": 12546, 
                "name": "iago", 
                "official": false, 
                "official_level": 0, 
                "role": null, 
                "verified_organization": null
            }, 
            "body": "<p>No pot ser que un barri de Barcelona no disposi d'Institut p\u00fablic per facilitar la mobilitat de tots els nens i nenes que amb 12 anys hi hauran d'anar.  Aquesta demanda hist\u00f2rica dels ve\u00efns de Vallcarca mereix una resposta urgent per part del consistori municipal.  L'educaci\u00f3 \u00e9s una q\u00fcesti\u00f3 molt sensible i l'Ajuntament t\u00e9 tot l'inter\u00e8s a m\u00e9s de l'obligaci\u00f3 d'atendre aquelles peticions que afecten i causen perjudici a les fam\u00edlies que viuen al barri.  No \u00e9s un caprici, \u00e9s un equipament vital que t\u00e9 un impacte directe en la qualitat de vida del barri i de les seves fam\u00edlies. </p>", 
            "commentable_id": 7, 
            "commentable_type": "Proposal", 
            "created_at": "15/03/2016 13:08:10", 
            "flagged": false, 
            "hidden": false, 
            "id": 5016, 
            "moderator_id": null, 
            "permissions": {
                "hide": false, 
                "hide_author": false, 
                "vote": false
            }, 
            "total_dislikes": 0, 
            "total_likes": 4, 
            "total_votes": 4
        }, 
        {
            "administrator_id": null, 
            "alignment": 1, 
            "ancestry": null, 
            "as": null, 
            "author": {
                "avatar_image": "https://decidim.barcelona/assets/avatar-866795c99abc33a3160d1f3fa93ada46eb75e54134e777666b9ed16215b26534.png", 
                "erased": false, 
                "hidden": false, 
                "id": 12179, 
                "name": "suport.decidim1", 
                "official": false, 
                "official_level": 0, 
                "role": null, 
                "verified_organization": null
            }, 
            "body": "<p>Proposta debatuda en la cita presencial: Consell Escolar Sectorial. El Dret a l\u2019Educaci\u00f3.\"Es proposa modificar la proposta 3 de l\u2019apartat 1.3 relativa al projecte constructiu de l\u2019IES Vallcarca en el sentit d\u2019iniciar el funcionament de l\u2019institut en el mandat actual</p>", 
            "commentable_id": 7, 
            "commentable_type": "Proposal", 
            "created_at": "15/03/2016 15:40:49", 
            "flagged": false, 
            "hidden": false, 
            "id": 5047, 
            "moderator_id": null, 
            "permissions": {
                "hide": false, 
                "hide_author": false, 
                "vote": false
            }, 
            "total_dislikes": 0, 
            "total_likes": 0, 
            "total_votes": 0
        }, 
        {
            "administrator_id": null, 
            "alignment": null, 
            "ancestry": "2360", 
            "as": null, 
            "author": {
                "avatar_image": "https://decidim.barcelona/assets/avatar-866795c99abc33a3160d1f3fa93ada46eb75e54134e777666b9ed16215b26534.png", 
                "erased": false, 
                "hidden": false, 
                "id": 12484, 
                "name": "Moises", 
                "official": false, 
                "official_level": 0, 
                "role": null, 
                "verified_organization": null
            }, 
            "body": "<p>Que passa amb aquest projecte? Per que el tenim oblidat? Volem l'institut JA!!!</p>", 
            "commentable_id": 7, 
            "commentable_type": "Proposal", 
            "created_at": "15/03/2016 10:49:33", 
            "flagged": false, 
            "hidden": false, 
            "id": 4973, 
            "moderator_id": null, 
            "permissions": {
                "hide": false, 
                "hide_author": false, 
                "vote": false
            }, 
            "total_dislikes": 0, 
            "total_likes": 1, 
            "total_votes": 1
        }
    ], 
    "meta": {
        "current_page": 1, 
        "next_page": 2, 
        "prev_page": null, 
        "total_count": 30, 
        "total_pages": 2
    }
}