{
    "comments": [
        {
            "administrator_id": null, 
            "alignment": 1, 
            "ancestry": null, 
            "as": null, 
            "author": {
                "avatar_image": "https://decidim.barcelona/assets/avatar-866795c99abc33a3160d1f3fa93ada46eb75e54134e777666b9ed16215b26534.png", 
                "erased": false, 
                "hidden": false, 
                "id": 12179, 
                "name": "suport.decidim1", 
                "official": false, 
                "official_level": 0, 
                "role": null, 
                "verified_organization": null
            }, 
            "body": "<p>Proposta debatuda en la cita presencial: Consell Escolar Sectorial. El Dret a l\u2019Educaci\u00f3. \"Reservar solars del Districte amb la finalitat de construir-hi instituts per als barris.  I No donar un \u00fas  provisional al solar al que s\u2019hi ha d\u2019ubicar l\u2019IES Vallcarca.\"</p>", 
            "commentable_id": 7, 
            "commentable_type": "Proposal", 
            "created_at": "15/03/2016 15:45:42", 
            "flagged": false, 
            "hidden": false, 
            "id": 5049, 
            "moderator_id": null, 
            "permissions": {
                "hide": false, 
                "hide_author": false, 
                "vote": false
            }, 
            "total_dislikes": 0, 
            "total_likes": 0, 
            "total_votes": 0
        }, 
        {
            "administrator_id": null, 
            "alignment": 1, 
            "ancestry": null, 
            "as": null, 
            "author": {
                "avatar_image": "https://decidim.barcelona/assets/avatar-866795c99abc33a3160d1f3fa93ada46eb75e54134e777666b9ed16215b26534.png", 
                "erased": false, 
                "hidden": false, 
                "id": 13932, 
                "name": "cmagrinya", 
                "official": false, 
                "official_level": 0, 
                "role": null, 
                "verified_organization": null
            }, 
            "body": "<p>No nom\u00e9s volem un institut p\u00fablic al barri, \u00e9s totalment necessari per a les fam\u00edlies. Els nens van a l'Institut a partir dels 11 anys (els nascuts a final d'any) i suposa un trajecte molt complicat despla\u00e7ar-se a altres barris. </p>", 
            "commentable_id": 7, 
            "commentable_type": "Proposal", 
            "created_at": "18/03/2016 12:09:18", 
            "flagged": false, 
            "hidden": false, 
            "id": 5748, 
            "moderator_id": null, 
            "permissions": {
                "hide": false, 
                "hide_author": false, 
                "vote": false
            }, 
            "total_dislikes": 0, 
            "total_likes": 2, 
            "total_votes": 2
        }, 
        {
            "administrator_id": null, 
            "alignment": 1, 
            "ancestry": null, 
            "as": null, 
            "author": {
                "avatar_image": "https://decidim.barcelona/assets/avatar-866795c99abc33a3160d1f3fa93ada46eb75e54134e777666b9ed16215b26534.png", 
                "erased": false, 
                "hidden": false, 
                "id": 16042, 
                "name": "Ignasi Saula", 
                "official": false, 
                "official_level": 0, 
                "role": null, 
                "verified_organization": null
            }, 
            "body": "<p>\u00c9s una vergonya que un institut aprovat des del 2007 i realitzat el projecte b\u00e0sic, estigui encara en fase de solar abandonat.\n<br />Crec que no hi ha voluntat pol\u00edtica en tirar-ho endavant.</p>", 
            "commentable_id": 7, 
            "commentable_type": "Proposal", 
            "created_at": "30/03/2016 10:15:18", 
            "flagged": false, 
            "hidden": false, 
            "id": 6911, 
            "moderator_id": null, 
            "permissions": {
                "hide": false, 
                "hide_author": false, 
                "vote": false
            }, 
            "total_dislikes": 0, 
            "total_likes": 2, 
            "total_votes": 2
        }, 
        {
            "administrator_id": null, 
            "alignment": 1, 
            "ancestry": null, 
            "as": null, 
            "author": {
                "avatar_image": "https://decidim.barcelona/assets/avatar-866795c99abc33a3160d1f3fa93ada46eb75e54134e777666b9ed16215b26534.png", 
                "erased": false, 
                "hidden": false, 
                "id": 17203, 
                "name": "eugemum", 
                "official": false, 
                "official_level": 0, 
                "role": null, 
                "verified_organization": null
            }, 
            "body": "<p>Necesitamos un nuevo instituto p\u00fablico y de calidad!</p>", 
            "commentable_id": 7, 
            "commentable_type": "Proposal", 
            "created_at": "02/04/2016 21:18:15", 
            "flagged": false, 
            "hidden": false, 
            "id": 7543, 
            "moderator_id": null, 
            "permissions": {
                "hide": false, 
                "hide_author": false, 
                "vote": false
            }, 
            "total_dislikes": 0, 
            "total_likes": 0, 
            "total_votes": 0
        }, 
        {
            "administrator_id": null, 
            "alignment": 1, 
            "ancestry": null, 
            "as": null, 
            "author": {
                "avatar_image": "https://decidim.barcelona/assets/avatar-866795c99abc33a3160d1f3fa93ada46eb75e54134e777666b9ed16215b26534.png", 
                "erased": false, 
                "hidden": false, 
                "id": 11661, 
                "name": "Lori Lee", 
                "official": false, 
                "official_level": 0, 
                "role": null, 
                "verified_organization": null
            }, 
            "body": "<p>Comen\u00e7a a ser un fet indiscutible, que falten places p\u00fabliques de secund\u00e0ria a la zona nord de Gr\u00e0cia. A que esperes Ada per construir l'IES Vallcarca?</p>", 
            "commentable_id": 7, 
            "commentable_type": "Proposal", 
            "created_at": "03/04/2016 18:09:06", 
            "flagged": false, 
            "hidden": false, 
            "id": 7606, 
            "moderator_id": null, 
            "permissions": {
                "hide": false, 
                "hide_author": false, 
                "vote": false
            }, 
            "total_dislikes": 0, 
            "total_likes": 0, 
            "total_votes": 0
        }, 
        {
            "administrator_id": null, 
            "alignment": 1, 
            "ancestry": null, 
            "as": null, 
            "author": {
                "avatar_image": "https://decidim.barcelona/assets/avatar-866795c99abc33a3160d1f3fa93ada46eb75e54134e777666b9ed16215b26534.png", 
                "erased": false, 
                "hidden": false, 
                "id": 17427, 
                "name": "Pilar Janer", 
                "official": false, 
                "official_level": 0, 
                "role": null, 
                "verified_organization": null
            }, 
            "body": "<p>Per l escola p\u00fablica de proximitat per\u00f2 sobretot de QUALITAT</p>", 
            "commentable_id": 7, 
            "commentable_type": "Proposal", 
            "created_at": "03/04/2016 19:51:12", 
            "flagged": false, 
            "hidden": false, 
            "id": 7619, 
            "moderator_id": null, 
            "permissions": {
                "hide": false, 
                "hide_author": false, 
                "vote": false
            }, 
            "total_dislikes": 0, 
            "total_likes": 0, 
            "total_votes": 0
        }, 
        {
            "administrator_id": null, 
            "alignment": 1, 
            "ancestry": null, 
            "as": null, 
            "author": {
                "avatar_image": "https://decidim.barcelona/assets/avatar-866795c99abc33a3160d1f3fa93ada46eb75e54134e777666b9ed16215b26534.png", 
                "erased": false, 
                "hidden": false, 
                "id": 17688, 
                "name": "Marsot", 
                "official": false, 
                "official_level": 0, 
                "role": null, 
                "verified_organization": null
            }, 
            "body": "<p>La zona de Gr\u00e0cia nord est\u00e0 caixa des que van tancar l'institut I com es pot comprovar en cal un a la zona</p>", 
            "commentable_id": 7, 
            "commentable_type": "Proposal", 
            "created_at": "04/04/2016 10:08:26", 
            "flagged": false, 
            "hidden": false, 
            "id": 7668, 
            "moderator_id": null, 
            "permissions": {
                "hide": false, 
                "hide_author": false, 
                "vote": false
            }, 
            "total_dislikes": 0, 
            "total_likes": 0, 
            "total_votes": 0
        }, 
        {
            "administrator_id": null, 
            "alignment": 1, 
            "ancestry": null, 
            "as": null, 
            "author": {
                "avatar_image": "https://decidim.barcelona/assets/avatar-866795c99abc33a3160d1f3fa93ada46eb75e54134e777666b9ed16215b26534.png", 
                "erased": false, 
                "hidden": false, 
                "id": 8950, 
                "name": "Belen Iracheta", 
                "official": false, 
                "official_level": 0, 
                "role": null, 
                "verified_organization": null
            }, 
            "body": "<p>Vull un Institut al barri per anar caminant, pels meus dos fills</p>", 
            "commentable_id": 7, 
            "commentable_type": "Proposal", 
            "created_at": "04/04/2016 19:09:49", 
            "flagged": false, 
            "hidden": false, 
            "id": 7820, 
            "moderator_id": null, 
            "permissions": {
                "hide": false, 
                "hide_author": false, 
                "vote": false
            }, 
            "total_dislikes": 0, 
            "total_likes": 0, 
            "total_votes": 0
        }, 
        {
            "administrator_id": null, 
            "alignment": 1, 
            "ancestry": null, 
            "as": null, 
            "author": {
                "avatar_image": "https://decidim.barcelona/assets/avatar-866795c99abc33a3160d1f3fa93ada46eb75e54134e777666b9ed16215b26534.png", 
                "erased": false, 
                "hidden": false, 
                "id": 8790, 
                "name": "SANDRA MONTERO", 
                "official": false, 
                "official_level": 0, 
                "role": null, 
                "verified_organization": null
            }, 
            "body": "<p>Les families d'aquest barri necessitem un institut a prop,i am places per a tots.ja fa molts anys que es va plantejar aquest projecte,si us plau,tireu-lo endavant l'abans possible.</p>", 
            "commentable_id": 7, 
            "commentable_type": "Proposal", 
            "created_at": "05/04/2016 07:49:04", 
            "flagged": false, 
            "hidden": false, 
            "id": 7922, 
            "moderator_id": null, 
            "permissions": {
                "hide": false, 
                "hide_author": false, 
                "vote": false
            }, 
            "total_dislikes": 0, 
            "total_likes": 0, 
            "total_votes": 0
        }, 
        {
            "administrator_id": null, 
            "alignment": 1, 
            "ancestry": null, 
            "as": null, 
            "author": {
                "avatar_image": "https://decidim.barcelona/assets/avatar-866795c99abc33a3160d1f3fa93ada46eb75e54134e777666b9ed16215b26534.png", 
                "erased": false, 
                "hidden": false, 
                "id": 21229, 
                "name": "V\u00edctor ruinas", 
                "official": false, 
                "official_level": 0, 
                "role": null, 
                "verified_organization": null
            }, 
            "body": "<p>Si no me equivoco est\u00e1 m\u00e1s que aprobada su construcci\u00f3n, pues que se pongan a trabajar que nos hace falta el instituto vallcarca ya. </p>", 
            "commentable_id": 7, 
            "commentable_type": "Proposal", 
            "created_at": "08/04/2016 11:17:49", 
            "flagged": false, 
            "hidden": false, 
            "id": 10449, 
            "moderator_id": null, 
            "permissions": {
                "hide": false, 
                "hide_author": false, 
                "vote": false
            }, 
            "total_dislikes": 0, 
            "total_likes": 0, 
            "total_votes": 0
        }
    ], 
    "meta": {
        "current_page": 2, 
        "next_page": null, 
        "prev_page": 1, 
        "total_count": 30, 
        "total_pages": 2
    }
}