{
    "comments": [
        {
            "administrator_id": null, 
            "alignment": 1, 
            "ancestry": null, 
            "as": null, 
            "author": {
                "avatar_image": "https://decidim.barcelona/assets/avatar-866795c99abc33a3160d1f3fa93ada46eb75e54134e777666b9ed16215b26534.png", 
                "erased": false, 
                "hidden": false, 
                "id": 3580, 
                "name": "Pere Ortega", 
                "official": false, 
                "official_level": 0, 
                "role": null, 
                "verified_organization": null
            }, 
            "body": "<p>I que vagi desarmada (d'armes de foc)</p>", 
            "commentable_id": 124, 
            "commentable_type": "Proposal", 
            "created_at": "17/02/2016 13:30:17", 
            "flagged": false, 
            "hidden": false, 
            "id": 2009, 
            "moderator_id": null, 
            "permissions": {
                "hide": false, 
                "hide_author": false, 
                "vote": false
            }, 
            "total_dislikes": 0, 
            "total_likes": 0, 
            "total_votes": 0
        }, 
        {
            "administrator_id": null, 
            "alignment": 1, 
            "ancestry": null, 
            "as": null, 
            "author": {
                "avatar_image": "https://decidim.barcelona/assets/avatar-866795c99abc33a3160d1f3fa93ada46eb75e54134e777666b9ed16215b26534.png", 
                "erased": false, 
                "hidden": false, 
                "id": 12688, 
                "name": "Jaume Mestres i Capitan", 
                "official": false, 
                "official_level": 0, 
                "role": null, 
                "verified_organization": null
            }, 
            "body": "<p>Que POLIC\u00cdA DE PROXIMITAT, si nunca se les ve el pelo</p>", 
            "commentable_id": 124, 
            "commentable_type": "Proposal", 
            "created_at": "15/03/2016 20:37:24", 
            "flagged": false, 
            "hidden": false, 
            "id": 5130, 
            "moderator_id": null, 
            "permissions": {
                "hide": false, 
                "hide_author": false, 
                "vote": false
            }, 
            "total_dislikes": 0, 
            "total_likes": 0, 
            "total_votes": 0
        }, 
        {
            "administrator_id": null, 
            "alignment": 0, 
            "ancestry": null, 
            "as": null, 
            "author": {
                "avatar_image": "https://decidim.barcelona/assets/avatar-866795c99abc33a3160d1f3fa93ada46eb75e54134e777666b9ed16215b26534.png", 
                "erased": false, 
                "hidden": false, 
                "id": 17740, 
                "name": "Suport General2 - Decidim Barcelona", 
                "official": false, 
                "official_level": 0, 
                "role": null, 
                "verified_organization": null
            }, 
            "body": "<p><a href=\"https://decidim.barcelona/proposals/presencia-de-la-guardia-urbana-a-les-estacions-amb-mes-carterisme\">https://decidim.barcelona/proposals/presencia-de-la-guardia-urbana-a-les-estacions-amb-mes-carterisme</a></p>", 
            "commentable_id": 124, 
            "commentable_type": "Proposal", 
            "created_at": "13/04/2016 14:30:59", 
            "flagged": false, 
            "hidden": false, 
            "id": 14832, 
            "moderator_id": null, 
            "permissions": {
                "hide": false, 
                "hide_author": false, 
                "vote": false
            }, 
            "total_dislikes": 0, 
            "total_likes": 0, 
            "total_votes": 0
        }, 
        {
            "administrator_id": null, 
            "alignment": 0, 
            "ancestry": null, 
            "as": null, 
            "author": {
                "avatar_image": "https://decidim.barcelona/assets/avatar-866795c99abc33a3160d1f3fa93ada46eb75e54134e777666b9ed16215b26534.png", 
                "erased": false, 
                "hidden": false, 
                "id": 17740, 
                "name": "Suport General2 - Decidim Barcelona", 
                "official": false, 
                "official_level": 0, 
                "role": null, 
                "verified_organization": null
            }, 
            "body": "<p><a href=\"https://decidim.barcelona/proposals/mas-policia-a-pie-y-bicicleta-y-24h\">https://decidim.barcelona/proposals/mas-policia-a-pie-y-bicicleta-y-24h</a></p>", 
            "commentable_id": 124, 
            "commentable_type": "Proposal", 
            "created_at": "13/04/2016 14:31:24", 
            "flagged": false, 
            "hidden": false, 
            "id": 14834, 
            "moderator_id": null, 
            "permissions": {
                "hide": false, 
                "hide_author": false, 
                "vote": false
            }, 
            "total_dislikes": 0, 
            "total_likes": 0, 
            "total_votes": 0
        }, 
        {
            "administrator_id": null, 
            "alignment": 0, 
            "ancestry": null, 
            "as": null, 
            "author": {
                "avatar_image": "https://decidim.barcelona/assets/avatar-866795c99abc33a3160d1f3fa93ada46eb75e54134e777666b9ed16215b26534.png", 
                "erased": false, 
                "hidden": false, 
                "id": 17740, 
                "name": "Suport General2 - Decidim Barcelona", 
                "official": false, 
                "official_level": 0, 
                "role": null, 
                "verified_organization": null
            }, 
            "body": "<p><a href=\"https://decidim.barcelona/proposals/tolerancia-zero-amb-l-incivisme\">https://decidim.barcelona/proposals/tolerancia-zero-amb-l-incivisme</a></p>", 
            "commentable_id": 124, 
            "commentable_type": "Proposal", 
            "created_at": "13/04/2016 14:35:55", 
            "flagged": false, 
            "hidden": false, 
            "id": 14844, 
            "moderator_id": null, 
            "permissions": {
                "hide": false, 
                "hide_author": false, 
                "vote": false
            }, 
            "total_dislikes": 0, 
            "total_likes": 0, 
            "total_votes": 0
        }, 
        {
            "administrator_id": null, 
            "alignment": 0, 
            "ancestry": null, 
            "as": null, 
            "author": {
                "avatar_image": "https://decidim.barcelona/assets/avatar-866795c99abc33a3160d1f3fa93ada46eb75e54134e777666b9ed16215b26534.png", 
                "erased": false, 
                "hidden": false, 
                "id": 17740, 
                "name": "Suport General2 - Decidim Barcelona", 
                "official": false, 
                "official_level": 0, 
                "role": null, 
                "verified_organization": null
            }, 
            "body": "<p><a href=\"https://decidim.barcelona/proposals/compliment-de-les-ordenances-municipals-i-les-normatives-vigents\">https://decidim.barcelona/proposals/compliment-de-les-ordenances-municipals-i-les-normatives-vigents</a></p>", 
            "commentable_id": 124, 
            "commentable_type": "Proposal", 
            "created_at": "13/04/2016 14:37:44", 
            "flagged": false, 
            "hidden": false, 
            "id": 14851, 
            "moderator_id": null, 
            "permissions": {
                "hide": false, 
                "hide_author": false, 
                "vote": false
            }, 
            "total_dislikes": 0, 
            "total_likes": 0, 
            "total_votes": 0
        }, 
        {
            "administrator_id": null, 
            "alignment": 0, 
            "ancestry": null, 
            "as": null, 
            "author": {
                "avatar_image": "https://decidim.barcelona/assets/avatar-866795c99abc33a3160d1f3fa93ada46eb75e54134e777666b9ed16215b26534.png", 
                "erased": false, 
                "hidden": false, 
                "id": 17740, 
                "name": "Suport General2 - Decidim Barcelona", 
                "official": false, 
                "official_level": 0, 
                "role": null, 
                "verified_organization": null
            }, 
            "body": "<p><a href=\"https://decidim.barcelona/proposals/reforcament-de-la-gub-comunitaria\">https://decidim.barcelona/proposals/reforcament-de-la-gub-comunitaria</a></p>", 
            "commentable_id": 124, 
            "commentable_type": "Proposal", 
            "created_at": "13/04/2016 14:39:55", 
            "flagged": false, 
            "hidden": false, 
            "id": 14853, 
            "moderator_id": null, 
            "permissions": {
                "hide": false, 
                "hide_author": false, 
                "vote": false
            }, 
            "total_dislikes": 0, 
            "total_likes": 0, 
            "total_votes": 0
        }, 
        {
            "administrator_id": null, 
            "alignment": 0, 
            "ancestry": null, 
            "as": null, 
            "author": {
                "avatar_image": "https://decidim.barcelona/assets/avatar-866795c99abc33a3160d1f3fa93ada46eb75e54134e777666b9ed16215b26534.png", 
                "erased": false, 
                "hidden": false, 
                "id": 17740, 
                "name": "Suport General2 - Decidim Barcelona", 
                "official": false, 
                "official_level": 0, 
                "role": null, 
                "verified_organization": null
            }, 
            "body": "<p><a href=\"https://decidim.barcelona/proposals/cal-mes-vigilancia-guardia-urbana-al-carrer-per-augmentar-la-seguretat\">https://decidim.barcelona/proposals/cal-mes-vigilancia-guardia-urbana-al-carrer-per-augmentar-la-seguretat</a></p>", 
            "commentable_id": 124, 
            "commentable_type": "Proposal", 
            "created_at": "13/04/2016 14:46:32", 
            "flagged": false, 
            "hidden": false, 
            "id": 14855, 
            "moderator_id": null, 
            "permissions": {
                "hide": false, 
                "hide_author": false, 
                "vote": false
            }, 
            "total_dislikes": 0, 
            "total_likes": 0, 
            "total_votes": 0
        }, 
        {
            "administrator_id": null, 
            "alignment": 0, 
            "ancestry": null, 
            "as": null, 
            "author": {
                "avatar_image": "https://decidim.barcelona/assets/avatar-866795c99abc33a3160d1f3fa93ada46eb75e54134e777666b9ed16215b26534.png", 
                "erased": false, 
                "hidden": false, 
                "id": 17740, 
                "name": "Suport General2 - Decidim Barcelona", 
                "official": false, 
                "official_level": 0, 
                "role": null, 
                "verified_organization": null
            }, 
            "body": "<p><a href=\"https://decidim.barcelona/proposals/vigilancia-permanent-a-les-estacions-de-metro-de-sants-placa-catalunya-placa-espanya-etc\">https://decidim.barcelona/proposals/vigilancia-permanent-a-les-estacions-de-metro-de-sants-placa-catalunya-placa-espanya-etc</a></p>", 
            "commentable_id": 124, 
            "commentable_type": "Proposal", 
            "created_at": "13/04/2016 14:59:59", 
            "flagged": false, 
            "hidden": false, 
            "id": 14862, 
            "moderator_id": null, 
            "permissions": {
                "hide": false, 
                "hide_author": false, 
                "vote": false
            }, 
            "total_dislikes": 0, 
            "total_likes": 0, 
            "total_votes": 0
        }, 
        {
            "administrator_id": null, 
            "alignment": 0, 
            "ancestry": null, 
            "as": null, 
            "author": {
                "avatar_image": "https://decidim.barcelona/assets/avatar-866795c99abc33a3160d1f3fa93ada46eb75e54134e777666b9ed16215b26534.png", 
                "erased": false, 
                "hidden": false, 
                "id": 17740, 
                "name": "Suport General2 - Decidim Barcelona", 
                "official": false, 
                "official_level": 0, 
                "role": null, 
                "verified_organization": null
            }, 
            "body": "<p><a href=\"https://decidim.barcelona/proposals/vigilancia-permanent-de-dissuasio-amb-contacte-visual-al-llarg-de-totes-les-rambles\">https://decidim.barcelona/proposals/vigilancia-permanent-de-dissuasio-amb-contacte-visual-al-llarg-de-totes-les-rambles</a></p>", 
            "commentable_id": 124, 
            "commentable_type": "Proposal", 
            "created_at": "13/04/2016 15:02:20", 
            "flagged": false, 
            "hidden": false, 
            "id": 14863, 
            "moderator_id": null, 
            "permissions": {
                "hide": false, 
                "hide_author": false, 
                "vote": false
            }, 
            "total_dislikes": 0, 
            "total_likes": 0, 
            "total_votes": 0
        }, 
        {
            "administrator_id": null, 
            "alignment": 0, 
            "ancestry": null, 
            "as": null, 
            "author": {
                "avatar_image": "https://decidim.barcelona/assets/avatar-866795c99abc33a3160d1f3fa93ada46eb75e54134e777666b9ed16215b26534.png", 
                "erased": false, 
                "hidden": false, 
                "id": 17740, 
                "name": "Suport General2 - Decidim Barcelona", 
                "official": false, 
                "official_level": 0, 
                "role": null, 
                "verified_organization": null
            }, 
            "body": "<p><a href=\"https://decidim.barcelona/proposals/la-policia-ha-de-ciurcular-caminant-o-en-bici\">https://decidim.barcelona/proposals/la-policia-ha-de-ciurcular-caminant-o-en-bici</a></p>", 
            "commentable_id": 124, 
            "commentable_type": "Proposal", 
            "created_at": "13/04/2016 15:03:49", 
            "flagged": false, 
            "hidden": false, 
            "id": 14864, 
            "moderator_id": null, 
            "permissions": {
                "hide": false, 
                "hide_author": false, 
                "vote": false
            }, 
            "total_dislikes": 0, 
            "total_likes": 0, 
            "total_votes": 0
        }, 
        {
            "administrator_id": null, 
            "alignment": 0, 
            "ancestry": null, 
            "as": null, 
            "author": {
                "avatar_image": "https://decidim.barcelona/assets/avatar-866795c99abc33a3160d1f3fa93ada46eb75e54134e777666b9ed16215b26534.png", 
                "erased": false, 
                "hidden": false, 
                "id": 17740, 
                "name": "Suport General2 - Decidim Barcelona", 
                "official": false, 
                "official_level": 0, 
                "role": null, 
                "verified_organization": null
            }, 
            "body": "<p><a href=\"https://decidim.barcelona/proposals/fer-complir-les-ordenances\">https://decidim.barcelona/proposals/fer-complir-les-ordenances</a></p>", 
            "commentable_id": 124, 
            "commentable_type": "Proposal", 
            "created_at": "13/04/2016 15:05:02", 
            "flagged": false, 
            "hidden": false, 
            "id": 14866, 
            "moderator_id": null, 
            "permissions": {
                "hide": false, 
                "hide_author": false, 
                "vote": false
            }, 
            "total_dislikes": 0, 
            "total_likes": 0, 
            "total_votes": 0
        }, 
        {
            "administrator_id": null, 
            "alignment": 0, 
            "ancestry": null, 
            "as": null, 
            "author": {
                "avatar_image": "https://decidim.barcelona/assets/avatar-866795c99abc33a3160d1f3fa93ada46eb75e54134e777666b9ed16215b26534.png", 
                "erased": false, 
                "hidden": false, 
                "id": 17740, 
                "name": "Suport General2 - Decidim Barcelona", 
                "official": false, 
                "official_level": 0, 
                "role": null, 
                "verified_organization": null
            }, 
            "body": "<p><a href=\"https://decidim.barcelona/proposals/policia-de-barri-4724be00-c354-4445-b09d-047c78bfb434\">https://decidim.barcelona/proposals/policia-de-barri-4724be00-c354-4445-b09d-047c78bfb434</a></p>", 
            "commentable_id": 124, 
            "commentable_type": "Proposal", 
            "created_at": "13/04/2016 15:05:59", 
            "flagged": false, 
            "hidden": false, 
            "id": 14867, 
            "moderator_id": null, 
            "permissions": {
                "hide": false, 
                "hide_author": false, 
                "vote": false
            }, 
            "total_dislikes": 0, 
            "total_likes": 0, 
            "total_votes": 0
        }, 
        {
            "administrator_id": null, 
            "alignment": 0, 
            "ancestry": null, 
            "as": null, 
            "author": {
                "avatar_image": "https://decidim.barcelona/assets/avatar-866795c99abc33a3160d1f3fa93ada46eb75e54134e777666b9ed16215b26534.png", 
                "erased": false, 
                "hidden": false, 
                "id": 17740, 
                "name": "Suport General2 - Decidim Barcelona", 
                "official": false, 
                "official_level": 0, 
                "role": null, 
                "verified_organization": null
            }, 
            "body": "<p><a href=\"https://decidim.barcelona/proposals/augmentar-el-control-de-la-zona-d-oci-nocturn-de-ciutat-vella\">https://decidim.barcelona/proposals/augmentar-el-control-de-la-zona-d-oci-nocturn-de-ciutat-vella</a></p>", 
            "commentable_id": 124, 
            "commentable_type": "Proposal", 
            "created_at": "13/04/2016 15:46:05", 
            "flagged": false, 
            "hidden": false, 
            "id": 14873, 
            "moderator_id": null, 
            "permissions": {
                "hide": false, 
                "hide_author": false, 
                "vote": false
            }, 
            "total_dislikes": 0, 
            "total_likes": 0, 
            "total_votes": 0
        }, 
        {
            "administrator_id": null, 
            "alignment": 0, 
            "ancestry": null, 
            "as": null, 
            "author": {
                "avatar_image": "https://decidim.barcelona/assets/avatar-866795c99abc33a3160d1f3fa93ada46eb75e54134e777666b9ed16215b26534.png", 
                "erased": false, 
                "hidden": false, 
                "id": 17740, 
                "name": "Suport General2 - Decidim Barcelona", 
                "official": false, 
                "official_level": 0, 
                "role": null, 
                "verified_organization": null
            }, 
            "body": "<p><a href=\"https://decidim.barcelona/proposals/la-guaridia-urbana-ha-de-tornar-a-ser-una-policia-local-de-proximitat\">https://decidim.barcelona/proposals/la-guaridia-urbana-ha-de-tornar-a-ser-una-policia-local-de-proximitat</a></p>", 
            "commentable_id": 124, 
            "commentable_type": "Proposal", 
            "created_at": "13/04/2016 15:47:12", 
            "flagged": false, 
            "hidden": false, 
            "id": 14875, 
            "moderator_id": null, 
            "permissions": {
                "hide": false, 
                "hide_author": false, 
                "vote": false
            }, 
            "total_dislikes": 0, 
            "total_likes": 0, 
            "total_votes": 0
        }, 
        {
            "administrator_id": null, 
            "alignment": 0, 
            "ancestry": null, 
            "as": null, 
            "author": {
                "avatar_image": "https://decidim.barcelona/assets/avatar-866795c99abc33a3160d1f3fa93ada46eb75e54134e777666b9ed16215b26534.png", 
                "erased": false, 
                "hidden": false, 
                "id": 17740, 
                "name": "Suport General2 - Decidim Barcelona", 
                "official": false, 
                "official_level": 0, 
                "role": null, 
                "verified_organization": null
            }, 
            "body": "<p><a href=\"https://decidim.barcelona/proposals/recuperacio-dels-agents-de-proximitat-fent-actuacions-d-educacio-i-civisme-al-carrer\">https://decidim.barcelona/proposals/recuperacio-dels-agents-de-proximitat-fent-actuacions-d-educacio-i-civisme-al-carrer</a></p>", 
            "commentable_id": 124, 
            "commentable_type": "Proposal", 
            "created_at": "13/04/2016 15:50:25", 
            "flagged": false, 
            "hidden": false, 
            "id": 14876, 
            "moderator_id": null, 
            "permissions": {
                "hide": false, 
                "hide_author": false, 
                "vote": false
            }, 
            "total_dislikes": 0, 
            "total_likes": 0, 
            "total_votes": 0
        }, 
        {
            "administrator_id": null, 
            "alignment": 0, 
            "ancestry": null, 
            "as": null, 
            "author": {
                "avatar_image": "https://decidim.barcelona/assets/avatar-866795c99abc33a3160d1f3fa93ada46eb75e54134e777666b9ed16215b26534.png", 
                "erased": false, 
                "hidden": false, 
                "id": 17740, 
                "name": "Suport General2 - Decidim Barcelona", 
                "official": false, 
                "official_level": 0, 
                "role": null, 
                "verified_organization": null
            }, 
            "body": "<p><a href=\"https://decidim.barcelona/proposals/fer-mes-vigilancia-i-control-a-les-places\">https://decidim.barcelona/proposals/fer-mes-vigilancia-i-control-a-les-places</a></p>", 
            "commentable_id": 124, 
            "commentable_type": "Proposal", 
            "created_at": "13/04/2016 16:04:42", 
            "flagged": false, 
            "hidden": false, 
            "id": 14889, 
            "moderator_id": null, 
            "permissions": {
                "hide": false, 
                "hide_author": false, 
                "vote": false
            }, 
            "total_dislikes": 0, 
            "total_likes": 0, 
            "total_votes": 0
        }, 
        {
            "administrator_id": null, 
            "alignment": 0, 
            "ancestry": null, 
            "as": null, 
            "author": {
                "avatar_image": "https://decidim.barcelona/assets/avatar-866795c99abc33a3160d1f3fa93ada46eb75e54134e777666b9ed16215b26534.png", 
                "erased": false, 
                "hidden": false, 
                "id": 17740, 
                "name": "Suport General2 - Decidim Barcelona", 
                "official": false, 
                "official_level": 0, 
                "role": null, 
                "verified_organization": null
            }, 
            "body": "<p><a href=\"https://decidim.barcelona/proposals/augmentar-la-guardia-urbana\">https://decidim.barcelona/proposals/augmentar-la-guardia-urbana</a></p>", 
            "commentable_id": 124, 
            "commentable_type": "Proposal", 
            "created_at": "13/04/2016 16:07:29", 
            "flagged": false, 
            "hidden": false, 
            "id": 14891, 
            "moderator_id": null, 
            "permissions": {
                "hide": false, 
                "hide_author": false, 
                "vote": false
            }, 
            "total_dislikes": 0, 
            "total_likes": 0, 
            "total_votes": 0
        }, 
        {
            "administrator_id": null, 
            "alignment": 0, 
            "ancestry": null, 
            "as": null, 
            "author": {
                "avatar_image": "https://decidim.barcelona/assets/avatar-866795c99abc33a3160d1f3fa93ada46eb75e54134e777666b9ed16215b26534.png", 
                "erased": false, 
                "hidden": false, 
                "id": 17740, 
                "name": "Suport General2 - Decidim Barcelona", 
                "official": false, 
                "official_level": 0, 
                "role": null, 
                "verified_organization": null
            }, 
            "body": "<p><a href=\"https://decidim.barcelona/proposals/actuacio-policial-a-les-xarxes-trafic-drogues-al-mercat-boqueria\">https://decidim.barcelona/proposals/actuacio-policial-a-les-xarxes-trafic-drogues-al-mercat-boqueria</a></p>", 
            "commentable_id": 124, 
            "commentable_type": "Proposal", 
            "created_at": "13/04/2016 16:15:25", 
            "flagged": false, 
            "hidden": false, 
            "id": 14898, 
            "moderator_id": null, 
            "permissions": {
                "hide": false, 
                "hide_author": false, 
                "vote": false
            }, 
            "total_dislikes": 0, 
            "total_likes": 0, 
            "total_votes": 0
        }, 
        {
            "administrator_id": null, 
            "alignment": 0, 
            "ancestry": null, 
            "as": null, 
            "author": {
                "avatar_image": "https://decidim.barcelona/assets/avatar-866795c99abc33a3160d1f3fa93ada46eb75e54134e777666b9ed16215b26534.png", 
                "erased": false, 
                "hidden": false, 
                "id": 17740, 
                "name": "Suport General2 - Decidim Barcelona", 
                "official": false, 
                "official_level": 0, 
                "role": null, 
                "verified_organization": null
            }, 
            "body": "<p><a href=\"https://decidim.barcelona/proposals/augment-de-la-vigilancia-a-la-placa-terenci-moix\">https://decidim.barcelona/proposals/augment-de-la-vigilancia-a-la-placa-terenci-moix</a></p>", 
            "commentable_id": 124, 
            "commentable_type": "Proposal", 
            "created_at": "13/04/2016 16:16:19", 
            "flagged": false, 
            "hidden": false, 
            "id": 14899, 
            "moderator_id": null, 
            "permissions": {
                "hide": false, 
                "hide_author": false, 
                "vote": false
            }, 
            "total_dislikes": 0, 
            "total_likes": 0, 
            "total_votes": 0
        }
    ], 
    "meta": {
        "current_page": 1, 
        "next_page": 2, 
        "prev_page": null, 
        "total_count": 22, 
        "total_pages": 2
    }
}