{
    "comments": [
        {
            "administrator_id": null, 
            "alignment": 0, 
            "ancestry": null, 
            "as": null, 
            "author": {
                "avatar_image": "https://decidim.barcelona/assets/avatar-866795c99abc33a3160d1f3fa93ada46eb75e54134e777666b9ed16215b26534.png", 
                "erased": false, 
                "hidden": false, 
                "id": 9262, 
                "name": "Suport General - Decidim Barcelona", 
                "official": false, 
                "official_level": 0, 
                "role": null, 
                "verified_organization": null
            }, 
            "body": "<p><a href=\"https://decidim.barcelona/proposals/dinamitzacio-i-promocio-comercial-af922a4c-5287-4bce-b00d-a8868716e925\">https://decidim.barcelona/proposals/dinamitzacio-i-promocio-comercial-af922a4c-5287-4bce-b00d-a8868716e925</a></p>", 
            "commentable_id": 126, 
            "commentable_type": "Proposal", 
            "created_at": "11/04/2016 15:48:15", 
            "flagged": false, 
            "hidden": false, 
            "id": 12886, 
            "moderator_id": null, 
            "permissions": {
                "hide": false, 
                "hide_author": false, 
                "vote": false
            }, 
            "total_dislikes": 0, 
            "total_likes": 0, 
            "total_votes": 0
        }, 
        {
            "administrator_id": null, 
            "alignment": 0, 
            "ancestry": null, 
            "as": null, 
            "author": {
                "avatar_image": "https://decidim.barcelona/assets/avatar-866795c99abc33a3160d1f3fa93ada46eb75e54134e777666b9ed16215b26534.png", 
                "erased": false, 
                "hidden": false, 
                "id": 9262, 
                "name": "Suport General - Decidim Barcelona", 
                "official": false, 
                "official_level": 0, 
                "role": null, 
                "verified_organization": null
            }, 
            "body": "<p><a href=\"https://decidim.barcelona/proposals/dinamitzacio-de-l-economia-local-d0a56b4a-5364-4fa9-b494-b43b0f4bdbac\">https://decidim.barcelona/proposals/dinamitzacio-de-l-economia-local-d0a56b4a-5364-4fa9-b494-b43b0f4bdbac</a></p>", 
            "commentable_id": 126, 
            "commentable_type": "Proposal", 
            "created_at": "11/04/2016 15:48:36", 
            "flagged": false, 
            "hidden": false, 
            "id": 12888, 
            "moderator_id": null, 
            "permissions": {
                "hide": false, 
                "hide_author": false, 
                "vote": false
            }, 
            "total_dislikes": 0, 
            "total_likes": 0, 
            "total_votes": 0
        }, 
        {
            "administrator_id": null, 
            "alignment": 0, 
            "ancestry": null, 
            "as": null, 
            "author": {
                "avatar_image": "https://decidim.barcelona/assets/avatar-866795c99abc33a3160d1f3fa93ada46eb75e54134e777666b9ed16215b26534.png", 
                "erased": false, 
                "hidden": false, 
                "id": 9262, 
                "name": "Suport General - Decidim Barcelona", 
                "official": false, 
                "official_level": 0, 
                "role": null, 
                "verified_organization": null
            }, 
            "body": "<p><a href=\"https://decidim.barcelona/proposals/dinamitzacio-de-l-economia-local\">https://decidim.barcelona/proposals/dinamitzacio-de-l-economia-local</a></p>", 
            "commentable_id": 126, 
            "commentable_type": "Proposal", 
            "created_at": "11/04/2016 15:49:03", 
            "flagged": false, 
            "hidden": false, 
            "id": 12893, 
            "moderator_id": null, 
            "permissions": {
                "hide": false, 
                "hide_author": false, 
                "vote": false
            }, 
            "total_dislikes": 0, 
            "total_likes": 0, 
            "total_votes": 0
        }, 
        {
            "administrator_id": null, 
            "alignment": 0, 
            "ancestry": null, 
            "as": null, 
            "author": {
                "avatar_image": "https://decidim.barcelona/assets/avatar-866795c99abc33a3160d1f3fa93ada46eb75e54134e777666b9ed16215b26534.png", 
                "erased": false, 
                "hidden": false, 
                "id": 9262, 
                "name": "Suport General - Decidim Barcelona", 
                "official": false, 
                "official_level": 0, 
                "role": null, 
                "verified_organization": null
            }, 
            "body": "<p><a href=\"https://decidim.barcelona/proposals/promocio-de-la-contractacio-d-empreses-del-territori-197bf26e-47a3-4ee6-b0f5-d6db846e5e92\">https://decidim.barcelona/proposals/promocio-de-la-contractacio-d-empreses-del-territori-197bf26e-47a3-4ee6-b0f5-d6db846e5e92</a></p>", 
            "commentable_id": 126, 
            "commentable_type": "Proposal", 
            "created_at": "11/04/2016 15:49:17", 
            "flagged": false, 
            "hidden": false, 
            "id": 12895, 
            "moderator_id": null, 
            "permissions": {
                "hide": false, 
                "hide_author": false, 
                "vote": false
            }, 
            "total_dislikes": 0, 
            "total_likes": 0, 
            "total_votes": 0
        }, 
        {
            "administrator_id": null, 
            "alignment": 0, 
            "ancestry": null, 
            "as": null, 
            "author": {
                "avatar_image": "https://decidim.barcelona/assets/avatar-866795c99abc33a3160d1f3fa93ada46eb75e54134e777666b9ed16215b26534.png", 
                "erased": false, 
                "hidden": false, 
                "id": 9262, 
                "name": "Suport General - Decidim Barcelona", 
                "official": false, 
                "official_level": 0, 
                "role": null, 
                "verified_organization": null
            }, 
            "body": "<p><a href=\"https://decidim.barcelona/proposals/aplicar-clausules-de-proximitat-als-contractes-f96a6d68-a6f4-4d68-acbe-0e87513ff49e\">https://decidim.barcelona/proposals/aplicar-clausules-de-proximitat-als-contractes-f96a6d68-a6f4-4d68-acbe-0e87513ff49e</a></p>", 
            "commentable_id": 126, 
            "commentable_type": "Proposal", 
            "created_at": "11/04/2016 15:49:28", 
            "flagged": false, 
            "hidden": false, 
            "id": 12896, 
            "moderator_id": null, 
            "permissions": {
                "hide": false, 
                "hide_author": false, 
                "vote": false
            }, 
            "total_dislikes": 0, 
            "total_likes": 0, 
            "total_votes": 0
        }, 
        {
            "administrator_id": null, 
            "alignment": 0, 
            "ancestry": null, 
            "as": null, 
            "author": {
                "avatar_image": "https://decidim.barcelona/assets/avatar-866795c99abc33a3160d1f3fa93ada46eb75e54134e777666b9ed16215b26534.png", 
                "erased": false, 
                "hidden": false, 
                "id": 9262, 
                "name": "Suport General - Decidim Barcelona", 
                "official": false, 
                "official_level": 0, 
                "role": null, 
                "verified_organization": null
            }, 
            "body": "<p><a href=\"https://decidim.barcelona/proposals/millorar-la-formacio-i-recuperacio-dels-oficis-vinculats-amb-el-mar\">https://decidim.barcelona/proposals/millorar-la-formacio-i-recuperacio-dels-oficis-vinculats-amb-el-mar</a></p>", 
            "commentable_id": 126, 
            "commentable_type": "Proposal", 
            "created_at": "11/04/2016 15:49:38", 
            "flagged": false, 
            "hidden": false, 
            "id": 12897, 
            "moderator_id": null, 
            "permissions": {
                "hide": false, 
                "hide_author": false, 
                "vote": false
            }, 
            "total_dislikes": 0, 
            "total_likes": 0, 
            "total_votes": 0
        }, 
        {
            "administrator_id": null, 
            "alignment": 0, 
            "ancestry": null, 
            "as": null, 
            "author": {
                "avatar_image": "https://decidim.barcelona/assets/avatar-866795c99abc33a3160d1f3fa93ada46eb75e54134e777666b9ed16215b26534.png", 
                "erased": false, 
                "hidden": false, 
                "id": 9262, 
                "name": "Suport General - Decidim Barcelona", 
                "official": false, 
                "official_level": 0, 
                "role": null, 
                "verified_organization": null
            }, 
            "body": "<p><a href=\"https://decidim.barcelona/proposals/compra-i-contractacio-de-serveis-km0\">https://decidim.barcelona/proposals/compra-i-contractacio-de-serveis-km0</a></p>", 
            "commentable_id": 126, 
            "commentable_type": "Proposal", 
            "created_at": "11/04/2016 15:53:25", 
            "flagged": false, 
            "hidden": false, 
            "id": 12904, 
            "moderator_id": null, 
            "permissions": {
                "hide": false, 
                "hide_author": false, 
                "vote": false
            }, 
            "total_dislikes": 0, 
            "total_likes": 0, 
            "total_votes": 0
        }, 
        {
            "administrator_id": null, 
            "alignment": 0, 
            "ancestry": null, 
            "as": null, 
            "author": {
                "avatar_image": "https://decidim.barcelona/assets/avatar-866795c99abc33a3160d1f3fa93ada46eb75e54134e777666b9ed16215b26534.png", 
                "erased": false, 
                "hidden": false, 
                "id": 9262, 
                "name": "Suport General - Decidim Barcelona", 
                "official": false, 
                "official_level": 0, 
                "role": null, 
                "verified_organization": null
            }, 
            "body": "<p><a href=\"https://decidim.barcelona/proposals/protegir-els-comercos-emblematics-de-ciutat-vella\">https://decidim.barcelona/proposals/protegir-els-comercos-emblematics-de-ciutat-vella</a></p>", 
            "commentable_id": 126, 
            "commentable_type": "Proposal", 
            "created_at": "11/04/2016 15:53:44", 
            "flagged": false, 
            "hidden": false, 
            "id": 12905, 
            "moderator_id": null, 
            "permissions": {
                "hide": false, 
                "hide_author": false, 
                "vote": false
            }, 
            "total_dislikes": 0, 
            "total_likes": 0, 
            "total_votes": 0
        }, 
        {
            "administrator_id": null, 
            "alignment": 0, 
            "ancestry": null, 
            "as": null, 
            "author": {
                "avatar_image": "https://decidim.barcelona/assets/avatar-866795c99abc33a3160d1f3fa93ada46eb75e54134e777666b9ed16215b26534.png", 
                "erased": false, 
                "hidden": false, 
                "id": 9262, 
                "name": "Suport General - Decidim Barcelona", 
                "official": false, 
                "official_level": 0, 
                "role": null, 
                "verified_organization": null
            }, 
            "body": "<p><a href=\"https://decidim.barcelona/proposals/elaborar-un-pla-de-proteccio-dels-comercos-tradicionals-i-emblematics-del-barri-del-raval\">https://decidim.barcelona/proposals/elaborar-un-pla-de-proteccio-dels-comercos-tradicionals-i-emblematics-del-barri-del-raval</a></p>", 
            "commentable_id": 126, 
            "commentable_type": "Proposal", 
            "created_at": "11/04/2016 15:55:21", 
            "flagged": false, 
            "hidden": false, 
            "id": 12910, 
            "moderator_id": null, 
            "permissions": {
                "hide": false, 
                "hide_author": false, 
                "vote": false
            }, 
            "total_dislikes": 0, 
            "total_likes": 0, 
            "total_votes": 0
        }, 
        {
            "administrator_id": null, 
            "alignment": 0, 
            "ancestry": null, 
            "as": null, 
            "author": {
                "avatar_image": "https://decidim.barcelona/assets/avatar-866795c99abc33a3160d1f3fa93ada46eb75e54134e777666b9ed16215b26534.png", 
                "erased": false, 
                "hidden": false, 
                "id": 9262, 
                "name": "Suport General - Decidim Barcelona", 
                "official": false, 
                "official_level": 0, 
                "role": null, 
                "verified_organization": null
            }, 
            "body": "<p><a href=\"https://decidim.barcelona/proposals/no-al-cierre-de-la-tienda-mitica-el-ingenio-de-1838\">https://decidim.barcelona/proposals/no-al-cierre-de-la-tienda-mitica-el-ingenio-de-1838</a></p>", 
            "commentable_id": 126, 
            "commentable_type": "Proposal", 
            "created_at": "11/04/2016 15:58:55", 
            "flagged": false, 
            "hidden": false, 
            "id": 12919, 
            "moderator_id": null, 
            "permissions": {
                "hide": false, 
                "hide_author": false, 
                "vote": false
            }, 
            "total_dislikes": 0, 
            "total_likes": 0, 
            "total_votes": 0
        }, 
        {
            "administrator_id": null, 
            "alignment": 0, 
            "ancestry": null, 
            "as": null, 
            "author": {
                "avatar_image": "https://decidim.barcelona/assets/avatar-866795c99abc33a3160d1f3fa93ada46eb75e54134e777666b9ed16215b26534.png", 
                "erased": false, 
                "hidden": false, 
                "id": 9262, 
                "name": "Suport General - Decidim Barcelona", 
                "official": false, 
                "official_level": 0, 
                "role": null, 
                "verified_organization": null
            }, 
            "body": "<p><a href=\"https://decidim.barcelona/proposals/fer-un-kit-de-benvinguda-per-les-empreses-que-s-instal-len-al-barri-i-fer-un-acompanyament-a-les-empreses-i-comerc\">https://decidim.barcelona/proposals/fer-un-kit-de-benvinguda-per-les-empreses-que-s-instal-len-al-barri-i-fer-un-acompanyament-a-les-empreses-i-comerc</a>\n</p>", 
            "commentable_id": 126, 
            "commentable_type": "Proposal", 
            "created_at": "12/04/2016 18:01:53", 
            "flagged": false, 
            "hidden": false, 
            "id": 14067, 
            "moderator_id": null, 
            "permissions": {
                "hide": false, 
                "hide_author": false, 
                "vote": false
            }, 
            "total_dislikes": 0, 
            "total_likes": 0, 
            "total_votes": 0
        }, 
        {
            "administrator_id": null, 
            "alignment": 0, 
            "ancestry": null, 
            "as": null, 
            "author": {
                "avatar_image": "https://decidim.barcelona/assets/avatar-866795c99abc33a3160d1f3fa93ada46eb75e54134e777666b9ed16215b26534.png", 
                "erased": false, 
                "hidden": false, 
                "id": 9262, 
                "name": "Suport General - Decidim Barcelona", 
                "official": false, 
                "official_level": 0, 
                "role": null, 
                "verified_organization": null
            }, 
            "body": "<p><a href=\"https://decidim.barcelona/proposals/regular-el-comerc-al-barri-gotic\">https://decidim.barcelona/proposals/regular-el-comerc-al-barri-gotic</a></p>", 
            "commentable_id": 126, 
            "commentable_type": "Proposal", 
            "created_at": "13/04/2016 15:41:48", 
            "flagged": false, 
            "hidden": false, 
            "id": 14872, 
            "moderator_id": null, 
            "permissions": {
                "hide": false, 
                "hide_author": false, 
                "vote": false
            }, 
            "total_dislikes": 0, 
            "total_likes": 0, 
            "total_votes": 0
        }
    ], 
    "meta": {
        "current_page": 2, 
        "next_page": null, 
        "prev_page": 1, 
        "total_count": 32, 
        "total_pages": 2
    }
}