{
    "comments": [
        {
            "administrator_id": null, 
            "alignment": 0, 
            "ancestry": null, 
            "as": null, 
            "author": {
                "avatar_image": "https://decidim.barcelona/assets/avatar-866795c99abc33a3160d1f3fa93ada46eb75e54134e777666b9ed16215b26534.png", 
                "erased": false, 
                "hidden": false, 
                "id": 17740, 
                "name": "Suport General2 - Decidim Barcelona", 
                "official": false, 
                "official_level": 0, 
                "role": null, 
                "verified_organization": null
            }, 
            "body": "<p><a href=\"https://decidim.barcelona/proposals/manters\">https://decidim.barcelona/proposals/manters</a></p>", 
            "commentable_id": 126, 
            "commentable_type": "Proposal", 
            "created_at": "06/04/2016 18:06:45", 
            "flagged": false, 
            "hidden": false, 
            "id": 8793, 
            "moderator_id": null, 
            "permissions": {
                "hide": false, 
                "hide_author": false, 
                "vote": false
            }, 
            "total_dislikes": 0, 
            "total_likes": 0, 
            "total_votes": 0
        }, 
        {
            "administrator_id": null, 
            "alignment": 0, 
            "ancestry": null, 
            "as": null, 
            "author": {
                "avatar_image": "https://decidim.barcelona/assets/avatar-866795c99abc33a3160d1f3fa93ada46eb75e54134e777666b9ed16215b26534.png", 
                "erased": false, 
                "hidden": false, 
                "id": 9262, 
                "name": "Suport General - Decidim Barcelona", 
                "official": false, 
                "official_level": 0, 
                "role": null, 
                "verified_organization": null
            }, 
            "body": "<p><a href=\"https://decidim.barcelona/proposals/donar-suport-en-l-us-comercial-dels-locals-buits\">https://decidim.barcelona/proposals/donar-suport-en-l-us-comercial-dels-locals-buits</a></p>", 
            "commentable_id": 126, 
            "commentable_type": "Proposal", 
            "created_at": "11/04/2016 15:31:27", 
            "flagged": false, 
            "hidden": false, 
            "id": 12826, 
            "moderator_id": null, 
            "permissions": {
                "hide": false, 
                "hide_author": false, 
                "vote": false
            }, 
            "total_dislikes": 0, 
            "total_likes": 0, 
            "total_votes": 0
        }, 
        {
            "administrator_id": null, 
            "alignment": 0, 
            "ancestry": null, 
            "as": null, 
            "author": {
                "avatar_image": "https://decidim.barcelona/assets/avatar-866795c99abc33a3160d1f3fa93ada46eb75e54134e777666b9ed16215b26534.png", 
                "erased": false, 
                "hidden": false, 
                "id": 9262, 
                "name": "Suport General - Decidim Barcelona", 
                "official": false, 
                "official_level": 0, 
                "role": null, 
                "verified_organization": null
            }, 
            "body": "<p><a href=\"https://decidim.barcelona/proposals/cuidar-els-comercos-i-negocis-locals-per-evitar-que-desapareguin\">https://decidim.barcelona/proposals/cuidar-els-comercos-i-negocis-locals-per-evitar-que-desapareguin</a></p>", 
            "commentable_id": 126, 
            "commentable_type": "Proposal", 
            "created_at": "11/04/2016 15:33:19", 
            "flagged": false, 
            "hidden": false, 
            "id": 12828, 
            "moderator_id": null, 
            "permissions": {
                "hide": false, 
                "hide_author": false, 
                "vote": false
            }, 
            "total_dislikes": 0, 
            "total_likes": 0, 
            "total_votes": 0
        }, 
        {
            "administrator_id": null, 
            "alignment": 0, 
            "ancestry": null, 
            "as": null, 
            "author": {
                "avatar_image": "https://decidim.barcelona/assets/avatar-866795c99abc33a3160d1f3fa93ada46eb75e54134e777666b9ed16215b26534.png", 
                "erased": false, 
                "hidden": false, 
                "id": 9262, 
                "name": "Suport General - Decidim Barcelona", 
                "official": false, 
                "official_level": 0, 
                "role": null, 
                "verified_organization": null
            }, 
            "body": "<p><a href=\"https://decidim.barcelona/proposals/promoure-una-reglamentacio-especifica-dels-usos-comercials-dels-edificis-de-zones-historiques-i-emblematiques\">https://decidim.barcelona/proposals/promoure-una-reglamentacio-especifica-dels-usos-comercials-dels-edificis-de-zones-historiques-i-emblematiques</a></p>", 
            "commentable_id": 126, 
            "commentable_type": "Proposal", 
            "created_at": "11/04/2016 15:34:35", 
            "flagged": false, 
            "hidden": false, 
            "id": 12831, 
            "moderator_id": null, 
            "permissions": {
                "hide": false, 
                "hide_author": false, 
                "vote": false
            }, 
            "total_dislikes": 0, 
            "total_likes": 0, 
            "total_votes": 0
        }, 
        {
            "administrator_id": null, 
            "alignment": 0, 
            "ancestry": null, 
            "as": null, 
            "author": {
                "avatar_image": "https://decidim.barcelona/assets/avatar-866795c99abc33a3160d1f3fa93ada46eb75e54134e777666b9ed16215b26534.png", 
                "erased": false, 
                "hidden": false, 
                "id": 9262, 
                "name": "Suport General - Decidim Barcelona", 
                "official": false, 
                "official_level": 0, 
                "role": null, 
                "verified_organization": null
            }, 
            "body": "<p><a href=\"https://decidim.barcelona/proposals/tenir-cura-de-l-entorn-dels-barris-per-afavorir-el-comerc\">https://decidim.barcelona/proposals/tenir-cura-de-l-entorn-dels-barris-per-afavorir-el-comerc</a></p>", 
            "commentable_id": 126, 
            "commentable_type": "Proposal", 
            "created_at": "11/04/2016 15:34:55", 
            "flagged": false, 
            "hidden": false, 
            "id": 12833, 
            "moderator_id": null, 
            "permissions": {
                "hide": false, 
                "hide_author": false, 
                "vote": false
            }, 
            "total_dislikes": 0, 
            "total_likes": 0, 
            "total_votes": 0
        }, 
        {
            "administrator_id": null, 
            "alignment": 0, 
            "ancestry": null, 
            "as": null, 
            "author": {
                "avatar_image": "https://decidim.barcelona/assets/avatar-866795c99abc33a3160d1f3fa93ada46eb75e54134e777666b9ed16215b26534.png", 
                "erased": false, 
                "hidden": false, 
                "id": 9262, 
                "name": "Suport General - Decidim Barcelona", 
                "official": false, 
                "official_level": 0, 
                "role": null, 
                "verified_organization": null
            }, 
            "body": "<p><a href=\"https://decidim.barcelona/proposals/plantejar-quin-model-economic-vol-la-ciutat-del-barri-del-raval\">https://decidim.barcelona/proposals/plantejar-quin-model-economic-vol-la-ciutat-del-barri-del-raval</a></p>", 
            "commentable_id": 126, 
            "commentable_type": "Proposal", 
            "created_at": "11/04/2016 15:35:50", 
            "flagged": false, 
            "hidden": false, 
            "id": 12835, 
            "moderator_id": null, 
            "permissions": {
                "hide": false, 
                "hide_author": false, 
                "vote": false
            }, 
            "total_dislikes": 0, 
            "total_likes": 0, 
            "total_votes": 0
        }, 
        {
            "administrator_id": null, 
            "alignment": 0, 
            "ancestry": null, 
            "as": null, 
            "author": {
                "avatar_image": "https://decidim.barcelona/assets/avatar-866795c99abc33a3160d1f3fa93ada46eb75e54134e777666b9ed16215b26534.png", 
                "erased": false, 
                "hidden": false, 
                "id": 9262, 
                "name": "Suport General - Decidim Barcelona", 
                "official": false, 
                "official_level": 0, 
                "role": null, 
                "verified_organization": null
            }, 
            "body": "<p><a href=\"https://decidim.barcelona/proposals/revisar-l-impost-de-residus-pels-comercos\">https://decidim.barcelona/proposals/revisar-l-impost-de-residus-pels-comercos</a></p>", 
            "commentable_id": 126, 
            "commentable_type": "Proposal", 
            "created_at": "11/04/2016 15:36:28", 
            "flagged": false, 
            "hidden": false, 
            "id": 12836, 
            "moderator_id": null, 
            "permissions": {
                "hide": false, 
                "hide_author": false, 
                "vote": false
            }, 
            "total_dislikes": 0, 
            "total_likes": 0, 
            "total_votes": 0
        }, 
        {
            "administrator_id": null, 
            "alignment": 0, 
            "ancestry": null, 
            "as": null, 
            "author": {
                "avatar_image": "https://decidim.barcelona/assets/avatar-866795c99abc33a3160d1f3fa93ada46eb75e54134e777666b9ed16215b26534.png", 
                "erased": false, 
                "hidden": false, 
                "id": 9262, 
                "name": "Suport General - Decidim Barcelona", 
                "official": false, 
                "official_level": 0, 
                "role": null, 
                "verified_organization": null
            }, 
            "body": "<p><a href=\"https://decidim.barcelona/proposals/crear-una-web-on-apareguin-tots-els-comercos-del-barri-gotic\">https://decidim.barcelona/proposals/crear-una-web-on-apareguin-tots-els-comercos-del-barri-gotic</a></p>", 
            "commentable_id": 126, 
            "commentable_type": "Proposal", 
            "created_at": "11/04/2016 15:38:09", 
            "flagged": false, 
            "hidden": false, 
            "id": 12842, 
            "moderator_id": null, 
            "permissions": {
                "hide": false, 
                "hide_author": false, 
                "vote": false
            }, 
            "total_dislikes": 0, 
            "total_likes": 0, 
            "total_votes": 0
        }, 
        {
            "administrator_id": null, 
            "alignment": 0, 
            "ancestry": null, 
            "as": null, 
            "author": {
                "avatar_image": "https://decidim.barcelona/assets/avatar-866795c99abc33a3160d1f3fa93ada46eb75e54134e777666b9ed16215b26534.png", 
                "erased": false, 
                "hidden": false, 
                "id": 9262, 
                "name": "Suport General - Decidim Barcelona", 
                "official": false, 
                "official_level": 0, 
                "role": null, 
                "verified_organization": null
            }, 
            "body": "<p><a href=\"https://decidim.barcelona/proposals/tecnic-de-suport-a-les-associacions-de-comerciants\">https://decidim.barcelona/proposals/tecnic-de-suport-a-les-associacions-de-comerciants</a></p>", 
            "commentable_id": 126, 
            "commentable_type": "Proposal", 
            "created_at": "11/04/2016 15:40:07", 
            "flagged": false, 
            "hidden": false, 
            "id": 12850, 
            "moderator_id": null, 
            "permissions": {
                "hide": false, 
                "hide_author": false, 
                "vote": false
            }, 
            "total_dislikes": 0, 
            "total_likes": 0, 
            "total_votes": 0
        }, 
        {
            "administrator_id": null, 
            "alignment": 0, 
            "ancestry": null, 
            "as": null, 
            "author": {
                "avatar_image": "https://decidim.barcelona/assets/avatar-866795c99abc33a3160d1f3fa93ada46eb75e54134e777666b9ed16215b26534.png", 
                "erased": false, 
                "hidden": false, 
                "id": 9262, 
                "name": "Suport General - Decidim Barcelona", 
                "official": false, 
                "official_level": 0, 
                "role": null, 
                "verified_organization": null
            }, 
            "body": "<p><a href=\"https://decidim.barcelona/proposals/promoure-l-ocupacio-amb-persones-desocupades-de-la-zona\">https://decidim.barcelona/proposals/promoure-l-ocupacio-amb-persones-desocupades-de-la-zona</a></p>", 
            "commentable_id": 126, 
            "commentable_type": "Proposal", 
            "created_at": "11/04/2016 15:40:22", 
            "flagged": false, 
            "hidden": false, 
            "id": 12851, 
            "moderator_id": null, 
            "permissions": {
                "hide": false, 
                "hide_author": false, 
                "vote": false
            }, 
            "total_dislikes": 0, 
            "total_likes": 0, 
            "total_votes": 0
        }, 
        {
            "administrator_id": null, 
            "alignment": 0, 
            "ancestry": null, 
            "as": null, 
            "author": {
                "avatar_image": "https://decidim.barcelona/assets/avatar-866795c99abc33a3160d1f3fa93ada46eb75e54134e777666b9ed16215b26534.png", 
                "erased": false, 
                "hidden": false, 
                "id": 9262, 
                "name": "Suport General - Decidim Barcelona", 
                "official": false, 
                "official_level": 0, 
                "role": null, 
                "verified_organization": null
            }, 
            "body": "<p><a href=\"https://decidim.barcelona/proposals/cercar-sinergies-entre-els-comercos-del-barri-i-la-seva-xarxa-laboral\">https://decidim.barcelona/proposals/cercar-sinergies-entre-els-comercos-del-barri-i-la-seva-xarxa-laboral</a></p>", 
            "commentable_id": 126, 
            "commentable_type": "Proposal", 
            "created_at": "11/04/2016 15:40:36", 
            "flagged": false, 
            "hidden": false, 
            "id": 12852, 
            "moderator_id": null, 
            "permissions": {
                "hide": false, 
                "hide_author": false, 
                "vote": false
            }, 
            "total_dislikes": 0, 
            "total_likes": 0, 
            "total_votes": 0
        }, 
        {
            "administrator_id": null, 
            "alignment": 0, 
            "ancestry": null, 
            "as": null, 
            "author": {
                "avatar_image": "https://decidim.barcelona/assets/avatar-866795c99abc33a3160d1f3fa93ada46eb75e54134e777666b9ed16215b26534.png", 
                "erased": false, 
                "hidden": false, 
                "id": 9262, 
                "name": "Suport General - Decidim Barcelona", 
                "official": false, 
                "official_level": 0, 
                "role": null, 
                "verified_organization": null
            }, 
            "body": "<p><a href=\"https://decidim.barcelona/proposals/mes-botigues-de-roba-al-barri-de-la-barceloneta\">https://decidim.barcelona/proposals/mes-botigues-de-roba-al-barri-de-la-barceloneta</a></p>", 
            "commentable_id": 126, 
            "commentable_type": "Proposal", 
            "created_at": "11/04/2016 15:41:45", 
            "flagged": false, 
            "hidden": false, 
            "id": 12853, 
            "moderator_id": null, 
            "permissions": {
                "hide": false, 
                "hide_author": false, 
                "vote": false
            }, 
            "total_dislikes": 0, 
            "total_likes": 0, 
            "total_votes": 0
        }, 
        {
            "administrator_id": null, 
            "alignment": 0, 
            "ancestry": null, 
            "as": null, 
            "author": {
                "avatar_image": "https://decidim.barcelona/assets/avatar-866795c99abc33a3160d1f3fa93ada46eb75e54134e777666b9ed16215b26534.png", 
                "erased": false, 
                "hidden": false, 
                "id": 9262, 
                "name": "Suport General - Decidim Barcelona", 
                "official": false, 
                "official_level": 0, 
                "role": null, 
                "verified_organization": null
            }, 
            "body": "<p><a href=\"https://decidim.barcelona/proposals/millorar-la-formacio-i-recuperacio-dels-oficis-vinculats-amb-el-mar-dc4c2da1-ad18-4662-aaef-e8ac67909dac\">https://decidim.barcelona/proposals/millorar-la-formacio-i-recuperacio-dels-oficis-vinculats-amb-el-mar-dc4c2da1-ad18-4662-aaef-e8ac67909dac</a></p>", 
            "commentable_id": 126, 
            "commentable_type": "Proposal", 
            "created_at": "11/04/2016 15:45:07", 
            "flagged": false, 
            "hidden": false, 
            "id": 12867, 
            "moderator_id": null, 
            "permissions": {
                "hide": false, 
                "hide_author": false, 
                "vote": false
            }, 
            "total_dislikes": 0, 
            "total_likes": 0, 
            "total_votes": 0
        }, 
        {
            "administrator_id": null, 
            "alignment": 0, 
            "ancestry": null, 
            "as": null, 
            "author": {
                "avatar_image": "https://decidim.barcelona/assets/avatar-866795c99abc33a3160d1f3fa93ada46eb75e54134e777666b9ed16215b26534.png", 
                "erased": false, 
                "hidden": false, 
                "id": 9262, 
                "name": "Suport General - Decidim Barcelona", 
                "official": false, 
                "official_level": 0, 
                "role": null, 
                "verified_organization": null
            }, 
            "body": "<p><a href=\"https://decidim.barcelona/proposals/pla-director-de-promocio-economica-ae50440c-f5f9-47ee-bc1e-1f2e16e1c914\">https://decidim.barcelona/proposals/pla-director-de-promocio-economica-ae50440c-f5f9-47ee-bc1e-1f2e16e1c914</a></p>", 
            "commentable_id": 126, 
            "commentable_type": "Proposal", 
            "created_at": "11/04/2016 15:45:21", 
            "flagged": false, 
            "hidden": false, 
            "id": 12870, 
            "moderator_id": null, 
            "permissions": {
                "hide": false, 
                "hide_author": false, 
                "vote": false
            }, 
            "total_dislikes": 0, 
            "total_likes": 0, 
            "total_votes": 0
        }, 
        {
            "administrator_id": null, 
            "alignment": 0, 
            "ancestry": null, 
            "as": null, 
            "author": {
                "avatar_image": "https://decidim.barcelona/assets/avatar-866795c99abc33a3160d1f3fa93ada46eb75e54134e777666b9ed16215b26534.png", 
                "erased": false, 
                "hidden": false, 
                "id": 9262, 
                "name": "Suport General - Decidim Barcelona", 
                "official": false, 
                "official_level": 0, 
                "role": null, 
                "verified_organization": null
            }, 
            "body": "<p><a href=\"https://decidim.barcelona/proposals/promoure-el-comerc-de-proximitat-als-comerciants-d-origen-divers\">https://decidim.barcelona/proposals/promoure-el-comerc-de-proximitat-als-comerciants-d-origen-divers</a></p>", 
            "commentable_id": 126, 
            "commentable_type": "Proposal", 
            "created_at": "11/04/2016 15:45:31", 
            "flagged": false, 
            "hidden": false, 
            "id": 12871, 
            "moderator_id": null, 
            "permissions": {
                "hide": false, 
                "hide_author": false, 
                "vote": false
            }, 
            "total_dislikes": 0, 
            "total_likes": 0, 
            "total_votes": 0
        }, 
        {
            "administrator_id": null, 
            "alignment": 0, 
            "ancestry": null, 
            "as": null, 
            "author": {
                "avatar_image": "https://decidim.barcelona/assets/avatar-866795c99abc33a3160d1f3fa93ada46eb75e54134e777666b9ed16215b26534.png", 
                "erased": false, 
                "hidden": false, 
                "id": 9262, 
                "name": "Suport General - Decidim Barcelona", 
                "official": false, 
                "official_level": 0, 
                "role": null, 
                "verified_organization": null
            }, 
            "body": "<p><a href=\"https://decidim.barcelona/proposals/promocio-de-la-contractacio-d-empreses-del-territori-05d00e2e-c4a4-451e-aa2d-22682a3dd273\">https://decidim.barcelona/proposals/promocio-de-la-contractacio-d-empreses-del-territori-05d00e2e-c4a4-451e-aa2d-22682a3dd273</a></p>", 
            "commentable_id": 126, 
            "commentable_type": "Proposal", 
            "created_at": "11/04/2016 15:46:02", 
            "flagged": false, 
            "hidden": false, 
            "id": 12875, 
            "moderator_id": null, 
            "permissions": {
                "hide": false, 
                "hide_author": false, 
                "vote": false
            }, 
            "total_dislikes": 0, 
            "total_likes": 0, 
            "total_votes": 0
        }, 
        {
            "administrator_id": null, 
            "alignment": 0, 
            "ancestry": null, 
            "as": null, 
            "author": {
                "avatar_image": "https://decidim.barcelona/assets/avatar-866795c99abc33a3160d1f3fa93ada46eb75e54134e777666b9ed16215b26534.png", 
                "erased": false, 
                "hidden": false, 
                "id": 9262, 
                "name": "Suport General - Decidim Barcelona", 
                "official": false, 
                "official_level": 0, 
                "role": null, 
                "verified_organization": null
            }, 
            "body": "<p><a href=\"https://decidim.barcelona/proposals/dinamitzacio-i-promocio-comercial\">https://decidim.barcelona/proposals/dinamitzacio-i-promocio-comercial</a></p>", 
            "commentable_id": 126, 
            "commentable_type": "Proposal", 
            "created_at": "11/04/2016 15:46:26", 
            "flagged": false, 
            "hidden": false, 
            "id": 12876, 
            "moderator_id": null, 
            "permissions": {
                "hide": false, 
                "hide_author": false, 
                "vote": false
            }, 
            "total_dislikes": 0, 
            "total_likes": 0, 
            "total_votes": 0
        }, 
        {
            "administrator_id": null, 
            "alignment": 0, 
            "ancestry": null, 
            "as": null, 
            "author": {
                "avatar_image": "https://decidim.barcelona/assets/avatar-866795c99abc33a3160d1f3fa93ada46eb75e54134e777666b9ed16215b26534.png", 
                "erased": false, 
                "hidden": false, 
                "id": 9262, 
                "name": "Suport General - Decidim Barcelona", 
                "official": false, 
                "official_level": 0, 
                "role": null, 
                "verified_organization": null
            }, 
            "body": "<p><a href=\"https://decidim.barcelona/proposals/dinamitzacio-i-promocio-comercial-17578d06-5416-428f-bde1-2933cec63e13\">https://decidim.barcelona/proposals/dinamitzacio-i-promocio-comercial-17578d06-5416-428f-bde1-2933cec63e13</a></p>", 
            "commentable_id": 126, 
            "commentable_type": "Proposal", 
            "created_at": "11/04/2016 15:46:41", 
            "flagged": false, 
            "hidden": false, 
            "id": 12878, 
            "moderator_id": null, 
            "permissions": {
                "hide": false, 
                "hide_author": false, 
                "vote": false
            }, 
            "total_dislikes": 0, 
            "total_likes": 0, 
            "total_votes": 0
        }, 
        {
            "administrator_id": null, 
            "alignment": 0, 
            "ancestry": null, 
            "as": null, 
            "author": {
                "avatar_image": "https://decidim.barcelona/assets/avatar-866795c99abc33a3160d1f3fa93ada46eb75e54134e777666b9ed16215b26534.png", 
                "erased": false, 
                "hidden": false, 
                "id": 9262, 
                "name": "Suport General - Decidim Barcelona", 
                "official": false, 
                "official_level": 0, 
                "role": null, 
                "verified_organization": null
            }, 
            "body": "<p><a href=\"https://decidim.barcelona/proposals/dinamitzacio-i-promocio-comercial-560ecd74-49e6-46f8-88b0-1890c3ec09d5\">https://decidim.barcelona/proposals/dinamitzacio-i-promocio-comercial-560ecd74-49e6-46f8-88b0-1890c3ec09d5</a></p>", 
            "commentable_id": 126, 
            "commentable_type": "Proposal", 
            "created_at": "11/04/2016 15:47:08", 
            "flagged": false, 
            "hidden": false, 
            "id": 12881, 
            "moderator_id": null, 
            "permissions": {
                "hide": false, 
                "hide_author": false, 
                "vote": false
            }, 
            "total_dislikes": 0, 
            "total_likes": 0, 
            "total_votes": 0
        }, 
        {
            "administrator_id": null, 
            "alignment": 0, 
            "ancestry": null, 
            "as": null, 
            "author": {
                "avatar_image": "https://decidim.barcelona/assets/avatar-866795c99abc33a3160d1f3fa93ada46eb75e54134e777666b9ed16215b26534.png", 
                "erased": false, 
                "hidden": false, 
                "id": 9262, 
                "name": "Suport General - Decidim Barcelona", 
                "official": false, 
                "official_level": 0, 
                "role": null, 
                "verified_organization": null
            }, 
            "body": "<p><a href=\"https://decidim.barcelona/proposals/aplicar-clausules-de-proximitat-als-contractes\">https://decidim.barcelona/proposals/aplicar-clausules-de-proximitat-als-contractes</a></p>", 
            "commentable_id": 126, 
            "commentable_type": "Proposal", 
            "created_at": "11/04/2016 15:47:35", 
            "flagged": false, 
            "hidden": false, 
            "id": 12883, 
            "moderator_id": null, 
            "permissions": {
                "hide": false, 
                "hide_author": false, 
                "vote": false
            }, 
            "total_dislikes": 0, 
            "total_likes": 0, 
            "total_votes": 0
        }
    ], 
    "meta": {
        "current_page": 1, 
        "next_page": 2, 
        "prev_page": null, 
        "total_count": 32, 
        "total_pages": 2
    }
}