{
    "comments": [
        {
            "administrator_id": null, 
            "alignment": 1, 
            "ancestry": null, 
            "as": null, 
            "author": {
                "avatar_image": "https://decidim.barcelona/assets/avatar-866795c99abc33a3160d1f3fa93ada46eb75e54134e777666b9ed16215b26534.png", 
                "erased": false, 
                "hidden": false, 
                "id": 20834, 
                "name": "Gio", 
                "official": false, 
                "official_level": 0, 
                "role": null, 
                "verified_organization": null
            }, 
            "body": "<p>Necesitamos y queremos un instituto en el barrio de la misma l\u00ednea/pedagog\u00eda como la escola dels encants para que los alumnos puedan seguir desarrollando sus talentos como ya lo est\u00e1n haciendo con la gran ayuda de los profesores de la escuela. Beneficiar\u00e1 no s\u00f3lo a los alumnos pero m\u00e1s adelante la sociedad en general! </p>", 
            "commentable_id": 179, 
            "commentable_type": "Proposal", 
            "created_at": "08/04/2016 16:09:50", 
            "flagged": false, 
            "hidden": false, 
            "id": 11089, 
            "moderator_id": null, 
            "permissions": {
                "hide": false, 
                "hide_author": false, 
                "vote": false
            }, 
            "total_dislikes": 0, 
            "total_likes": 0, 
            "total_votes": 0
        }, 
        {
            "administrator_id": null, 
            "alignment": 1, 
            "ancestry": null, 
            "as": null, 
            "author": {
                "avatar_image": "https://decidim.barcelona/assets/avatar-866795c99abc33a3160d1f3fa93ada46eb75e54134e777666b9ed16215b26534.png", 
                "erased": false, 
                "hidden": false, 
                "id": 21723, 
                "name": "Pepi", 
                "official": false, 
                "official_level": 0, 
                "role": null, 
                "verified_organization": null
            }, 
            "body": "<p>Necessitem un institut al barri que segueixi la l\u00ednia de l'Escola dels Encants on l'ensenyament t\u00e9 com a prioritat l'autonomia dels alumnes.</p>", 
            "commentable_id": 179, 
            "commentable_type": "Proposal", 
            "created_at": "08/04/2016 16:24:48", 
            "flagged": false, 
            "hidden": false, 
            "id": 11115, 
            "moderator_id": null, 
            "permissions": {
                "hide": false, 
                "hide_author": false, 
                "vote": false
            }, 
            "total_dislikes": 0, 
            "total_likes": 0, 
            "total_votes": 0
        }, 
        {
            "administrator_id": null, 
            "alignment": 1, 
            "ancestry": null, 
            "as": null, 
            "author": {
                "avatar_image": "https://decidim.barcelona/assets/avatar-866795c99abc33a3160d1f3fa93ada46eb75e54134e777666b9ed16215b26534.png", 
                "erased": false, 
                "hidden": false, 
                "id": 21818, 
                "name": "Claudiab", 
                "official": false, 
                "official_level": 0, 
                "role": null, 
                "verified_organization": null
            }, 
            "body": "<p>Necesitamos institutos educativos con la misma l\u00ednea que la escola dels Encants</p>", 
            "commentable_id": 179, 
            "commentable_type": "Proposal", 
            "created_at": "08/04/2016 17:17:49", 
            "flagged": false, 
            "hidden": false, 
            "id": 11208, 
            "moderator_id": null, 
            "permissions": {
                "hide": false, 
                "hide_author": false, 
                "vote": false
            }, 
            "total_dislikes": 0, 
            "total_likes": 0, 
            "total_votes": 0
        }, 
        {
            "administrator_id": null, 
            "alignment": 1, 
            "ancestry": null, 
            "as": null, 
            "author": {
                "avatar_image": "https://decidim.barcelona/assets/avatar-866795c99abc33a3160d1f3fa93ada46eb75e54134e777666b9ed16215b26534.png", 
                "erased": false, 
                "hidden": false, 
                "id": 21837, 
                "name": "NCA", 
                "official": false, 
                "official_level": 0, 
                "role": null, 
                "verified_organization": null
            }, 
            "body": "<p>\u00c9s molt interessant tenir un institut al barri que doni continu\u00eftat al projecte educatiu del que formen part els nostres fills.</p>", 
            "commentable_id": 179, 
            "commentable_type": "Proposal", 
            "created_at": "08/04/2016 17:24:07", 
            "flagged": false, 
            "hidden": false, 
            "id": 11218, 
            "moderator_id": null, 
            "permissions": {
                "hide": false, 
                "hide_author": false, 
                "vote": false
            }, 
            "total_dislikes": 0, 
            "total_likes": 0, 
            "total_votes": 0
        }, 
        {
            "administrator_id": null, 
            "alignment": 1, 
            "ancestry": null, 
            "as": null, 
            "author": {
                "avatar_image": "https://decidim.barcelona/assets/avatar-866795c99abc33a3160d1f3fa93ada46eb75e54134e777666b9ed16215b26534.png", 
                "erased": false, 
                "hidden": false, 
                "id": 22202, 
                "name": "Lolinunez", 
                "official": false, 
                "official_level": 0, 
                "role": null, 
                "verified_organization": null
            }, 
            "body": "<p>Es necesari la continuitat de proyecte educatiu.</p>", 
            "commentable_id": 179, 
            "commentable_type": "Proposal", 
            "created_at": "08/04/2016 21:18:02", 
            "flagged": false, 
            "hidden": false, 
            "id": 11446, 
            "moderator_id": null, 
            "permissions": {
                "hide": false, 
                "hide_author": false, 
                "vote": false
            }, 
            "total_dislikes": 0, 
            "total_likes": 0, 
            "total_votes": 0
        }, 
        {
            "administrator_id": null, 
            "alignment": 1, 
            "ancestry": null, 
            "as": null, 
            "author": {
                "avatar_image": "https://decidim.barcelona/assets/avatar-866795c99abc33a3160d1f3fa93ada46eb75e54134e777666b9ed16215b26534.png", 
                "erased": false, 
                "hidden": false, 
                "id": 22590, 
                "name": "Dylan Hanse", 
                "official": false, 
                "official_level": 0, 
                "role": null, 
                "verified_organization": null
            }, 
            "body": "<p>Volem un Institut al barri per donar continu\u00eftat al projecte de l'Escola dels Encants</p>", 
            "commentable_id": 179, 
            "commentable_type": "Proposal", 
            "created_at": "09/04/2016 08:17:40", 
            "flagged": false, 
            "hidden": false, 
            "id": 11558, 
            "moderator_id": null, 
            "permissions": {
                "hide": false, 
                "hide_author": false, 
                "vote": false
            }, 
            "total_dislikes": 0, 
            "total_likes": 1, 
            "total_votes": 1
        }, 
        {
            "administrator_id": null, 
            "alignment": 1, 
            "ancestry": null, 
            "as": null, 
            "author": {
                "avatar_image": "https://decidim.barcelona/assets/avatar-866795c99abc33a3160d1f3fa93ada46eb75e54134e777666b9ed16215b26534.png", 
                "erased": false, 
                "hidden": false, 
                "id": 22188, 
                "name": "Raquel Castro Pego", 
                "official": false, 
                "official_level": 0, 
                "role": null, 
                "verified_organization": null
            }, 
            "body": "<p>Necesitamos un instituto que continue la l\u00ednea de la educaci\u00f3n viva, como la de la Escola dels Encants. \n</p>", 
            "commentable_id": 179, 
            "commentable_type": "Proposal", 
            "created_at": "09/04/2016 10:06:07", 
            "flagged": false, 
            "hidden": false, 
            "id": 11582, 
            "moderator_id": null, 
            "permissions": {
                "hide": false, 
                "hide_author": false, 
                "vote": false
            }, 
            "total_dislikes": 0, 
            "total_likes": 0, 
            "total_votes": 0
        }, 
        {
            "administrator_id": null, 
            "alignment": 1, 
            "ancestry": null, 
            "as": null, 
            "author": {
                "avatar_image": "https://decidim.barcelona/assets/avatar-866795c99abc33a3160d1f3fa93ada46eb75e54134e777666b9ed16215b26534.png", 
                "erased": false, 
                "hidden": false, 
                "id": 22747, 
                "name": "cucurucho", 
                "official": false, 
                "official_level": 0, 
                "role": null, 
                "verified_organization": null
            }, 
            "body": "<p>Necesitem un institut que doni continuitat a la l\u00ednea educativa de l' escola dels encants. </p>", 
            "commentable_id": 179, 
            "commentable_type": "Proposal", 
            "created_at": "09/04/2016 11:12:23", 
            "flagged": false, 
            "hidden": false, 
            "id": 11724, 
            "moderator_id": null, 
            "permissions": {
                "hide": false, 
                "hide_author": false, 
                "vote": false
            }, 
            "total_dislikes": 0, 
            "total_likes": 0, 
            "total_votes": 0
        }, 
        {
            "administrator_id": null, 
            "alignment": 1, 
            "ancestry": null, 
            "as": null, 
            "author": {
                "avatar_image": "https://decidim.barcelona/assets/avatar-866795c99abc33a3160d1f3fa93ada46eb75e54134e777666b9ed16215b26534.png", 
                "erased": false, 
                "hidden": false, 
                "id": 7305, 
                "name": "Micaela", 
                "official": false, 
                "official_level": 0, 
                "role": null, 
                "verified_organization": null
            }, 
            "body": "<p>Necessitem Institus a  l'eixample que continuin el projecte educatiu de la Escola dels Encants i d altres al districte! \n</p>", 
            "commentable_id": 179, 
            "commentable_type": "Proposal", 
            "created_at": "09/04/2016 11:55:48", 
            "flagged": false, 
            "hidden": false, 
            "id": 11830, 
            "moderator_id": null, 
            "permissions": {
                "hide": false, 
                "hide_author": false, 
                "vote": false
            }, 
            "total_dislikes": 0, 
            "total_likes": 0, 
            "total_votes": 0
        }, 
        {
            "administrator_id": null, 
            "alignment": 1, 
            "ancestry": null, 
            "as": null, 
            "author": {
                "avatar_image": "https://decidim.barcelona/assets/avatar-866795c99abc33a3160d1f3fa93ada46eb75e54134e777666b9ed16215b26534.png", 
                "erased": false, 
                "hidden": false, 
                "id": 23147, 
                "name": "josep xurigu\u00e9", 
                "official": false, 
                "official_level": 0, 
                "role": null, 
                "verified_organization": null
            }, 
            "body": "<p>necessitem m\u00e9s places p\u00fabliques. L'educaci\u00f3 \u00e9s una prioritat, hauria de ser el pr\u00edmer, o un dels primers, element d'inversi\u00f3 p\u00fablica. Ens juguem el futur de la ciutat i del pa\u00eds, i sobretot la felicitat i les oportunitats dels nostres fills i filles, sin\u00f3 tenim una educaci\u00f3 de qualitat,  humana. amb tots els recursos necessaris.</p>\n\n<p>hi ha m\u00e9s demanda de places p\u00fabliques per evoluci\u00f3 en els valors, i per la situaci\u00f3 econ\u00f2mica. Els solars dels dos instituts ja hi s\u00f3n. Conv\u00e9 el comprom\u00eds inversor de la Generalitat, la contractaci\u00f3 de m\u00e9s professors i professores. Necessitem centres amb un projecte educatiu per a totes, ampli, que faci possible equitat i excel\u00b7l\u00e8ncia. El solar de l'angeleta \u00e9s c\u00e8ntric des del punt de vista de l'Eixample dret, i molt ben connectat amb transprot p\u00fablic, metro monumental.  seria bo que el projecte educatiu miri de complementar l'oferta existent.</p>", 
            "commentable_id": 179, 
            "commentable_type": "Proposal", 
            "created_at": "09/04/2016 17:29:45", 
            "flagged": false, 
            "hidden": false, 
            "id": 12563, 
            "moderator_id": null, 
            "permissions": {
                "hide": false, 
                "hide_author": false, 
                "vote": false
            }, 
            "total_dislikes": 0, 
            "total_likes": 0, 
            "total_votes": 0
        }, 
        {
            "administrator_id": null, 
            "alignment": 1, 
            "ancestry": null, 
            "as": null, 
            "author": {
                "avatar_image": "https://decidim.barcelona/assets/avatar-866795c99abc33a3160d1f3fa93ada46eb75e54134e777666b9ed16215b26534.png", 
                "erased": false, 
                "hidden": false, 
                "id": 23147, 
                "name": "josep xurigu\u00e9", 
                "official": false, 
                "official_level": 0, 
                "role": null, 
                "verified_organization": null
            }, 
            "body": "<p>la meva filla estudia a l'escola Ramon Llull</p>", 
            "commentable_id": 179, 
            "commentable_type": "Proposal", 
            "created_at": "09/04/2016 17:30:54", 
            "flagged": false, 
            "hidden": false, 
            "id": 12564, 
            "moderator_id": null, 
            "permissions": {
                "hide": false, 
                "hide_author": false, 
                "vote": false
            }, 
            "total_dislikes": 0, 
            "total_likes": 0, 
            "total_votes": 0
        }, 
        {
            "administrator_id": null, 
            "alignment": 1, 
            "ancestry": null, 
            "as": null, 
            "author": {
                "avatar_image": "https://decidim.barcelona/assets/avatar-866795c99abc33a3160d1f3fa93ada46eb75e54134e777666b9ed16215b26534.png", 
                "erased": false, 
                "hidden": false, 
                "id": 23290, 
                "name": "Beatriu Guarro Picart", 
                "official": false, 
                "official_level": 0, 
                "role": null, 
                "verified_organization": null
            }, 
            "body": "<p>Els infants que estudien en centres d'educaci\u00f3 infantil i prim\u00e0ria, com Els Encants, han de tenir dret a continuar a l'educaci\u00f3 secund\u00e0ria amb els mateixos plantejaments pedag\u00f2gics i els mateixos valors.</p>", 
            "commentable_id": 179, 
            "commentable_type": "Proposal", 
            "created_at": "09/04/2016 19:37:05", 
            "flagged": false, 
            "hidden": false, 
            "id": 12619, 
            "moderator_id": null, 
            "permissions": {
                "hide": false, 
                "hide_author": false, 
                "vote": false
            }, 
            "total_dislikes": 0, 
            "total_likes": 0, 
            "total_votes": 0
        }, 
        {
            "administrator_id": null, 
            "alignment": 1, 
            "ancestry": null, 
            "as": null, 
            "author": {
                "avatar_image": "https://decidim.barcelona/assets/avatar-866795c99abc33a3160d1f3fa93ada46eb75e54134e777666b9ed16215b26534.png", 
                "erased": false, 
                "hidden": false, 
                "id": 22967, 
                "name": "Marcel Pons I Mil\u00e0", 
                "official": false, 
                "official_level": 0, 
                "role": null, 
                "verified_organization": null
            }, 
            "body": "<p>A l'estudi del Mapa Escola presentat al 2014 ja es va denunciar que feien falta dos instituts al districte de l'Eixample: un a l'Esquerra i un altre a la Dreta de l'Eixample.\n<br /><a href=\"https://prezi.com/3mvneq8zhomc/el-mapa-escolar-de-leixample-2014/?utm_campaign=share&amp;utm_medium=copy\">https://prezi.com/3mvneq8zhomc/el-mapa-escolar-de-leixample-2014/?utm_campaign=share&amp;utm_medium=copy</a>\n<br />El de l'Esquerra, Ins Viladomat ja est\u00e0 en funcionament.\n<br />I el de la dreta ? On \u00e9s ? On \u00e9s l'Ins Angeleta Ferrer que anuncia el cartell instal\u00b7lat al solar del carrer Marina?\n</p>", 
            "commentable_id": 179, 
            "commentable_type": "Proposal", 
            "created_at": "09/04/2016 20:03:09", 
            "flagged": false, 
            "hidden": false, 
            "id": 12626, 
            "moderator_id": null, 
            "permissions": {
                "hide": false, 
                "hide_author": false, 
                "vote": false
            }, 
            "total_dislikes": 0, 
            "total_likes": 1, 
            "total_votes": 1
        }, 
        {
            "administrator_id": null, 
            "alignment": 1, 
            "ancestry": null, 
            "as": null, 
            "author": {
                "avatar_image": "https://decidim.barcelona/assets/avatar-866795c99abc33a3160d1f3fa93ada46eb75e54134e777666b9ed16215b26534.png", 
                "erased": false, 
                "hidden": false, 
                "id": 18393, 
                "name": "annasb01", 
                "official": false, 
                "official_level": 0, 
                "role": null, 
                "verified_organization": null
            }, 
            "body": "<p>Els projectes educatius d'escoles com Els Encants, Fructu\u00f3s Gelabert i Fort Pienc precisen continu\u00eftat en instituts que vagin en la mateixa l\u00ednia.\n<br />Com ha s'ha dit, amb voluntat ho podem tenir per al curs vinent</p>", 
            "commentable_id": 179, 
            "commentable_type": "Proposal", 
            "created_at": "09/04/2016 20:45:59", 
            "flagged": false, 
            "hidden": false, 
            "id": 12667, 
            "moderator_id": null, 
            "permissions": {
                "hide": false, 
                "hide_author": false, 
                "vote": false
            }, 
            "total_dislikes": 0, 
            "total_likes": 0, 
            "total_votes": 0
        }
    ], 
    "meta": {
        "current_page": 3, 
        "next_page": null, 
        "prev_page": 2, 
        "total_count": 54, 
        "total_pages": 3
    }
}