{
    "comments": [
        {
            "administrator_id": null, 
            "alignment": 1, 
            "ancestry": null, 
            "as": null, 
            "author": {
                "avatar_image": "https://decidim.barcelona/assets/avatar-866795c99abc33a3160d1f3fa93ada46eb75e54134e777666b9ed16215b26534.png", 
                "erased": false, 
                "hidden": false, 
                "id": 18036, 
                "name": "vcalso", 
                "official": false, 
                "official_level": 0, 
                "role": null, 
                "verified_organization": null
            }, 
            "body": "<p>Volem un institut que segueixi la linea educativa que ha posat en marxa l'Escola dels Encants per donar continu\u00eftat en l'educaci\u00f3 dels nostres fills i dels nens que formen part de la comunitat educativa del centre i de la resta de nens que vulguin optar per aquest sistema d'altres escoles.</p>", 
            "commentable_id": 179, 
            "commentable_type": "Proposal", 
            "created_at": "04/04/2016 18:59:45", 
            "flagged": false, 
            "hidden": false, 
            "id": 7818, 
            "moderator_id": null, 
            "permissions": {
                "hide": false, 
                "hide_author": false, 
                "vote": false
            }, 
            "total_dislikes": 0, 
            "total_likes": 3, 
            "total_votes": 3
        }, 
        {
            "administrator_id": null, 
            "alignment": 1, 
            "ancestry": null, 
            "as": null, 
            "author": {
                "avatar_image": "https://decidim.barcelona/assets/avatar-866795c99abc33a3160d1f3fa93ada46eb75e54134e777666b9ed16215b26534.png", 
                "erased": false, 
                "hidden": false, 
                "id": 18112, 
                "name": "helen", 
                "official": false, 
                "official_level": 0, 
                "role": null, 
                "verified_organization": null
            }, 
            "body": "<p>Com a mare d'un infant de l'escola dels encants,  com a educadora en educaci\u00f3 viva crec molt necess\u00e0ri i urgent la creaci\u00f3 d'un institut al barri en continuaci\u00f3 a la l\u00ednia que hem triat per els nostres fills. Estem generant un canvi en aquestes noves generacions, i perque hi hagi un canvi hi hem de creure possar-hi la mirada, la serietat i els recursos perque aix\u00f2 passi. Cadasc\u00fa responsable en la seva part,  infants, pares, educadors, pol\u00edtics. Amb coher\u00e8ncia,  si iniciem el canvi continuem-lo!!!!! no els podem deixar senseun  institut amb la mateixa mirada en la que han estat acompanyats fins ara, en un moment tant delicat com \u00e9s la pre-adolesc\u00e8ncia i la adolesc\u00e8ncia! Endavant amb el canvi!</p>", 
            "commentable_id": 179, 
            "commentable_type": "Proposal", 
            "created_at": "04/04/2016 21:52:46", 
            "flagged": false, 
            "hidden": false, 
            "id": 7875, 
            "moderator_id": null, 
            "permissions": {
                "hide": false, 
                "hide_author": false, 
                "vote": false
            }, 
            "total_dislikes": 2, 
            "total_likes": 4, 
            "total_votes": 6
        }, 
        {
            "administrator_id": null, 
            "alignment": 1, 
            "ancestry": null, 
            "as": null, 
            "author": {
                "avatar_image": "https://decidim.barcelona/assets/avatar-866795c99abc33a3160d1f3fa93ada46eb75e54134e777666b9ed16215b26534.png", 
                "erased": false, 
                "hidden": false, 
                "id": 18149, 
                "name": "CeciliaG", 
                "official": false, 
                "official_level": 0, 
                "role": null, 
                "verified_organization": null
            }, 
            "body": "<p>La l\u00ednia pedag\u00f2gica del CEIP Encants necessita continuitat a secund\u00e0ria. </p>", 
            "commentable_id": 179, 
            "commentable_type": "Proposal", 
            "created_at": "04/04/2016 22:00:54", 
            "flagged": false, 
            "hidden": false, 
            "id": 7879, 
            "moderator_id": null, 
            "permissions": {
                "hide": false, 
                "hide_author": false, 
                "vote": false
            }, 
            "total_dislikes": 0, 
            "total_likes": 4, 
            "total_votes": 4
        }, 
        {
            "administrator_id": null, 
            "alignment": 1, 
            "ancestry": null, 
            "as": null, 
            "author": {
                "avatar_image": "https://decidim.barcelona/assets/avatar-866795c99abc33a3160d1f3fa93ada46eb75e54134e777666b9ed16215b26534.png", 
                "erased": false, 
                "hidden": false, 
                "id": 18487, 
                "name": "Mandy Mongiovi", 
                "official": false, 
                "official_level": 0, 
                "role": null, 
                "verified_organization": null
            }, 
            "body": "<p>Necessitem urgentment un institut al barri del Fort Pienc,  un institut en continu\u00eftat amb el projecte educatiu de les escoles Fort Pienc, Fructu\u00f3s i Encants. Aquestes 3 escoles s\u00f3n noves amb una nova pedagogia i necessiten un institut que els correspon. L'institut  4 cantons n'\u00e9s un exemple! L'institut hauria de funccionar pel curs 2017-2018 encara que l'infrastructura sigui amb barracons. Encants, Fort Pienc i Fructu\u00f3s han comen\u00e7at amb barracons i ha sigut un \u00e8xit. </p>\n\n<p>  </p>", 
            "commentable_id": 179, 
            "commentable_type": "Proposal", 
            "created_at": "05/04/2016 14:23:59", 
            "flagged": false, 
            "hidden": false, 
            "id": 8015, 
            "moderator_id": null, 
            "permissions": {
                "hide": false, 
                "hide_author": false, 
                "vote": false
            }, 
            "total_dislikes": 1, 
            "total_likes": 5, 
            "total_votes": 6
        }, 
        {
            "administrator_id": null, 
            "alignment": 1, 
            "ancestry": null, 
            "as": null, 
            "author": {
                "avatar_image": "https://decidim.barcelona/assets/avatar-866795c99abc33a3160d1f3fa93ada46eb75e54134e777666b9ed16215b26534.png", 
                "erased": false, 
                "hidden": false, 
                "id": 19407, 
                "name": "Yensi", 
                "official": false, 
                "official_level": 0, 
                "role": null, 
                "verified_organization": null
            }, 
            "body": "<p>Necesitamos un instituto YA! Muchos de nuestros hijos est\u00e1n cursando sus estudios bajo una filosof\u00eda de trabajo que funciona con \u00e9xito. Cada d\u00eda veo c\u00f3mo mis hijos aprenden con entusiasmo y con ganas de querer aprender m\u00e1s. Es fundamental dar continuidad a estas l\u00edneas pedag\u00f3gicas de futuro...</p>", 
            "commentable_id": 179, 
            "commentable_type": "Proposal", 
            "created_at": "06/04/2016 17:00:26", 
            "flagged": false, 
            "hidden": false, 
            "id": 8712, 
            "moderator_id": null, 
            "permissions": {
                "hide": false, 
                "hide_author": false, 
                "vote": false
            }, 
            "total_dislikes": 0, 
            "total_likes": 1, 
            "total_votes": 1
        }, 
        {
            "administrator_id": null, 
            "alignment": 1, 
            "ancestry": null, 
            "as": null, 
            "author": {
                "avatar_image": "https://decidim.barcelona/assets/avatar-866795c99abc33a3160d1f3fa93ada46eb75e54134e777666b9ed16215b26534.png", 
                "erased": false, 
                "hidden": false, 
                "id": 19469, 
                "name": "kevin", 
                "official": false, 
                "official_level": 0, 
                "role": null, 
                "verified_organization": null
            }, 
            "body": "<p>Manca d'oferta de places p\u00fabliques a la Secund\u00e0ria del districte de l'Eixample.\n<br />\u00c9s una oportunitat per aconseguir un institut al barri que doni continu\u00eftat al projecte de l'escola Fort Pienc.\n<br />\u00c9s una manera de garantir m\u00e9s opcions per a les fam\u00edlies a l'hora d'escollir l'institut de secund\u00e0ria  dintre del sistema p\u00fablic i no haver d'anar for\u00e7osament al sistema educatiu concertat, que est\u00e0 majorit\u00e0riament representat per institucions de car\u00e0cter religi\u00f3s.</p>", 
            "commentable_id": 179, 
            "commentable_type": "Proposal", 
            "created_at": "06/04/2016 18:10:35", 
            "flagged": false, 
            "hidden": false, 
            "id": 8798, 
            "moderator_id": null, 
            "permissions": {
                "hide": false, 
                "hide_author": false, 
                "vote": false
            }, 
            "total_dislikes": 0, 
            "total_likes": 2, 
            "total_votes": 2
        }, 
        {
            "administrator_id": null, 
            "alignment": 1, 
            "ancestry": null, 
            "as": null, 
            "author": {
                "avatar_image": "https://decidim.barcelona/assets/avatar-866795c99abc33a3160d1f3fa93ada46eb75e54134e777666b9ed16215b26534.png", 
                "erased": false, 
                "hidden": false, 
                "id": 19580, 
                "name": "Rebecca", 
                "official": false, 
                "official_level": 0, 
                "role": null, 
                "verified_organization": null
            }, 
            "body": "<p>Es una necesitat clara I urgent </p>", 
            "commentable_id": 179, 
            "commentable_type": "Proposal", 
            "created_at": "06/04/2016 20:27:15", 
            "flagged": false, 
            "hidden": false, 
            "id": 8904, 
            "moderator_id": null, 
            "permissions": {
                "hide": false, 
                "hide_author": false, 
                "vote": false
            }, 
            "total_dislikes": 0, 
            "total_likes": 0, 
            "total_votes": 0
        }, 
        {
            "administrator_id": null, 
            "alignment": 1, 
            "ancestry": null, 
            "as": null, 
            "author": {
                "avatar_image": "https://decidim.barcelona/assets/avatar-866795c99abc33a3160d1f3fa93ada46eb75e54134e777666b9ed16215b26534.png", 
                "erased": false, 
                "hidden": false, 
                "id": 20006, 
                "name": "rosallop", 
                "official": false, 
                "official_level": 0, 
                "role": null, 
                "verified_organization": null
            }, 
            "body": "<p>Necessitem urgentment un institut en continu\u00eftat amb el projecte educatiu de l'Escola dels Encants. La pedagogia que s'hi imparteix \u00e9s innovadora i cal donar continu\u00eftat al model  amb un institut que respongui a les necessitats d'aquests infants.</p>", 
            "commentable_id": 179, 
            "commentable_type": "Proposal", 
            "created_at": "07/04/2016 10:48:40", 
            "flagged": false, 
            "hidden": false, 
            "id": 9098, 
            "moderator_id": null, 
            "permissions": {
                "hide": false, 
                "hide_author": false, 
                "vote": false
            }, 
            "total_dislikes": 0, 
            "total_likes": 1, 
            "total_votes": 1
        }, 
        {
            "administrator_id": null, 
            "alignment": 1, 
            "ancestry": null, 
            "as": null, 
            "author": {
                "avatar_image": "https://decidim.barcelona/assets/avatar-866795c99abc33a3160d1f3fa93ada46eb75e54134e777666b9ed16215b26534.png", 
                "erased": false, 
                "hidden": false, 
                "id": 20079, 
                "name": "ninosal", 
                "official": false, 
                "official_level": 0, 
                "role": null, 
                "verified_organization": null
            }, 
            "body": "<p>Es necesario dar cabida y soporte a la continuidad del proyecto educativo Fructu\u00f3s Gelabert.</p>", 
            "commentable_id": 179, 
            "commentable_type": "Proposal", 
            "created_at": "07/04/2016 12:10:25", 
            "flagged": false, 
            "hidden": false, 
            "id": 9146, 
            "moderator_id": null, 
            "permissions": {
                "hide": false, 
                "hide_author": false, 
                "vote": false
            }, 
            "total_dislikes": 0, 
            "total_likes": 0, 
            "total_votes": 0
        }, 
        {
            "administrator_id": null, 
            "alignment": 1, 
            "ancestry": null, 
            "as": null, 
            "author": {
                "avatar_image": "https://decidim.barcelona/assets/avatar-866795c99abc33a3160d1f3fa93ada46eb75e54134e777666b9ed16215b26534.png", 
                "erased": false, 
                "hidden": false, 
                "id": 20115, 
                "name": "F\u00e0tima Lareo", 
                "official": false, 
                "official_level": 0, 
                "role": null, 
                "verified_organization": null
            }, 
            "body": "<p>Les fam\u00edlies de l'Escola dels Encants necessitem urgentment un projecte que doni continu\u00eftat al projecte educatiu. Ens calen m\u00e9s escoles p\u00fabliques innovadores i respectuoses amb els infants. Invertim en futur!</p>", 
            "commentable_id": 179, 
            "commentable_type": "Proposal", 
            "created_at": "07/04/2016 12:38:24", 
            "flagged": false, 
            "hidden": false, 
            "id": 9188, 
            "moderator_id": null, 
            "permissions": {
                "hide": false, 
                "hide_author": false, 
                "vote": false
            }, 
            "total_dislikes": 0, 
            "total_likes": 1, 
            "total_votes": 1
        }, 
        {
            "administrator_id": null, 
            "alignment": 1, 
            "ancestry": null, 
            "as": null, 
            "author": {
                "avatar_image": "https://decidim.barcelona/assets/avatar-866795c99abc33a3160d1f3fa93ada46eb75e54134e777666b9ed16215b26534.png", 
                "erased": false, 
                "hidden": false, 
                "id": 20139, 
                "name": "Ismene Grande C\u00e1sedas", 
                "official": false, 
                "official_level": 0, 
                "role": null, 
                "verified_organization": null
            }, 
            "body": "<p>Queremos un instituto en el barrio que de continuidad al proyecto educativo de la Escuela \"dels Encants\"</p>", 
            "commentable_id": 179, 
            "commentable_type": "Proposal", 
            "created_at": "07/04/2016 13:19:18", 
            "flagged": false, 
            "hidden": false, 
            "id": 9286, 
            "moderator_id": null, 
            "permissions": {
                "hide": false, 
                "hide_author": false, 
                "vote": false
            }, 
            "total_dislikes": 0, 
            "total_likes": 0, 
            "total_votes": 0
        }, 
        {
            "administrator_id": null, 
            "alignment": 1, 
            "ancestry": null, 
            "as": null, 
            "author": {
                "avatar_image": "https://decidim.barcelona/assets/avatar-866795c99abc33a3160d1f3fa93ada46eb75e54134e777666b9ed16215b26534.png", 
                "erased": false, 
                "hidden": false, 
                "id": 20174, 
                "name": "BielNoa", 
                "official": false, 
                "official_level": 0, 
                "role": null, 
                "verified_organization": null
            }, 
            "body": "<p>Volen un Instituto que continui  amb el projecte educatiu de l'Escola dels Encants</p>", 
            "commentable_id": 179, 
            "commentable_type": "Proposal", 
            "created_at": "07/04/2016 13:36:05", 
            "flagged": false, 
            "hidden": false, 
            "id": 9342, 
            "moderator_id": null, 
            "permissions": {
                "hide": false, 
                "hide_author": false, 
                "vote": false
            }, 
            "total_dislikes": 0, 
            "total_likes": 0, 
            "total_votes": 0
        }, 
        {
            "administrator_id": null, 
            "alignment": 1, 
            "ancestry": null, 
            "as": null, 
            "author": {
                "avatar_image": "https://decidim.barcelona/assets/avatar-866795c99abc33a3160d1f3fa93ada46eb75e54134e777666b9ed16215b26534.png", 
                "erased": false, 
                "hidden": false, 
                "id": 20234, 
                "name": "julicor", 
                "official": false, 
                "official_level": 0, 
                "role": null, 
                "verified_organization": null
            }, 
            "body": "<p>Nuestros hijos necesitan tener  una continuidad en su linea educativa.</p>", 
            "commentable_id": 179, 
            "commentable_type": "Proposal", 
            "created_at": "07/04/2016 14:29:36", 
            "flagged": false, 
            "hidden": false, 
            "id": 9479, 
            "moderator_id": null, 
            "permissions": {
                "hide": false, 
                "hide_author": false, 
                "vote": false
            }, 
            "total_dislikes": 0, 
            "total_likes": 0, 
            "total_votes": 0
        }, 
        {
            "administrator_id": null, 
            "alignment": 1, 
            "ancestry": null, 
            "as": null, 
            "author": {
                "avatar_image": "https://decidim.barcelona/assets/avatar-866795c99abc33a3160d1f3fa93ada46eb75e54134e777666b9ed16215b26534.png", 
                "erased": false, 
                "hidden": false, 
                "id": 20329, 
                "name": "cromero", 
                "official": false, 
                "official_level": 0, 
                "role": null, 
                "verified_organization": null
            }, 
            "body": "<p>Necessitem urgentment un institut que doni continu\u00eftat a un projecte educatiu on el respecte per l'alumnat sigui una prioritat. </p>", 
            "commentable_id": 179, 
            "commentable_type": "Proposal", 
            "created_at": "07/04/2016 15:58:11", 
            "flagged": false, 
            "hidden": false, 
            "id": 9568, 
            "moderator_id": null, 
            "permissions": {
                "hide": false, 
                "hide_author": false, 
                "vote": false
            }, 
            "total_dislikes": 0, 
            "total_likes": 0, 
            "total_votes": 0
        }, 
        {
            "administrator_id": null, 
            "alignment": 1, 
            "ancestry": null, 
            "as": null, 
            "author": {
                "avatar_image": "https://decidim.barcelona/assets/avatar-866795c99abc33a3160d1f3fa93ada46eb75e54134e777666b9ed16215b26534.png", 
                "erased": false, 
                "hidden": false, 
                "id": 20441, 
                "name": "Marta Mt", 
                "official": false, 
                "official_level": 0, 
                "role": null, 
                "verified_organization": null
            }, 
            "body": "<p>Molt important afavorir una educaci\u00f3 de qualitat </p>", 
            "commentable_id": 179, 
            "commentable_type": "Proposal", 
            "created_at": "07/04/2016 17:20:42", 
            "flagged": false, 
            "hidden": false, 
            "id": 9779, 
            "moderator_id": null, 
            "permissions": {
                "hide": false, 
                "hide_author": false, 
                "vote": false
            }, 
            "total_dislikes": 0, 
            "total_likes": 0, 
            "total_votes": 0
        }, 
        {
            "administrator_id": null, 
            "alignment": 1, 
            "ancestry": null, 
            "as": null, 
            "author": {
                "avatar_image": "https://decidim.barcelona/assets/avatar-866795c99abc33a3160d1f3fa93ada46eb75e54134e777666b9ed16215b26534.png", 
                "erased": false, 
                "hidden": false, 
                "id": 20345, 
                "name": "MYRIAM M", 
                "official": false, 
                "official_level": 0, 
                "role": null, 
                "verified_organization": null
            }, 
            "body": "<p>Los adolescentes tambi\u00e9n necesitan proyectos educativos  con otra mirada m\u00e1s respetuosa con su desarrollo e intereses, estos centros son imprescindibles para la comunidad</p>", 
            "commentable_id": 179, 
            "commentable_type": "Proposal", 
            "created_at": "07/04/2016 21:54:16", 
            "flagged": false, 
            "hidden": false, 
            "id": 10117, 
            "moderator_id": null, 
            "permissions": {
                "hide": false, 
                "hide_author": false, 
                "vote": false
            }, 
            "total_dislikes": 0, 
            "total_likes": 0, 
            "total_votes": 0
        }, 
        {
            "administrator_id": null, 
            "alignment": 1, 
            "ancestry": null, 
            "as": null, 
            "author": {
                "avatar_image": "https://decidim.barcelona/assets/avatar-866795c99abc33a3160d1f3fa93ada46eb75e54134e777666b9ed16215b26534.png", 
                "erased": false, 
                "hidden": false, 
                "id": 21179, 
                "name": "enriquedominguez", 
                "official": false, 
                "official_level": 0, 
                "role": null, 
                "verified_organization": null
            }, 
            "body": "<p>Volem un Institut al barri per donar continu\u00eftat al projecte de l'Escola dels Encants</p>", 
            "commentable_id": 179, 
            "commentable_type": "Proposal", 
            "created_at": "08/04/2016 10:29:10", 
            "flagged": false, 
            "hidden": false, 
            "id": 10316, 
            "moderator_id": null, 
            "permissions": {
                "hide": false, 
                "hide_author": false, 
                "vote": false
            }, 
            "total_dislikes": 0, 
            "total_likes": 0, 
            "total_votes": 0
        }, 
        {
            "administrator_id": null, 
            "alignment": 0, 
            "ancestry": null, 
            "as": null, 
            "author": {
                "avatar_image": "https://decidim.barcelona/assets/avatar-866795c99abc33a3160d1f3fa93ada46eb75e54134e777666b9ed16215b26534.png", 
                "erased": false, 
                "hidden": false, 
                "id": 21194, 
                "name": "ASergio", 
                "official": false, 
                "official_level": 0, 
                "role": null, 
                "verified_organization": null
            }, 
            "body": "<p>Al barri de l'Eixample falten escoles p\u00fabliques i instituts p\u00fablics. Aix\u00f2 s'ha d'acabar.</p>", 
            "commentable_id": 179, 
            "commentable_type": "Proposal", 
            "created_at": "08/04/2016 11:20:48", 
            "flagged": false, 
            "hidden": false, 
            "id": 10457, 
            "moderator_id": null, 
            "permissions": {
                "hide": false, 
                "hide_author": false, 
                "vote": false
            }, 
            "total_dislikes": 0, 
            "total_likes": 0, 
            "total_votes": 0
        }, 
        {
            "administrator_id": null, 
            "alignment": 1, 
            "ancestry": null, 
            "as": null, 
            "author": {
                "avatar_image": "https://decidim.barcelona/assets/avatar-866795c99abc33a3160d1f3fa93ada46eb75e54134e777666b9ed16215b26534.png", 
                "erased": false, 
                "hidden": false, 
                "id": 21269, 
                "name": "manu.mestre", 
                "official": false, 
                "official_level": 0, 
                "role": null, 
                "verified_organization": null
            }, 
            "body": "<p>Es un equipament necessari i molt urgent. Si hi ha necessitat de mes arguments nom\u00e9s cal llegir la resta de comentaris.</p>", 
            "commentable_id": 179, 
            "commentable_type": "Proposal", 
            "created_at": "08/04/2016 11:29:47", 
            "flagged": false, 
            "hidden": false, 
            "id": 10482, 
            "moderator_id": null, 
            "permissions": {
                "hide": false, 
                "hide_author": false, 
                "vote": false
            }, 
            "total_dislikes": 0, 
            "total_likes": 0, 
            "total_votes": 0
        }, 
        {
            "administrator_id": null, 
            "alignment": 1, 
            "ancestry": null, 
            "as": null, 
            "author": {
                "avatar_image": "https://decidim.barcelona/assets/avatar-866795c99abc33a3160d1f3fa93ada46eb75e54134e777666b9ed16215b26534.png", 
                "erased": false, 
                "hidden": false, 
                "id": 21342, 
                "name": "maribel espino", 
                "official": false, 
                "official_level": 0, 
                "role": null, 
                "verified_organization": null
            }, 
            "body": "<p>Hi ha necessitat de seguir  la l\u00ednea del projecte educatiu de l'Escola dels Encants  amb un institut al barri. </p>", 
            "commentable_id": 179, 
            "commentable_type": "Proposal", 
            "created_at": "08/04/2016 12:44:53", 
            "flagged": false, 
            "hidden": false, 
            "id": 10674, 
            "moderator_id": null, 
            "permissions": {
                "hide": false, 
                "hide_author": false, 
                "vote": false
            }, 
            "total_dislikes": 0, 
            "total_likes": 0, 
            "total_votes": 0
        }, 
        {
            "administrator_id": null, 
            "alignment": null, 
            "ancestry": "8904", 
            "as": null, 
            "author": {
                "avatar_image": "https://decidim.barcelona/assets/avatar-866795c99abc33a3160d1f3fa93ada46eb75e54134e777666b9ed16215b26534.png", 
                "erased": false, 
                "hidden": false, 
                "id": 16599, 
                "name": "aldana", 
                "official": false, 
                "official_level": 0, 
                "role": null, 
                "verified_organization": null
            }, 
            "body": "<p>Las estad\u00edsticas lo demuestran, las familias lo solicitan,  la comunidad educativa lo reclama. Queremos un Instituto,  necesitamos un instituto!</p>", 
            "commentable_id": 179, 
            "commentable_type": "Proposal", 
            "created_at": "09/04/2016 13:11:58", 
            "flagged": false, 
            "hidden": false, 
            "id": 12060, 
            "moderator_id": null, 
            "permissions": {
                "hide": false, 
                "hide_author": false, 
                "vote": false
            }, 
            "total_dislikes": 0, 
            "total_likes": 1, 
            "total_votes": 1
        }
    ], 
    "meta": {
        "current_page": 2, 
        "next_page": 3, 
        "prev_page": 1, 
        "total_count": 54, 
        "total_pages": 3
    }
}