{
    "comments": [
        {
            "administrator_id": null, 
            "alignment": 1, 
            "ancestry": null, 
            "as": null, 
            "author": {
                "avatar_image": "https://decidim.barcelona/assets/avatar-866795c99abc33a3160d1f3fa93ada46eb75e54134e777666b9ed16215b26534.png", 
                "erased": false, 
                "hidden": false, 
                "id": 820, 
                "name": "tomeurigo", 
                "official": false, 
                "official_level": 0, 
                "role": null, 
                "verified_organization": null
            }, 
            "body": "<p>Ensenyament p\u00fablic si</p>", 
            "commentable_id": 179, 
            "commentable_type": "Proposal", 
            "created_at": "02/02/2016 11:23:07", 
            "flagged": false, 
            "hidden": false, 
            "id": 197, 
            "moderator_id": null, 
            "permissions": {
                "hide": false, 
                "hide_author": false, 
                "vote": false
            }, 
            "total_dislikes": 0, 
            "total_likes": 3, 
            "total_votes": 3
        }, 
        {
            "administrator_id": null, 
            "alignment": 1, 
            "ancestry": null, 
            "as": null, 
            "author": {
                "avatar_image": "https://decidim.barcelona/assets/avatar-866795c99abc33a3160d1f3fa93ada46eb75e54134e777666b9ed16215b26534.png", 
                "erased": false, 
                "hidden": false, 
                "id": 2455, 
                "name": "Imma Tortajada", 
                "official": false, 
                "official_level": 0, 
                "role": null, 
                "verified_organization": null
            }, 
            "body": "<p> A la dreta de l'eixample i Sagrada Fam\u00edlia cada vegada hi falten places de secund\u00e0ria doncs en el darrers anys s'hi han fet tres CEIPS nous: Fort Pienc, Fructu\u00f3s Gelabert i Encants i en canvi no s'ha fet cap centre p\u00fablic de secund\u00e0ria nou que aculli als alumnes que surten d'aquestes escoles, malgrat tenir el projecte de l'Angeleta Ferrer aprovat i el solar reervat. Es tracta d'una necessitat urgent i per aix\u00f2 l'IES Angeleta Ferrer podria comen\u00e7ar  la seva activitat en m\u00f2duls al solar on fins ara hi havien els m\u00f2duls de l'escola Encants.</p>", 
            "commentable_id": 179, 
            "commentable_type": "Proposal", 
            "created_at": "09/02/2016 20:02:39", 
            "flagged": false, 
            "hidden": false, 
            "id": 1354, 
            "moderator_id": null, 
            "permissions": {
                "hide": false, 
                "hide_author": false, 
                "vote": false
            }, 
            "total_dislikes": 0, 
            "total_likes": 14, 
            "total_votes": 14
        }, 
        {
            "administrator_id": null, 
            "alignment": 1, 
            "ancestry": null, 
            "as": null, 
            "author": {
                "avatar_image": "https://decidim.barcelona/assets/avatar-866795c99abc33a3160d1f3fa93ada46eb75e54134e777666b9ed16215b26534.png", 
                "erased": false, 
                "hidden": false, 
                "id": 4516, 
                "name": "clarkcoma", 
                "official": false, 
                "official_level": 0, 
                "role": null, 
                "verified_organization": null
            }, 
            "body": "<p>I que d'alguna manera aquest nou institut continui tant les idees com les pr\u00e0ctiques d'ensenyament que es duen a terme a les escoles del barri: profes compromessos, fam\u00edlies participatives, ensenyament on la base sigui l'autonomia de l'alumne. </p>", 
            "commentable_id": 179, 
            "commentable_type": "Proposal", 
            "created_at": "10/02/2016 18:35:41", 
            "flagged": false, 
            "hidden": false, 
            "id": 1452, 
            "moderator_id": null, 
            "permissions": {
                "hide": false, 
                "hide_author": false, 
                "vote": false
            }, 
            "total_dislikes": 0, 
            "total_likes": 8, 
            "total_votes": 8
        }, 
        {
            "administrator_id": null, 
            "alignment": 1, 
            "ancestry": null, 
            "as": null, 
            "author": {
                "avatar_image": "https://decidim.barcelona/assets/avatar-866795c99abc33a3160d1f3fa93ada46eb75e54134e777666b9ed16215b26534.png", 
                "erased": false, 
                "hidden": false, 
                "id": 5808, 
                "name": "elisabet", 
                "official": false, 
                "official_level": 0, 
                "role": null, 
                "verified_organization": null
            }, 
            "body": "<p>Volem un institut amb la l\u00ednea del projecte educatiu del Fructu\u00f3s Gelabert.</p>", 
            "commentable_id": 179, 
            "commentable_type": "Proposal", 
            "created_at": "16/02/2016 13:44:24", 
            "flagged": false, 
            "hidden": false, 
            "id": 1930, 
            "moderator_id": null, 
            "permissions": {
                "hide": false, 
                "hide_author": false, 
                "vote": false
            }, 
            "total_dislikes": 0, 
            "total_likes": 9, 
            "total_votes": 9
        }, 
        {
            "administrator_id": null, 
            "alignment": 1, 
            "ancestry": null, 
            "as": null, 
            "author": {
                "avatar_image": "https://decidim.barcelona/assets/avatar-866795c99abc33a3160d1f3fa93ada46eb75e54134e777666b9ed16215b26534.png", 
                "erased": false, 
                "hidden": false, 
                "id": 9083, 
                "name": "eloina", 
                "official": false, 
                "official_level": 0, 
                "role": null, 
                "verified_organization": null
            }, 
            "body": "<p>Necessitem un institut al barri de manera urgent amb la l\u00ednea del projecte educatiu de l'Escola dels Encants, aix\u00ed tamb\u00e9 com Fructu\u00f3s Gelabert i Fort Pienc que continui les idees i les pr\u00e0ctiques educatives d'escola activa on l'ensenyament tingui com a base l'autonomia de l'alumne.  El local destinat al futur institut Angeleta Ferrer amb el seu solar reservat des de fa molts anys \u00e9s el lloc idoni i epic\u00e8ntric per aquests tres centres.</p>", 
            "commentable_id": 179, 
            "commentable_type": "Proposal", 
            "created_at": "28/02/2016 11:56:23", 
            "flagged": false, 
            "hidden": false, 
            "id": 2949, 
            "moderator_id": null, 
            "permissions": {
                "hide": false, 
                "hide_author": false, 
                "vote": false
            }, 
            "total_dislikes": 0, 
            "total_likes": 15, 
            "total_votes": 15
        }, 
        {
            "administrator_id": null, 
            "alignment": 1, 
            "ancestry": null, 
            "as": null, 
            "author": {
                "avatar_image": "https://decidim.barcelona/assets/avatar-866795c99abc33a3160d1f3fa93ada46eb75e54134e777666b9ed16215b26534.png", 
                "erased": false, 
                "hidden": false, 
                "id": 4474, 
                "name": "Olga Boet", 
                "official": false, 
                "official_level": 0, 
                "role": null, 
                "verified_organization": null
            }, 
            "body": "<p>Aquest institut que reclamem, \u00e9s per la continu\u00eftat educativa d'alumnes que ja estan cursant la prim\u00e0ria en escoles que funcionen amb \u00e8xit, demostrant que el projecte educatiu \u00e9s bo. Actualment els alumnes han d'anar for\u00e7osament a IES amb altres l\u00ednies pedag\u00f2giques. Necessitem el nou institut ja. Si hi ha voluntat pol\u00edtica, podria comen\u00e7ar a funcionar el curs vinent, 2017-18, encara que els primers anys fos en barracons. </p>", 
            "commentable_id": 179, 
            "commentable_type": "Proposal", 
            "created_at": "14/03/2016 14:41:22", 
            "flagged": false, 
            "hidden": false, 
            "id": 4819, 
            "moderator_id": null, 
            "permissions": {
                "hide": false, 
                "hide_author": false, 
                "vote": false
            }, 
            "total_dislikes": 0, 
            "total_likes": 15, 
            "total_votes": 15
        }, 
        {
            "administrator_id": null, 
            "alignment": 1, 
            "ancestry": null, 
            "as": null, 
            "author": {
                "avatar_image": "https://decidim.barcelona/assets/avatar-866795c99abc33a3160d1f3fa93ada46eb75e54134e777666b9ed16215b26534.png", 
                "erased": false, 
                "hidden": false, 
                "id": 13813, 
                "name": "Pau Laball", 
                "official": false, 
                "official_level": 0, 
                "role": null, 
                "verified_organization": null
            }, 
            "body": "<p>Volem l'Institut Angeleta Ferrer. Un cop ja es perdre la oportunitat de fer-lo i va costar molts diners...feu-ho b\u00e9 ara!! Feu l'Institut Angeleta Ferrer!...Si que es pot!Si que es pot...:)</p>", 
            "commentable_id": 179, 
            "commentable_type": "Proposal", 
            "created_at": "17/03/2016 22:42:49", 
            "flagged": false, 
            "hidden": false, 
            "id": 5689, 
            "moderator_id": null, 
            "permissions": {
                "hide": false, 
                "hide_author": false, 
                "vote": false
            }, 
            "total_dislikes": 0, 
            "total_likes": 4, 
            "total_votes": 4
        }, 
        {
            "administrator_id": null, 
            "alignment": 1, 
            "ancestry": null, 
            "as": null, 
            "author": {
                "avatar_image": "https://decidim.barcelona/assets/avatar-866795c99abc33a3160d1f3fa93ada46eb75e54134e777666b9ed16215b26534.png", 
                "erased": false, 
                "hidden": false, 
                "id": 15299, 
                "name": "Ana M Borrallo Peteiro", 
                "official": false, 
                "official_level": 0, 
                "role": null, 
                "verified_organization": null
            }, 
            "body": "<p>Ja hem esperat prou !!!\n<br />La creaci\u00f3 del centre data de l'any 1994 i l'any 2010 la Generalitat de Catalunya destin\u00e0 125 milions a la reforma i construcci\u00f3 de noves escoles i instituts (a trav\u00e9s de GISA), entre els quals Institut d'Educaci\u00f3 Secund\u00e0ria Angeleta Ferrer del carrer Marina est\u00e0 incl\u00f2s amb un pressupost de 6.306.324 \u20ac. L'Institut tindr\u00e0 3 l\u00ednies d'ESO i 2 de batxillerat, que faran un total de 690 alumnes.\n<br />Vegeu la not\u00edcia <a href=\"http://premsa.gencat.cat/pres_fsvp/AppJava/ensenyament/notapremsavw/24523/ca/govern-destina-125-milions-deuros-construir-substituir-26-centres-escolars.do\">http://premsa.gencat.cat/pres_fsvp/AppJava/ensenyament/notapremsavw/24523/ca/govern-destina-125-milions-deuros-construir-substituir-26-centres-escolars.do</a>. </p>\n\n<p><a href=\"https://www.youtube.com/watch?v=mB5d1V5vgSU\">https://www.youtube.com/watch?v=mB5d1V5vgSU</a></p>\n\n<p>Podeu veure el cartell al solar ( no el treuen per\u00f2 l'institut no es construeix )</p>", 
            "commentable_id": 179, 
            "commentable_type": "Proposal", 
            "created_at": "26/03/2016 14:21:20", 
            "flagged": false, 
            "hidden": false, 
            "id": 6500, 
            "moderator_id": null, 
            "permissions": {
                "hide": false, 
                "hide_author": false, 
                "vote": false
            }, 
            "total_dislikes": 0, 
            "total_likes": 12, 
            "total_votes": 12
        }, 
        {
            "administrator_id": null, 
            "alignment": 1, 
            "ancestry": null, 
            "as": null, 
            "author": {
                "avatar_image": "https://decidim.barcelona/assets/avatar-866795c99abc33a3160d1f3fa93ada46eb75e54134e777666b9ed16215b26534.png", 
                "erased": false, 
                "hidden": false, 
                "id": 15668, 
                "name": "alaconca", 
                "official": false, 
                "official_level": 0, 
                "role": null, 
                "verified_organization": null
            }, 
            "body": "<p>Falten instituts per donar sortida a les escoles del barri!!</p>", 
            "commentable_id": 179, 
            "commentable_type": "Proposal", 
            "created_at": "29/03/2016 13:17:10", 
            "flagged": false, 
            "hidden": false, 
            "id": 6726, 
            "moderator_id": null, 
            "permissions": {
                "hide": false, 
                "hide_author": false, 
                "vote": false
            }, 
            "total_dislikes": 0, 
            "total_likes": 5, 
            "total_votes": 5
        }, 
        {
            "administrator_id": null, 
            "alignment": 1, 
            "ancestry": null, 
            "as": null, 
            "author": {
                "avatar_image": "https://decidim.barcelona/assets/avatar-866795c99abc33a3160d1f3fa93ada46eb75e54134e777666b9ed16215b26534.png", 
                "erased": false, 
                "hidden": false, 
                "id": 16597, 
                "name": "carlescv", 
                "official": false, 
                "official_level": 0, 
                "role": null, 
                "verified_organization": null
            }, 
            "body": "<p>Calen centres nous amb projectes educatius que posin l'alumnat com a protagonistes de l'aprenentatge. Calen metodologies actives i engrescadores. Calen instituts on la participaci\u00f3 de l'alumnat, de les fam\u00edlies i de l'entorn del barri sigui elevada i enriquidora. Escoles de prim\u00e0ria com \"Els Encants\" i \"Fructu\u00f3s Gelabert\" necessiten instituts on la l\u00ednia pedag\u00f2gica sigui semblant. L'alumnat d'aquestes escoles no encaixar\u00e0 b\u00e9 en centres tradicionals. </p>", 
            "commentable_id": 179, 
            "commentable_type": "Proposal", 
            "created_at": "31/03/2016 23:34:04", 
            "flagged": false, 
            "hidden": false, 
            "id": 7312, 
            "moderator_id": null, 
            "permissions": {
                "hide": false, 
                "hide_author": false, 
                "vote": false
            }, 
            "total_dislikes": 0, 
            "total_likes": 9, 
            "total_votes": 9
        }, 
        {
            "administrator_id": null, 
            "alignment": 1, 
            "ancestry": null, 
            "as": null, 
            "author": {
                "avatar_image": "https://decidim.barcelona/assets/avatar-866795c99abc33a3160d1f3fa93ada46eb75e54134e777666b9ed16215b26534.png", 
                "erased": false, 
                "hidden": false, 
                "id": 62, 
                "name": "Vict\u00f2ria Pe\u00f1afiel", 
                "official": false, 
                "official_level": 0, 
                "role": null, 
                "verified_organization": null
            }, 
            "body": "<p>Perqu\u00e8 ja toca, no? El solar mort de f\u00e0stic des de fa anys quan el barri necessita amb urg\u00e8ncia un insti de qualitat!</p>", 
            "commentable_id": 179, 
            "commentable_type": "Proposal", 
            "created_at": "31/03/2016 23:49:44", 
            "flagged": false, 
            "hidden": false, 
            "id": 7313, 
            "moderator_id": null, 
            "permissions": {
                "hide": false, 
                "hide_author": false, 
                "vote": false
            }, 
            "total_dislikes": 0, 
            "total_likes": 10, 
            "total_votes": 10
        }, 
        {
            "administrator_id": null, 
            "alignment": 1, 
            "ancestry": null, 
            "as": null, 
            "author": {
                "avatar_image": "https://decidim.barcelona/assets/avatar-866795c99abc33a3160d1f3fa93ada46eb75e54134e777666b9ed16215b26534.png", 
                "erased": false, 
                "hidden": false, 
                "id": 16733, 
                "name": "solitaet", 
                "official": false, 
                "official_level": 0, 
                "role": null, 
                "verified_organization": null
            }, 
            "body": "<p>Necesitamos m\u00e1s institutos en la l\u00ednea educativa de escuelas como la Escola dels Encants</p>", 
            "commentable_id": 179, 
            "commentable_type": "Proposal", 
            "created_at": "01/04/2016 12:08:44", 
            "flagged": false, 
            "hidden": false, 
            "id": 7370, 
            "moderator_id": null, 
            "permissions": {
                "hide": false, 
                "hide_author": false, 
                "vote": false
            }, 
            "total_dislikes": 0, 
            "total_likes": 7, 
            "total_votes": 7
        }, 
        {
            "administrator_id": null, 
            "alignment": 1, 
            "ancestry": null, 
            "as": null, 
            "author": {
                "avatar_image": "https://decidim.barcelona/assets/avatar-866795c99abc33a3160d1f3fa93ada46eb75e54134e777666b9ed16215b26534.png", 
                "erased": false, 
                "hidden": false, 
                "id": 16806, 
                "name": "Gemm a", 
                "official": false, 
                "official_level": 0, 
                "role": null, 
                "verified_organization": null
            }, 
            "body": "<p>Volem un institut que segueixi la linea educativa de l' Escola dels Encants.  . Es molt  necessari.</p>", 
            "commentable_id": 179, 
            "commentable_type": "Proposal", 
            "created_at": "01/04/2016 14:13:10", 
            "flagged": false, 
            "hidden": false, 
            "id": 7413, 
            "moderator_id": null, 
            "permissions": {
                "hide": false, 
                "hide_author": false, 
                "vote": false
            }, 
            "total_dislikes": 0, 
            "total_likes": 6, 
            "total_votes": 6
        }, 
        {
            "administrator_id": null, 
            "alignment": 0, 
            "ancestry": null, 
            "as": null, 
            "author": {
                "avatar_image": "https://decidim.barcelona/assets/avatar-866795c99abc33a3160d1f3fa93ada46eb75e54134e777666b9ed16215b26534.png", 
                "erased": false, 
                "hidden": false, 
                "id": 17023, 
                "name": "Stefania", 
                "official": false, 
                "official_level": 0, 
                "role": null, 
                "verified_organization": null
            }, 
            "body": "<p> En la Eixample dreta Hay falta de plaza en secundaria. Queremos un nievo Instituto que sigua la linea pedagogica de la Escola dels Encantd</p>", 
            "commentable_id": 179, 
            "commentable_type": "Proposal", 
            "created_at": "02/04/2016 10:31:03", 
            "flagged": false, 
            "hidden": false, 
            "id": 7501, 
            "moderator_id": null, 
            "permissions": {
                "hide": false, 
                "hide_author": false, 
                "vote": false
            }, 
            "total_dislikes": 0, 
            "total_likes": 6, 
            "total_votes": 6
        }, 
        {
            "administrator_id": null, 
            "alignment": 1, 
            "ancestry": null, 
            "as": null, 
            "author": {
                "avatar_image": "https://decidim.barcelona/assets/avatar-866795c99abc33a3160d1f3fa93ada46eb75e54134e777666b9ed16215b26534.png", 
                "erased": false, 
                "hidden": false, 
                "id": 16697, 
                "name": "gwenn", 
                "official": false, 
                "official_level": 0, 
                "role": null, 
                "verified_organization": null
            }, 
            "body": "<p>Volem  un Institut al barri per donar continu\u00eftat al projecte de l'Escola dels Encants</p>", 
            "commentable_id": 179, 
            "commentable_type": "Proposal", 
            "created_at": "02/04/2016 14:49:40", 
            "flagged": false, 
            "hidden": false, 
            "id": 7514, 
            "moderator_id": null, 
            "permissions": {
                "hide": false, 
                "hide_author": false, 
                "vote": false
            }, 
            "total_dislikes": 0, 
            "total_likes": 8, 
            "total_votes": 8
        }, 
        {
            "administrator_id": null, 
            "alignment": 1, 
            "ancestry": null, 
            "as": null, 
            "author": {
                "avatar_image": "https://decidim.barcelona/assets/avatar-866795c99abc33a3160d1f3fa93ada46eb75e54134e777666b9ed16215b26534.png", 
                "erased": false, 
                "hidden": false, 
                "id": 17139, 
                "name": "GISELLE TORRES", 
                "official": false, 
                "official_level": 0, 
                "role": null, 
                "verified_organization": null
            }, 
            "body": "<p>Estas escuelas deben seguir aflorando y les debemos dejar espacio para que estos proyectos ganen m\u00e1s fuerza, pues son la base de una mejor y mayor autonom\u00eda para los ni\u00f1os y ni\u00f1as de ahora y hombres y mujeres del futuro\n</p>", 
            "commentable_id": 179, 
            "commentable_type": "Proposal", 
            "created_at": "02/04/2016 18:26:02", 
            "flagged": false, 
            "hidden": false, 
            "id": 7525, 
            "moderator_id": null, 
            "permissions": {
                "hide": false, 
                "hide_author": false, 
                "vote": false
            }, 
            "total_dislikes": 0, 
            "total_likes": 6, 
            "total_votes": 6
        }, 
        {
            "administrator_id": null, 
            "alignment": 1, 
            "ancestry": null, 
            "as": null, 
            "author": {
                "avatar_image": "https://decidim.barcelona/assets/avatar-866795c99abc33a3160d1f3fa93ada46eb75e54134e777666b9ed16215b26534.png", 
                "erased": false, 
                "hidden": false, 
                "id": 17169, 
                "name": "k1000", 
                "official": false, 
                "official_level": 0, 
                "role": null, 
                "verified_organization": null
            }, 
            "body": "<p>Barcelona ha apoyado un cambio muy favorable en la educaci\u00f3n primaria pero no ser\u00eda coherente ni significativo si quedara solo en esa etapa, para que de sus frutos, el cambio tiene que llegar tambi\u00e9n  a los institutos, colegios como el Quatre Cantons del Poblenou lo avalan, necesitamos que haya m\u00e1s institutos en la l\u00ednea educativa de escuelas como la Escola dels Encants, es urgente!</p>", 
            "commentable_id": 179, 
            "commentable_type": "Proposal", 
            "created_at": "02/04/2016 19:04:32", 
            "flagged": false, 
            "hidden": false, 
            "id": 7533, 
            "moderator_id": null, 
            "permissions": {
                "hide": false, 
                "hide_author": false, 
                "vote": false
            }, 
            "total_dislikes": 0, 
            "total_likes": 9, 
            "total_votes": 9
        }, 
        {
            "administrator_id": null, 
            "alignment": 1, 
            "ancestry": null, 
            "as": null, 
            "author": {
                "avatar_image": "https://decidim.barcelona/assets/avatar-866795c99abc33a3160d1f3fa93ada46eb75e54134e777666b9ed16215b26534.png", 
                "erased": false, 
                "hidden": false, 
                "id": 17304, 
                "name": "cris amat", 
                "official": false, 
                "official_level": 0, 
                "role": null, 
                "verified_organization": null
            }, 
            "body": "<p>Falten instituts p\u00fablics al barri, i sobretot falta algun que pugui donar continu\u00eftat al projecte educatiu que segueix l'Escola dels Encants.</p>", 
            "commentable_id": 179, 
            "commentable_type": "Proposal", 
            "created_at": "03/04/2016 15:28:33", 
            "flagged": false, 
            "hidden": false, 
            "id": 7600, 
            "moderator_id": null, 
            "permissions": {
                "hide": false, 
                "hide_author": false, 
                "vote": false
            }, 
            "total_dislikes": 0, 
            "total_likes": 5, 
            "total_votes": 5
        }, 
        {
            "administrator_id": null, 
            "alignment": 1, 
            "ancestry": null, 
            "as": null, 
            "author": {
                "avatar_image": "https://decidim.barcelona/assets/avatar-866795c99abc33a3160d1f3fa93ada46eb75e54134e777666b9ed16215b26534.png", 
                "erased": false, 
                "hidden": false, 
                "id": 17415, 
                "name": "Tito", 
                "official": false, 
                "official_level": 0, 
                "role": null, 
                "verified_organization": null
            }, 
            "body": "<p>Es muy necesario que los alumnos del colegio els encants puedan continuar con el mismo sistema de estudios en el instituto.</p>", 
            "commentable_id": 179, 
            "commentable_type": "Proposal", 
            "created_at": "03/04/2016 19:13:04", 
            "flagged": false, 
            "hidden": false, 
            "id": 7612, 
            "moderator_id": null, 
            "permissions": {
                "hide": false, 
                "hide_author": false, 
                "vote": false
            }, 
            "total_dislikes": 0, 
            "total_likes": 5, 
            "total_votes": 5
        }, 
        {
            "administrator_id": null, 
            "alignment": 0, 
            "ancestry": null, 
            "as": null, 
            "author": {
                "avatar_image": "https://decidim.barcelona/assets/avatar-866795c99abc33a3160d1f3fa93ada46eb75e54134e777666b9ed16215b26534.png", 
                "erased": false, 
                "hidden": false, 
                "id": 17522, 
                "name": "AlexArlette", 
                "official": false, 
                "official_level": 0, 
                "role": null, 
                "verified_organization": null
            }, 
            "body": "<p>Volem un Institut al barri per donar continu\u00eftat al projecte de l'Escola dels Encants!</p>", 
            "commentable_id": 179, 
            "commentable_type": "Proposal", 
            "created_at": "03/04/2016 21:45:35", 
            "flagged": false, 
            "hidden": false, 
            "id": 7629, 
            "moderator_id": null, 
            "permissions": {
                "hide": false, 
                "hide_author": false, 
                "vote": false
            }, 
            "total_dislikes": 0, 
            "total_likes": 2, 
            "total_votes": 2
        }
    ], 
    "meta": {
        "current_page": 1, 
        "next_page": 2, 
        "prev_page": null, 
        "total_count": 54, 
        "total_pages": 3
    }
}