{
    "comments": [
        {
            "administrator_id": null, 
            "alignment": 1, 
            "ancestry": null, 
            "as": null, 
            "author": {
                "avatar_image": "https://decidim.barcelona/assets/avatar-866795c99abc33a3160d1f3fa93ada46eb75e54134e777666b9ed16215b26534.png", 
                "erased": false, 
                "hidden": false, 
                "id": 11846, 
                "name": "F1967", 
                "official": false, 
                "official_level": 0, 
                "role": null, 
                "verified_organization": null
            }, 
            "body": "<p>Hem de reduir la contaminacio al centre de la ciutat, els dies laborables s hauria de limitar l' access nomes als residents i vehicles ecologics. Pero abans de fer aixo s' ha de millorar el transport public, especialment el metro.</p>", 
            "commentable_id": 260, 
            "commentable_type": "Proposal", 
            "created_at": "12/03/2016 15:29:51", 
            "flagged": false, 
            "hidden": false, 
            "id": 4607, 
            "moderator_id": null, 
            "permissions": {
                "hide": false, 
                "hide_author": false, 
                "vote": false
            }, 
            "total_dislikes": 0, 
            "total_likes": 0, 
            "total_votes": 0
        }, 
        {
            "administrator_id": null, 
            "alignment": 1, 
            "ancestry": null, 
            "as": null, 
            "author": {
                "avatar_image": "https://decidim.barcelona/assets/avatar-866795c99abc33a3160d1f3fa93ada46eb75e54134e777666b9ed16215b26534.png", 
                "erased": false, 
                "hidden": false, 
                "id": 3946, 
                "name": "Jaume Ferret", 
                "official": false, 
                "official_level": 0, 
                "role": null, 
                "verified_organization": null
            }, 
            "body": "<p>Fa uns dies, vaig parlar amb un taxista, i li vaig preguntar que com \u00e9s que no circulaven amb vehicles el\u00e8ctrics. La seva resposta em va decebre una mica: no hi ha punt de c\u00e0rrega el\u00e8ctrica ni ajuts rellevants per compensar l'alt cost que encara tenen aquests vehicles.  Aquell taxista em va comentar que tan ell com els seus companys, fan uns 200 km al dia per la ciutat (per torn!!). Un vehicle particular, per anar de casa a la feina, o recollir els nens al cole o fer algun recado, no crec que en faci m\u00e9s de 20km al dia (i crec que tiro llarg!!) per dions la ciutat.</p>\n\n<p>Crec que, tenint en compte que la gran majoria de taxis son di\u00e8sel (dels m\u00e9s contaminants), si realment es fessin els punts de rec\u00e0rrega necessaris a les parades de taxi i es dongu\u00e9s una ajuda (a estudiar) per cambiar-se a vehicle el\u00e8ctric, tenint en compte la enorme quantitat de gasoil que cremen aquests vehicles, substituint nom\u00e9s 1.000 taxis, es conseguiria un efecte sobre la contaminaci\u00f3 semblant a que 10.000 privats es cambiessin el vehicle!!!!</p>\n\n<p>Crec que pel benefici que suposaria per tots els habitans (tamb\u00e9 es reduiria la contaminaci\u00f3 ac\u00fastica), valdria la pena estudiar-ho!!</p>", 
            "commentable_id": 260, 
            "commentable_type": "Proposal", 
            "created_at": "15/03/2016 11:59:23", 
            "flagged": false, 
            "hidden": false, 
            "id": 4990, 
            "moderator_id": null, 
            "permissions": {
                "hide": false, 
                "hide_author": false, 
                "vote": false
            }, 
            "total_dislikes": 0, 
            "total_likes": 0, 
            "total_votes": 0
        }, 
        {
            "administrator_id": null, 
            "alignment": 0, 
            "ancestry": null, 
            "as": null, 
            "author": {
                "avatar_image": "https://decidim.barcelona/assets/avatar-866795c99abc33a3160d1f3fa93ada46eb75e54134e777666b9ed16215b26534.png", 
                "erased": false, 
                "hidden": false, 
                "id": 12008, 
                "name": "Francisco", 
                "official": false, 
                "official_level": 0, 
                "role": null, 
                "verified_organization": null
            }, 
            "body": "<p>Voleu dir que aix\u00f2 no s'ha fet ja abans?</p>", 
            "commentable_id": 260, 
            "commentable_type": "Proposal", 
            "created_at": "22/03/2016 23:29:11", 
            "flagged": false, 
            "hidden": false, 
            "id": 6346, 
            "moderator_id": null, 
            "permissions": {
                "hide": false, 
                "hide_author": false, 
                "vote": false
            }, 
            "total_dislikes": 0, 
            "total_likes": 0, 
            "total_votes": 0
        }, 
        {
            "administrator_id": null, 
            "alignment": 1, 
            "ancestry": null, 
            "as": null, 
            "author": {
                "avatar_image": "https://decidim.barcelona/assets/avatar-866795c99abc33a3160d1f3fa93ada46eb75e54134e777666b9ed16215b26534.png", 
                "erased": false, 
                "hidden": false, 
                "id": 14902, 
                "name": "ktoln", 
                "official": false, 
                "official_level": 0, 
                "role": null, 
                "verified_organization": null
            }, 
            "body": "<p>Cal millorar el transport p\u00fablic a nivell general per\u00f2 principalment a les zones amb menys mancances per a que sigui m\u00e9s atractiu el transport p\u00fablic que el privat. Encara avui en dia hi ha zones de Barcelona on \u00e9s molt dif\u00edcil arribar en transport p\u00fablic per poca oferta i per poca freq\u00fc\u00e8ncia. No descartaria implementar un sistema de peatge per lectura de matr\u00edcules amb lliure circulaci\u00f3 pels ve\u00efns de la zona. I un pl\u00e0 de finan\u00e7ament i de promoci\u00f3 de la renovaci\u00f3 del parc de motocicletes de petita cilindrada per motos el\u00e8ctriques.</p>", 
            "commentable_id": 260, 
            "commentable_type": "Proposal", 
            "created_at": "23/03/2016 17:25:03", 
            "flagged": false, 
            "hidden": false, 
            "id": 6408, 
            "moderator_id": null, 
            "permissions": {
                "hide": false, 
                "hide_author": false, 
                "vote": false
            }, 
            "total_dislikes": 0, 
            "total_likes": 0, 
            "total_votes": 0
        }, 
        {
            "administrator_id": null, 
            "alignment": 1, 
            "ancestry": null, 
            "as": null, 
            "author": {
                "avatar_image": "https://decidim.barcelona/assets/avatar-866795c99abc33a3160d1f3fa93ada46eb75e54134e777666b9ed16215b26534.png", 
                "erased": false, 
                "hidden": false, 
                "id": 15599, 
                "name": "Paseante", 
                "official": false, 
                "official_level": 0, 
                "role": null, 
                "verified_organization": null
            }, 
            "body": "<p>\u00bfQui\u00e9n ha dise\u00f1ado las nuevas l\u00edneas de bus? \u00bfQu\u00e9 informes de grandes consultoras hemos pagado? Los buses H y V no han mejorado casi nada. Deber\u00edamos recuperar las antiguas l\u00edneas mejoradas con retoques y sobre todo, con aumento de frecuencias. \u00bfCuando tendr\u00e1n panel informativo de llegadas todas las Paradas de bus?</p>", 
            "commentable_id": 260, 
            "commentable_type": "Proposal", 
            "created_at": "29/03/2016 22:58:00", 
            "flagged": false, 
            "hidden": false, 
            "id": 6875, 
            "moderator_id": null, 
            "permissions": {
                "hide": false, 
                "hide_author": false, 
                "vote": false
            }, 
            "total_dislikes": 0, 
            "total_likes": 0, 
            "total_votes": 0
        }, 
        {
            "administrator_id": null, 
            "alignment": 0, 
            "ancestry": null, 
            "as": null, 
            "author": {
                "avatar_image": "https://decidim.barcelona/assets/avatar-866795c99abc33a3160d1f3fa93ada46eb75e54134e777666b9ed16215b26534.png", 
                "erased": false, 
                "hidden": false, 
                "id": 9262, 
                "name": "Suport General - Decidim Barcelona", 
                "official": false, 
                "official_level": 0, 
                "role": null, 
                "verified_organization": null
            }, 
            "body": "<p><a href=\"https://decidim.barcelona/proposals/rotondes-a-l-eixample\">https://decidim.barcelona/proposals/rotondes-a-l-eixample</a></p>", 
            "commentable_id": 260, 
            "commentable_type": "Proposal", 
            "created_at": "07/04/2016 09:52:44", 
            "flagged": false, 
            "hidden": false, 
            "id": 9065, 
            "moderator_id": null, 
            "permissions": {
                "hide": false, 
                "hide_author": false, 
                "vote": false
            }, 
            "total_dislikes": 0, 
            "total_likes": 0, 
            "total_votes": 0
        }, 
        {
            "administrator_id": null, 
            "alignment": 0, 
            "ancestry": null, 
            "as": null, 
            "author": {
                "avatar_image": "https://decidim.barcelona/assets/avatar-866795c99abc33a3160d1f3fa93ada46eb75e54134e777666b9ed16215b26534.png", 
                "erased": false, 
                "hidden": false, 
                "id": 9262, 
                "name": "Suport General - Decidim Barcelona", 
                "official": false, 
                "official_level": 0, 
                "role": null, 
                "verified_organization": null
            }, 
            "body": "<p><a href=\"https://decidim.barcelona/proposals/doble-carril-bus-en-arteries-importants\">https://decidim.barcelona/proposals/doble-carril-bus-en-arteries-importants</a></p>", 
            "commentable_id": 260, 
            "commentable_type": "Proposal", 
            "created_at": "14/04/2016 16:34:11", 
            "flagged": false, 
            "hidden": false, 
            "id": 15942, 
            "moderator_id": null, 
            "permissions": {
                "hide": false, 
                "hide_author": false, 
                "vote": false
            }, 
            "total_dislikes": 0, 
            "total_likes": 0, 
            "total_votes": 0
        }, 
        {
            "administrator_id": null, 
            "alignment": 0, 
            "ancestry": null, 
            "as": null, 
            "author": {
                "avatar_image": "https://decidim.barcelona/assets/avatar-866795c99abc33a3160d1f3fa93ada46eb75e54134e777666b9ed16215b26534.png", 
                "erased": false, 
                "hidden": false, 
                "id": 9262, 
                "name": "Suport General - Decidim Barcelona", 
                "official": false, 
                "official_level": 0, 
                "role": null, 
                "verified_organization": null
            }, 
            "body": "<p><a href=\"https://decidim.barcelona/proposals/cercar-l-equilibri-de-la-mobilitat-entre-els-vehicle-privat-i-altres-formes-de-transport-desplacament\">https://decidim.barcelona/proposals/cercar-l-equilibri-de-la-mobilitat-entre-els-vehicle-privat-i-altres-formes-de-transport-desplacament</a></p>", 
            "commentable_id": 260, 
            "commentable_type": "Proposal", 
            "created_at": "14/04/2016 16:35:08", 
            "flagged": false, 
            "hidden": false, 
            "id": 15945, 
            "moderator_id": null, 
            "permissions": {
                "hide": false, 
                "hide_author": false, 
                "vote": false
            }, 
            "total_dislikes": 0, 
            "total_likes": 0, 
            "total_votes": 0
        }, 
        {
            "administrator_id": null, 
            "alignment": 0, 
            "ancestry": null, 
            "as": null, 
            "author": {
                "avatar_image": "https://decidim.barcelona/assets/avatar-866795c99abc33a3160d1f3fa93ada46eb75e54134e777666b9ed16215b26534.png", 
                "erased": false, 
                "hidden": false, 
                "id": 9262, 
                "name": "Suport General - Decidim Barcelona", 
                "official": false, 
                "official_level": 0, 
                "role": null, 
                "verified_organization": null
            }, 
            "body": "<p><a href=\"https://decidim.barcelona/proposals/realitzar-accions-adrecades-a-pacificar-el-transit\">https://decidim.barcelona/proposals/realitzar-accions-adrecades-a-pacificar-el-transit</a></p>", 
            "commentable_id": 260, 
            "commentable_type": "Proposal", 
            "created_at": "14/04/2016 16:35:34", 
            "flagged": false, 
            "hidden": false, 
            "id": 15946, 
            "moderator_id": null, 
            "permissions": {
                "hide": false, 
                "hide_author": false, 
                "vote": false
            }, 
            "total_dislikes": 0, 
            "total_likes": 0, 
            "total_votes": 0
        }, 
        {
            "administrator_id": null, 
            "alignment": 0, 
            "ancestry": null, 
            "as": null, 
            "author": {
                "avatar_image": "https://decidim.barcelona/assets/avatar-866795c99abc33a3160d1f3fa93ada46eb75e54134e777666b9ed16215b26534.png", 
                "erased": false, 
                "hidden": false, 
                "id": 9262, 
                "name": "Suport General - Decidim Barcelona", 
                "official": false, 
                "official_level": 0, 
                "role": null, 
                "verified_organization": null
            }, 
            "body": "<p><a href=\"https://decidim.barcelona/proposals/pacificacio-de-gran-via\">https://decidim.barcelona/proposals/pacificacio-de-gran-via</a></p>", 
            "commentable_id": 260, 
            "commentable_type": "Proposal", 
            "created_at": "14/04/2016 16:36:12", 
            "flagged": false, 
            "hidden": false, 
            "id": 15950, 
            "moderator_id": null, 
            "permissions": {
                "hide": false, 
                "hide_author": false, 
                "vote": false
            }, 
            "total_dislikes": 0, 
            "total_likes": 0, 
            "total_votes": 0
        }, 
        {
            "administrator_id": null, 
            "alignment": 0, 
            "ancestry": null, 
            "as": null, 
            "author": {
                "avatar_image": "https://decidim.barcelona/assets/avatar-866795c99abc33a3160d1f3fa93ada46eb75e54134e777666b9ed16215b26534.png", 
                "erased": false, 
                "hidden": false, 
                "id": 9262, 
                "name": "Suport General - Decidim Barcelona", 
                "official": false, 
                "official_level": 0, 
                "role": null, 
                "verified_organization": null
            }, 
            "body": "<p><a href=\"https://decidim.barcelona/proposals/millora-de-la-mobilitat-al-barri-establir-el-vianant-com-a-prioritari-despres-la-bicicleta-i-el-transport-public\">https://decidim.barcelona/proposals/millora-de-la-mobilitat-al-barri-establir-el-vianant-com-a-prioritari-despres-la-bicicleta-i-el-transport-public</a></p>", 
            "commentable_id": 260, 
            "commentable_type": "Proposal", 
            "created_at": "14/04/2016 16:38:17", 
            "flagged": false, 
            "hidden": false, 
            "id": 15956, 
            "moderator_id": null, 
            "permissions": {
                "hide": false, 
                "hide_author": false, 
                "vote": false
            }, 
            "total_dislikes": 0, 
            "total_likes": 0, 
            "total_votes": 0
        }, 
        {
            "administrator_id": null, 
            "alignment": 0, 
            "ancestry": null, 
            "as": null, 
            "author": {
                "avatar_image": "https://decidim.barcelona/assets/avatar-866795c99abc33a3160d1f3fa93ada46eb75e54134e777666b9ed16215b26534.png", 
                "erased": false, 
                "hidden": false, 
                "id": 9262, 
                "name": "Suport General - Decidim Barcelona", 
                "official": false, 
                "official_level": 0, 
                "role": null, 
                "verified_organization": null
            }, 
            "body": "<p><a href=\"https://decidim.barcelona/proposals/carrers-basics-de-l-eixample-per-a-carrils-bici-i-transport-public\">https://decidim.barcelona/proposals/carrers-basics-de-l-eixample-per-a-carrils-bici-i-transport-public</a></p>", 
            "commentable_id": 260, 
            "commentable_type": "Proposal", 
            "created_at": "14/04/2016 16:39:19", 
            "flagged": false, 
            "hidden": false, 
            "id": 15959, 
            "moderator_id": null, 
            "permissions": {
                "hide": false, 
                "hide_author": false, 
                "vote": false
            }, 
            "total_dislikes": 0, 
            "total_likes": 0, 
            "total_votes": 0
        }, 
        {
            "administrator_id": null, 
            "alignment": 0, 
            "ancestry": null, 
            "as": null, 
            "author": {
                "avatar_image": "https://decidim.barcelona/assets/avatar-866795c99abc33a3160d1f3fa93ada46eb75e54134e777666b9ed16215b26534.png", 
                "erased": false, 
                "hidden": false, 
                "id": 9262, 
                "name": "Suport General - Decidim Barcelona", 
                "official": false, 
                "official_level": 0, 
                "role": null, 
                "verified_organization": null
            }, 
            "body": "<p><a href=\"https://decidim.barcelona/proposals/aplicar-les-mesures-establertes-en-el-pmu-pla-de-mobilitat-urbana\">https://decidim.barcelona/proposals/aplicar-les-mesures-establertes-en-el-pmu-pla-de-mobilitat-urbana</a></p>", 
            "commentable_id": 260, 
            "commentable_type": "Proposal", 
            "created_at": "14/04/2016 16:41:43", 
            "flagged": false, 
            "hidden": false, 
            "id": 15963, 
            "moderator_id": null, 
            "permissions": {
                "hide": false, 
                "hide_author": false, 
                "vote": false
            }, 
            "total_dislikes": 0, 
            "total_likes": 0, 
            "total_votes": 0
        }, 
        {
            "administrator_id": null, 
            "alignment": 0, 
            "ancestry": null, 
            "as": null, 
            "author": {
                "avatar_image": "https://decidim.barcelona/assets/avatar-866795c99abc33a3160d1f3fa93ada46eb75e54134e777666b9ed16215b26534.png", 
                "erased": false, 
                "hidden": false, 
                "id": 9262, 
                "name": "Suport General - Decidim Barcelona", 
                "official": false, 
                "official_level": 0, 
                "role": null, 
                "verified_organization": null
            }, 
            "body": "<p><a href=\"https://decidim.barcelona/proposals/acutacions-relacionades-amb-la-mobilitat-sostenible\">https://decidim.barcelona/proposals/acutacions-relacionades-amb-la-mobilitat-sostenible</a></p>", 
            "commentable_id": 260, 
            "commentable_type": "Proposal", 
            "created_at": "14/04/2016 16:48:43", 
            "flagged": false, 
            "hidden": false, 
            "id": 15982, 
            "moderator_id": null, 
            "permissions": {
                "hide": false, 
                "hide_author": false, 
                "vote": false
            }, 
            "total_dislikes": 0, 
            "total_likes": 0, 
            "total_votes": 0
        }, 
        {
            "administrator_id": null, 
            "alignment": 0, 
            "ancestry": null, 
            "as": null, 
            "author": {
                "avatar_image": "https://decidim.barcelona/assets/avatar-866795c99abc33a3160d1f3fa93ada46eb75e54134e777666b9ed16215b26534.png", 
                "erased": false, 
                "hidden": false, 
                "id": 9262, 
                "name": "Suport General - Decidim Barcelona", 
                "official": false, 
                "official_level": 0, 
                "role": null, 
                "verified_organization": null
            }, 
            "body": "<p><a href=\"https://decidim.barcelona/proposals/reduccio-dels-carrils-a-l-eixample\">https://decidim.barcelona/proposals/reduccio-dels-carrils-a-l-eixample</a></p>", 
            "commentable_id": 260, 
            "commentable_type": "Proposal", 
            "created_at": "14/04/2016 17:09:03", 
            "flagged": false, 
            "hidden": false, 
            "id": 16036, 
            "moderator_id": null, 
            "permissions": {
                "hide": false, 
                "hide_author": false, 
                "vote": false
            }, 
            "total_dislikes": 0, 
            "total_likes": 0, 
            "total_votes": 0
        }, 
        {
            "administrator_id": null, 
            "alignment": 0, 
            "ancestry": null, 
            "as": null, 
            "author": {
                "avatar_image": "https://decidim.barcelona/assets/avatar-866795c99abc33a3160d1f3fa93ada46eb75e54134e777666b9ed16215b26534.png", 
                "erased": false, 
                "hidden": false, 
                "id": 9262, 
                "name": "Suport General - Decidim Barcelona", 
                "official": false, 
                "official_level": 0, 
                "role": null, 
                "verified_organization": null
            }, 
            "body": "<p><a href=\"https://decidim.barcelona/proposals/actuacions-en-l-ambit-de-la-mobilitat-sostenible-56ea59ae-1f2e-40f9-9126-f1c2c8afa514\">https://decidim.barcelona/proposals/actuacions-en-l-ambit-de-la-mobilitat-sostenible-56ea59ae-1f2e-40f9-9126-f1c2c8afa514</a></p>", 
            "commentable_id": 260, 
            "commentable_type": "Proposal", 
            "created_at": "14/04/2016 17:09:21", 
            "flagged": false, 
            "hidden": false, 
            "id": 16039, 
            "moderator_id": null, 
            "permissions": {
                "hide": false, 
                "hide_author": false, 
                "vote": false
            }, 
            "total_dislikes": 0, 
            "total_likes": 0, 
            "total_votes": 0
        }, 
        {
            "administrator_id": null, 
            "alignment": 0, 
            "ancestry": null, 
            "as": null, 
            "author": {
                "avatar_image": "https://decidim.barcelona/assets/avatar-866795c99abc33a3160d1f3fa93ada46eb75e54134e777666b9ed16215b26534.png", 
                "erased": false, 
                "hidden": false, 
                "id": 9262, 
                "name": "Suport General - Decidim Barcelona", 
                "official": false, 
                "official_level": 0, 
                "role": null, 
                "verified_organization": null
            }, 
            "body": "<p><a href=\"https://decidim.barcelona/proposals/ampliacio-d-andanes-a-les-estacions-de-l2-i-l5\">https://decidim.barcelona/proposals/ampliacio-d-andanes-a-les-estacions-de-l2-i-l5</a></p>", 
            "commentable_id": 260, 
            "commentable_type": "Proposal", 
            "created_at": "14/04/2016 17:14:56", 
            "flagged": false, 
            "hidden": false, 
            "id": 16062, 
            "moderator_id": null, 
            "permissions": {
                "hide": false, 
                "hide_author": false, 
                "vote": false
            }, 
            "total_dislikes": 0, 
            "total_likes": 0, 
            "total_votes": 0
        }, 
        {
            "administrator_id": null, 
            "alignment": 0, 
            "ancestry": null, 
            "as": null, 
            "author": {
                "avatar_image": "https://decidim.barcelona/assets/avatar-866795c99abc33a3160d1f3fa93ada46eb75e54134e777666b9ed16215b26534.png", 
                "erased": false, 
                "hidden": false, 
                "id": 9262, 
                "name": "Suport General - Decidim Barcelona", 
                "official": false, 
                "official_level": 0, 
                "role": null, 
                "verified_organization": null
            }, 
            "body": "<p><a href=\"https://decidim.barcelona/proposals/mobilitat-sostenible\">https://decidim.barcelona/proposals/mobilitat-sostenible</a></p>", 
            "commentable_id": 260, 
            "commentable_type": "Proposal", 
            "created_at": "14/04/2016 17:16:20", 
            "flagged": false, 
            "hidden": false, 
            "id": 16064, 
            "moderator_id": null, 
            "permissions": {
                "hide": false, 
                "hide_author": false, 
                "vote": false
            }, 
            "total_dislikes": 0, 
            "total_likes": 0, 
            "total_votes": 0
        }, 
        {
            "administrator_id": null, 
            "alignment": 0, 
            "ancestry": null, 
            "as": null, 
            "author": {
                "avatar_image": "https://decidim.barcelona/assets/avatar-866795c99abc33a3160d1f3fa93ada46eb75e54134e777666b9ed16215b26534.png", 
                "erased": false, 
                "hidden": false, 
                "id": 9262, 
                "name": "Suport General - Decidim Barcelona", 
                "official": false, 
                "official_level": 0, 
                "role": null, 
                "verified_organization": null
            }, 
            "body": "<p><a href=\"https://decidim.barcelona/proposals/mobilitat-sostenible-bd75f75a-73a8-4678-bc6a-02c3ef7dbf6f\">https://decidim.barcelona/proposals/mobilitat-sostenible-bd75f75a-73a8-4678-bc6a-02c3ef7dbf6f</a></p>", 
            "commentable_id": 260, 
            "commentable_type": "Proposal", 
            "created_at": "14/04/2016 17:16:43", 
            "flagged": false, 
            "hidden": false, 
            "id": 16065, 
            "moderator_id": null, 
            "permissions": {
                "hide": false, 
                "hide_author": false, 
                "vote": false
            }, 
            "total_dislikes": 0, 
            "total_likes": 0, 
            "total_votes": 0
        }, 
        {
            "administrator_id": null, 
            "alignment": 0, 
            "ancestry": null, 
            "as": null, 
            "author": {
                "avatar_image": "https://decidim.barcelona/assets/avatar-866795c99abc33a3160d1f3fa93ada46eb75e54134e777666b9ed16215b26534.png", 
                "erased": false, 
                "hidden": false, 
                "id": 9262, 
                "name": "Suport General - Decidim Barcelona", 
                "official": false, 
                "official_level": 0, 
                "role": null, 
                "verified_organization": null
            }, 
            "body": "<p><a href=\"https://decidim.barcelona/proposals/mobilitat-sostenible-bd75f75a-73a8-4678-bc6a-02c3ef7dbf6f\">https://decidim.barcelona/proposals/mobilitat-sostenible-bd75f75a-73a8-4678-bc6a-02c3ef7dbf6f</a></p>", 
            "commentable_id": 260, 
            "commentable_type": "Proposal", 
            "created_at": "14/04/2016 17:18:38", 
            "flagged": false, 
            "hidden": false, 
            "id": 16072, 
            "moderator_id": null, 
            "permissions": {
                "hide": false, 
                "hide_author": false, 
                "vote": false
            }, 
            "total_dislikes": 0, 
            "total_likes": 0, 
            "total_votes": 0
        }
    ], 
    "meta": {
        "current_page": 1, 
        "next_page": 2, 
        "prev_page": null, 
        "total_count": 31, 
        "total_pages": 2
    }
}