{
    "comments": [
        {
            "administrator_id": null, 
            "alignment": 0, 
            "ancestry": null, 
            "as": null, 
            "author": {
                "avatar_image": "https://decidim.barcelona/assets/avatar-866795c99abc33a3160d1f3fa93ada46eb75e54134e777666b9ed16215b26534.png", 
                "erased": false, 
                "hidden": false, 
                "id": 17741, 
                "name": "Suport General3 - Decidim Barcelona", 
                "official": false, 
                "official_level": 0, 
                "role": null, 
                "verified_organization": null
            }, 
            "body": "<p><a href=\"https://decidim.barcelona/proposals/actuacions-en-l-ambit-de-la-mobilitat-sostenible\">https://decidim.barcelona/proposals/actuacions-en-l-ambit-de-la-mobilitat-sostenible</a></p>", 
            "commentable_id": 260, 
            "commentable_type": "Proposal", 
            "created_at": "14/04/2016 17:20:36", 
            "flagged": false, 
            "hidden": false, 
            "id": 16079, 
            "moderator_id": null, 
            "permissions": {
                "hide": false, 
                "hide_author": false, 
                "vote": false
            }, 
            "total_dislikes": 0, 
            "total_likes": 0, 
            "total_votes": 0
        }, 
        {
            "administrator_id": null, 
            "alignment": 0, 
            "ancestry": null, 
            "as": null, 
            "author": {
                "avatar_image": "https://decidim.barcelona/assets/avatar-866795c99abc33a3160d1f3fa93ada46eb75e54134e777666b9ed16215b26534.png", 
                "erased": false, 
                "hidden": false, 
                "id": 9262, 
                "name": "Suport General - Decidim Barcelona", 
                "official": false, 
                "official_level": 0, 
                "role": null, 
                "verified_organization": null
            }, 
            "body": "<p><a href=\"https://decidim.barcelona/proposals/mobilitat-sostenible-bd75f75a-73a8-4678-bc6a-02c3ef7dbf6f\">https://decidim.barcelona/proposals/mobilitat-sostenible-bd75f75a-73a8-4678-bc6a-02c3ef7dbf6f</a></p>", 
            "commentable_id": 260, 
            "commentable_type": "Proposal", 
            "created_at": "14/04/2016 17:54:52", 
            "flagged": false, 
            "hidden": false, 
            "id": 16155, 
            "moderator_id": null, 
            "permissions": {
                "hide": false, 
                "hide_author": false, 
                "vote": false
            }, 
            "total_dislikes": 0, 
            "total_likes": 0, 
            "total_votes": 0
        }, 
        {
            "administrator_id": null, 
            "alignment": 0, 
            "ancestry": null, 
            "as": null, 
            "author": {
                "avatar_image": "https://decidim.barcelona/assets/avatar-866795c99abc33a3160d1f3fa93ada46eb75e54134e777666b9ed16215b26534.png", 
                "erased": false, 
                "hidden": false, 
                "id": 9262, 
                "name": "Suport General - Decidim Barcelona", 
                "official": false, 
                "official_level": 0, 
                "role": null, 
                "verified_organization": null
            }, 
            "body": "<p><a href=\"https://decidim.barcelona/proposals/regulacio-del-transit-de-cotxes\">https://decidim.barcelona/proposals/regulacio-del-transit-de-cotxes</a></p>", 
            "commentable_id": 260, 
            "commentable_type": "Proposal", 
            "created_at": "14/04/2016 17:55:35", 
            "flagged": false, 
            "hidden": false, 
            "id": 16159, 
            "moderator_id": null, 
            "permissions": {
                "hide": false, 
                "hide_author": false, 
                "vote": false
            }, 
            "total_dislikes": 0, 
            "total_likes": 0, 
            "total_votes": 0
        }, 
        {
            "administrator_id": null, 
            "alignment": 0, 
            "ancestry": null, 
            "as": null, 
            "author": {
                "avatar_image": "https://decidim.barcelona/assets/avatar-866795c99abc33a3160d1f3fa93ada46eb75e54134e777666b9ed16215b26534.png", 
                "erased": false, 
                "hidden": false, 
                "id": 9262, 
                "name": "Suport General - Decidim Barcelona", 
                "official": false, 
                "official_level": 0, 
                "role": null, 
                "verified_organization": null
            }, 
            "body": "<p><a href=\"https://decidim.barcelona/proposals/peatonalitzacio-carrer-valencia\">https://decidim.barcelona/proposals/peatonalitzacio-carrer-valencia</a></p>", 
            "commentable_id": 260, 
            "commentable_type": "Proposal", 
            "created_at": "14/04/2016 18:01:11", 
            "flagged": false, 
            "hidden": false, 
            "id": 16182, 
            "moderator_id": null, 
            "permissions": {
                "hide": false, 
                "hide_author": false, 
                "vote": false
            }, 
            "total_dislikes": 0, 
            "total_likes": 0, 
            "total_votes": 0
        }, 
        {
            "administrator_id": null, 
            "alignment": 0, 
            "ancestry": null, 
            "as": null, 
            "author": {
                "avatar_image": "https://decidim.barcelona/assets/avatar-866795c99abc33a3160d1f3fa93ada46eb75e54134e777666b9ed16215b26534.png", 
                "erased": false, 
                "hidden": false, 
                "id": 9262, 
                "name": "Suport General - Decidim Barcelona", 
                "official": false, 
                "official_level": 0, 
                "role": null, 
                "verified_organization": null
            }, 
            "body": "<p><a href=\"https://decidim.barcelona/proposals/reduir-la-velocitat-de-circulacio-dels-vehicles-a-tot-l-eixample-a-40km-h\">https://decidim.barcelona/proposals/reduir-la-velocitat-de-circulacio-dels-vehicles-a-tot-l-eixample-a-40km-h</a></p>", 
            "commentable_id": 260, 
            "commentable_type": "Proposal", 
            "created_at": "14/04/2016 18:07:34", 
            "flagged": false, 
            "hidden": false, 
            "id": 16198, 
            "moderator_id": null, 
            "permissions": {
                "hide": false, 
                "hide_author": false, 
                "vote": false
            }, 
            "total_dislikes": 0, 
            "total_likes": 0, 
            "total_votes": 0
        }, 
        {
            "administrator_id": null, 
            "alignment": 0, 
            "ancestry": null, 
            "as": null, 
            "author": {
                "avatar_image": "https://decidim.barcelona/assets/avatar-866795c99abc33a3160d1f3fa93ada46eb75e54134e777666b9ed16215b26534.png", 
                "erased": false, 
                "hidden": false, 
                "id": 9262, 
                "name": "Suport General - Decidim Barcelona", 
                "official": false, 
                "official_level": 0, 
                "role": null, 
                "verified_organization": null
            }, 
            "body": "<p><a href=\"https://decidim.barcelona/proposals/reduir-transit-del-carrer-arago\">https://decidim.barcelona/proposals/reduir-transit-del-carrer-arago</a></p>", 
            "commentable_id": 260, 
            "commentable_type": "Proposal", 
            "created_at": "14/04/2016 18:14:21", 
            "flagged": false, 
            "hidden": false, 
            "id": 16210, 
            "moderator_id": null, 
            "permissions": {
                "hide": false, 
                "hide_author": false, 
                "vote": false
            }, 
            "total_dislikes": 0, 
            "total_likes": 0, 
            "total_votes": 0
        }, 
        {
            "administrator_id": null, 
            "alignment": 0, 
            "ancestry": null, 
            "as": null, 
            "author": {
                "avatar_image": "https://decidim.barcelona/assets/avatar-866795c99abc33a3160d1f3fa93ada46eb75e54134e777666b9ed16215b26534.png", 
                "erased": false, 
                "hidden": false, 
                "id": 9262, 
                "name": "Suport General - Decidim Barcelona", 
                "official": false, 
                "official_level": 0, 
                "role": null, 
                "verified_organization": null
            }, 
            "body": "<p><a href=\"https://decidim.barcelona/proposals/remodelacio-i-millora-dels-espais-al-voltant-dels-trams-centrals-del-passeig-de-sant-joan-de-travessera-de-gracia-a-diagonal-14\">https://decidim.barcelona/proposals/remodelacio-i-millora-dels-espais-al-voltant-dels-trams-centrals-del-passeig-de-sant-joan-de-travessera-de-gracia-a-diagonal-14</a></p>", 
            "commentable_id": 260, 
            "commentable_type": "Proposal", 
            "created_at": "14/04/2016 18:24:03", 
            "flagged": false, 
            "hidden": false, 
            "id": 16220, 
            "moderator_id": null, 
            "permissions": {
                "hide": false, 
                "hide_author": false, 
                "vote": false
            }, 
            "total_dislikes": 0, 
            "total_likes": 0, 
            "total_votes": 0
        }, 
        {
            "administrator_id": null, 
            "alignment": 0, 
            "ancestry": null, 
            "as": null, 
            "author": {
                "avatar_image": "https://decidim.barcelona/assets/avatar-866795c99abc33a3160d1f3fa93ada46eb75e54134e777666b9ed16215b26534.png", 
                "erased": false, 
                "hidden": false, 
                "id": 9262, 
                "name": "Suport General - Decidim Barcelona", 
                "official": false, 
                "official_level": 0, 
                "role": null, 
                "verified_organization": null
            }, 
            "body": "<p><a href=\"https://decidim.barcelona/proposals/senyalitzar-adequadament-els-carrils-de-circulacio-de-la-cruilla-arago-diagonal\">https://decidim.barcelona/proposals/senyalitzar-adequadament-els-carrils-de-circulacio-de-la-cruilla-arago-diagonal</a></p>", 
            "commentable_id": 260, 
            "commentable_type": "Proposal", 
            "created_at": "14/04/2016 18:28:53", 
            "flagged": false, 
            "hidden": false, 
            "id": 16228, 
            "moderator_id": null, 
            "permissions": {
                "hide": false, 
                "hide_author": false, 
                "vote": false
            }, 
            "total_dislikes": 0, 
            "total_likes": 0, 
            "total_votes": 0
        }, 
        {
            "administrator_id": null, 
            "alignment": 0, 
            "ancestry": null, 
            "as": null, 
            "author": {
                "avatar_image": "https://decidim.barcelona/assets/avatar-866795c99abc33a3160d1f3fa93ada46eb75e54134e777666b9ed16215b26534.png", 
                "erased": false, 
                "hidden": false, 
                "id": 9262, 
                "name": "Suport General - Decidim Barcelona", 
                "official": false, 
                "official_level": 0, 
                "role": null, 
                "verified_organization": null
            }, 
            "body": "<p><a href=\"https://decidim.barcelona/proposals/racionalitzacio-de-la-circulacio-d-autocars-per-barcelona-que-porten-turistes-a-la-sagrada-familia\">https://decidim.barcelona/proposals/racionalitzacio-de-la-circulacio-d-autocars-per-barcelona-que-porten-turistes-a-la-sagrada-familia</a></p>", 
            "commentable_id": 260, 
            "commentable_type": "Proposal", 
            "created_at": "15/04/2016 19:51:09", 
            "flagged": false, 
            "hidden": false, 
            "id": 17620, 
            "moderator_id": null, 
            "permissions": {
                "hide": false, 
                "hide_author": false, 
                "vote": false
            }, 
            "total_dislikes": 0, 
            "total_likes": 0, 
            "total_votes": 0
        }, 
        {
            "administrator_id": null, 
            "alignment": 0, 
            "ancestry": null, 
            "as": null, 
            "author": {
                "avatar_image": "https://decidim.barcelona/assets/avatar-866795c99abc33a3160d1f3fa93ada46eb75e54134e777666b9ed16215b26534.png", 
                "erased": false, 
                "hidden": false, 
                "id": 9262, 
                "name": "Suport General - Decidim Barcelona", 
                "official": false, 
                "official_level": 0, 
                "role": null, 
                "verified_organization": null
            }, 
            "body": "<p><a href=\"https://decidim.barcelona/proposals/placa-espanya\">https://decidim.barcelona/proposals/placa-espanya</a></p>", 
            "commentable_id": 260, 
            "commentable_type": "Proposal", 
            "created_at": "15/04/2016 19:51:34", 
            "flagged": false, 
            "hidden": false, 
            "id": 17621, 
            "moderator_id": null, 
            "permissions": {
                "hide": false, 
                "hide_author": false, 
                "vote": false
            }, 
            "total_dislikes": 0, 
            "total_likes": 0, 
            "total_votes": 0
        }, 
        {
            "administrator_id": null, 
            "alignment": 0, 
            "ancestry": null, 
            "as": null, 
            "author": {
                "avatar_image": "https://decidim.barcelona/assets/avatar-866795c99abc33a3160d1f3fa93ada46eb75e54134e777666b9ed16215b26534.png", 
                "erased": false, 
                "hidden": false, 
                "id": 9262, 
                "name": "Suport General - Decidim Barcelona", 
                "official": false, 
                "official_level": 0, 
                "role": null, 
                "verified_organization": null
            }, 
            "body": "<p><a href=\"https://decidim.barcelona/proposals/desviar-part-del-transit-de-diagonal-mar-en-direccio-al-centre-de-la-ciutat-pel-c-tanger-enlloc-de-pel-c-arago-com-es-fa-ara\">https://decidim.barcelona/proposals/desviar-part-del-transit-de-diagonal-mar-en-direccio-al-centre-de-la-ciutat-pel-c-tanger-enlloc-de-pel-c-arago-com-es-fa-ara</a></p>", 
            "commentable_id": 260, 
            "commentable_type": "Proposal", 
            "created_at": "15/04/2016 19:52:17", 
            "flagged": false, 
            "hidden": false, 
            "id": 17622, 
            "moderator_id": null, 
            "permissions": {
                "hide": false, 
                "hide_author": false, 
                "vote": false
            }, 
            "total_dislikes": 0, 
            "total_likes": 0, 
            "total_votes": 0
        }
    ], 
    "meta": {
        "current_page": 2, 
        "next_page": null, 
        "prev_page": 1, 
        "total_count": 31, 
        "total_pages": 2
    }
}