{
    "comments": [
        {
            "administrator_id": null, 
            "alignment": 0, 
            "ancestry": null, 
            "as": null, 
            "author": {
                "avatar_image": "https://decidim.barcelona/assets/avatar-866795c99abc33a3160d1f3fa93ada46eb75e54134e777666b9ed16215b26534.png", 
                "erased": false, 
                "hidden": false, 
                "id": 17740, 
                "name": "Suport General2 - Decidim Barcelona", 
                "official": false, 
                "official_level": 0, 
                "role": null, 
                "verified_organization": null
            }, 
            "body": "<p><a href=\"https://decidim.barcelona/proposals/fomentar-les-activitats-d-intercanvi-intergeneracional-orientades-a-la-promocio-de-la-salut\">https://decidim.barcelona/proposals/fomentar-les-activitats-d-intercanvi-intergeneracional-orientades-a-la-promocio-de-la-salut</a></p>", 
            "commentable_id": 373, 
            "commentable_type": "Proposal", 
            "created_at": "12/04/2016 12:49:15", 
            "flagged": false, 
            "hidden": false, 
            "id": 13672, 
            "moderator_id": null, 
            "permissions": {
                "hide": false, 
                "hide_author": false, 
                "vote": false
            }, 
            "total_dislikes": 0, 
            "total_likes": 0, 
            "total_votes": 0
        }
    ], 
    "meta": {
        "current_page": 2, 
        "next_page": null, 
        "prev_page": 1, 
        "total_count": 21, 
        "total_pages": 2
    }
}