{
    "comments": [
        {
            "administrator_id": null, 
            "alignment": 1, 
            "ancestry": null, 
            "as": null, 
            "author": {
                "avatar_image": "https://decidim.barcelona/assets/avatar-866795c99abc33a3160d1f3fa93ada46eb75e54134e777666b9ed16215b26534.png", 
                "erased": false, 
                "hidden": false, 
                "id": 10703, 
                "name": "suport decidim.barcelona2", 
                "official": false, 
                "official_level": 0, 
                "role": null, 
                "verified_organization": null
            }, 
            "body": "<p>proposta debatuda a la cita presencial de Sanitat i Salut: \"Cal reformular el llistat de les actuacions i reflectir de forma expl\u00edcita les actuacions que corresponen a cada objectiu.\"</p>", 
            "commentable_id": 373, 
            "commentable_type": "Proposal", 
            "created_at": "07/04/2016 16:24:47", 
            "flagged": false, 
            "hidden": false, 
            "id": 9618, 
            "moderator_id": null, 
            "permissions": {
                "hide": false, 
                "hide_author": false, 
                "vote": false
            }, 
            "total_dislikes": 0, 
            "total_likes": 0, 
            "total_votes": 0
        }, 
        {
            "administrator_id": null, 
            "alignment": 1, 
            "ancestry": null, 
            "as": null, 
            "author": {
                "avatar_image": "https://decidim.barcelona/assets/avatar-866795c99abc33a3160d1f3fa93ada46eb75e54134e777666b9ed16215b26534.png", 
                "erased": false, 
                "hidden": false, 
                "id": 10703, 
                "name": "suport decidim.barcelona2", 
                "official": false, 
                "official_level": 0, 
                "role": null, 
                "verified_organization": null
            }, 
            "body": "<p>proposta debatuda a la cita presencial de Sanitat i Salut: \"Incorporar un pressupost per a cada actuaci\u00f3. Cal explicitar que es garantiran els recursos necessaris per a cada acci\u00f3.\"</p>", 
            "commentable_id": 373, 
            "commentable_type": "Proposal", 
            "created_at": "07/04/2016 16:30:20", 
            "flagged": false, 
            "hidden": false, 
            "id": 9636, 
            "moderator_id": null, 
            "permissions": {
                "hide": false, 
                "hide_author": false, 
                "vote": false
            }, 
            "total_dislikes": 0, 
            "total_likes": 0, 
            "total_votes": 0
        }, 
        {
            "administrator_id": null, 
            "alignment": 1, 
            "ancestry": null, 
            "as": null, 
            "author": {
                "avatar_image": "https://decidim.barcelona/assets/avatar-866795c99abc33a3160d1f3fa93ada46eb75e54134e777666b9ed16215b26534.png", 
                "erased": false, 
                "hidden": false, 
                "id": 10703, 
                "name": "suport decidim.barcelona2", 
                "official": false, 
                "official_level": 0, 
                "role": null, 
                "verified_organization": null
            }, 
            "body": "<p>proposta debatuda a la cita presencial de Sanitat i Salut: \"Resituar com actuaci\u00f3 \u201cPromoure la salut sexual i reproductiva de la poblaci\u00f3 i defensar els drets sexuals i reproductius de les dones i les persones LGTBI\" que en la proposta del PAM apareix com a objectiu.\"</p>", 
            "commentable_id": 373, 
            "commentable_type": "Proposal", 
            "created_at": "07/04/2016 16:53:42", 
            "flagged": false, 
            "hidden": false, 
            "id": 9720, 
            "moderator_id": null, 
            "permissions": {
                "hide": false, 
                "hide_author": false, 
                "vote": false
            }, 
            "total_dislikes": 0, 
            "total_likes": 0, 
            "total_votes": 0
        }, 
        {
            "administrator_id": null, 
            "alignment": 1, 
            "ancestry": null, 
            "as": null, 
            "author": {
                "avatar_image": "https://decidim.barcelona/assets/avatar-866795c99abc33a3160d1f3fa93ada46eb75e54134e777666b9ed16215b26534.png", 
                "erased": false, 
                "hidden": false, 
                "id": 10703, 
                "name": "suport decidim.barcelona2", 
                "official": false, 
                "official_level": 0, 
                "role": null, 
                "verified_organization": null
            }, 
            "body": "<p>proposta debatuda a la cita presencial de Sanitat i Salut: \"Eliminar l\u2019actuaci\u00f3 \u201cEstrat\u00e8gia per garantir una sanitat p\u00fablica, universal i de qualitat\u201d ja que est\u00e0 recollida en les altres actuacions concretes.\"</p>", 
            "commentable_id": 373, 
            "commentable_type": "Proposal", 
            "created_at": "07/04/2016 16:54:49", 
            "flagged": false, 
            "hidden": false, 
            "id": 9721, 
            "moderator_id": null, 
            "permissions": {
                "hide": false, 
                "hide_author": false, 
                "vote": false
            }, 
            "total_dislikes": 0, 
            "total_likes": 0, 
            "total_votes": 0
        }, 
        {
            "administrator_id": null, 
            "alignment": 1, 
            "ancestry": null, 
            "as": null, 
            "author": {
                "avatar_image": "https://decidim.barcelona/assets/avatar-866795c99abc33a3160d1f3fa93ada46eb75e54134e777666b9ed16215b26534.png", 
                "erased": false, 
                "hidden": false, 
                "id": 10703, 
                "name": "suport decidim.barcelona2", 
                "official": false, 
                "official_level": 0, 
                "role": null, 
                "verified_organization": null
            }, 
            "body": "<p>proposta debatuda a la cita presencial de Sanitat i Salut: \"Definir de forma clara les poblacions diana de cada acci\u00f3 per establir les estrat\u00e8gies necess\u00e0ries per a millorar la seva salut\"</p>", 
            "commentable_id": 373, 
            "commentable_type": "Proposal", 
            "created_at": "07/04/2016 17:05:18", 
            "flagged": false, 
            "hidden": false, 
            "id": 9751, 
            "moderator_id": null, 
            "permissions": {
                "hide": false, 
                "hide_author": false, 
                "vote": false
            }, 
            "total_dislikes": 0, 
            "total_likes": 0, 
            "total_votes": 0
        }, 
        {
            "administrator_id": null, 
            "alignment": 0, 
            "ancestry": null, 
            "as": null, 
            "author": {
                "avatar_image": "https://decidim.barcelona/assets/avatar-866795c99abc33a3160d1f3fa93ada46eb75e54134e777666b9ed16215b26534.png", 
                "erased": false, 
                "hidden": false, 
                "id": 17740, 
                "name": "Suport General2 - Decidim Barcelona", 
                "official": false, 
                "official_level": 0, 
                "role": null, 
                "verified_organization": null
            }, 
            "body": "<p><a href=\"https://decidim.barcelona/proposals/activar-l-atencio-domiciliaria-social-en-aquells-casos-d-altes-hospitalaries-que-ho-requereixin\">https://decidim.barcelona/proposals/activar-l-atencio-domiciliaria-social-en-aquells-casos-d-altes-hospitalaries-que-ho-requereixin</a></p>", 
            "commentable_id": 373, 
            "commentable_type": "Proposal", 
            "created_at": "12/04/2016 12:12:39", 
            "flagged": false, 
            "hidden": false, 
            "id": 13587, 
            "moderator_id": null, 
            "permissions": {
                "hide": false, 
                "hide_author": false, 
                "vote": false
            }, 
            "total_dislikes": 0, 
            "total_likes": 0, 
            "total_votes": 0
        }, 
        {
            "administrator_id": null, 
            "alignment": 0, 
            "ancestry": null, 
            "as": null, 
            "author": {
                "avatar_image": "https://decidim.barcelona/assets/avatar-866795c99abc33a3160d1f3fa93ada46eb75e54134e777666b9ed16215b26534.png", 
                "erased": false, 
                "hidden": false, 
                "id": 17740, 
                "name": "Suport General2 - Decidim Barcelona", 
                "official": false, 
                "official_level": 0, 
                "role": null, 
                "verified_organization": null
            }, 
            "body": "<p><a href=\"https://decidim.barcelona/proposals/augmentar-el-nombre-de-professionals-del-treball-social-als-serveis-de-salut-cap-i-hospitals\">https://decidim.barcelona/proposals/augmentar-el-nombre-de-professionals-del-treball-social-als-serveis-de-salut-cap-i-hospitals</a></p>", 
            "commentable_id": 373, 
            "commentable_type": "Proposal", 
            "created_at": "12/04/2016 12:14:29", 
            "flagged": false, 
            "hidden": false, 
            "id": 13594, 
            "moderator_id": null, 
            "permissions": {
                "hide": false, 
                "hide_author": false, 
                "vote": false
            }, 
            "total_dislikes": 0, 
            "total_likes": 0, 
            "total_votes": 0
        }, 
        {
            "administrator_id": null, 
            "alignment": 0, 
            "ancestry": null, 
            "as": null, 
            "author": {
                "avatar_image": "https://decidim.barcelona/assets/avatar-866795c99abc33a3160d1f3fa93ada46eb75e54134e777666b9ed16215b26534.png", 
                "erased": false, 
                "hidden": false, 
                "id": 17740, 
                "name": "Suport General2 - Decidim Barcelona", 
                "official": false, 
                "official_level": 0, 
                "role": null, 
                "verified_organization": null
            }, 
            "body": "<p><a href=\"https://decidim.barcelona/proposals/racionalitzacio-dels-recursos-sanitaris\">https://decidim.barcelona/proposals/racionalitzacio-dels-recursos-sanitaris</a></p>", 
            "commentable_id": 373, 
            "commentable_type": "Proposal", 
            "created_at": "12/04/2016 12:15:01", 
            "flagged": false, 
            "hidden": false, 
            "id": 13599, 
            "moderator_id": null, 
            "permissions": {
                "hide": false, 
                "hide_author": false, 
                "vote": false
            }, 
            "total_dislikes": 0, 
            "total_likes": 0, 
            "total_votes": 0
        }, 
        {
            "administrator_id": null, 
            "alignment": 0, 
            "ancestry": null, 
            "as": null, 
            "author": {
                "avatar_image": "https://decidim.barcelona/assets/avatar-866795c99abc33a3160d1f3fa93ada46eb75e54134e777666b9ed16215b26534.png", 
                "erased": false, 
                "hidden": false, 
                "id": 17740, 
                "name": "Suport General2 - Decidim Barcelona", 
                "official": false, 
                "official_level": 0, 
                "role": null, 
                "verified_organization": null
            }, 
            "body": "<p><a href=\"https://decidim.barcelona/proposals/incrementar-els-recursos-socials-i-assistencials\">https://decidim.barcelona/proposals/incrementar-els-recursos-socials-i-assistencials</a></p>", 
            "commentable_id": 373, 
            "commentable_type": "Proposal", 
            "created_at": "12/04/2016 12:18:30", 
            "flagged": false, 
            "hidden": false, 
            "id": 13608, 
            "moderator_id": null, 
            "permissions": {
                "hide": false, 
                "hide_author": false, 
                "vote": false
            }, 
            "total_dislikes": 0, 
            "total_likes": 0, 
            "total_votes": 0
        }, 
        {
            "administrator_id": null, 
            "alignment": 0, 
            "ancestry": null, 
            "as": null, 
            "author": {
                "avatar_image": "https://decidim.barcelona/assets/avatar-866795c99abc33a3160d1f3fa93ada46eb75e54134e777666b9ed16215b26534.png", 
                "erased": false, 
                "hidden": false, 
                "id": 17740, 
                "name": "Suport General2 - Decidim Barcelona", 
                "official": false, 
                "official_level": 0, 
                "role": null, 
                "verified_organization": null
            }, 
            "body": "<p><a href=\"https://decidim.barcelona/proposals/potenciar-la-participacio-ciutadana-en-la-promocio-dels-habits-de-vida-saludables\">https://decidim.barcelona/proposals/potenciar-la-participacio-ciutadana-en-la-promocio-dels-habits-de-vida-saludables</a></p>", 
            "commentable_id": 373, 
            "commentable_type": "Proposal", 
            "created_at": "12/04/2016 12:25:54", 
            "flagged": false, 
            "hidden": false, 
            "id": 13618, 
            "moderator_id": null, 
            "permissions": {
                "hide": false, 
                "hide_author": false, 
                "vote": false
            }, 
            "total_dislikes": 0, 
            "total_likes": 0, 
            "total_votes": 0
        }, 
        {
            "administrator_id": null, 
            "alignment": 0, 
            "ancestry": null, 
            "as": null, 
            "author": {
                "avatar_image": "https://decidim.barcelona/assets/avatar-866795c99abc33a3160d1f3fa93ada46eb75e54134e777666b9ed16215b26534.png", 
                "erased": false, 
                "hidden": false, 
                "id": 17740, 
                "name": "Suport General2 - Decidim Barcelona", 
                "official": false, 
                "official_level": 0, 
                "role": null, 
                "verified_organization": null
            }, 
            "body": "<p><a href=\"https://decidim.barcelona/proposals/ampliar-i-garantir-l-acces-a-la-practica-esportiva\">https://decidim.barcelona/proposals/ampliar-i-garantir-l-acces-a-la-practica-esportiva</a></p>", 
            "commentable_id": 373, 
            "commentable_type": "Proposal", 
            "created_at": "12/04/2016 12:27:04", 
            "flagged": false, 
            "hidden": false, 
            "id": 13621, 
            "moderator_id": null, 
            "permissions": {
                "hide": false, 
                "hide_author": false, 
                "vote": false
            }, 
            "total_dislikes": 0, 
            "total_likes": 0, 
            "total_votes": 0
        }, 
        {
            "administrator_id": null, 
            "alignment": 0, 
            "ancestry": null, 
            "as": null, 
            "author": {
                "avatar_image": "https://decidim.barcelona/assets/avatar-866795c99abc33a3160d1f3fa93ada46eb75e54134e777666b9ed16215b26534.png", 
                "erased": false, 
                "hidden": false, 
                "id": 17740, 
                "name": "Suport General2 - Decidim Barcelona", 
                "official": false, 
                "official_level": 0, 
                "role": null, 
                "verified_organization": null
            }, 
            "body": "<p><a href=\"https://decidim.barcelona/proposals/ampliar-el-programa-de-prevencio-del-suicidi-especialment-entre-la-poblacio-jove\">https://decidim.barcelona/proposals/ampliar-el-programa-de-prevencio-del-suicidi-especialment-entre-la-poblacio-jove</a></p>", 
            "commentable_id": 373, 
            "commentable_type": "Proposal", 
            "created_at": "12/04/2016 12:31:10", 
            "flagged": false, 
            "hidden": false, 
            "id": 13630, 
            "moderator_id": null, 
            "permissions": {
                "hide": false, 
                "hide_author": false, 
                "vote": false
            }, 
            "total_dislikes": 0, 
            "total_likes": 0, 
            "total_votes": 0
        }, 
        {
            "administrator_id": null, 
            "alignment": 0, 
            "ancestry": null, 
            "as": null, 
            "author": {
                "avatar_image": "https://decidim.barcelona/assets/avatar-866795c99abc33a3160d1f3fa93ada46eb75e54134e777666b9ed16215b26534.png", 
                "erased": false, 
                "hidden": false, 
                "id": 17740, 
                "name": "Suport General2 - Decidim Barcelona", 
                "official": false, 
                "official_level": 0, 
                "role": null, 
                "verified_organization": null
            }, 
            "body": "<p><a href=\"https://decidim.barcelona/proposals/prevencio-de-conductes-addictives-entre-els-adolescents\">https://decidim.barcelona/proposals/prevencio-de-conductes-addictives-entre-els-adolescents</a></p>", 
            "commentable_id": 373, 
            "commentable_type": "Proposal", 
            "created_at": "12/04/2016 12:32:20", 
            "flagged": false, 
            "hidden": false, 
            "id": 13635, 
            "moderator_id": null, 
            "permissions": {
                "hide": false, 
                "hide_author": false, 
                "vote": false
            }, 
            "total_dislikes": 0, 
            "total_likes": 0, 
            "total_votes": 0
        }, 
        {
            "administrator_id": null, 
            "alignment": 0, 
            "ancestry": null, 
            "as": null, 
            "author": {
                "avatar_image": "https://decidim.barcelona/assets/avatar-866795c99abc33a3160d1f3fa93ada46eb75e54134e777666b9ed16215b26534.png", 
                "erased": false, 
                "hidden": false, 
                "id": 17740, 
                "name": "Suport General2 - Decidim Barcelona", 
                "official": false, 
                "official_level": 0, 
                "role": null, 
                "verified_organization": null
            }, 
            "body": "<p><a href=\"https://decidim.barcelona/proposals/integracio-dels-serveis-socials\">https://decidim.barcelona/proposals/integracio-dels-serveis-socials</a></p>", 
            "commentable_id": 373, 
            "commentable_type": "Proposal", 
            "created_at": "12/04/2016 12:32:49", 
            "flagged": false, 
            "hidden": false, 
            "id": 13637, 
            "moderator_id": null, 
            "permissions": {
                "hide": false, 
                "hide_author": false, 
                "vote": false
            }, 
            "total_dislikes": 0, 
            "total_likes": 0, 
            "total_votes": 0
        }, 
        {
            "administrator_id": null, 
            "alignment": 0, 
            "ancestry": null, 
            "as": null, 
            "author": {
                "avatar_image": "https://decidim.barcelona/assets/avatar-866795c99abc33a3160d1f3fa93ada46eb75e54134e777666b9ed16215b26534.png", 
                "erased": false, 
                "hidden": false, 
                "id": 17740, 
                "name": "Suport General2 - Decidim Barcelona", 
                "official": false, 
                "official_level": 0, 
                "role": null, 
                "verified_organization": null
            }, 
            "body": "<p><a href=\"https://decidim.barcelona/proposals/eliminacio-d-antenes\">https://decidim.barcelona/proposals/eliminacio-d-antenes</a></p>", 
            "commentable_id": 373, 
            "commentable_type": "Proposal", 
            "created_at": "12/04/2016 12:33:19", 
            "flagged": false, 
            "hidden": false, 
            "id": 13641, 
            "moderator_id": null, 
            "permissions": {
                "hide": false, 
                "hide_author": false, 
                "vote": false
            }, 
            "total_dislikes": 0, 
            "total_likes": 0, 
            "total_votes": 0
        }, 
        {
            "administrator_id": null, 
            "alignment": 0, 
            "ancestry": null, 
            "as": null, 
            "author": {
                "avatar_image": "https://decidim.barcelona/assets/avatar-866795c99abc33a3160d1f3fa93ada46eb75e54134e777666b9ed16215b26534.png", 
                "erased": false, 
                "hidden": false, 
                "id": 17740, 
                "name": "Suport General2 - Decidim Barcelona", 
                "official": false, 
                "official_level": 0, 
                "role": null, 
                "verified_organization": null
            }, 
            "body": "<p><a href=\"https://decidim.barcelona/proposals/integrar-els-serveis-socials-municipals-amb-els-serveis-de-salut-a-la-ciutat-com-el-model-sociosanitari-de-sabadell\">https://decidim.barcelona/proposals/integrar-els-serveis-socials-municipals-amb-els-serveis-de-salut-a-la-ciutat-com-el-model-sociosanitari-de-sabadell</a></p>", 
            "commentable_id": 373, 
            "commentable_type": "Proposal", 
            "created_at": "12/04/2016 12:34:22", 
            "flagged": false, 
            "hidden": false, 
            "id": 13644, 
            "moderator_id": null, 
            "permissions": {
                "hide": false, 
                "hide_author": false, 
                "vote": false
            }, 
            "total_dislikes": 0, 
            "total_likes": 0, 
            "total_votes": 0
        }, 
        {
            "administrator_id": null, 
            "alignment": 0, 
            "ancestry": null, 
            "as": null, 
            "author": {
                "avatar_image": "https://decidim.barcelona/assets/avatar-866795c99abc33a3160d1f3fa93ada46eb75e54134e777666b9ed16215b26534.png", 
                "erased": false, 
                "hidden": false, 
                "id": 17740, 
                "name": "Suport General2 - Decidim Barcelona", 
                "official": false, 
                "official_level": 0, 
                "role": null, 
                "verified_organization": null
            }, 
            "body": "<p><a href=\"https://decidim.barcelona/proposals/integrar-els-serveis-socials-municipals-amb-els-serveis-de-salut-a-la-ciutat-com-el-model-sociosanitari-de-sabadell\">https://decidim.barcelona/proposals/integrar-els-serveis-socials-municipals-amb-els-serveis-de-salut-a-la-ciutat-com-el-model-sociosanitari-de-sabadell</a></p>", 
            "commentable_id": 373, 
            "commentable_type": "Proposal", 
            "created_at": "12/04/2016 12:35:47", 
            "flagged": false, 
            "hidden": false, 
            "id": 13646, 
            "moderator_id": null, 
            "permissions": {
                "hide": false, 
                "hide_author": false, 
                "vote": false
            }, 
            "total_dislikes": 0, 
            "total_likes": 0, 
            "total_votes": 0
        }, 
        {
            "administrator_id": null, 
            "alignment": 0, 
            "ancestry": null, 
            "as": null, 
            "author": {
                "avatar_image": "https://decidim.barcelona/assets/avatar-866795c99abc33a3160d1f3fa93ada46eb75e54134e777666b9ed16215b26534.png", 
                "erased": false, 
                "hidden": false, 
                "id": 17740, 
                "name": "Suport General2 - Decidim Barcelona", 
                "official": false, 
                "official_level": 0, 
                "role": null, 
                "verified_organization": null
            }, 
            "body": "<p><a href=\"https://decidim.barcelona/proposals/promoure-els-centres-de-planificacio-familiar\">https://decidim.barcelona/proposals/promoure-els-centres-de-planificacio-familiar</a></p>", 
            "commentable_id": 373, 
            "commentable_type": "Proposal", 
            "created_at": "12/04/2016 12:37:03", 
            "flagged": false, 
            "hidden": false, 
            "id": 13649, 
            "moderator_id": null, 
            "permissions": {
                "hide": false, 
                "hide_author": false, 
                "vote": false
            }, 
            "total_dislikes": 0, 
            "total_likes": 0, 
            "total_votes": 0
        }, 
        {
            "administrator_id": null, 
            "alignment": 0, 
            "ancestry": null, 
            "as": null, 
            "author": {
                "avatar_image": "https://decidim.barcelona/assets/avatar-866795c99abc33a3160d1f3fa93ada46eb75e54134e777666b9ed16215b26534.png", 
                "erased": false, 
                "hidden": false, 
                "id": 17740, 
                "name": "Suport General2 - Decidim Barcelona", 
                "official": false, 
                "official_level": 0, 
                "role": null, 
                "verified_organization": null
            }, 
            "body": "<p><a href=\"https://decidim.barcelona/proposals/eliminar-bombes-de-bombeig-d-aigues-brutes-a-zona-muntanya\">https://decidim.barcelona/proposals/eliminar-bombes-de-bombeig-d-aigues-brutes-a-zona-muntanya</a></p>", 
            "commentable_id": 373, 
            "commentable_type": "Proposal", 
            "created_at": "12/04/2016 12:43:29", 
            "flagged": false, 
            "hidden": false, 
            "id": 13657, 
            "moderator_id": null, 
            "permissions": {
                "hide": false, 
                "hide_author": false, 
                "vote": false
            }, 
            "total_dislikes": 0, 
            "total_likes": 0, 
            "total_votes": 0
        }, 
        {
            "administrator_id": null, 
            "alignment": 0, 
            "ancestry": null, 
            "as": null, 
            "author": {
                "avatar_image": "https://decidim.barcelona/assets/avatar-866795c99abc33a3160d1f3fa93ada46eb75e54134e777666b9ed16215b26534.png", 
                "erased": false, 
                "hidden": false, 
                "id": 17740, 
                "name": "Suport General2 - Decidim Barcelona", 
                "official": false, 
                "official_level": 0, 
                "role": null, 
                "verified_organization": null
            }, 
            "body": "<p><a href=\"https://decidim.barcelona/proposals/implicar-els-mercats-municipals-en-el-foment-de-dietes-saludables\">https://decidim.barcelona/proposals/implicar-els-mercats-municipals-en-el-foment-de-dietes-saludables</a></p>", 
            "commentable_id": 373, 
            "commentable_type": "Proposal", 
            "created_at": "12/04/2016 12:44:02", 
            "flagged": false, 
            "hidden": false, 
            "id": 13660, 
            "moderator_id": null, 
            "permissions": {
                "hide": false, 
                "hide_author": false, 
                "vote": false
            }, 
            "total_dislikes": 0, 
            "total_likes": 0, 
            "total_votes": 0
        }
    ], 
    "meta": {
        "current_page": 1, 
        "next_page": 2, 
        "prev_page": null, 
        "total_count": 21, 
        "total_pages": 2
    }
}