{
    "comments": [
        {
            "administrator_id": null, 
            "alignment": 1, 
            "ancestry": null, 
            "as": null, 
            "author": {
                "avatar_image": "https://decidim.barcelona/assets/avatar-866795c99abc33a3160d1f3fa93ada46eb75e54134e777666b9ed16215b26534.png", 
                "erased": false, 
                "hidden": false, 
                "id": 1995, 
                "name": "Clara Pons", 
                "official": false, 
                "official_level": 0, 
                "role": null, 
                "verified_organization": null
            }, 
            "body": "<p>Necessitem un espai habilitat per jugar i poder estar amb els nostres fills al sortir de l'escola \u00c0ngels Garriga</p>", 
            "commentable_id": 400, 
            "commentable_type": "Proposal", 
            "created_at": "04/02/2016 09:28:12", 
            "flagged": false, 
            "hidden": false, 
            "id": 561, 
            "moderator_id": null, 
            "permissions": {
                "hide": false, 
                "hide_author": false, 
                "vote": false
            }, 
            "total_dislikes": 0, 
            "total_likes": 9, 
            "total_votes": 9
        }, 
        {
            "administrator_id": null, 
            "alignment": 1, 
            "ancestry": null, 
            "as": null, 
            "author": {
                "avatar_image": "https://decidim.barcelona/assets/avatar-866795c99abc33a3160d1f3fa93ada46eb75e54134e777666b9ed16215b26534.png", 
                "erased": false, 
                "hidden": false, 
                "id": 1693, 
                "name": "Sara Blas Espa\u00f1a", 
                "official": false, 
                "official_level": 0, 
                "role": null, 
                "verified_organization": null
            }, 
            "body": "<p>La gent gran que viu a Alt de Pedrell, no pot baixar al Passeig Maragall caminant. Necessitem escales mec\u00e0niques a Davallada de Gallecs.</p>", 
            "commentable_id": 400, 
            "commentable_type": "Proposal", 
            "created_at": "04/02/2016 12:40:37", 
            "flagged": false, 
            "hidden": false, 
            "id": 602, 
            "moderator_id": null, 
            "permissions": {
                "hide": false, 
                "hide_author": false, 
                "vote": false
            }, 
            "total_dislikes": 1, 
            "total_likes": 9, 
            "total_votes": 10
        }, 
        {
            "administrator_id": null, 
            "alignment": 1, 
            "ancestry": null, 
            "as": null, 
            "author": {
                "avatar_image": "https://decidim.barcelona/assets/avatar-866795c99abc33a3160d1f3fa93ada46eb75e54134e777666b9ed16215b26534.png", 
                "erased": false, 
                "hidden": false, 
                "id": 4068, 
                "name": "Maria Villellas", 
                "official": false, 
                "official_level": 0, 
                "role": null, 
                "verified_organization": null
            }, 
            "body": "<p>Tenir un espai de joc infantil \u00e9s una necessitat urgent pel barri, els nens i nenes de les escoles properes, com ara \u00c0ngels Garriga, no tenen cap espai adient per jugar. Es pot aprofitar el solar buit per crear aquest espai de joc, que beneficiaria molt als veins i ve\u00efnes del barri.</p>", 
            "commentable_id": 400, 
            "commentable_type": "Proposal", 
            "created_at": "09/02/2016 16:52:17", 
            "flagged": false, 
            "hidden": false, 
            "id": 1319, 
            "moderator_id": null, 
            "permissions": {
                "hide": false, 
                "hide_author": false, 
                "vote": false
            }, 
            "total_dislikes": 0, 
            "total_likes": 8, 
            "total_votes": 8
        }, 
        {
            "administrator_id": null, 
            "alignment": 1, 
            "ancestry": null, 
            "as": null, 
            "author": {
                "avatar_image": "https://decidim.barcelona/assets/avatar-866795c99abc33a3160d1f3fa93ada46eb75e54134e777666b9ed16215b26534.png", 
                "erased": false, 
                "hidden": false, 
                "id": 4224, 
                "name": "Josep Perales", 
                "official": false, 
                "official_level": 0, 
                "role": null, 
                "verified_organization": null
            }, 
            "body": "<p>La millora d'aquest espai amb unes escales mec\u00e0niques i zones infantils i d'esbarjo, seria una millora que benficiaria i molt als ve\u00efns i escoles del barri. Seria un aven\u00e7 molt important pel barri en la millora de la salut p\u00fablica i de la mobilitat de la gent, sobretot gent gran, infants i minusv\u00e0lids</p>", 
            "commentable_id": 400, 
            "commentable_type": "Proposal", 
            "created_at": "09/02/2016 22:40:13", 
            "flagged": false, 
            "hidden": false, 
            "id": 1372, 
            "moderator_id": null, 
            "permissions": {
                "hide": false, 
                "hide_author": false, 
                "vote": false
            }, 
            "total_dislikes": 1, 
            "total_likes": 10, 
            "total_votes": 11
        }, 
        {
            "administrator_id": null, 
            "alignment": 1, 
            "ancestry": null, 
            "as": null, 
            "author": {
                "avatar_image": "https://decidim.barcelona/assets/avatar-866795c99abc33a3160d1f3fa93ada46eb75e54134e777666b9ed16215b26534.png", 
                "erased": false, 
                "hidden": false, 
                "id": 4238, 
                "name": "Marta Mercader", 
                "official": false, 
                "official_level": 0, 
                "role": null, 
                "verified_organization": null
            }, 
            "body": "<p>Les fam\u00edlies dels infants de l'escola \u00c0ngels Garriga necessitem un espai per a qu\u00e8 puguin berenar i jugar a la sortida de l'escola.  Tanmateix, pels veins de la zona, sobretot pels m\u00e9s grans, seria una gran millora el poder fer \u00fas d'escales mec\u00e0niques.</p>", 
            "commentable_id": 400, 
            "commentable_type": "Proposal", 
            "created_at": "09/02/2016 22:54:40", 
            "flagged": false, 
            "hidden": false, 
            "id": 1373, 
            "moderator_id": null, 
            "permissions": {
                "hide": false, 
                "hide_author": false, 
                "vote": false
            }, 
            "total_dislikes": 0, 
            "total_likes": 8, 
            "total_votes": 8
        }, 
        {
            "administrator_id": null, 
            "alignment": 1, 
            "ancestry": null, 
            "as": null, 
            "author": {
                "avatar_image": "https://decidim.barcelona/assets/avatar-866795c99abc33a3160d1f3fa93ada46eb75e54134e777666b9ed16215b26534.png", 
                "erased": false, 
                "hidden": false, 
                "id": 4172, 
                "name": "Dani Sebasti\u00e0", 
                "official": false, 
                "official_level": 0, 
                "role": null, 
                "verified_organization": null
            }, 
            "body": "<p>Els nens i nenes de l'escola Angels Garriga no tenen un espai per jugar a la sortida de l'escola. Com a pare i ve\u00ed del barri considero imprescindible i urgent pel barri convertir aquest solar em una area de lleure.</p>", 
            "commentable_id": 400, 
            "commentable_type": "Proposal", 
            "created_at": "09/02/2016 23:21:03", 
            "flagged": false, 
            "hidden": false, 
            "id": 1377, 
            "moderator_id": null, 
            "permissions": {
                "hide": false, 
                "hide_author": false, 
                "vote": false
            }, 
            "total_dislikes": 0, 
            "total_likes": 8, 
            "total_votes": 8
        }, 
        {
            "administrator_id": null, 
            "alignment": 0, 
            "ancestry": null, 
            "as": null, 
            "author": {
                "avatar_image": "https://decidim.barcelona/assets/avatar-866795c99abc33a3160d1f3fa93ada46eb75e54134e777666b9ed16215b26534.png", 
                "erased": false, 
                "hidden": false, 
                "id": 4255, 
                "name": "Roger borderia cufi", 
                "official": false, 
                "official_level": 0, 
                "role": null, 
                "verified_organization": null
            }, 
            "body": "<p>Seria b\u00f3 dignificar aquest espai, ple de males herbes i brut\u00edcia on els nens de l'escola \u00c0ngels Garriga sovint  van a descobrir nous indrets i corren el risc de pendre mal, al barri manca una zona per jugar i poder berenar tranquil\u00b7lament, on els ve\u00efns puguin gaudir d'una zona verda on relacionar-se, llegir o senzillament gaudir del seu barri. Dignifiquem aquest espai ja!!</p>", 
            "commentable_id": 400, 
            "commentable_type": "Proposal", 
            "created_at": "09/02/2016 23:34:27", 
            "flagged": false, 
            "hidden": false, 
            "id": 1379, 
            "moderator_id": null, 
            "permissions": {
                "hide": false, 
                "hide_author": false, 
                "vote": false
            }, 
            "total_dislikes": 0, 
            "total_likes": 6, 
            "total_votes": 6
        }, 
        {
            "administrator_id": null, 
            "alignment": 1, 
            "ancestry": null, 
            "as": null, 
            "author": {
                "avatar_image": "https://decidim.barcelona/assets/avatar-866795c99abc33a3160d1f3fa93ada46eb75e54134e777666b9ed16215b26534.png", 
                "erased": false, 
                "hidden": false, 
                "id": 4265, 
                "name": "Laia Cleries", 
                "official": false, 
                "official_level": 0, 
                "role": null, 
                "verified_organization": null
            }, 
            "body": "<p>\u00c9s necessari l'acondicionament del solar que est\u00e0 just al tocar de l'escola \u00c0ngels Garriga perque els nostres nens pugui tenir un lloc on berenar o jugar sense por a prendre mal amb les pedres que cauen dia rere dia I ens anem trobant de cami a l'escola.</p>", 
            "commentable_id": 400, 
            "commentable_type": "Proposal", 
            "created_at": "09/02/2016 23:41:32", 
            "flagged": false, 
            "hidden": false, 
            "id": 1381, 
            "moderator_id": null, 
            "permissions": {
                "hide": false, 
                "hide_author": false, 
                "vote": false
            }, 
            "total_dislikes": 1, 
            "total_likes": 9, 
            "total_votes": 10
        }, 
        {
            "administrator_id": null, 
            "alignment": 1, 
            "ancestry": null, 
            "as": null, 
            "author": {
                "avatar_image": "https://decidim.barcelona/assets/avatar-866795c99abc33a3160d1f3fa93ada46eb75e54134e777666b9ed16215b26534.png", 
                "erased": false, 
                "hidden": false, 
                "id": 4554, 
                "name": "Jos\u00e9 M Puertas", 
                "official": false, 
                "official_level": 0, 
                "role": null, 
                "verified_organization": null
            }, 
            "body": "<p>Actualment, el solar de la davallada suposa un gran perill tant per als nens de l\u2019Escola \u00c0ngels Garriga com per a tots els ve\u00efns. La seva dignificaci\u00f3 en una zona d\u2019esbarjo \u00e9s absolutament imprescindible per al barri, que a m\u00e9s t\u00e9 una car\u00e8ncia molt gran d\u2019aquest tipus d\u2019equipaments per la zona. D\u2019altra banda, la instal\u2022laci\u00f3 d\u2019escales mec\u00e0niques tamb\u00e9 seria molt important per a les persones que tenen problemes de mobilitat.</p>", 
            "commentable_id": 400, 
            "commentable_type": "Proposal", 
            "created_at": "10/02/2016 20:18:10", 
            "flagged": false, 
            "hidden": false, 
            "id": 1462, 
            "moderator_id": null, 
            "permissions": {
                "hide": false, 
                "hide_author": false, 
                "vote": false
            }, 
            "total_dislikes": 0, 
            "total_likes": 6, 
            "total_votes": 6
        }, 
        {
            "administrator_id": null, 
            "alignment": 1, 
            "ancestry": null, 
            "as": null, 
            "author": {
                "avatar_image": "https://decidim.barcelona/assets/avatar-866795c99abc33a3160d1f3fa93ada46eb75e54134e777666b9ed16215b26534.png", 
                "erased": false, 
                "hidden": false, 
                "id": 4657, 
                "name": "Bailon", 
                "official": false, 
                "official_level": 0, 
                "role": null, 
                "verified_organization": null
            }, 
            "body": "<p>Un lloc on els alumnes i les alumnes del centre educatiu \u00c0ngels Garriga, i les seves fam\u00edlies, poguem reunir-nos despr\u00e9s d'acabar les classes, lluny de televisions, tablets..., on  podrien aprendre les lli\u00e7ons m\u00e9s importants de la vida; un lloc que unifica la vida dels ve\u00efns; un espai de mobilitat per gent gran i amb necessitats especials...aquesta petita proposta t\u00e9 molt\u00edssim que donar.</p>", 
            "commentable_id": 400, 
            "commentable_type": "Proposal", 
            "created_at": "11/02/2016 04:26:20", 
            "flagged": false, 
            "hidden": false, 
            "id": 1491, 
            "moderator_id": null, 
            "permissions": {
                "hide": false, 
                "hide_author": false, 
                "vote": false
            }, 
            "total_dislikes": 0, 
            "total_likes": 6, 
            "total_votes": 6
        }, 
        {
            "administrator_id": null, 
            "alignment": 1, 
            "ancestry": null, 
            "as": null, 
            "author": {
                "avatar_image": "https://decidim.barcelona/assets/avatar-866795c99abc33a3160d1f3fa93ada46eb75e54134e777666b9ed16215b26534.png", 
                "erased": false, 
                "hidden": false, 
                "id": 4268, 
                "name": "Rut Bover", 
                "official": false, 
                "official_level": 0, 
                "role": null, 
                "verified_organization": null
            }, 
            "body": "<p>Barcelona en Com\u00fa ho teniu al vostre programa electoral, no feu com la resta, compliu.</p>", 
            "commentable_id": 400, 
            "commentable_type": "Proposal", 
            "created_at": "11/02/2016 15:29:02", 
            "flagged": false, 
            "hidden": false, 
            "id": 1526, 
            "moderator_id": null, 
            "permissions": {
                "hide": false, 
                "hide_author": false, 
                "vote": false
            }, 
            "total_dislikes": 0, 
            "total_likes": 3, 
            "total_votes": 3
        }, 
        {
            "administrator_id": null, 
            "alignment": 1, 
            "ancestry": null, 
            "as": null, 
            "author": {
                "avatar_image": "https://decidim.barcelona/assets/avatar-866795c99abc33a3160d1f3fa93ada46eb75e54134e777666b9ed16215b26534.png", 
                "erased": false, 
                "hidden": false, 
                "id": 4931, 
                "name": "montse moya castro", 
                "official": false, 
                "official_level": 0, 
                "role": null, 
                "verified_organization": null
            }, 
            "body": "<p>Zona de jocs tranquila i segura per tots els nens del barri i del col.legi Angels Garriga.......tant de bo es pogues complir aquest projecte abans de que els nostres nens siguin universitaris.....</p>", 
            "commentable_id": 400, 
            "commentable_type": "Proposal", 
            "created_at": "12/02/2016 09:09:25", 
            "flagged": false, 
            "hidden": false, 
            "id": 1605, 
            "moderator_id": null, 
            "permissions": {
                "hide": false, 
                "hide_author": false, 
                "vote": false
            }, 
            "total_dislikes": 0, 
            "total_likes": 1, 
            "total_votes": 1
        }, 
        {
            "administrator_id": null, 
            "alignment": 0, 
            "ancestry": null, 
            "as": null, 
            "author": {
                "avatar_image": "https://decidim.barcelona/assets/avatar-866795c99abc33a3160d1f3fa93ada46eb75e54134e777666b9ed16215b26534.png", 
                "erased": false, 
                "hidden": false, 
                "id": 4873, 
                "name": "Carlota Gim\u00e9nez i Compte", 
                "official": false, 
                "official_level": 0, 
                "role": null, 
                "verified_organization": null
            }, 
            "body": "<p>Ja fa uns quants anys (potser 2007 o 2008) l'Ajuntament ja tenia un projecte per unes escales mec\u00e0niques o ascensor horitzontal per la Davallada de Gallecs. L'AV Font d'en Fargues ho coneixen. Caldria veure en quin calaix va quedar.\n</p>", 
            "commentable_id": 400, 
            "commentable_type": "Proposal", 
            "created_at": "12/02/2016 14:35:10", 
            "flagged": false, 
            "hidden": false, 
            "id": 1633, 
            "moderator_id": null, 
            "permissions": {
                "hide": false, 
                "hide_author": false, 
                "vote": false
            }, 
            "total_dislikes": 1, 
            "total_likes": 0, 
            "total_votes": 1
        }, 
        {
            "administrator_id": null, 
            "alignment": 1, 
            "ancestry": null, 
            "as": null, 
            "author": {
                "avatar_image": "https://decidim.barcelona/assets/avatar-866795c99abc33a3160d1f3fa93ada46eb75e54134e777666b9ed16215b26534.png", 
                "erased": false, 
                "hidden": false, 
                "id": 5136, 
                "name": "Raquel Crisol", 
                "official": false, 
                "official_level": 0, 
                "role": null, 
                "verified_organization": null
            }, 
            "body": "<p>\u00c9s necessari pels nens de l'\u00c0ngels Garriga i pels ve\u00efns la construcci\u00f3 d'un parc infantil.</p>", 
            "commentable_id": 400, 
            "commentable_type": "Proposal", 
            "created_at": "12/02/2016 17:39:39", 
            "flagged": false, 
            "hidden": false, 
            "id": 1641, 
            "moderator_id": null, 
            "permissions": {
                "hide": false, 
                "hide_author": false, 
                "vote": false
            }, 
            "total_dislikes": 0, 
            "total_likes": 2, 
            "total_votes": 2
        }, 
        {
            "administrator_id": null, 
            "alignment": 1, 
            "ancestry": null, 
            "as": null, 
            "author": {
                "avatar_image": "https://decidim.barcelona/assets/avatar-866795c99abc33a3160d1f3fa93ada46eb75e54134e777666b9ed16215b26534.png", 
                "erased": false, 
                "hidden": false, 
                "id": 4290, 
                "name": "Marta Serrano Herran", 
                "official": false, 
                "official_level": 0, 
                "role": null, 
                "verified_organization": null
            }, 
            "body": "<p>A favor</p>", 
            "commentable_id": 400, 
            "commentable_type": "Proposal", 
            "created_at": "14/02/2016 09:01:21", 
            "flagged": false, 
            "hidden": false, 
            "id": 1742, 
            "moderator_id": null, 
            "permissions": {
                "hide": false, 
                "hide_author": false, 
                "vote": false
            }, 
            "total_dislikes": 0, 
            "total_likes": 1, 
            "total_votes": 1
        }, 
        {
            "administrator_id": null, 
            "alignment": 0, 
            "ancestry": null, 
            "as": null, 
            "author": {
                "avatar_image": "https://decidim.barcelona/assets/avatar-866795c99abc33a3160d1f3fa93ada46eb75e54134e777666b9ed16215b26534.png", 
                "erased": false, 
                "hidden": false, 
                "id": 5446, 
                "name": "Oscar Montejo", 
                "official": false, 
                "official_level": 0, 
                "role": null, 
                "verified_organization": null
            }, 
            "body": "<p>\u00c9s totalment necessari dignificar aquest espai ple de brut\u00edcia; pel barri, pels ve\u00edns i pels nens de l'escola Angels Garriga. I aprofito per reclamar alguna acci\u00f3 espec\u00edfica per evitar els excrements de gos a la porta de l'escola i a tot el cam\u00ed escolar.</p>", 
            "commentable_id": 400, 
            "commentable_type": "Proposal", 
            "created_at": "15/02/2016 12:10:53", 
            "flagged": false, 
            "hidden": false, 
            "id": 1835, 
            "moderator_id": null, 
            "permissions": {
                "hide": false, 
                "hide_author": false, 
                "vote": false
            }, 
            "total_dislikes": 0, 
            "total_likes": 1, 
            "total_votes": 1
        }, 
        {
            "administrator_id": null, 
            "alignment": 1, 
            "ancestry": null, 
            "as": null, 
            "author": {
                "avatar_image": "https://decidim.barcelona/assets/avatar-866795c99abc33a3160d1f3fa93ada46eb75e54134e777666b9ed16215b26534.png", 
                "erased": false, 
                "hidden": false, 
                "id": 5446, 
                "name": "Oscar Montejo", 
                "official": false, 
                "official_level": 0, 
                "role": null, 
                "verified_organization": null
            }, 
            "body": "<p>Pel meu comentari anterior, la posici\u00f3 \u00e9s A FAVOR...</p>", 
            "commentable_id": 400, 
            "commentable_type": "Proposal", 
            "created_at": "15/02/2016 12:19:55", 
            "flagged": false, 
            "hidden": false, 
            "id": 1836, 
            "moderator_id": null, 
            "permissions": {
                "hide": false, 
                "hide_author": false, 
                "vote": false
            }, 
            "total_dislikes": 0, 
            "total_likes": 1, 
            "total_votes": 1
        }, 
        {
            "administrator_id": null, 
            "alignment": 1, 
            "ancestry": null, 
            "as": null, 
            "author": {
                "avatar_image": "https://decidim.barcelona/assets/avatar-866795c99abc33a3160d1f3fa93ada46eb75e54134e777666b9ed16215b26534.png", 
                "erased": false, 
                "hidden": false, 
                "id": 2136, 
                "name": "Eva Garcia", 
                "official": false, 
                "official_level": 0, 
                "role": null, 
                "verified_organization": null
            }, 
            "body": "<p>L'escola \u00c0ngels Garriga ha rebut una queixa d\u2019un ve\u00ed. El ve\u00ed,  est\u00e0 trist. Veu que els nens de l'escola demanen civisme per mantenir el barri net de caques de gos per\u00f2 ells no tenen cura de la natura que els envolta. Est\u00e0 cansat. A les escales de la Davallada de Gallecs t\u00e9 dificultats per no relliscar a causa de totes les taronges que s'han estat llen\u00e7ant alguns alumnes entre ells. Est\u00e0 enfadat. Percep certa indifer\u00e8ncia per part dels pares que presencien aquests fets. Per\u00f2 el que aquest ve\u00ed no sap \u00e9s que els pares tamb\u00e9 estem tristos, cansats i enfadats.\n<br />Estem tristos perqu\u00e8 tot i l'empla\u00e7ament privilegiat de la nostra escola no tenim cap parc a prop per desfogar-nos a la sortida. Cansats de portar tants anys demanant que es faci alguna cosa amb el descampat que tenim al costat de l'\u00c0ngels Garriga. I enfadats perqu\u00e8 tenim la sensaci\u00f3 de que ning\u00fa ens escolta.\n<br />Tenim un problema, tant els ve\u00efns del barri, com els nens de l'escola i els seus pares. Ens unim? D\u00f3na el teu suport aqu\u00ed</p>", 
            "commentable_id": 400, 
            "commentable_type": "Proposal", 
            "created_at": "15/02/2016 13:53:12", 
            "flagged": false, 
            "hidden": false, 
            "id": 1848, 
            "moderator_id": null, 
            "permissions": {
                "hide": false, 
                "hide_author": false, 
                "vote": false
            }, 
            "total_dislikes": 0, 
            "total_likes": 3, 
            "total_votes": 3
        }, 
        {
            "administrator_id": null, 
            "alignment": 1, 
            "ancestry": null, 
            "as": null, 
            "author": {
                "avatar_image": "https://decidim.barcelona/assets/avatar-866795c99abc33a3160d1f3fa93ada46eb75e54134e777666b9ed16215b26534.png", 
                "erased": false, 
                "hidden": false, 
                "id": 5488, 
                "name": "Carme Barba", 
                "official": false, 
                "official_level": 0, 
                "role": null, 
                "verified_organization": null
            }, 
            "body": "<p>Veig totalment necessari millorar la connectivitat entre el carrer Alt de Pedrell i el Passeig Maragall per als vianants. Seria una gran soluci\u00f3 instal\u00b7lar unes escales mec\u00e0niques o ascensor a les escales de la Davallada dels Gallecs. Aquesta acci\u00f3 milloraria notablement la mobilitat de la gent gran, persones amb cotxets, nens, etc. \n<br />Per altra banda, l'arranjament del solar adjacent a les escales i la creaci\u00f3 d'un parc infantil donaria resposta a la manca d'aquest tipus d'infraestructures al barri. </p>\n\n<p>Ens sentir\u00edem molt satisfets si l'Ajuntament ens escolt\u00e9s i actu\u00e9s en conseq\u00fc\u00e8ncia. </p>", 
            "commentable_id": 400, 
            "commentable_type": "Proposal", 
            "created_at": "15/02/2016 15:11:14", 
            "flagged": false, 
            "hidden": false, 
            "id": 1856, 
            "moderator_id": null, 
            "permissions": {
                "hide": false, 
                "hide_author": false, 
                "vote": false
            }, 
            "total_dislikes": 0, 
            "total_likes": 3, 
            "total_votes": 3
        }, 
        {
            "administrator_id": null, 
            "alignment": 1, 
            "ancestry": null, 
            "as": null, 
            "author": {
                "avatar_image": "https://decidim.barcelona/assets/avatar-866795c99abc33a3160d1f3fa93ada46eb75e54134e777666b9ed16215b26534.png", 
                "erased": false, 
                "hidden": false, 
                "id": 5760, 
                "name": "Leyla Serrano", 
                "official": false, 
                "official_level": 0, 
                "role": null, 
                "verified_organization": null
            }, 
            "body": "<p>\u00c9s rid\u00edcul que un barri que t\u00e9 tant\u00edssimes escoles no disposi d'un parc infantil, \u00e9s rid\u00edcul que haven-t'hi espai de sobre no hi hagi un \"Pipican\" on els gossos puguin fer les seves necessitats i mantenir aix\u00ed el barri m\u00e9s net, \u00e9s rid\u00edcull que un barri que t\u00e9 tant\u00edssimes pujades continui essent tan innaccessible. La meva fam\u00edlia viu al barri de Ciutat Meridiana i, tot i ser un barri considerat molt m\u00e9s humil i pert\u00e0nyer al districte de Nou Barris (que se suposa que \u00e9s un dels m\u00e9s desvaforits de Barcelona), ells tenen parcs arreu, escales mec\u00e0niques, ascensors, un bus del barri m\u00e9s econ\u00f2mic que la resta que passa cada molt poc, molt\u00edssimes papereres, pipicans des de fa ja m\u00e9s de 10 anys.  La Font d'en Fargas per quan? </p>", 
            "commentable_id": 400, 
            "commentable_type": "Proposal", 
            "created_at": "16/02/2016 11:08:28", 
            "flagged": false, 
            "hidden": false, 
            "id": 1919, 
            "moderator_id": null, 
            "permissions": {
                "hide": false, 
                "hide_author": false, 
                "vote": false
            }, 
            "total_dislikes": 0, 
            "total_likes": 1, 
            "total_votes": 1
        }
    ], 
    "meta": {
        "current_page": 1, 
        "next_page": 2, 
        "prev_page": null, 
        "total_count": 33, 
        "total_pages": 2
    }
}