{
    "comments": [
        {
            "administrator_id": null, 
            "alignment": 1, 
            "ancestry": null, 
            "as": null, 
            "author": {
                "avatar_image": "https://decidim.barcelona/assets/avatar-866795c99abc33a3160d1f3fa93ada46eb75e54134e777666b9ed16215b26534.png", 
                "erased": false, 
                "hidden": false, 
                "id": 4246, 
                "name": "octaviorubio", 
                "official": false, 
                "official_level": 0, 
                "role": null, 
                "verified_organization": null
            }, 
            "body": "<p>Des de fa anys les ve\u00efnes i ve\u00efns de la zona venim demandant la urbanitzaci\u00f3 d'aquest solar situat al costat de la escola Angels Garriga com a espai de relaci\u00f3 d'un barri que, com \u00e9s el cas de la Font d'en Fargas, necessita d'aquests llocs de trobada donada l'accidentada orografia del mateix. Especialment si pensem en els nens i les nenes.</p>", 
            "commentable_id": 400, 
            "commentable_type": "Proposal", 
            "created_at": "05/03/2016 18:32:18", 
            "flagged": false, 
            "hidden": false, 
            "id": 3676, 
            "moderator_id": null, 
            "permissions": {
                "hide": false, 
                "hide_author": false, 
                "vote": false
            }, 
            "total_dislikes": 0, 
            "total_likes": 1, 
            "total_votes": 1
        }, 
        {
            "administrator_id": null, 
            "alignment": 1, 
            "ancestry": null, 
            "as": null, 
            "author": {
                "avatar_image": "https://decidim.barcelona/assets/avatar-866795c99abc33a3160d1f3fa93ada46eb75e54134e777666b9ed16215b26534.png", 
                "erased": false, 
                "hidden": false, 
                "id": 10979, 
                "name": "Albert Garc\u00eda", 
                "official": false, 
                "official_level": 0, 
                "role": null, 
                "verified_organization": null
            }, 
            "body": "<p>Elevador o escales ja, sius plau. Ja no puc puixar.Penseu que al solar del costat es podr\u00eda fer un parquing de pisos amb entrada cotxes i vianats per C/ Gallecs y entrada/ sortida vianats per Devallada Gallecs, amb ascensor per l'interior del parking.</p>", 
            "commentable_id": 400, 
            "commentable_type": "Proposal", 
            "created_at": "08/03/2016 19:57:56", 
            "flagged": false, 
            "hidden": false, 
            "id": 4002, 
            "moderator_id": null, 
            "permissions": {
                "hide": false, 
                "hide_author": false, 
                "vote": false
            }, 
            "total_dislikes": 0, 
            "total_likes": 0, 
            "total_votes": 0
        }, 
        {
            "administrator_id": null, 
            "alignment": 1, 
            "ancestry": null, 
            "as": null, 
            "author": {
                "avatar_image": "https://decidim.barcelona/assets/avatar-866795c99abc33a3160d1f3fa93ada46eb75e54134e777666b9ed16215b26534.png", 
                "erased": false, 
                "hidden": false, 
                "id": 18853, 
                "name": "Neusbernaus", 
                "official": false, 
                "official_level": 0, 
                "role": null, 
                "verified_organization": null
            }, 
            "body": "<p>PROPOSTA: L'Escola \u00c0ngels Garriga t\u00e9 poc espai exterior, \u00e9s a dir, poc pati. I si el solar es convert\u00eds en una prolongaci\u00f3 del pati d'escola? D'aquesta manera els nens i nenes de l'Escola \u00c0ngels Garriga el podrien gaudir tant en hora escolar com despr\u00e9s. La proposta seria cedir-ho a l'Escola amb el pacte de fer pati obert al barri perqu\u00e8 tothom se'n beneficies. Pot semblar un p\u00e8l descabellat per\u00f2 a l'Escola \u00c0ngels Garriga li fa falta una mica m\u00e9s d'espai, i els nens es passen m\u00e9s hores a l'escola que al sortir d'escola, que \u00e9s un ratet i cap a casa a sopar!\n<br />Per altra banda, ja fa molt temps que es demana escales autom\u00e0tiques a la Davallada o ascensor, sempre va al programa electoral del partit de torn...a veure si d'una vegada per totes es fa el que es diu. Som un barri molt a\u00efllat que agrair\u00edem profundament, pels qui no anem amb cotxe o moto, connectar-nos i fer-nos la vida un p\u00e8l m\u00e9s f\u00e0cil.</p>", 
            "commentable_id": 400, 
            "commentable_type": "Proposal", 
            "created_at": "06/04/2016 15:50:48", 
            "flagged": false, 
            "hidden": false, 
            "id": 8679, 
            "moderator_id": null, 
            "permissions": {
                "hide": false, 
                "hide_author": false, 
                "vote": false
            }, 
            "total_dislikes": 0, 
            "total_likes": 0, 
            "total_votes": 0
        }, 
        {
            "administrator_id": null, 
            "alignment": 1, 
            "ancestry": null, 
            "as": null, 
            "author": {
                "avatar_image": "https://decidim.barcelona/assets/avatar-866795c99abc33a3160d1f3fa93ada46eb75e54134e777666b9ed16215b26534.png", 
                "erased": false, 
                "hidden": false, 
                "id": 613, 
                "name": "Josep M Armengou", 
                "official": false, 
                "official_level": 0, 
                "role": null, 
                "verified_organization": null
            }, 
            "body": "<p>Molt d'acord. Sistema el\u00e8ctric de pujada i baixada per a qui el necessiti.</p>", 
            "commentable_id": 400, 
            "commentable_type": "Proposal", 
            "created_at": "07/04/2016 13:25:57", 
            "flagged": false, 
            "hidden": false, 
            "id": 9307, 
            "moderator_id": null, 
            "permissions": {
                "hide": false, 
                "hide_author": false, 
                "vote": false
            }, 
            "total_dislikes": 0, 
            "total_likes": 0, 
            "total_votes": 0
        }, 
        {
            "administrator_id": null, 
            "alignment": 1, 
            "ancestry": null, 
            "as": "organization", 
            "author": {
                "avatar_image": "https://decidim.barcelona/assets/avatar-866795c99abc33a3160d1f3fa93ada46eb75e54134e777666b9ed16215b26534.png", 
                "erased": false, 
                "hidden": false, 
                "id": 16671, 
                "name": "Associaci\u00f3 de Ve\u00efnes i Ve\u00efns de la Font d'en Fargues", 
                "official": false, 
                "official_level": 0, 
                "role": "organization", 
                "verified_organization": false
            }, 
            "body": "<p>escales mec\u00e0niques a la Davallada de Gallecs!!!</p>", 
            "commentable_id": 400, 
            "commentable_type": "Proposal", 
            "created_at": "08/04/2016 13:45:12", 
            "flagged": false, 
            "hidden": false, 
            "id": 10839, 
            "moderator_id": null, 
            "permissions": {
                "hide": false, 
                "hide_author": false, 
                "vote": false
            }, 
            "total_dislikes": 0, 
            "total_likes": 0, 
            "total_votes": 0
        }, 
        {
            "administrator_id": null, 
            "alignment": 1, 
            "ancestry": null, 
            "as": null, 
            "author": {
                "avatar_image": "https://decidim.barcelona/assets/avatar-866795c99abc33a3160d1f3fa93ada46eb75e54134e777666b9ed16215b26534.png", 
                "erased": false, 
                "hidden": false, 
                "id": 5066, 
                "name": "Joel Pont Maldonado", 
                "official": false, 
                "official_level": 0, 
                "role": null, 
                "verified_organization": null
            }, 
            "body": "<p>Necessitem un espai habilitat per jugar i poder estar amb els nostres fills al sortir de l'escola \u00c0ngels Garriga</p>", 
            "commentable_id": 400, 
            "commentable_type": "Proposal", 
            "created_at": "08/04/2016 23:03:33", 
            "flagged": false, 
            "hidden": false, 
            "id": 11505, 
            "moderator_id": null, 
            "permissions": {
                "hide": false, 
                "hide_author": false, 
                "vote": false
            }, 
            "total_dislikes": 0, 
            "total_likes": 0, 
            "total_votes": 0
        }, 
        {
            "administrator_id": null, 
            "alignment": 1, 
            "ancestry": null, 
            "as": null, 
            "author": {
                "avatar_image": "https://decidim.barcelona/assets/avatar-866795c99abc33a3160d1f3fa93ada46eb75e54134e777666b9ed16215b26534.png", 
                "erased": false, 
                "hidden": false, 
                "id": 5066, 
                "name": "Joel Pont Maldonado", 
                "official": false, 
                "official_level": 0, 
                "role": null, 
                "verified_organization": null
            }, 
            "body": "<p>\u00c9s necessari l'acondicionament del solar que est\u00e0 just al tocar de l'escola \u00c0ngels Garriga perque els nostres nens pugui tenir un lloc on berenar o jugar sense por a prendre mal amb les pedres que cauen dia rere dia I ens anem trobant de cami a l'escola.</p>", 
            "commentable_id": 400, 
            "commentable_type": "Proposal", 
            "created_at": "08/04/2016 23:04:12", 
            "flagged": false, 
            "hidden": false, 
            "id": 11506, 
            "moderator_id": null, 
            "permissions": {
                "hide": false, 
                "hide_author": false, 
                "vote": false
            }, 
            "total_dislikes": 0, 
            "total_likes": 0, 
            "total_votes": 0
        }, 
        {
            "administrator_id": null, 
            "alignment": 1, 
            "ancestry": null, 
            "as": null, 
            "author": {
                "avatar_image": "https://decidim.barcelona/assets/avatar-866795c99abc33a3160d1f3fa93ada46eb75e54134e777666b9ed16215b26534.png", 
                "erased": false, 
                "hidden": false, 
                "id": 22471, 
                "name": "Juan M", 
                "official": false, 
                "official_level": 0, 
                "role": null, 
                "verified_organization": null
            }, 
            "body": "<p>Cauen pedres a la vorera constantment, cal ja que es faci quelcom ja</p>", 
            "commentable_id": 400, 
            "commentable_type": "Proposal", 
            "created_at": "08/04/2016 23:26:24", 
            "flagged": false, 
            "hidden": false, 
            "id": 11515, 
            "moderator_id": null, 
            "permissions": {
                "hide": false, 
                "hide_author": false, 
                "vote": false
            }, 
            "total_dislikes": 0, 
            "total_likes": 0, 
            "total_votes": 0
        }, 
        {
            "administrator_id": null, 
            "alignment": 1, 
            "ancestry": null, 
            "as": null, 
            "author": {
                "avatar_image": "https://decidim.barcelona/assets/avatar-866795c99abc33a3160d1f3fa93ada46eb75e54134e777666b9ed16215b26534.png", 
                "erased": false, 
                "hidden": false, 
                "id": 22492, 
                "name": "Eva ML", 
                "official": false, 
                "official_level": 0, 
                "role": null, 
                "verified_organization": null
            }, 
            "body": "<p>Es necessari adequar el descampat, actualment es un perill amb les pedres que diariament cauen. Venen a netejar un o dos cops a l'any pero nom\u00e9s les herbes, i es un niu de brut\u00edcia i ratolins. Es tindria que fer espais verd i zona infantil per els nens de l' escola \u00e0ngels Garriga i per els nens de la zona. la connexi\u00f3 entre el carrer gallecs/ alt de Pedrell es molt complicada amb tantes escales, es tindria que posar unes escales mec\u00e0niques o ascensor per les persones amb mobilitat reducida o fam\u00edlies amb beb\u00e8s tinguin acc\u00e9s f\u00e0cil al P. Maragall </p>", 
            "commentable_id": 400, 
            "commentable_type": "Proposal", 
            "created_at": "08/04/2016 23:54:29", 
            "flagged": false, 
            "hidden": false, 
            "id": 11524, 
            "moderator_id": null, 
            "permissions": {
                "hide": false, 
                "hide_author": false, 
                "vote": false
            }, 
            "total_dislikes": 0, 
            "total_likes": 1, 
            "total_votes": 1
        }, 
        {
            "administrator_id": null, 
            "alignment": 1, 
            "ancestry": null, 
            "as": null, 
            "author": {
                "avatar_image": "https://decidim.barcelona/assets/avatar-866795c99abc33a3160d1f3fa93ada46eb75e54134e777666b9ed16215b26534.png", 
                "erased": false, 
                "hidden": false, 
                "id": 22603, 
                "name": "Jordi R", 
                "official": false, 
                "official_level": 0, 
                "role": null, 
                "verified_organization": null
            }, 
            "body": "<p>Es un lloc de trobada de molts nens a la sortida de l'escola i l'espai no est\u00e1 preparat, \u00e9s insuficient i t\u00e9 molt riscos.</p>", 
            "commentable_id": 400, 
            "commentable_type": "Proposal", 
            "created_at": "09/04/2016 08:34:26", 
            "flagged": false, 
            "hidden": false, 
            "id": 11562, 
            "moderator_id": null, 
            "permissions": {
                "hide": false, 
                "hide_author": false, 
                "vote": false
            }, 
            "total_dislikes": 0, 
            "total_likes": 0, 
            "total_votes": 0
        }, 
        {
            "administrator_id": null, 
            "alignment": 0, 
            "ancestry": null, 
            "as": null, 
            "author": {
                "avatar_image": "https://decidim.barcelona/assets/avatar-866795c99abc33a3160d1f3fa93ada46eb75e54134e777666b9ed16215b26534.png", 
                "erased": false, 
                "hidden": false, 
                "id": 22699, 
                "name": "Laura Pardo", 
                "official": false, 
                "official_level": 0, 
                "role": null, 
                "verified_organization": null
            }, 
            "body": "<p>\u00c9s un espai molt gran i cal que el barri i l'escola \u00c0ngels Garriga pugui fer-ne \u00fas sense perills. Seria molt bo per tothom una reforma.</p>", 
            "commentable_id": 400, 
            "commentable_type": "Proposal", 
            "created_at": "09/04/2016 10:25:49", 
            "flagged": false, 
            "hidden": false, 
            "id": 11602, 
            "moderator_id": null, 
            "permissions": {
                "hide": false, 
                "hide_author": false, 
                "vote": false
            }, 
            "total_dislikes": 0, 
            "total_likes": 0, 
            "total_votes": 0
        }, 
        {
            "administrator_id": null, 
            "alignment": 1, 
            "ancestry": null, 
            "as": null, 
            "author": {
                "avatar_image": "https://decidim.barcelona/assets/avatar-866795c99abc33a3160d1f3fa93ada46eb75e54134e777666b9ed16215b26534.png", 
                "erased": false, 
                "hidden": false, 
                "id": 22699, 
                "name": "Laura Pardo", 
                "official": false, 
                "official_level": 0, 
                "role": null, 
                "verified_organization": null
            }, 
            "body": "<p>Perdoneu, era un vot a favor ....</p>", 
            "commentable_id": 400, 
            "commentable_type": "Proposal", 
            "created_at": "09/04/2016 10:27:26", 
            "flagged": false, 
            "hidden": false, 
            "id": 11606, 
            "moderator_id": null, 
            "permissions": {
                "hide": false, 
                "hide_author": false, 
                "vote": false
            }, 
            "total_dislikes": 0, 
            "total_likes": 0, 
            "total_votes": 0
        }, 
        {
            "administrator_id": null, 
            "alignment": 1, 
            "ancestry": null, 
            "as": null, 
            "author": {
                "avatar_image": "https://decidim.barcelona/assets/avatar-866795c99abc33a3160d1f3fa93ada46eb75e54134e777666b9ed16215b26534.png", 
                "erased": false, 
                "hidden": false, 
                "id": 22759, 
                "name": "Marta Serra", 
                "official": false, 
                "official_level": 0, 
                "role": null, 
                "verified_organization": null
            }, 
            "body": "<p>\u00c9s important habilitar un espai de relaci\u00f3 tant per a infants com per a les seves fam\u00edlies.  Els nens i nenes necessiten jugar en condicions \u00f2ptimes i donar-los la import\u00e0ncia que es mereixen. Per un altre cant\u00f3, habilitar l'espai amb escales mec\u00e0niques seria prioritari, evitant d'aquesta manera la injust\u00edcia social vers personers amb mobilitat redu\u00efda.\n</p>", 
            "commentable_id": 400, 
            "commentable_type": "Proposal", 
            "created_at": "09/04/2016 11:38:30", 
            "flagged": false, 
            "hidden": false, 
            "id": 11779, 
            "moderator_id": null, 
            "permissions": {
                "hide": false, 
                "hide_author": false, 
                "vote": false
            }, 
            "total_dislikes": 0, 
            "total_likes": 0, 
            "total_votes": 0
        }
    ], 
    "meta": {
        "current_page": 2, 
        "next_page": null, 
        "prev_page": 1, 
        "total_count": 33, 
        "total_pages": 2
    }
}