{
    "comments": [
        {
            "administrator_id": null, 
            "alignment": 1, 
            "ancestry": null, 
            "as": null, 
            "author": {
                "avatar_image": "https://decidim.barcelona/assets/avatar-866795c99abc33a3160d1f3fa93ada46eb75e54134e777666b9ed16215b26534.png", 
                "erased": false, 
                "hidden": false, 
                "id": 119, 
                "name": "xexu2000", 
                "official": false, 
                "official_level": 0, 
                "role": null, 
                "verified_organization": null
            }, 
            "body": "<p>Es necessari recuperar la mem\u00f2ria del que ha passat al barri amb la instal\u00b7laci\u00f3 de plaques, per\u00f2 que tamb\u00e9 facin refer\u00e8ncia a espais web per ampliar informaci\u00f3. </p>", 
            "commentable_id": 546, 
            "commentable_type": "Proposal", 
            "created_at": "02/02/2016 15:15:38", 
            "flagged": false, 
            "hidden": false, 
            "id": 268, 
            "moderator_id": null, 
            "permissions": {
                "hide": false, 
                "hide_author": false, 
                "vote": false
            }, 
            "total_dislikes": 0, 
            "total_likes": 1, 
            "total_votes": 1
        }, 
        {
            "administrator_id": null, 
            "alignment": 0, 
            "ancestry": null, 
            "as": null, 
            "author": {
                "avatar_image": "https://decidim.barcelona/assets/avatar-866795c99abc33a3160d1f3fa93ada46eb75e54134e777666b9ed16215b26534.png", 
                "erased": false, 
                "hidden": false, 
                "id": 1466, 
                "name": "Silvia L.", 
                "official": false, 
                "official_level": 0, 
                "role": null, 
                "verified_organization": null
            }, 
            "body": "<p><a href=\"https://decidim.barcelona/proposals/senyalitzacio-dels-vestigis-industrials\">https://decidim.barcelona/proposals/senyalitzacio-dels-vestigis-industrials</a></p>", 
            "commentable_id": 546, 
            "commentable_type": "Proposal", 
            "created_at": "23/03/2016 12:49:33", 
            "flagged": false, 
            "hidden": false, 
            "id": 6383, 
            "moderator_id": null, 
            "permissions": {
                "hide": false, 
                "hide_author": false, 
                "vote": false
            }, 
            "total_dislikes": 0, 
            "total_likes": 0, 
            "total_votes": 0
        }, 
        {
            "administrator_id": null, 
            "alignment": 0, 
            "ancestry": null, 
            "as": null, 
            "author": {
                "avatar_image": "https://decidim.barcelona/assets/avatar-866795c99abc33a3160d1f3fa93ada46eb75e54134e777666b9ed16215b26534.png", 
                "erased": false, 
                "hidden": false, 
                "id": 1466, 
                "name": "Silvia L.", 
                "official": false, 
                "official_level": 0, 
                "role": null, 
                "verified_organization": null
            }, 
            "body": "<p><a href=\"https://decidim.barcelona/proposals/senyalitzacio-del-castell-del-camp-de-la-bota\">https://decidim.barcelona/proposals/senyalitzacio-del-castell-del-camp-de-la-bota</a></p>", 
            "commentable_id": 546, 
            "commentable_type": "Proposal", 
            "created_at": "23/03/2016 12:51:07", 
            "flagged": false, 
            "hidden": false, 
            "id": 6384, 
            "moderator_id": null, 
            "permissions": {
                "hide": false, 
                "hide_author": false, 
                "vote": false
            }, 
            "total_dislikes": 0, 
            "total_likes": 0, 
            "total_votes": 0
        }, 
        {
            "administrator_id": null, 
            "alignment": 0, 
            "ancestry": null, 
            "as": null, 
            "author": {
                "avatar_image": "https://decidim.barcelona/assets/avatar-866795c99abc33a3160d1f3fa93ada46eb75e54134e777666b9ed16215b26534.png", 
                "erased": false, 
                "hidden": false, 
                "id": 1466, 
                "name": "Silvia L.", 
                "official": false, 
                "official_level": 0, 
                "role": null, 
                "verified_organization": null
            }, 
            "body": "<p><a href=\"https://decidim.barcelona/proposals/senyalitzar-els-espais-historics-de-la-mar-bella\">https://decidim.barcelona/proposals/senyalitzar-els-espais-historics-de-la-mar-bella</a></p>", 
            "commentable_id": 546, 
            "commentable_type": "Proposal", 
            "created_at": "23/03/2016 12:52:55", 
            "flagged": false, 
            "hidden": false, 
            "id": 6385, 
            "moderator_id": null, 
            "permissions": {
                "hide": false, 
                "hide_author": false, 
                "vote": false
            }, 
            "total_dislikes": 0, 
            "total_likes": 0, 
            "total_votes": 0
        }, 
        {
            "administrator_id": null, 
            "alignment": 0, 
            "ancestry": null, 
            "as": null, 
            "author": {
                "avatar_image": "https://decidim.barcelona/assets/avatar-866795c99abc33a3160d1f3fa93ada46eb75e54134e777666b9ed16215b26534.png", 
                "erased": false, 
                "hidden": false, 
                "id": 1466, 
                "name": "Silvia L.", 
                "official": false, 
                "official_level": 0, 
                "role": null, 
                "verified_organization": null
            }, 
            "body": "<p><a href=\"https://decidim.barcelona/proposals/placa-commemorativa-al-camp-de-la-bota\">https://decidim.barcelona/proposals/placa-commemorativa-al-camp-de-la-bota</a></p>", 
            "commentable_id": 546, 
            "commentable_type": "Proposal", 
            "created_at": "23/03/2016 12:53:53", 
            "flagged": false, 
            "hidden": false, 
            "id": 6386, 
            "moderator_id": null, 
            "permissions": {
                "hide": false, 
                "hide_author": false, 
                "vote": false
            }, 
            "total_dislikes": 0, 
            "total_likes": 0, 
            "total_votes": 0
        }, 
        {
            "administrator_id": null, 
            "alignment": 1, 
            "ancestry": null, 
            "as": null, 
            "author": {
                "avatar_image": "https://decidim.barcelona/assets/avatar-866795c99abc33a3160d1f3fa93ada46eb75e54134e777666b9ed16215b26534.png", 
                "erased": false, 
                "hidden": false, 
                "id": 18110, 
                "name": "MARIA MARTINEZ ", 
                "official": false, 
                "official_level": 0, 
                "role": null, 
                "verified_organization": null
            }, 
            "body": "<p>Millor que aquesta actuaci\u00f3 fos a TOTS els barris.</p>", 
            "commentable_id": 546, 
            "commentable_type": "Proposal", 
            "created_at": "04/04/2016 21:03:16", 
            "flagged": false, 
            "hidden": false, 
            "id": 7844, 
            "moderator_id": null, 
            "permissions": {
                "hide": false, 
                "hide_author": false, 
                "vote": false
            }, 
            "total_dislikes": 0, 
            "total_likes": 0, 
            "total_votes": 0
        }, 
        {
            "administrator_id": null, 
            "alignment": 0, 
            "ancestry": null, 
            "as": null, 
            "author": {
                "avatar_image": "https://decidim.barcelona/assets/avatar-866795c99abc33a3160d1f3fa93ada46eb75e54134e777666b9ed16215b26534.png", 
                "erased": false, 
                "hidden": false, 
                "id": 17740, 
                "name": "Suport General2 - Decidim Barcelona", 
                "official": false, 
                "official_level": 0, 
                "role": null, 
                "verified_organization": null
            }, 
            "body": "<p><a href=\"https://decidim.barcelona/proposals/torre-del-fang\">https://decidim.barcelona/proposals/torre-del-fang</a></p>", 
            "commentable_id": 546, 
            "commentable_type": "Proposal", 
            "created_at": "09/04/2016 14:24:18", 
            "flagged": false, 
            "hidden": false, 
            "id": 12257, 
            "moderator_id": null, 
            "permissions": {
                "hide": false, 
                "hide_author": false, 
                "vote": false
            }, 
            "total_dislikes": 0, 
            "total_likes": 0, 
            "total_votes": 0
        }, 
        {
            "administrator_id": null, 
            "alignment": 0, 
            "ancestry": null, 
            "as": null, 
            "author": {
                "avatar_image": "https://decidim.barcelona/assets/avatar-866795c99abc33a3160d1f3fa93ada46eb75e54134e777666b9ed16215b26534.png", 
                "erased": false, 
                "hidden": false, 
                "id": 17740, 
                "name": "Suport General2 - Decidim Barcelona", 
                "official": false, 
                "official_level": 0, 
                "role": null, 
                "verified_organization": null
            }, 
            "body": "<p><a href=\"https://decidim.barcelona/proposals/restauracion-de-los-edificios-de-viviendas-de-principios-de-siglo-xx\">https://decidim.barcelona/proposals/restauracion-de-los-edificios-de-viviendas-de-principios-de-siglo-xx</a></p>", 
            "commentable_id": 546, 
            "commentable_type": "Proposal", 
            "created_at": "09/04/2016 14:32:47", 
            "flagged": false, 
            "hidden": false, 
            "id": 12292, 
            "moderator_id": null, 
            "permissions": {
                "hide": false, 
                "hide_author": false, 
                "vote": false
            }, 
            "total_dislikes": 0, 
            "total_likes": 0, 
            "total_votes": 0
        }, 
        {
            "administrator_id": null, 
            "alignment": 0, 
            "ancestry": null, 
            "as": null, 
            "author": {
                "avatar_image": "https://decidim.barcelona/assets/avatar-866795c99abc33a3160d1f3fa93ada46eb75e54134e777666b9ed16215b26534.png", 
                "erased": false, 
                "hidden": false, 
                "id": 17740, 
                "name": "Suport General2 - Decidim Barcelona", 
                "official": false, 
                "official_level": 0, 
                "role": null, 
                "verified_organization": null
            }, 
            "body": "<p><a href=\"https://decidim.barcelona/proposals/restauracio-patrimoni-a-can-ricart\">https://decidim.barcelona/proposals/restauracio-patrimoni-a-can-ricart</a></p>", 
            "commentable_id": 546, 
            "commentable_type": "Proposal", 
            "created_at": "09/04/2016 14:33:29", 
            "flagged": false, 
            "hidden": false, 
            "id": 12294, 
            "moderator_id": null, 
            "permissions": {
                "hide": false, 
                "hide_author": false, 
                "vote": false
            }, 
            "total_dislikes": 0, 
            "total_likes": 0, 
            "total_votes": 0
        }, 
        {
            "administrator_id": null, 
            "alignment": 0, 
            "ancestry": null, 
            "as": null, 
            "author": {
                "avatar_image": "https://decidim.barcelona/assets/avatar-866795c99abc33a3160d1f3fa93ada46eb75e54134e777666b9ed16215b26534.png", 
                "erased": false, 
                "hidden": false, 
                "id": 17740, 
                "name": "Suport General2 - Decidim Barcelona", 
                "official": false, 
                "official_level": 0, 
                "role": null, 
                "verified_organization": null
            }, 
            "body": "<p><a href=\"https://decidim.barcelona/proposals/placa-commemorativa-al-camp-de-la-bota\">https://decidim.barcelona/proposals/placa-commemorativa-al-camp-de-la-bota</a></p>", 
            "commentable_id": 546, 
            "commentable_type": "Proposal", 
            "created_at": "09/04/2016 14:34:02", 
            "flagged": false, 
            "hidden": false, 
            "id": 12297, 
            "moderator_id": null, 
            "permissions": {
                "hide": false, 
                "hide_author": false, 
                "vote": false
            }, 
            "total_dislikes": 0, 
            "total_likes": 0, 
            "total_votes": 0
        }, 
        {
            "administrator_id": null, 
            "alignment": 0, 
            "ancestry": null, 
            "as": null, 
            "author": {
                "avatar_image": "https://decidim.barcelona/assets/avatar-866795c99abc33a3160d1f3fa93ada46eb75e54134e777666b9ed16215b26534.png", 
                "erased": false, 
                "hidden": false, 
                "id": 17740, 
                "name": "Suport General2 - Decidim Barcelona", 
                "official": false, 
                "official_level": 0, 
                "role": null, 
                "verified_organization": null
            }, 
            "body": "<p><a href=\"https://decidim.barcelona/proposals/canviar-o-arreglar-la-placa-commemorativa-carrer-castanys-num-13-a-ramon-calsina\">https://decidim.barcelona/proposals/canviar-o-arreglar-la-placa-commemorativa-carrer-castanys-num-13-a-ramon-calsina</a></p>", 
            "commentable_id": 546, 
            "commentable_type": "Proposal", 
            "created_at": "09/04/2016 14:34:20", 
            "flagged": false, 
            "hidden": false, 
            "id": 12300, 
            "moderator_id": null, 
            "permissions": {
                "hide": false, 
                "hide_author": false, 
                "vote": false
            }, 
            "total_dislikes": 0, 
            "total_likes": 0, 
            "total_votes": 0
        }, 
        {
            "administrator_id": null, 
            "alignment": 0, 
            "ancestry": null, 
            "as": null, 
            "author": {
                "avatar_image": "https://decidim.barcelona/assets/avatar-866795c99abc33a3160d1f3fa93ada46eb75e54134e777666b9ed16215b26534.png", 
                "erased": false, 
                "hidden": false, 
                "id": 17740, 
                "name": "Suport General2 - Decidim Barcelona", 
                "official": false, 
                "official_level": 0, 
                "role": null, 
                "verified_organization": null
            }, 
            "body": "<p><a href=\"https://decidim.barcelona/proposals/repensar-l-us-de-la-casa-de-les-valvules\">https://decidim.barcelona/proposals/repensar-l-us-de-la-casa-de-les-valvules</a></p>", 
            "commentable_id": 546, 
            "commentable_type": "Proposal", 
            "created_at": "09/04/2016 14:34:37", 
            "flagged": false, 
            "hidden": false, 
            "id": 12302, 
            "moderator_id": null, 
            "permissions": {
                "hide": false, 
                "hide_author": false, 
                "vote": false
            }, 
            "total_dislikes": 0, 
            "total_likes": 0, 
            "total_votes": 0
        }, 
        {
            "administrator_id": null, 
            "alignment": 0, 
            "ancestry": null, 
            "as": null, 
            "author": {
                "avatar_image": "https://decidim.barcelona/assets/avatar-866795c99abc33a3160d1f3fa93ada46eb75e54134e777666b9ed16215b26534.png", 
                "erased": false, 
                "hidden": false, 
                "id": 17740, 
                "name": "Suport General2 - Decidim Barcelona", 
                "official": false, 
                "official_level": 0, 
                "role": null, 
                "verified_organization": null
            }, 
            "body": "<p><a href=\"https://decidim.barcelona/proposals/senyalitzacio-estacio-renfe-poblenou\">https://decidim.barcelona/proposals/senyalitzacio-estacio-renfe-poblenou</a></p>", 
            "commentable_id": 546, 
            "commentable_type": "Proposal", 
            "created_at": "09/04/2016 14:36:54", 
            "flagged": false, 
            "hidden": false, 
            "id": 12309, 
            "moderator_id": null, 
            "permissions": {
                "hide": false, 
                "hide_author": false, 
                "vote": false
            }, 
            "total_dislikes": 0, 
            "total_likes": 0, 
            "total_votes": 0
        }, 
        {
            "administrator_id": null, 
            "alignment": 0, 
            "ancestry": null, 
            "as": null, 
            "author": {
                "avatar_image": "https://decidim.barcelona/assets/avatar-866795c99abc33a3160d1f3fa93ada46eb75e54134e777666b9ed16215b26534.png", 
                "erased": false, 
                "hidden": false, 
                "id": 17740, 
                "name": "Suport General2 - Decidim Barcelona", 
                "official": false, 
                "official_level": 0, 
                "role": null, 
                "verified_organization": null
            }, 
            "body": "<p><a href=\"https://decidim.barcelona/proposals/renovacio-del-cataleg-de-patrimoni\">https://decidim.barcelona/proposals/renovacio-del-cataleg-de-patrimoni</a></p>", 
            "commentable_id": 546, 
            "commentable_type": "Proposal", 
            "created_at": "09/04/2016 14:39:38", 
            "flagged": false, 
            "hidden": false, 
            "id": 12319, 
            "moderator_id": null, 
            "permissions": {
                "hide": false, 
                "hide_author": false, 
                "vote": false
            }, 
            "total_dislikes": 0, 
            "total_likes": 0, 
            "total_votes": 0
        }, 
        {
            "administrator_id": null, 
            "alignment": 0, 
            "ancestry": null, 
            "as": null, 
            "author": {
                "avatar_image": "https://decidim.barcelona/assets/avatar-866795c99abc33a3160d1f3fa93ada46eb75e54134e777666b9ed16215b26534.png", 
                "erased": false, 
                "hidden": false, 
                "id": 17740, 
                "name": "Suport General2 - Decidim Barcelona", 
                "official": false, 
                "official_level": 0, 
                "role": null, 
                "verified_organization": null
            }, 
            "body": "<p><a href=\"https://decidim.barcelona/proposals/respectar-els-edificis-del-s-xx\">https://decidim.barcelona/proposals/respectar-els-edificis-del-s-xx</a></p>", 
            "commentable_id": 546, 
            "commentable_type": "Proposal", 
            "created_at": "09/04/2016 14:45:37", 
            "flagged": false, 
            "hidden": false, 
            "id": 12339, 
            "moderator_id": null, 
            "permissions": {
                "hide": false, 
                "hide_author": false, 
                "vote": false
            }, 
            "total_dislikes": 0, 
            "total_likes": 0, 
            "total_votes": 0
        }, 
        {
            "administrator_id": null, 
            "alignment": 0, 
            "ancestry": null, 
            "as": null, 
            "author": {
                "avatar_image": "https://decidim.barcelona/assets/avatar-866795c99abc33a3160d1f3fa93ada46eb75e54134e777666b9ed16215b26534.png", 
                "erased": false, 
                "hidden": false, 
                "id": 17740, 
                "name": "Suport General2 - Decidim Barcelona", 
                "official": false, 
                "official_level": 0, 
                "role": null, 
                "verified_organization": null
            }, 
            "body": "<p><a href=\"https://decidim.barcelona/proposals/trobada-de-treballadors-i-treballadores-del-districte\">https://decidim.barcelona/proposals/trobada-de-treballadors-i-treballadores-del-districte</a></p>", 
            "commentable_id": 546, 
            "commentable_type": "Proposal", 
            "created_at": "09/04/2016 14:49:13", 
            "flagged": false, 
            "hidden": false, 
            "id": 12352, 
            "moderator_id": null, 
            "permissions": {
                "hide": false, 
                "hide_author": false, 
                "vote": false
            }, 
            "total_dislikes": 0, 
            "total_likes": 0, 
            "total_votes": 0
        }, 
        {
            "administrator_id": null, 
            "alignment": 0, 
            "ancestry": null, 
            "as": null, 
            "author": {
                "avatar_image": "https://decidim.barcelona/assets/avatar-866795c99abc33a3160d1f3fa93ada46eb75e54134e777666b9ed16215b26534.png", 
                "erased": false, 
                "hidden": false, 
                "id": 17740, 
                "name": "Suport General2 - Decidim Barcelona", 
                "official": false, 
                "official_level": 0, 
                "role": null, 
                "verified_organization": null
            }, 
            "body": "<p><a href=\"https://decidim.barcelona/proposals/memoria-de-les-barraques\">https://decidim.barcelona/proposals/memoria-de-les-barraques</a></p>", 
            "commentable_id": 546, 
            "commentable_type": "Proposal", 
            "created_at": "09/04/2016 15:00:46", 
            "flagged": false, 
            "hidden": false, 
            "id": 12369, 
            "moderator_id": null, 
            "permissions": {
                "hide": false, 
                "hide_author": false, 
                "vote": false
            }, 
            "total_dislikes": 0, 
            "total_likes": 0, 
            "total_votes": 0
        }, 
        {
            "administrator_id": null, 
            "alignment": 0, 
            "ancestry": null, 
            "as": null, 
            "author": {
                "avatar_image": "https://decidim.barcelona/assets/avatar-866795c99abc33a3160d1f3fa93ada46eb75e54134e777666b9ed16215b26534.png", 
                "erased": false, 
                "hidden": false, 
                "id": 17740, 
                "name": "Suport General2 - Decidim Barcelona", 
                "official": false, 
                "official_level": 0, 
                "role": null, 
                "verified_organization": null
            }, 
            "body": "<p><a href=\"https://decidim.barcelona/proposals/museitzacio-de-la-torre-de-les-aigues\">https://decidim.barcelona/proposals/museitzacio-de-la-torre-de-les-aigues</a></p>", 
            "commentable_id": 546, 
            "commentable_type": "Proposal", 
            "created_at": "09/04/2016 15:01:13", 
            "flagged": false, 
            "hidden": false, 
            "id": 12372, 
            "moderator_id": null, 
            "permissions": {
                "hide": false, 
                "hide_author": false, 
                "vote": false
            }, 
            "total_dislikes": 0, 
            "total_likes": 0, 
            "total_votes": 0
        }, 
        {
            "administrator_id": null, 
            "alignment": 0, 
            "ancestry": null, 
            "as": null, 
            "author": {
                "avatar_image": "https://decidim.barcelona/assets/avatar-866795c99abc33a3160d1f3fa93ada46eb75e54134e777666b9ed16215b26534.png", 
                "erased": false, 
                "hidden": false, 
                "id": 17740, 
                "name": "Suport General2 - Decidim Barcelona", 
                "official": false, 
                "official_level": 0, 
                "role": null, 
                "verified_organization": null
            }, 
            "body": "<p><a href=\"https://decidim.barcelona/proposals/pla-de-memoria-oral\">https://decidim.barcelona/proposals/pla-de-memoria-oral</a></p>", 
            "commentable_id": 546, 
            "commentable_type": "Proposal", 
            "created_at": "09/04/2016 15:01:37", 
            "flagged": false, 
            "hidden": false, 
            "id": 12374, 
            "moderator_id": null, 
            "permissions": {
                "hide": false, 
                "hide_author": false, 
                "vote": false
            }, 
            "total_dislikes": 0, 
            "total_likes": 0, 
            "total_votes": 0
        }, 
        {
            "administrator_id": null, 
            "alignment": 0, 
            "ancestry": null, 
            "as": null, 
            "author": {
                "avatar_image": "https://decidim.barcelona/assets/avatar-866795c99abc33a3160d1f3fa93ada46eb75e54134e777666b9ed16215b26534.png", 
                "erased": false, 
                "hidden": false, 
                "id": 17740, 
                "name": "Suport General2 - Decidim Barcelona", 
                "official": false, 
                "official_level": 0, 
                "role": null, 
                "verified_organization": null
            }, 
            "body": "<p><a href=\"https://decidim.barcelona/proposals/pujar-a-debat-de-ciutat-el-debat-de-la-memoria-historica\">https://decidim.barcelona/proposals/pujar-a-debat-de-ciutat-el-debat-de-la-memoria-historica</a></p>", 
            "commentable_id": 546, 
            "commentable_type": "Proposal", 
            "created_at": "09/04/2016 15:02:10", 
            "flagged": false, 
            "hidden": false, 
            "id": 12375, 
            "moderator_id": null, 
            "permissions": {
                "hide": false, 
                "hide_author": false, 
                "vote": false
            }, 
            "total_dislikes": 0, 
            "total_likes": 0, 
            "total_votes": 0
        }
    ], 
    "meta": {
        "current_page": 1, 
        "next_page": 2, 
        "prev_page": null, 
        "total_count": 29, 
        "total_pages": 2
    }
}