{
    "comments": [
        {
            "administrator_id": null, 
            "alignment": 1, 
            "ancestry": null, 
            "as": null, 
            "author": {
                "avatar_image": "https://decidim.barcelona/assets/avatar-866795c99abc33a3160d1f3fa93ada46eb75e54134e777666b9ed16215b26534.png", 
                "erased": false, 
                "hidden": false, 
                "id": 1310, 
                "name": "Olga Marcos", 
                "official": false, 
                "official_level": 0, 
                "role": null, 
                "verified_organization": null
            }, 
            "body": "<p>El carrer dels Enamorats enlla\u00e7a dues zones molt comercials, els Encants Nous i el carrer Rogent. Convertir el carrer Enamorats en carrer de vianants reactivaria del petit comer\u00e7 de tota aquesta zona, a part de crear un entorn urb\u00e0 m\u00e9s habitable i actiu. </p>", 
            "commentable_id": 559, 
            "commentable_type": "Proposal", 
            "created_at": "06/02/2016 18:00:55", 
            "flagged": false, 
            "hidden": false, 
            "id": 953, 
            "moderator_id": null, 
            "permissions": {
                "hide": false, 
                "hide_author": false, 
                "vote": false
            }, 
            "total_dislikes": 0, 
            "total_likes": 2, 
            "total_votes": 2
        }, 
        {
            "administrator_id": null, 
            "alignment": 1, 
            "ancestry": null, 
            "as": null, 
            "author": {
                "avatar_image": "https://decidim.barcelona/assets/avatar-866795c99abc33a3160d1f3fa93ada46eb75e54134e777666b9ed16215b26534.png", 
                "erased": false, 
                "hidden": false, 
                "id": 1310, 
                "name": "Olga Marcos", 
                "official": false, 
                "official_level": 0, 
                "role": null, 
                "verified_organization": null
            }, 
            "body": "<p><a href=\"https://decidim.barcelona/proposals?search=enamorats\">https://decidim.barcelona/proposals?search=enamorats</a></p>", 
            "commentable_id": 559, 
            "commentable_type": "Proposal", 
            "created_at": "06/02/2016 18:54:56", 
            "flagged": false, 
            "hidden": false, 
            "id": 971, 
            "moderator_id": null, 
            "permissions": {
                "hide": false, 
                "hide_author": false, 
                "vote": false
            }, 
            "total_dislikes": 0, 
            "total_likes": 0, 
            "total_votes": 0
        }, 
        {
            "administrator_id": null, 
            "alignment": 1, 
            "ancestry": null, 
            "as": null, 
            "author": {
                "avatar_image": "https://decidim.barcelona/assets/avatar-866795c99abc33a3160d1f3fa93ada46eb75e54134e777666b9ed16215b26534.png", 
                "erased": false, 
                "hidden": false, 
                "id": 12179, 
                "name": "suport.decidim1", 
                "official": false, 
                "official_level": 0, 
                "role": null, 
                "verified_organization": null
            }, 
            "body": "<p>Proposta debatuda en la cita presencial: Turisme i usos de l'espai urb\u00e0 i p\u00fablic. \"Promoure i preservar el comer\u00e7 de proximitat, diversitat comercial.</p>", 
            "commentable_id": 559, 
            "commentable_type": "Proposal", 
            "created_at": "21/03/2016 08:53:50", 
            "flagged": false, 
            "hidden": false, 
            "id": 6047, 
            "moderator_id": null, 
            "permissions": {
                "hide": false, 
                "hide_author": false, 
                "vote": false
            }, 
            "total_dislikes": 0, 
            "total_likes": 0, 
            "total_votes": 0
        }, 
        {
            "administrator_id": null, 
            "alignment": 0, 
            "ancestry": null, 
            "as": null, 
            "author": {
                "avatar_image": "https://decidim.barcelona/assets/avatar-866795c99abc33a3160d1f3fa93ada46eb75e54134e777666b9ed16215b26534.png", 
                "erased": false, 
                "hidden": false, 
                "id": 9262, 
                "name": "Suport General - Decidim Barcelona", 
                "official": false, 
                "official_level": 0, 
                "role": null, 
                "verified_organization": null
            }, 
            "body": "<p><a href=\"https://decidim.barcelona/proposals/recuperacio-teixit-industrial-del-poblenou\">https://decidim.barcelona/proposals/recuperacio-teixit-industrial-del-poblenou</a></p>", 
            "commentable_id": 559, 
            "commentable_type": "Proposal", 
            "created_at": "11/04/2016 17:49:48", 
            "flagged": false, 
            "hidden": false, 
            "id": 13123, 
            "moderator_id": null, 
            "permissions": {
                "hide": false, 
                "hide_author": false, 
                "vote": false
            }, 
            "total_dislikes": 0, 
            "total_likes": 0, 
            "total_votes": 0
        }, 
        {
            "administrator_id": null, 
            "alignment": 0, 
            "ancestry": null, 
            "as": null, 
            "author": {
                "avatar_image": "https://decidim.barcelona/assets/avatar-866795c99abc33a3160d1f3fa93ada46eb75e54134e777666b9ed16215b26534.png", 
                "erased": false, 
                "hidden": false, 
                "id": 9262, 
                "name": "Suport General - Decidim Barcelona", 
                "official": false, 
                "official_level": 0, 
                "role": null, 
                "verified_organization": null
            }, 
            "body": "<p><a href=\"https://decidim.barcelona/proposals/acompanyament-en-la-aplicacio-i-flexibilitzacio-de-la-normativa\">https://decidim.barcelona/proposals/acompanyament-en-la-aplicacio-i-flexibilitzacio-de-la-normativa</a></p>", 
            "commentable_id": 559, 
            "commentable_type": "Proposal", 
            "created_at": "11/04/2016 17:58:49", 
            "flagged": false, 
            "hidden": false, 
            "id": 13147, 
            "moderator_id": null, 
            "permissions": {
                "hide": false, 
                "hide_author": false, 
                "vote": false
            }, 
            "total_dislikes": 0, 
            "total_likes": 0, 
            "total_votes": 0
        }, 
        {
            "administrator_id": null, 
            "alignment": 0, 
            "ancestry": null, 
            "as": null, 
            "author": {
                "avatar_image": "https://decidim.barcelona/assets/avatar-866795c99abc33a3160d1f3fa93ada46eb75e54134e777666b9ed16215b26534.png", 
                "erased": false, 
                "hidden": false, 
                "id": 9262, 
                "name": "Suport General - Decidim Barcelona", 
                "official": false, 
                "official_level": 0, 
                "role": null, 
                "verified_organization": null
            }, 
            "body": "<p><a href=\"https://decidim.barcelona/proposals/establir-protocols\">https://decidim.barcelona/proposals/establir-protocols</a></p>", 
            "commentable_id": 559, 
            "commentable_type": "Proposal", 
            "created_at": "11/04/2016 17:59:09", 
            "flagged": false, 
            "hidden": false, 
            "id": 13151, 
            "moderator_id": null, 
            "permissions": {
                "hide": false, 
                "hide_author": false, 
                "vote": false
            }, 
            "total_dislikes": 0, 
            "total_likes": 0, 
            "total_votes": 0
        }, 
        {
            "administrator_id": null, 
            "alignment": 0, 
            "ancestry": null, 
            "as": null, 
            "author": {
                "avatar_image": "https://decidim.barcelona/assets/avatar-866795c99abc33a3160d1f3fa93ada46eb75e54134e777666b9ed16215b26534.png", 
                "erased": false, 
                "hidden": false, 
                "id": 9262, 
                "name": "Suport General - Decidim Barcelona", 
                "official": false, 
                "official_level": 0, 
                "role": null, 
                "verified_organization": null
            }, 
            "body": "<p><a href=\"https://decidim.barcelona/proposals/comerc-de-barri-i-de-proximitat\">https://decidim.barcelona/proposals/comerc-de-barri-i-de-proximitat</a></p>", 
            "commentable_id": 559, 
            "commentable_type": "Proposal", 
            "created_at": "11/04/2016 18:00:11", 
            "flagged": false, 
            "hidden": false, 
            "id": 13156, 
            "moderator_id": null, 
            "permissions": {
                "hide": false, 
                "hide_author": false, 
                "vote": false
            }, 
            "total_dislikes": 0, 
            "total_likes": 0, 
            "total_votes": 0
        }, 
        {
            "administrator_id": null, 
            "alignment": 0, 
            "ancestry": null, 
            "as": null, 
            "author": {
                "avatar_image": "https://decidim.barcelona/assets/avatar-866795c99abc33a3160d1f3fa93ada46eb75e54134e777666b9ed16215b26534.png", 
                "erased": false, 
                "hidden": false, 
                "id": 9262, 
                "name": "Suport General - Decidim Barcelona", 
                "official": false, 
                "official_level": 0, 
                "role": null, 
                "verified_organization": null
            }, 
            "body": "<p><a href=\"https://decidim.barcelona/proposals/obertura-de-supermercat-d-alguna-cadena-a-zona-sancho-de-avila-pamplona\">https://decidim.barcelona/proposals/obertura-de-supermercat-d-alguna-cadena-a-zona-sancho-de-avila-pamplona</a></p>", 
            "commentable_id": 559, 
            "commentable_type": "Proposal", 
            "created_at": "11/04/2016 18:01:28", 
            "flagged": false, 
            "hidden": false, 
            "id": 13162, 
            "moderator_id": null, 
            "permissions": {
                "hide": false, 
                "hide_author": false, 
                "vote": false
            }, 
            "total_dislikes": 0, 
            "total_likes": 0, 
            "total_votes": 0
        }, 
        {
            "administrator_id": null, 
            "alignment": 0, 
            "ancestry": null, 
            "as": null, 
            "author": {
                "avatar_image": "https://decidim.barcelona/assets/avatar-866795c99abc33a3160d1f3fa93ada46eb75e54134e777666b9ed16215b26534.png", 
                "erased": false, 
                "hidden": false, 
                "id": 9262, 
                "name": "Suport General - Decidim Barcelona", 
                "official": false, 
                "official_level": 0, 
                "role": null, 
                "verified_organization": null
            }, 
            "body": "<p><a href=\"https://decidim.barcelona/proposals/boulevard-cantabria\">https://decidim.barcelona/proposals/boulevard-cantabria</a></p>", 
            "commentable_id": 559, 
            "commentable_type": "Proposal", 
            "created_at": "11/04/2016 18:01:49", 
            "flagged": false, 
            "hidden": false, 
            "id": 13164, 
            "moderator_id": null, 
            "permissions": {
                "hide": false, 
                "hide_author": false, 
                "vote": false
            }, 
            "total_dislikes": 0, 
            "total_likes": 0, 
            "total_votes": 0
        }, 
        {
            "administrator_id": null, 
            "alignment": 0, 
            "ancestry": null, 
            "as": null, 
            "author": {
                "avatar_image": "https://decidim.barcelona/assets/avatar-866795c99abc33a3160d1f3fa93ada46eb75e54134e777666b9ed16215b26534.png", 
                "erased": false, 
                "hidden": false, 
                "id": 9262, 
                "name": "Suport General - Decidim Barcelona", 
                "official": false, 
                "official_level": 0, 
                "role": null, 
                "verified_organization": null
            }, 
            "body": "<p><a href=\"https://decidim.barcelona/proposals/mercat-de-productes-ecologics-i-de-proximitat-al-barri-de-ciutadella-vila-olimpica-districte-sant-marti\">https://decidim.barcelona/proposals/mercat-de-productes-ecologics-i-de-proximitat-al-barri-de-ciutadella-vila-olimpica-districte-sant-marti</a></p>", 
            "commentable_id": 559, 
            "commentable_type": "Proposal", 
            "created_at": "11/04/2016 18:02:43", 
            "flagged": false, 
            "hidden": false, 
            "id": 13167, 
            "moderator_id": null, 
            "permissions": {
                "hide": false, 
                "hide_author": false, 
                "vote": false
            }, 
            "total_dislikes": 0, 
            "total_likes": 0, 
            "total_votes": 0
        }, 
        {
            "administrator_id": null, 
            "alignment": 0, 
            "ancestry": null, 
            "as": null, 
            "author": {
                "avatar_image": "https://decidim.barcelona/assets/avatar-866795c99abc33a3160d1f3fa93ada46eb75e54134e777666b9ed16215b26534.png", 
                "erased": false, 
                "hidden": false, 
                "id": 9262, 
                "name": "Suport General - Decidim Barcelona", 
                "official": false, 
                "official_level": 0, 
                "role": null, 
                "verified_organization": null
            }, 
            "body": "<p><a href=\"https://decidim.barcelona/proposals/nou-pla-d-usos-del-port-olimpic\">https://decidim.barcelona/proposals/nou-pla-d-usos-del-port-olimpic</a></p>", 
            "commentable_id": 559, 
            "commentable_type": "Proposal", 
            "created_at": "11/04/2016 18:03:27", 
            "flagged": false, 
            "hidden": false, 
            "id": 13170, 
            "moderator_id": null, 
            "permissions": {
                "hide": false, 
                "hide_author": false, 
                "vote": false
            }, 
            "total_dislikes": 0, 
            "total_likes": 0, 
            "total_votes": 0
        }, 
        {
            "administrator_id": null, 
            "alignment": 0, 
            "ancestry": null, 
            "as": null, 
            "author": {
                "avatar_image": "https://decidim.barcelona/assets/avatar-866795c99abc33a3160d1f3fa93ada46eb75e54134e777666b9ed16215b26534.png", 
                "erased": false, 
                "hidden": false, 
                "id": 9262, 
                "name": "Suport General - Decidim Barcelona", 
                "official": false, 
                "official_level": 0, 
                "role": null, 
                "verified_organization": null
            }, 
            "body": "<p><a href=\"https://decidim.barcelona/proposals/potenciacion-del-comercio-de-proximidad-del-barrio-sant-marti-provencals\">https://decidim.barcelona/proposals/potenciacion-del-comercio-de-proximidad-del-barrio-sant-marti-provencals</a></p>", 
            "commentable_id": 559, 
            "commentable_type": "Proposal", 
            "created_at": "11/04/2016 18:03:49", 
            "flagged": false, 
            "hidden": false, 
            "id": 13171, 
            "moderator_id": null, 
            "permissions": {
                "hide": false, 
                "hide_author": false, 
                "vote": false
            }, 
            "total_dislikes": 0, 
            "total_likes": 0, 
            "total_votes": 0
        }, 
        {
            "administrator_id": null, 
            "alignment": 0, 
            "ancestry": null, 
            "as": null, 
            "author": {
                "avatar_image": "https://decidim.barcelona/assets/avatar-866795c99abc33a3160d1f3fa93ada46eb75e54134e777666b9ed16215b26534.png", 
                "erased": false, 
                "hidden": false, 
                "id": 9262, 
                "name": "Suport General - Decidim Barcelona", 
                "official": false, 
                "official_level": 0, 
                "role": null, 
                "verified_organization": null
            }, 
            "body": "<p><a href=\"https://decidim.barcelona/proposals/estudiar-como-crear-ocupacion-y-potenciar-el-tejido-comercial-del-barrio-el-parc-y-la-llacuna-de-poblenou\">https://decidim.barcelona/proposals/estudiar-como-crear-ocupacion-y-potenciar-el-tejido-comercial-del-barrio-el-parc-y-la-llacuna-de-poblenou</a></p>", 
            "commentable_id": 559, 
            "commentable_type": "Proposal", 
            "created_at": "11/04/2016 18:04:42", 
            "flagged": false, 
            "hidden": false, 
            "id": 13174, 
            "moderator_id": null, 
            "permissions": {
                "hide": false, 
                "hide_author": false, 
                "vote": false
            }, 
            "total_dislikes": 0, 
            "total_likes": 0, 
            "total_votes": 0
        }, 
        {
            "administrator_id": null, 
            "alignment": 0, 
            "ancestry": null, 
            "as": null, 
            "author": {
                "avatar_image": "https://decidim.barcelona/assets/avatar-866795c99abc33a3160d1f3fa93ada46eb75e54134e777666b9ed16215b26534.png", 
                "erased": false, 
                "hidden": false, 
                "id": 9262, 
                "name": "Suport General - Decidim Barcelona", 
                "official": false, 
                "official_level": 0, 
                "role": null, 
                "verified_organization": null
            }, 
            "body": "<p><a href=\"https://decidim.barcelona/proposals/necesidad-urgente-de-crear-ocupacion-y-fortalecer-el-tejido-comercial-del-barrio-del-clot\">https://decidim.barcelona/proposals/necesidad-urgente-de-crear-ocupacion-y-fortalecer-el-tejido-comercial-del-barrio-del-clot</a></p>", 
            "commentable_id": 559, 
            "commentable_type": "Proposal", 
            "created_at": "11/04/2016 18:05:06", 
            "flagged": false, 
            "hidden": false, 
            "id": 13177, 
            "moderator_id": null, 
            "permissions": {
                "hide": false, 
                "hide_author": false, 
                "vote": false
            }, 
            "total_dislikes": 0, 
            "total_likes": 0, 
            "total_votes": 0
        }, 
        {
            "administrator_id": null, 
            "alignment": 0, 
            "ancestry": null, 
            "as": null, 
            "author": {
                "avatar_image": "https://decidim.barcelona/assets/avatar-866795c99abc33a3160d1f3fa93ada46eb75e54134e777666b9ed16215b26534.png", 
                "erased": false, 
                "hidden": false, 
                "id": 9262, 
                "name": "Suport General - Decidim Barcelona", 
                "official": false, 
                "official_level": 0, 
                "role": null, 
                "verified_organization": null
            }, 
            "body": "<p><a href=\"https://decidim.barcelona/proposals/ocupacion-y-reactivacioc-economica-barri-camp-de-l-arpa-del-clot-y-otros-temas\">https://decidim.barcelona/proposals/ocupacion-y-reactivacioc-economica-barri-camp-de-l-arpa-del-clot-y-otros-temas</a></p>", 
            "commentable_id": 559, 
            "commentable_type": "Proposal", 
            "created_at": "11/04/2016 18:06:54", 
            "flagged": false, 
            "hidden": false, 
            "id": 13180, 
            "moderator_id": null, 
            "permissions": {
                "hide": false, 
                "hide_author": false, 
                "vote": false
            }, 
            "total_dislikes": 0, 
            "total_likes": 0, 
            "total_votes": 0
        }, 
        {
            "administrator_id": null, 
            "alignment": 0, 
            "ancestry": null, 
            "as": null, 
            "author": {
                "avatar_image": "https://decidim.barcelona/assets/avatar-866795c99abc33a3160d1f3fa93ada46eb75e54134e777666b9ed16215b26534.png", 
                "erased": false, 
                "hidden": false, 
                "id": 9262, 
                "name": "Suport General - Decidim Barcelona", 
                "official": false, 
                "official_level": 0, 
                "role": null, 
                "verified_organization": null
            }, 
            "body": "<p><a href=\"https://decidim.barcelona/proposals/dinamitzar-l-economia-del-besos-maresme-per-a-reduir-l-atu\">https://decidim.barcelona/proposals/dinamitzar-l-economia-del-besos-maresme-per-a-reduir-l-atu</a></p>", 
            "commentable_id": 559, 
            "commentable_type": "Proposal", 
            "created_at": "11/04/2016 18:07:17", 
            "flagged": false, 
            "hidden": false, 
            "id": 13183, 
            "moderator_id": null, 
            "permissions": {
                "hide": false, 
                "hide_author": false, 
                "vote": false
            }, 
            "total_dislikes": 0, 
            "total_likes": 0, 
            "total_votes": 0
        }, 
        {
            "administrator_id": null, 
            "alignment": 0, 
            "ancestry": null, 
            "as": null, 
            "author": {
                "avatar_image": "https://decidim.barcelona/assets/avatar-866795c99abc33a3160d1f3fa93ada46eb75e54134e777666b9ed16215b26534.png", 
                "erased": false, 
                "hidden": false, 
                "id": 9262, 
                "name": "Suport General - Decidim Barcelona", 
                "official": false, 
                "official_level": 0, 
                "role": null, 
                "verified_organization": null
            }, 
            "body": "<p><a href=\"https://decidim.barcelona/proposals/creacio-d-una-oficina-d-ocupacio-local-a-l-edifici-de-l-antic-cinenema-pere-iv\">https://decidim.barcelona/proposals/creacio-d-una-oficina-d-ocupacio-local-a-l-edifici-de-l-antic-cinenema-pere-iv</a></p>", 
            "commentable_id": 559, 
            "commentable_type": "Proposal", 
            "created_at": "11/04/2016 18:07:58", 
            "flagged": false, 
            "hidden": false, 
            "id": 13186, 
            "moderator_id": null, 
            "permissions": {
                "hide": false, 
                "hide_author": false, 
                "vote": false
            }, 
            "total_dislikes": 0, 
            "total_likes": 0, 
            "total_votes": 0
        }, 
        {
            "administrator_id": null, 
            "alignment": 0, 
            "ancestry": null, 
            "as": null, 
            "author": {
                "avatar_image": "https://decidim.barcelona/assets/avatar-866795c99abc33a3160d1f3fa93ada46eb75e54134e777666b9ed16215b26534.png", 
                "erased": false, 
                "hidden": false, 
                "id": 9262, 
                "name": "Suport General - Decidim Barcelona", 
                "official": false, 
                "official_level": 0, 
                "role": null, 
                "verified_organization": null
            }, 
            "body": "<p><a href=\"https://decidim.barcelona/proposals/reforc-del-comerc-de-proximitat\">https://decidim.barcelona/proposals/reforc-del-comerc-de-proximitat</a></p>", 
            "commentable_id": 559, 
            "commentable_type": "Proposal", 
            "created_at": "12/04/2016 17:12:24", 
            "flagged": false, 
            "hidden": false, 
            "id": 13935, 
            "moderator_id": null, 
            "permissions": {
                "hide": false, 
                "hide_author": false, 
                "vote": false
            }, 
            "total_dislikes": 0, 
            "total_likes": 0, 
            "total_votes": 0
        }, 
        {
            "administrator_id": null, 
            "alignment": 0, 
            "ancestry": null, 
            "as": null, 
            "author": {
                "avatar_image": "https://decidim.barcelona/assets/avatar-866795c99abc33a3160d1f3fa93ada46eb75e54134e777666b9ed16215b26534.png", 
                "erased": false, 
                "hidden": false, 
                "id": 9262, 
                "name": "Suport General - Decidim Barcelona", 
                "official": false, 
                "official_level": 0, 
                "role": null, 
                "verified_organization": null
            }, 
            "body": "<p><a href=\"https://decidim.barcelona/proposals/visibilitzacio-de-les-aportacions-al-barri-del-comerc-de-proximitat\">https://decidim.barcelona/proposals/visibilitzacio-de-les-aportacions-al-barri-del-comerc-de-proximitat</a></p>", 
            "commentable_id": 559, 
            "commentable_type": "Proposal", 
            "created_at": "12/04/2016 17:12:51", 
            "flagged": false, 
            "hidden": false, 
            "id": 13938, 
            "moderator_id": null, 
            "permissions": {
                "hide": false, 
                "hide_author": false, 
                "vote": false
            }, 
            "total_dislikes": 0, 
            "total_likes": 0, 
            "total_votes": 0
        }, 
        {
            "administrator_id": null, 
            "alignment": 0, 
            "ancestry": null, 
            "as": null, 
            "author": {
                "avatar_image": "https://decidim.barcelona/assets/avatar-866795c99abc33a3160d1f3fa93ada46eb75e54134e777666b9ed16215b26534.png", 
                "erased": false, 
                "hidden": false, 
                "id": 9262, 
                "name": "Suport General - Decidim Barcelona", 
                "official": false, 
                "official_level": 0, 
                "role": null, 
                "verified_organization": null
            }, 
            "body": "<p><a href=\"https://decidim.barcelona/proposals/fer-una-diagnosi-per-barris-de-la-realitat-del-comerc-al-districte-de-sant-marti\">https://decidim.barcelona/proposals/fer-una-diagnosi-per-barris-de-la-realitat-del-comerc-al-districte-de-sant-marti</a></p>", 
            "commentable_id": 559, 
            "commentable_type": "Proposal", 
            "created_at": "12/04/2016 17:22:18", 
            "flagged": false, 
            "hidden": false, 
            "id": 13968, 
            "moderator_id": null, 
            "permissions": {
                "hide": false, 
                "hide_author": false, 
                "vote": false
            }, 
            "total_dislikes": 0, 
            "total_likes": 0, 
            "total_votes": 0
        }
    ], 
    "meta": {
        "current_page": 1, 
        "next_page": 2, 
        "prev_page": null, 
        "total_count": 21, 
        "total_pages": 2
    }
}