{
    "comments": [
        {
            "administrator_id": null, 
            "alignment": 0, 
            "ancestry": null, 
            "as": null, 
            "author": {
                "avatar_image": "https://decidim.barcelona/assets/avatar-866795c99abc33a3160d1f3fa93ada46eb75e54134e777666b9ed16215b26534.png", 
                "erased": false, 
                "hidden": false, 
                "id": 17741, 
                "name": "Suport General3 - Decidim Barcelona", 
                "official": false, 
                "official_level": 0, 
                "role": null, 
                "verified_organization": null
            }, 
            "body": "<p><a href=\"https://decidim.barcelona/proposals/frequencia-pas-bus-d20-50-i-150\">https://decidim.barcelona/proposals/frequencia-pas-bus-d20-50-i-150</a></p>", 
            "commentable_id": 657, 
            "commentable_type": "Proposal", 
            "created_at": "15/04/2016 10:54:06", 
            "flagged": false, 
            "hidden": false, 
            "id": 16578, 
            "moderator_id": null, 
            "permissions": {
                "hide": false, 
                "hide_author": false, 
                "vote": false
            }, 
            "total_dislikes": 0, 
            "total_likes": 0, 
            "total_votes": 0
        }, 
        {
            "administrator_id": null, 
            "alignment": 0, 
            "ancestry": null, 
            "as": null, 
            "author": {
                "avatar_image": "https://decidim.barcelona/assets/avatar-866795c99abc33a3160d1f3fa93ada46eb75e54134e777666b9ed16215b26534.png", 
                "erased": false, 
                "hidden": false, 
                "id": 17741, 
                "name": "Suport General3 - Decidim Barcelona", 
                "official": false, 
                "official_level": 0, 
                "role": null, 
                "verified_organization": null
            }, 
            "body": "<p><a href=\"https://decidim.barcelona/proposals/desplacar-el-final-de-les-linees-metropolitanes-de-bus-del-llobregat-a-la-placa-europa-l-hospitalet\">https://decidim.barcelona/proposals/desplacar-el-final-de-les-linees-metropolitanes-de-bus-del-llobregat-a-la-placa-europa-l-hospitalet</a></p>", 
            "commentable_id": 657, 
            "commentable_type": "Proposal", 
            "created_at": "15/04/2016 10:54:55", 
            "flagged": false, 
            "hidden": false, 
            "id": 16581, 
            "moderator_id": null, 
            "permissions": {
                "hide": false, 
                "hide_author": false, 
                "vote": false
            }, 
            "total_dislikes": 0, 
            "total_likes": 0, 
            "total_votes": 0
        }, 
        {
            "administrator_id": null, 
            "alignment": 0, 
            "ancestry": null, 
            "as": null, 
            "author": {
                "avatar_image": "https://decidim.barcelona/assets/avatar-866795c99abc33a3160d1f3fa93ada46eb75e54134e777666b9ed16215b26534.png", 
                "erased": false, 
                "hidden": false, 
                "id": 17741, 
                "name": "Suport General3 - Decidim Barcelona", 
                "official": false, 
                "official_level": 0, 
                "role": null, 
                "verified_organization": null
            }, 
            "body": "<p><a href=\"https://decidim.barcelona/proposals/obrir-la-linia-de-metro-al-barri-de-la-marina-de-port\">https://decidim.barcelona/proposals/obrir-la-linia-de-metro-al-barri-de-la-marina-de-port</a></p>", 
            "commentable_id": 657, 
            "commentable_type": "Proposal", 
            "created_at": "15/04/2016 10:56:33", 
            "flagged": false, 
            "hidden": false, 
            "id": 16584, 
            "moderator_id": null, 
            "permissions": {
                "hide": false, 
                "hide_author": false, 
                "vote": false
            }, 
            "total_dislikes": 0, 
            "total_likes": 0, 
            "total_votes": 0
        }, 
        {
            "administrator_id": null, 
            "alignment": 0, 
            "ancestry": null, 
            "as": null, 
            "author": {
                "avatar_image": "https://decidim.barcelona/assets/avatar-866795c99abc33a3160d1f3fa93ada46eb75e54134e777666b9ed16215b26534.png", 
                "erased": false, 
                "hidden": false, 
                "id": 9262, 
                "name": "Suport General - Decidim Barcelona", 
                "official": false, 
                "official_level": 0, 
                "role": null, 
                "verified_organization": null
            }, 
            "body": "<p><a href=\"https://decidim.barcelona/proposals/millorar-el-transport-public-dels-barris\">https://decidim.barcelona/proposals/millorar-el-transport-public-dels-barris</a></p>", 
            "commentable_id": 657, 
            "commentable_type": "Proposal", 
            "created_at": "15/04/2016 11:25:20", 
            "flagged": false, 
            "hidden": false, 
            "id": 16642, 
            "moderator_id": null, 
            "permissions": {
                "hide": false, 
                "hide_author": false, 
                "vote": false
            }, 
            "total_dislikes": 0, 
            "total_likes": 0, 
            "total_votes": 0
        }, 
        {
            "administrator_id": null, 
            "alignment": 0, 
            "ancestry": null, 
            "as": null, 
            "author": {
                "avatar_image": "https://decidim.barcelona/assets/avatar-866795c99abc33a3160d1f3fa93ada46eb75e54134e777666b9ed16215b26534.png", 
                "erased": false, 
                "hidden": false, 
                "id": 9262, 
                "name": "Suport General - Decidim Barcelona", 
                "official": false, 
                "official_level": 0, 
                "role": null, 
                "verified_organization": null
            }, 
            "body": "<p><a href=\"https://decidim.barcelona/proposals/millorar-el-transport-public-i-la-connexio-a-les-escoles-del-distructe-de-sants-montjuic-especialment-de-0-a-12-anys\">https://decidim.barcelona/proposals/millorar-el-transport-public-i-la-connexio-a-les-escoles-del-distructe-de-sants-montjuic-especialment-de-0-a-12-anys</a></p>", 
            "commentable_id": 657, 
            "commentable_type": "Proposal", 
            "created_at": "15/04/2016 11:28:49", 
            "flagged": false, 
            "hidden": false, 
            "id": 16650, 
            "moderator_id": null, 
            "permissions": {
                "hide": false, 
                "hide_author": false, 
                "vote": false
            }, 
            "total_dislikes": 0, 
            "total_likes": 0, 
            "total_votes": 0
        }, 
        {
            "administrator_id": null, 
            "alignment": 0, 
            "ancestry": null, 
            "as": null, 
            "author": {
                "avatar_image": "https://decidim.barcelona/assets/avatar-866795c99abc33a3160d1f3fa93ada46eb75e54134e777666b9ed16215b26534.png", 
                "erased": false, 
                "hidden": false, 
                "id": 17740, 
                "name": "Suport General2 - Decidim Barcelona", 
                "official": false, 
                "official_level": 0, 
                "role": null, 
                "verified_organization": null
            }, 
            "body": "<p><a href=\"https://decidim.barcelona/proposals/dotar-el-barri-de-font-de-la-guatlla-d-un-trajecte-d-autobus-que-el-connecti-amb-equipaments-de-que-no-en-disposa-cap-mercat-etc\">https://decidim.barcelona/proposals/dotar-el-barri-de-font-de-la-guatlla-d-un-trajecte-d-autobus-que-el-connecti-amb-equipaments-de-que-no-en-disposa-cap-mercat-etc</a></p>", 
            "commentable_id": 657, 
            "commentable_type": "Proposal", 
            "created_at": "15/04/2016 11:59:13", 
            "flagged": false, 
            "hidden": false, 
            "id": 16733, 
            "moderator_id": null, 
            "permissions": {
                "hide": false, 
                "hide_author": false, 
                "vote": false
            }, 
            "total_dislikes": 0, 
            "total_likes": 0, 
            "total_votes": 0
        }, 
        {
            "administrator_id": null, 
            "alignment": 0, 
            "ancestry": null, 
            "as": null, 
            "author": {
                "avatar_image": "https://decidim.barcelona/assets/avatar-866795c99abc33a3160d1f3fa93ada46eb75e54134e777666b9ed16215b26534.png", 
                "erased": false, 
                "hidden": false, 
                "id": 17740, 
                "name": "Suport General2 - Decidim Barcelona", 
                "official": false, 
                "official_level": 0, 
                "role": null, 
                "verified_organization": null
            }, 
            "body": "<p><a href=\"https://decidim.barcelona/proposals/instal-lar-parades-d-autobus-al-inici-de-la-rambla-brasil\">https://decidim.barcelona/proposals/instal-lar-parades-d-autobus-al-inici-de-la-rambla-brasil</a></p>", 
            "commentable_id": 657, 
            "commentable_type": "Proposal", 
            "created_at": "15/04/2016 12:05:38", 
            "flagged": false, 
            "hidden": false, 
            "id": 16761, 
            "moderator_id": null, 
            "permissions": {
                "hide": false, 
                "hide_author": false, 
                "vote": false
            }, 
            "total_dislikes": 0, 
            "total_likes": 0, 
            "total_votes": 0
        }, 
        {
            "administrator_id": null, 
            "alignment": 0, 
            "ancestry": null, 
            "as": null, 
            "author": {
                "avatar_image": "https://decidim.barcelona/assets/avatar-866795c99abc33a3160d1f3fa93ada46eb75e54134e777666b9ed16215b26534.png", 
                "erased": false, 
                "hidden": false, 
                "id": 17740, 
                "name": "Suport General2 - Decidim Barcelona", 
                "official": false, 
                "official_level": 0, 
                "role": null, 
                "verified_organization": null
            }, 
            "body": "<p><a href=\"https://decidim.barcelona/proposals/millorar-el-transport-public-dels-barris\">https://decidim.barcelona/proposals/millorar-el-transport-public-dels-barris</a></p>", 
            "commentable_id": 657, 
            "commentable_type": "Proposal", 
            "created_at": "15/04/2016 12:09:36", 
            "flagged": false, 
            "hidden": false, 
            "id": 16777, 
            "moderator_id": null, 
            "permissions": {
                "hide": false, 
                "hide_author": false, 
                "vote": false
            }, 
            "total_dislikes": 0, 
            "total_likes": 0, 
            "total_votes": 0
        }, 
        {
            "administrator_id": null, 
            "alignment": 0, 
            "ancestry": null, 
            "as": null, 
            "author": {
                "avatar_image": "https://decidim.barcelona/assets/avatar-866795c99abc33a3160d1f3fa93ada46eb75e54134e777666b9ed16215b26534.png", 
                "erased": false, 
                "hidden": false, 
                "id": 17740, 
                "name": "Suport General2 - Decidim Barcelona", 
                "official": false, 
                "official_level": 0, 
                "role": null, 
                "verified_organization": null
            }, 
            "body": "<p><a href=\"https://decidim.barcelona/proposals/autobus-directe-a-la-platja-des-de-hostafrancs\">https://decidim.barcelona/proposals/autobus-directe-a-la-platja-des-de-hostafrancs</a></p>", 
            "commentable_id": 657, 
            "commentable_type": "Proposal", 
            "created_at": "15/04/2016 12:12:52", 
            "flagged": false, 
            "hidden": false, 
            "id": 16791, 
            "moderator_id": null, 
            "permissions": {
                "hide": false, 
                "hide_author": false, 
                "vote": false
            }, 
            "total_dislikes": 0, 
            "total_likes": 0, 
            "total_votes": 0
        }, 
        {
            "administrator_id": null, 
            "alignment": 0, 
            "ancestry": null, 
            "as": null, 
            "author": {
                "avatar_image": "https://decidim.barcelona/assets/avatar-866795c99abc33a3160d1f3fa93ada46eb75e54134e777666b9ed16215b26534.png", 
                "erased": false, 
                "hidden": false, 
                "id": 17740, 
                "name": "Suport General2 - Decidim Barcelona", 
                "official": false, 
                "official_level": 0, 
                "role": null, 
                "verified_organization": null
            }, 
            "body": "<p><a href=\"https://decidim.barcelona/proposals/facilitar-la-parada-dels-autocars-escolars-a-sants\">https://decidim.barcelona/proposals/facilitar-la-parada-dels-autocars-escolars-a-sants</a></p>", 
            "commentable_id": 657, 
            "commentable_type": "Proposal", 
            "created_at": "15/04/2016 12:15:56", 
            "flagged": false, 
            "hidden": false, 
            "id": 16809, 
            "moderator_id": null, 
            "permissions": {
                "hide": false, 
                "hide_author": false, 
                "vote": false
            }, 
            "total_dislikes": 0, 
            "total_likes": 0, 
            "total_votes": 0
        }, 
        {
            "administrator_id": null, 
            "alignment": 0, 
            "ancestry": null, 
            "as": null, 
            "author": {
                "avatar_image": "https://decidim.barcelona/assets/avatar-866795c99abc33a3160d1f3fa93ada46eb75e54134e777666b9ed16215b26534.png", 
                "erased": false, 
                "hidden": false, 
                "id": 17740, 
                "name": "Suport General2 - Decidim Barcelona", 
                "official": false, 
                "official_level": 0, 
                "role": null, 
                "verified_organization": null
            }, 
            "body": "<p><a href=\"https://decidim.barcelona/proposals/replantejar-la-mobilitat-dels-autobusos-que-pasen-per-districte\">https://decidim.barcelona/proposals/replantejar-la-mobilitat-dels-autobusos-que-pasen-per-districte</a></p>", 
            "commentable_id": 657, 
            "commentable_type": "Proposal", 
            "created_at": "15/04/2016 12:25:21", 
            "flagged": false, 
            "hidden": false, 
            "id": 16819, 
            "moderator_id": null, 
            "permissions": {
                "hide": false, 
                "hide_author": false, 
                "vote": false
            }, 
            "total_dislikes": 0, 
            "total_likes": 0, 
            "total_votes": 0
        }, 
        {
            "administrator_id": null, 
            "alignment": 0, 
            "ancestry": null, 
            "as": null, 
            "author": {
                "avatar_image": "https://decidim.barcelona/assets/avatar-866795c99abc33a3160d1f3fa93ada46eb75e54134e777666b9ed16215b26534.png", 
                "erased": false, 
                "hidden": false, 
                "id": 17740, 
                "name": "Suport General2 - Decidim Barcelona", 
                "official": false, 
                "official_level": 0, 
                "role": null, 
                "verified_organization": null
            }, 
            "body": "<p><a href=\"https://decidim.barcelona/proposals/dotar-el-barri-de-font-de-la-guatlla-d-un-trajecte-d-autobus-que-el-connecti-amb-equipaments-de-que-no-en-disposa-cap-mercat-etc\">https://decidim.barcelona/proposals/dotar-el-barri-de-font-de-la-guatlla-d-un-trajecte-d-autobus-que-el-connecti-amb-equipaments-de-que-no-en-disposa-cap-mercat-etc</a></p>", 
            "commentable_id": 657, 
            "commentable_type": "Proposal", 
            "created_at": "15/04/2016 12:40:37", 
            "flagged": false, 
            "hidden": false, 
            "id": 16849, 
            "moderator_id": null, 
            "permissions": {
                "hide": false, 
                "hide_author": false, 
                "vote": false
            }, 
            "total_dislikes": 0, 
            "total_likes": 0, 
            "total_votes": 0
        }, 
        {
            "administrator_id": null, 
            "alignment": 0, 
            "ancestry": null, 
            "as": null, 
            "author": {
                "avatar_image": "https://decidim.barcelona/assets/avatar-866795c99abc33a3160d1f3fa93ada46eb75e54134e777666b9ed16215b26534.png", 
                "erased": false, 
                "hidden": false, 
                "id": 17740, 
                "name": "Suport General2 - Decidim Barcelona", 
                "official": false, 
                "official_level": 0, 
                "role": null, 
                "verified_organization": null
            }, 
            "body": "<p><a href=\"https://decidim.barcelona/proposals/remodelar-l-estacio-d-autobusos-de-sants-montjuic\">https://decidim.barcelona/proposals/remodelar-l-estacio-d-autobusos-de-sants-montjuic</a></p>", 
            "commentable_id": 657, 
            "commentable_type": "Proposal", 
            "created_at": "15/04/2016 12:46:42", 
            "flagged": false, 
            "hidden": false, 
            "id": 16872, 
            "moderator_id": null, 
            "permissions": {
                "hide": false, 
                "hide_author": false, 
                "vote": false
            }, 
            "total_dislikes": 0, 
            "total_likes": 0, 
            "total_votes": 0
        }, 
        {
            "administrator_id": null, 
            "alignment": 0, 
            "ancestry": null, 
            "as": null, 
            "author": {
                "avatar_image": "https://decidim.barcelona/assets/avatar-866795c99abc33a3160d1f3fa93ada46eb75e54134e777666b9ed16215b26534.png", 
                "erased": false, 
                "hidden": false, 
                "id": 17740, 
                "name": "Suport General2 - Decidim Barcelona", 
                "official": false, 
                "official_level": 0, 
                "role": null, 
                "verified_organization": null
            }, 
            "body": "<p><a href=\"https://decidim.barcelona/proposals/precios-especiales-para-el-transporte-publico-en-horas-lectivas-para-colegios-que-estan-en-montjuic\">https://decidim.barcelona/proposals/precios-especiales-para-el-transporte-publico-en-horas-lectivas-para-colegios-que-estan-en-montjuic</a></p>", 
            "commentable_id": 657, 
            "commentable_type": "Proposal", 
            "created_at": "15/04/2016 12:51:22", 
            "flagged": false, 
            "hidden": false, 
            "id": 16893, 
            "moderator_id": null, 
            "permissions": {
                "hide": false, 
                "hide_author": false, 
                "vote": false
            }, 
            "total_dislikes": 0, 
            "total_likes": 0, 
            "total_votes": 0
        }, 
        {
            "administrator_id": null, 
            "alignment": 0, 
            "ancestry": null, 
            "as": null, 
            "author": {
                "avatar_image": "https://decidim.barcelona/assets/avatar-866795c99abc33a3160d1f3fa93ada46eb75e54134e777666b9ed16215b26534.png", 
                "erased": false, 
                "hidden": false, 
                "id": 17740, 
                "name": "Suport General2 - Decidim Barcelona", 
                "official": false, 
                "official_level": 0, 
                "role": null, 
                "verified_organization": null
            }, 
            "body": "<p><a href=\"https://decidim.barcelona/proposals/millorar-la-mobilitat-amb-transport-public-metro\">https://decidim.barcelona/proposals/millorar-la-mobilitat-amb-transport-public-metro</a></p>", 
            "commentable_id": 657, 
            "commentable_type": "Proposal", 
            "created_at": "15/04/2016 12:51:58", 
            "flagged": false, 
            "hidden": false, 
            "id": 16899, 
            "moderator_id": null, 
            "permissions": {
                "hide": false, 
                "hide_author": false, 
                "vote": false
            }, 
            "total_dislikes": 0, 
            "total_likes": 0, 
            "total_votes": 0
        }
    ], 
    "meta": {
        "current_page": 2, 
        "next_page": null, 
        "prev_page": 1, 
        "total_count": 35, 
        "total_pages": 2
    }
}