{
    "comments": [
        {
            "administrator_id": null, 
            "alignment": 0, 
            "ancestry": null, 
            "as": null, 
            "author": {
                "avatar_image": "https://decidim.barcelona/assets/avatar-866795c99abc33a3160d1f3fa93ada46eb75e54134e777666b9ed16215b26534.png", 
                "erased": false, 
                "hidden": false, 
                "id": 9262, 
                "name": "Suport General - Decidim Barcelona", 
                "official": false, 
                "official_level": 0, 
                "role": null, 
                "verified_organization": null
            }, 
            "body": "<p><a href=\"https://decidim.barcelona/proposals/millorar-la-mobilitat-amb-transport-public-al-barri-de-la-marina\">https://decidim.barcelona/proposals/millorar-la-mobilitat-amb-transport-public-al-barri-de-la-marina</a></p>", 
            "commentable_id": 657, 
            "commentable_type": "Proposal", 
            "created_at": "14/04/2016 18:41:47", 
            "flagged": false, 
            "hidden": false, 
            "id": 16254, 
            "moderator_id": null, 
            "permissions": {
                "hide": false, 
                "hide_author": false, 
                "vote": false
            }, 
            "total_dislikes": 0, 
            "total_likes": 0, 
            "total_votes": 0
        }, 
        {
            "administrator_id": null, 
            "alignment": 0, 
            "ancestry": null, 
            "as": null, 
            "author": {
                "avatar_image": "https://decidim.barcelona/assets/avatar-866795c99abc33a3160d1f3fa93ada46eb75e54134e777666b9ed16215b26534.png", 
                "erased": false, 
                "hidden": false, 
                "id": 9262, 
                "name": "Suport General - Decidim Barcelona", 
                "official": false, 
                "official_level": 0, 
                "role": null, 
                "verified_organization": null
            }, 
            "body": "<p><a href=\"https://decidim.barcelona/proposals/millorar-la-mobilitat-en-transport-public-bus\">https://decidim.barcelona/proposals/millorar-la-mobilitat-en-transport-public-bus</a></p>", 
            "commentable_id": 657, 
            "commentable_type": "Proposal", 
            "created_at": "14/04/2016 18:42:14", 
            "flagged": false, 
            "hidden": false, 
            "id": 16256, 
            "moderator_id": null, 
            "permissions": {
                "hide": false, 
                "hide_author": false, 
                "vote": false
            }, 
            "total_dislikes": 0, 
            "total_likes": 0, 
            "total_votes": 0
        }, 
        {
            "administrator_id": null, 
            "alignment": 0, 
            "ancestry": null, 
            "as": null, 
            "author": {
                "avatar_image": "https://decidim.barcelona/assets/avatar-866795c99abc33a3160d1f3fa93ada46eb75e54134e777666b9ed16215b26534.png", 
                "erased": false, 
                "hidden": false, 
                "id": 9262, 
                "name": "Suport General - Decidim Barcelona", 
                "official": false, 
                "official_level": 0, 
                "role": null, 
                "verified_organization": null
            }, 
            "body": "<p><a href=\"https://decidim.barcelona/proposals/crea-linias-de-bus\">https://decidim.barcelona/proposals/crea-linias-de-bus</a></p>", 
            "commentable_id": 657, 
            "commentable_type": "Proposal", 
            "created_at": "14/04/2016 18:45:33", 
            "flagged": false, 
            "hidden": false, 
            "id": 16264, 
            "moderator_id": null, 
            "permissions": {
                "hide": false, 
                "hide_author": false, 
                "vote": false
            }, 
            "total_dislikes": 0, 
            "total_likes": 0, 
            "total_votes": 0
        }, 
        {
            "administrator_id": null, 
            "alignment": 0, 
            "ancestry": null, 
            "as": null, 
            "author": {
                "avatar_image": "https://decidim.barcelona/assets/avatar-866795c99abc33a3160d1f3fa93ada46eb75e54134e777666b9ed16215b26534.png", 
                "erased": false, 
                "hidden": false, 
                "id": 9262, 
                "name": "Suport General - Decidim Barcelona", 
                "official": false, 
                "official_level": 0, 
                "role": null, 
                "verified_organization": null
            }, 
            "body": "<p><a href=\"https://decidim.barcelona/proposals/millora-del-transport-public-al-barri-de-can-clos\">https://decidim.barcelona/proposals/millora-del-transport-public-al-barri-de-can-clos</a></p>", 
            "commentable_id": 657, 
            "commentable_type": "Proposal", 
            "created_at": "14/04/2016 18:45:53", 
            "flagged": false, 
            "hidden": false, 
            "id": 16266, 
            "moderator_id": null, 
            "permissions": {
                "hide": false, 
                "hide_author": false, 
                "vote": false
            }, 
            "total_dislikes": 0, 
            "total_likes": 0, 
            "total_votes": 0
        }, 
        {
            "administrator_id": null, 
            "alignment": 0, 
            "ancestry": null, 
            "as": null, 
            "author": {
                "avatar_image": "https://decidim.barcelona/assets/avatar-866795c99abc33a3160d1f3fa93ada46eb75e54134e777666b9ed16215b26534.png", 
                "erased": false, 
                "hidden": false, 
                "id": 9262, 
                "name": "Suport General - Decidim Barcelona", 
                "official": false, 
                "official_level": 0, 
                "role": null, 
                "verified_organization": null
            }, 
            "body": "<p><a href=\"https://decidim.barcelona/proposals/servei-de-cap-de-setmana-i-festius-dels-busos-115-i-el-91\">https://decidim.barcelona/proposals/servei-de-cap-de-setmana-i-festius-dels-busos-115-i-el-91</a></p>", 
            "commentable_id": 657, 
            "commentable_type": "Proposal", 
            "created_at": "14/04/2016 18:46:07", 
            "flagged": false, 
            "hidden": false, 
            "id": 16267, 
            "moderator_id": null, 
            "permissions": {
                "hide": false, 
                "hide_author": false, 
                "vote": false
            }, 
            "total_dislikes": 0, 
            "total_likes": 0, 
            "total_votes": 0
        }, 
        {
            "administrator_id": null, 
            "alignment": 0, 
            "ancestry": null, 
            "as": null, 
            "author": {
                "avatar_image": "https://decidim.barcelona/assets/avatar-866795c99abc33a3160d1f3fa93ada46eb75e54134e777666b9ed16215b26534.png", 
                "erased": false, 
                "hidden": false, 
                "id": 9262, 
                "name": "Suport General - Decidim Barcelona", 
                "official": false, 
                "official_level": 0, 
                "role": null, 
                "verified_organization": null
            }, 
            "body": "<p><a href=\"https://decidim.barcelona/proposals/igualdad-entre-el-bus-de-barri-125-la-marina-y-el-bus-de-barri-116-la-salut\">https://decidim.barcelona/proposals/igualdad-entre-el-bus-de-barri-125-la-marina-y-el-bus-de-barri-116-la-salut</a></p>", 
            "commentable_id": 657, 
            "commentable_type": "Proposal", 
            "created_at": "14/04/2016 18:46:22", 
            "flagged": false, 
            "hidden": false, 
            "id": 16268, 
            "moderator_id": null, 
            "permissions": {
                "hide": false, 
                "hide_author": false, 
                "vote": false
            }, 
            "total_dislikes": 0, 
            "total_likes": 0, 
            "total_votes": 0
        }, 
        {
            "administrator_id": null, 
            "alignment": 0, 
            "ancestry": null, 
            "as": null, 
            "author": {
                "avatar_image": "https://decidim.barcelona/assets/avatar-866795c99abc33a3160d1f3fa93ada46eb75e54134e777666b9ed16215b26534.png", 
                "erased": false, 
                "hidden": false, 
                "id": 9262, 
                "name": "Suport General - Decidim Barcelona", 
                "official": false, 
                "official_level": 0, 
                "role": null, 
                "verified_organization": null
            }, 
            "body": "<p><a href=\"https://decidim.barcelona/proposals/bus-91-tambe-en-dies-festius-hostafrancs-bordeta\">https://decidim.barcelona/proposals/bus-91-tambe-en-dies-festius-hostafrancs-bordeta</a></p>", 
            "commentable_id": 657, 
            "commentable_type": "Proposal", 
            "created_at": "14/04/2016 18:46:35", 
            "flagged": false, 
            "hidden": false, 
            "id": 16269, 
            "moderator_id": null, 
            "permissions": {
                "hide": false, 
                "hide_author": false, 
                "vote": false
            }, 
            "total_dislikes": 0, 
            "total_likes": 0, 
            "total_votes": 0
        }, 
        {
            "administrator_id": null, 
            "alignment": 0, 
            "ancestry": null, 
            "as": null, 
            "author": {
                "avatar_image": "https://decidim.barcelona/assets/avatar-866795c99abc33a3160d1f3fa93ada46eb75e54134e777666b9ed16215b26534.png", 
                "erased": false, 
                "hidden": false, 
                "id": 9262, 
                "name": "Suport General - Decidim Barcelona", 
                "official": false, 
                "official_level": 0, 
                "role": null, 
                "verified_organization": null
            }, 
            "body": "<p><a href=\"https://decidim.barcelona/proposals/canviar-les-rutesdel-bus-barri-per-arribar-als-llocs-innaccessibles\">https://decidim.barcelona/proposals/canviar-les-rutesdel-bus-barri-per-arribar-als-llocs-innaccessibles</a></p>", 
            "commentable_id": 657, 
            "commentable_type": "Proposal", 
            "created_at": "14/04/2016 18:47:10", 
            "flagged": false, 
            "hidden": false, 
            "id": 16271, 
            "moderator_id": null, 
            "permissions": {
                "hide": false, 
                "hide_author": false, 
                "vote": false
            }, 
            "total_dislikes": 0, 
            "total_likes": 0, 
            "total_votes": 0
        }, 
        {
            "administrator_id": null, 
            "alignment": 0, 
            "ancestry": null, 
            "as": null, 
            "author": {
                "avatar_image": "https://decidim.barcelona/assets/avatar-866795c99abc33a3160d1f3fa93ada46eb75e54134e777666b9ed16215b26534.png", 
                "erased": false, 
                "hidden": false, 
                "id": 9262, 
                "name": "Suport General - Decidim Barcelona", 
                "official": false, 
                "official_level": 0, 
                "role": null, 
                "verified_organization": null
            }, 
            "body": "<p><a href=\"https://decidim.barcelona/proposals/clan-clos-necesita-transportes-publicos\">https://decidim.barcelona/proposals/clan-clos-necesita-transportes-publicos</a></p>", 
            "commentable_id": 657, 
            "commentable_type": "Proposal", 
            "created_at": "14/04/2016 18:47:49", 
            "flagged": false, 
            "hidden": false, 
            "id": 16272, 
            "moderator_id": null, 
            "permissions": {
                "hide": false, 
                "hide_author": false, 
                "vote": false
            }, 
            "total_dislikes": 0, 
            "total_likes": 0, 
            "total_votes": 0
        }, 
        {
            "administrator_id": null, 
            "alignment": 0, 
            "ancestry": null, 
            "as": null, 
            "author": {
                "avatar_image": "https://decidim.barcelona/assets/avatar-866795c99abc33a3160d1f3fa93ada46eb75e54134e777666b9ed16215b26534.png", 
                "erased": false, 
                "hidden": false, 
                "id": 9262, 
                "name": "Suport General - Decidim Barcelona", 
                "official": false, 
                "official_level": 0, 
                "role": null, 
                "verified_organization": null
            }, 
            "body": "<p><a href=\"https://decidim.barcelona/proposals/augmentar-frequencia-bus-37-i-109-i-no-restriccio-els-diumenges\">https://decidim.barcelona/proposals/augmentar-frequencia-bus-37-i-109-i-no-restriccio-els-diumenges</a></p>", 
            "commentable_id": 657, 
            "commentable_type": "Proposal", 
            "created_at": "14/04/2016 18:48:00", 
            "flagged": false, 
            "hidden": false, 
            "id": 16273, 
            "moderator_id": null, 
            "permissions": {
                "hide": false, 
                "hide_author": false, 
                "vote": false
            }, 
            "total_dislikes": 0, 
            "total_likes": 0, 
            "total_votes": 0
        }, 
        {
            "administrator_id": null, 
            "alignment": 0, 
            "ancestry": null, 
            "as": null, 
            "author": {
                "avatar_image": "https://decidim.barcelona/assets/avatar-866795c99abc33a3160d1f3fa93ada46eb75e54134e777666b9ed16215b26534.png", 
                "erased": false, 
                "hidden": false, 
                "id": 9262, 
                "name": "Suport General - Decidim Barcelona", 
                "official": false, 
                "official_level": 0, 
                "role": null, 
                "verified_organization": null
            }, 
            "body": "<p><a href=\"https://decidim.barcelona/proposals/canviar-les-rutesdel-bus-barri-per-arribar-als-llocs-innaccessibles\">https://decidim.barcelona/proposals/canviar-les-rutesdel-bus-barri-per-arribar-als-llocs-innaccessibles</a></p>", 
            "commentable_id": 657, 
            "commentable_type": "Proposal", 
            "created_at": "14/04/2016 18:48:12", 
            "flagged": false, 
            "hidden": false, 
            "id": 16274, 
            "moderator_id": null, 
            "permissions": {
                "hide": false, 
                "hide_author": false, 
                "vote": false
            }, 
            "total_dislikes": 0, 
            "total_likes": 0, 
            "total_votes": 0
        }, 
        {
            "administrator_id": null, 
            "alignment": 0, 
            "ancestry": null, 
            "as": null, 
            "author": {
                "avatar_image": "https://decidim.barcelona/assets/avatar-866795c99abc33a3160d1f3fa93ada46eb75e54134e777666b9ed16215b26534.png", 
                "erased": false, 
                "hidden": false, 
                "id": 9262, 
                "name": "Suport General - Decidim Barcelona", 
                "official": false, 
                "official_level": 0, 
                "role": null, 
                "verified_organization": null
            }, 
            "body": "<p><a href=\"https://decidim.barcelona/proposals/linia-70-de-bus-que-completi-recorregut-zona-escolar-i-hospitalaria\">https://decidim.barcelona/proposals/linia-70-de-bus-que-completi-recorregut-zona-escolar-i-hospitalaria</a></p>", 
            "commentable_id": 657, 
            "commentable_type": "Proposal", 
            "created_at": "14/04/2016 18:48:27", 
            "flagged": false, 
            "hidden": false, 
            "id": 16275, 
            "moderator_id": null, 
            "permissions": {
                "hide": false, 
                "hide_author": false, 
                "vote": false
            }, 
            "total_dislikes": 0, 
            "total_likes": 0, 
            "total_votes": 0
        }, 
        {
            "administrator_id": null, 
            "alignment": 0, 
            "ancestry": null, 
            "as": null, 
            "author": {
                "avatar_image": "https://decidim.barcelona/assets/avatar-866795c99abc33a3160d1f3fa93ada46eb75e54134e777666b9ed16215b26534.png", 
                "erased": false, 
                "hidden": false, 
                "id": 9262, 
                "name": "Suport General - Decidim Barcelona", 
                "official": false, 
                "official_level": 0, 
                "role": null, 
                "verified_organization": null
            }, 
            "body": "<p><a href=\"https://decidim.barcelona/proposals/linia-70-de-bus-que-completi-recorregut-zona-escolar-i-hospitalaria\">https://decidim.barcelona/proposals/linia-70-de-bus-que-completi-recorregut-zona-escolar-i-hospitalaria</a></p>", 
            "commentable_id": 657, 
            "commentable_type": "Proposal", 
            "created_at": "14/04/2016 18:58:11", 
            "flagged": false, 
            "hidden": false, 
            "id": 16297, 
            "moderator_id": null, 
            "permissions": {
                "hide": false, 
                "hide_author": false, 
                "vote": false
            }, 
            "total_dislikes": 0, 
            "total_likes": 0, 
            "total_votes": 0
        }, 
        {
            "administrator_id": null, 
            "alignment": 0, 
            "ancestry": null, 
            "as": null, 
            "author": {
                "avatar_image": "https://decidim.barcelona/assets/avatar-866795c99abc33a3160d1f3fa93ada46eb75e54134e777666b9ed16215b26534.png", 
                "erased": false, 
                "hidden": false, 
                "id": 9262, 
                "name": "Suport General - Decidim Barcelona", 
                "official": false, 
                "official_level": 0, 
                "role": null, 
                "verified_organization": null
            }, 
            "body": "<p><a href=\"https://decidim.barcelona/proposals/millorar-la-mobilitat-amb-transport-public\">https://decidim.barcelona/proposals/millorar-la-mobilitat-amb-transport-public</a></p>", 
            "commentable_id": 657, 
            "commentable_type": "Proposal", 
            "created_at": "14/04/2016 19:07:06", 
            "flagged": false, 
            "hidden": false, 
            "id": 16319, 
            "moderator_id": null, 
            "permissions": {
                "hide": false, 
                "hide_author": false, 
                "vote": false
            }, 
            "total_dislikes": 0, 
            "total_likes": 0, 
            "total_votes": 0
        }, 
        {
            "administrator_id": null, 
            "alignment": 0, 
            "ancestry": null, 
            "as": null, 
            "author": {
                "avatar_image": "https://decidim.barcelona/assets/avatar-866795c99abc33a3160d1f3fa93ada46eb75e54134e777666b9ed16215b26534.png", 
                "erased": false, 
                "hidden": false, 
                "id": 9262, 
                "name": "Suport General - Decidim Barcelona", 
                "official": false, 
                "official_level": 0, 
                "role": null, 
                "verified_organization": null
            }, 
            "body": "<p><a href=\"https://decidim.barcelona/proposals/prioridad-linea-metro-zona-franca\">https://decidim.barcelona/proposals/prioridad-linea-metro-zona-franca</a></p>", 
            "commentable_id": 657, 
            "commentable_type": "Proposal", 
            "created_at": "14/04/2016 19:11:37", 
            "flagged": false, 
            "hidden": false, 
            "id": 16333, 
            "moderator_id": null, 
            "permissions": {
                "hide": false, 
                "hide_author": false, 
                "vote": false
            }, 
            "total_dislikes": 0, 
            "total_likes": 0, 
            "total_votes": 0
        }, 
        {
            "administrator_id": null, 
            "alignment": 0, 
            "ancestry": null, 
            "as": null, 
            "author": {
                "avatar_image": "https://decidim.barcelona/assets/avatar-866795c99abc33a3160d1f3fa93ada46eb75e54134e777666b9ed16215b26534.png", 
                "erased": false, 
                "hidden": false, 
                "id": 9262, 
                "name": "Suport General - Decidim Barcelona", 
                "official": false, 
                "official_level": 0, 
                "role": null, 
                "verified_organization": null
            }, 
            "body": "<p><a href=\"https://decidim.barcelona/proposals/metro-l10-zona-franca\">https://decidim.barcelona/proposals/metro-l10-zona-franca</a></p>", 
            "commentable_id": 657, 
            "commentable_type": "Proposal", 
            "created_at": "14/04/2016 19:12:38", 
            "flagged": false, 
            "hidden": false, 
            "id": 16336, 
            "moderator_id": null, 
            "permissions": {
                "hide": false, 
                "hide_author": false, 
                "vote": false
            }, 
            "total_dislikes": 0, 
            "total_likes": 0, 
            "total_votes": 0
        }, 
        {
            "administrator_id": null, 
            "alignment": 0, 
            "ancestry": null, 
            "as": null, 
            "author": {
                "avatar_image": "https://decidim.barcelona/assets/avatar-866795c99abc33a3160d1f3fa93ada46eb75e54134e777666b9ed16215b26534.png", 
                "erased": false, 
                "hidden": false, 
                "id": 17741, 
                "name": "Suport General3 - Decidim Barcelona", 
                "official": false, 
                "official_level": 0, 
                "role": null, 
                "verified_organization": null
            }, 
            "body": "<p><a href=\"https://decidim.barcelona/proposals/recuperar-el-bus-de-barri-en-dies-festius-a-hostafrancs\">https://decidim.barcelona/proposals/recuperar-el-bus-de-barri-en-dies-festius-a-hostafrancs</a></p>", 
            "commentable_id": 657, 
            "commentable_type": "Proposal", 
            "created_at": "15/04/2016 10:46:30", 
            "flagged": false, 
            "hidden": false, 
            "id": 16551, 
            "moderator_id": null, 
            "permissions": {
                "hide": false, 
                "hide_author": false, 
                "vote": false
            }, 
            "total_dislikes": 0, 
            "total_likes": 0, 
            "total_votes": 0
        }, 
        {
            "administrator_id": null, 
            "alignment": 0, 
            "ancestry": null, 
            "as": null, 
            "author": {
                "avatar_image": "https://decidim.barcelona/assets/avatar-866795c99abc33a3160d1f3fa93ada46eb75e54134e777666b9ed16215b26534.png", 
                "erased": false, 
                "hidden": false, 
                "id": 17741, 
                "name": "Suport General3 - Decidim Barcelona", 
                "official": false, 
                "official_level": 0, 
                "role": null, 
                "verified_organization": null
            }, 
            "body": "<p><a href=\"https://decidim.barcelona/proposals/millorar-la-frequencia-de-pas-del-bus-13\">https://decidim.barcelona/proposals/millorar-la-frequencia-de-pas-del-bus-13</a></p>", 
            "commentable_id": 657, 
            "commentable_type": "Proposal", 
            "created_at": "15/04/2016 10:49:52", 
            "flagged": false, 
            "hidden": false, 
            "id": 16558, 
            "moderator_id": null, 
            "permissions": {
                "hide": false, 
                "hide_author": false, 
                "vote": false
            }, 
            "total_dislikes": 0, 
            "total_likes": 0, 
            "total_votes": 0
        }, 
        {
            "administrator_id": null, 
            "alignment": 0, 
            "ancestry": null, 
            "as": null, 
            "author": {
                "avatar_image": "https://decidim.barcelona/assets/avatar-866795c99abc33a3160d1f3fa93ada46eb75e54134e777666b9ed16215b26534.png", 
                "erased": false, 
                "hidden": false, 
                "id": 17741, 
                "name": "Suport General3 - Decidim Barcelona", 
                "official": false, 
                "official_level": 0, 
                "role": null, 
                "verified_organization": null
            }, 
            "body": "<p><a href=\"https://decidim.barcelona/proposals/linia-70-bus-funcionament-festius\">https://decidim.barcelona/proposals/linia-70-bus-funcionament-festius</a></p>", 
            "commentable_id": 657, 
            "commentable_type": "Proposal", 
            "created_at": "15/04/2016 10:50:10", 
            "flagged": false, 
            "hidden": false, 
            "id": 16559, 
            "moderator_id": null, 
            "permissions": {
                "hide": false, 
                "hide_author": false, 
                "vote": false
            }, 
            "total_dislikes": 0, 
            "total_likes": 0, 
            "total_votes": 0
        }, 
        {
            "administrator_id": null, 
            "alignment": 0, 
            "ancestry": null, 
            "as": null, 
            "author": {
                "avatar_image": "https://decidim.barcelona/assets/avatar-866795c99abc33a3160d1f3fa93ada46eb75e54134e777666b9ed16215b26534.png", 
                "erased": false, 
                "hidden": false, 
                "id": 17741, 
                "name": "Suport General3 - Decidim Barcelona", 
                "official": false, 
                "official_level": 0, 
                "role": null, 
                "verified_organization": null
            }, 
            "body": "<p><a href=\"https://decidim.barcelona/proposals/linia-70-de-bus-que-completi-recorregut-zona-escolar-i-hospitalaria\">https://decidim.barcelona/proposals/linia-70-de-bus-que-completi-recorregut-zona-escolar-i-hospitalaria</a></p>", 
            "commentable_id": 657, 
            "commentable_type": "Proposal", 
            "created_at": "15/04/2016 10:53:31", 
            "flagged": false, 
            "hidden": false, 
            "id": 16573, 
            "moderator_id": null, 
            "permissions": {
                "hide": false, 
                "hide_author": false, 
                "vote": false
            }, 
            "total_dislikes": 0, 
            "total_likes": 0, 
            "total_votes": 0
        }
    ], 
    "meta": {
        "current_page": 1, 
        "next_page": 2, 
        "prev_page": null, 
        "total_count": 35, 
        "total_pages": 2
    }
}