{
    "comments": [
        {
            "administrator_id": null, 
            "alignment": 0, 
            "ancestry": null, 
            "as": null, 
            "author": {
                "avatar_image": "https://decidim.barcelona/assets/avatar-866795c99abc33a3160d1f3fa93ada46eb75e54134e777666b9ed16215b26534.png", 
                "erased": false, 
                "hidden": false, 
                "id": 9262, 
                "name": "Suport General - Decidim Barcelona", 
                "official": false, 
                "official_level": 0, 
                "role": null, 
                "verified_organization": null
            }, 
            "body": "<p><a href=\"https://decidim.barcelona/proposals/reforc-de-la-neteja-i-manteniment-general-dels-carrers-del-barri-de-la-sagrera\">https://decidim.barcelona/proposals/reforc-de-la-neteja-i-manteniment-general-dels-carrers-del-barri-de-la-sagrera</a></p>", 
            "commentable_id": 814, 
            "commentable_type": "Proposal", 
            "created_at": "13/04/2016 13:15:00", 
            "flagged": false, 
            "hidden": false, 
            "id": 14636, 
            "moderator_id": null, 
            "permissions": {
                "hide": false, 
                "hide_author": false, 
                "vote": false
            }, 
            "total_dislikes": 0, 
            "total_likes": 0, 
            "total_votes": 0
        }, 
        {
            "administrator_id": null, 
            "alignment": 0, 
            "ancestry": null, 
            "as": null, 
            "author": {
                "avatar_image": "https://decidim.barcelona/assets/avatar-866795c99abc33a3160d1f3fa93ada46eb75e54134e777666b9ed16215b26534.png", 
                "erased": false, 
                "hidden": false, 
                "id": 9262, 
                "name": "Suport General - Decidim Barcelona", 
                "official": false, 
                "official_level": 0, 
                "role": null, 
                "verified_organization": null
            }, 
            "body": "<p><a href=\"https://decidim.barcelona/proposals/paviment-placa-masadas-reparar-les-rajoles-trencades-i-en-mal-estat-i-substituir-les-peces-de-marbre-per-un-paviment-anti-lliscant\">https://decidim.barcelona/proposals/paviment-placa-masadas-reparar-les-rajoles-trencades-i-en-mal-estat-i-substituir-les-peces-de-marbre-per-un-paviment-anti-lliscant</a></p>", 
            "commentable_id": 814, 
            "commentable_type": "Proposal", 
            "created_at": "13/04/2016 13:15:21", 
            "flagged": false, 
            "hidden": false, 
            "id": 14639, 
            "moderator_id": null, 
            "permissions": {
                "hide": false, 
                "hide_author": false, 
                "vote": false
            }, 
            "total_dislikes": 0, 
            "total_likes": 0, 
            "total_votes": 0
        }, 
        {
            "administrator_id": null, 
            "alignment": 0, 
            "ancestry": null, 
            "as": null, 
            "author": {
                "avatar_image": "https://decidim.barcelona/assets/avatar-866795c99abc33a3160d1f3fa93ada46eb75e54134e777666b9ed16215b26534.png", 
                "erased": false, 
                "hidden": false, 
                "id": 9262, 
                "name": "Suport General - Decidim Barcelona", 
                "official": false, 
                "official_level": 0, 
                "role": null, 
                "verified_organization": null
            }, 
            "body": "<p><a href=\"https://decidim.barcelona/proposals/revisar-i-millorar-les-afectacions-de-les-arrels-als-paviments-per-evitar-el-perill-de-caiguda\">https://decidim.barcelona/proposals/revisar-i-millorar-les-afectacions-de-les-arrels-als-paviments-per-evitar-el-perill-de-caiguda</a></p>", 
            "commentable_id": 814, 
            "commentable_type": "Proposal", 
            "created_at": "13/04/2016 13:15:31", 
            "flagged": false, 
            "hidden": false, 
            "id": 14640, 
            "moderator_id": null, 
            "permissions": {
                "hide": false, 
                "hide_author": false, 
                "vote": false
            }, 
            "total_dislikes": 0, 
            "total_likes": 0, 
            "total_votes": 0
        }, 
        {
            "administrator_id": null, 
            "alignment": 0, 
            "ancestry": null, 
            "as": null, 
            "author": {
                "avatar_image": "https://decidim.barcelona/assets/avatar-866795c99abc33a3160d1f3fa93ada46eb75e54134e777666b9ed16215b26534.png", 
                "erased": false, 
                "hidden": false, 
                "id": 9262, 
                "name": "Suport General - Decidim Barcelona", 
                "official": false, 
                "official_level": 0, 
                "role": null, 
                "verified_organization": null
            }, 
            "body": "<p><a href=\"https://decidim.barcelona/proposals/podar-els-arbres-que-tapen-l-enllumenat\">https://decidim.barcelona/proposals/podar-els-arbres-que-tapen-l-enllumenat</a></p>", 
            "commentable_id": 814, 
            "commentable_type": "Proposal", 
            "created_at": "13/04/2016 13:15:51", 
            "flagged": false, 
            "hidden": false, 
            "id": 14643, 
            "moderator_id": null, 
            "permissions": {
                "hide": false, 
                "hide_author": false, 
                "vote": false
            }, 
            "total_dislikes": 0, 
            "total_likes": 0, 
            "total_votes": 0
        }, 
        {
            "administrator_id": null, 
            "alignment": 0, 
            "ancestry": null, 
            "as": null, 
            "author": {
                "avatar_image": "https://decidim.barcelona/assets/avatar-866795c99abc33a3160d1f3fa93ada46eb75e54134e777666b9ed16215b26534.png", 
                "erased": false, 
                "hidden": false, 
                "id": 9262, 
                "name": "Suport General - Decidim Barcelona", 
                "official": false, 
                "official_level": 0, 
                "role": null, 
                "verified_organization": null
            }, 
            "body": "<p><a href=\"https://decidim.barcelona/proposals/intervencio-de-manteniment-de-l-espai-public-i-de-l-enllumenat-al-carrer-torrent-de-la-perera-trinitat-vella\">https://decidim.barcelona/proposals/intervencio-de-manteniment-de-l-espai-public-i-de-l-enllumenat-al-carrer-torrent-de-la-perera-trinitat-vella</a></p>", 
            "commentable_id": 814, 
            "commentable_type": "Proposal", 
            "created_at": "13/04/2016 13:16:27", 
            "flagged": false, 
            "hidden": false, 
            "id": 14645, 
            "moderator_id": null, 
            "permissions": {
                "hide": false, 
                "hide_author": false, 
                "vote": false
            }, 
            "total_dislikes": 0, 
            "total_likes": 0, 
            "total_votes": 0
        }, 
        {
            "administrator_id": null, 
            "alignment": 0, 
            "ancestry": null, 
            "as": null, 
            "author": {
                "avatar_image": "https://decidim.barcelona/assets/avatar-866795c99abc33a3160d1f3fa93ada46eb75e54134e777666b9ed16215b26534.png", 
                "erased": false, 
                "hidden": false, 
                "id": 9262, 
                "name": "Suport General - Decidim Barcelona", 
                "official": false, 
                "official_level": 0, 
                "role": null, 
                "verified_organization": null
            }, 
            "body": "<p><a href=\"https://decidim.barcelona/proposals/en-cas-de-noves-plantacions-evitar-que-les-especies-puguin-aixecar-el-paviment-per-evitar-el-perill-de-caiguda\">https://decidim.barcelona/proposals/en-cas-de-noves-plantacions-evitar-que-les-especies-puguin-aixecar-el-paviment-per-evitar-el-perill-de-caiguda</a></p>", 
            "commentable_id": 814, 
            "commentable_type": "Proposal", 
            "created_at": "13/04/2016 13:16:36", 
            "flagged": false, 
            "hidden": false, 
            "id": 14646, 
            "moderator_id": null, 
            "permissions": {
                "hide": false, 
                "hide_author": false, 
                "vote": false
            }, 
            "total_dislikes": 0, 
            "total_likes": 0, 
            "total_votes": 0
        }, 
        {
            "administrator_id": null, 
            "alignment": 0, 
            "ancestry": null, 
            "as": null, 
            "author": {
                "avatar_image": "https://decidim.barcelona/assets/avatar-866795c99abc33a3160d1f3fa93ada46eb75e54134e777666b9ed16215b26534.png", 
                "erased": false, 
                "hidden": false, 
                "id": 9262, 
                "name": "Suport General - Decidim Barcelona", 
                "official": false, 
                "official_level": 0, 
                "role": null, 
                "verified_organization": null
            }, 
            "body": "<p><a href=\"https://decidim.barcelona/proposals/millora-de-l-estat-i-la-gestio-dels-espais-comuns-del-parc-de-la-trinitat\">https://decidim.barcelona/proposals/millora-de-l-estat-i-la-gestio-dels-espais-comuns-del-parc-de-la-trinitat</a></p>", 
            "commentable_id": 814, 
            "commentable_type": "Proposal", 
            "created_at": "13/04/2016 13:16:55", 
            "flagged": false, 
            "hidden": false, 
            "id": 14647, 
            "moderator_id": null, 
            "permissions": {
                "hide": false, 
                "hide_author": false, 
                "vote": false
            }, 
            "total_dislikes": 0, 
            "total_likes": 0, 
            "total_votes": 0
        }, 
        {
            "administrator_id": null, 
            "alignment": 0, 
            "ancestry": null, 
            "as": null, 
            "author": {
                "avatar_image": "https://decidim.barcelona/assets/avatar-866795c99abc33a3160d1f3fa93ada46eb75e54134e777666b9ed16215b26534.png", 
                "erased": false, 
                "hidden": false, 
                "id": 9262, 
                "name": "Suport General - Decidim Barcelona", 
                "official": false, 
                "official_level": 0, 
                "role": null, 
                "verified_organization": null
            }, 
            "body": "<p><a href=\"https://decidim.barcelona/proposals/arranjament-dels-parterres-que-estan-en-mal-estat-o-descurats\">https://decidim.barcelona/proposals/arranjament-dels-parterres-que-estan-en-mal-estat-o-descurats</a></p>", 
            "commentable_id": 814, 
            "commentable_type": "Proposal", 
            "created_at": "13/04/2016 13:17:07", 
            "flagged": false, 
            "hidden": false, 
            "id": 14648, 
            "moderator_id": null, 
            "permissions": {
                "hide": false, 
                "hide_author": false, 
                "vote": false
            }, 
            "total_dislikes": 0, 
            "total_likes": 0, 
            "total_votes": 0
        }, 
        {
            "administrator_id": null, 
            "alignment": 0, 
            "ancestry": null, 
            "as": null, 
            "author": {
                "avatar_image": "https://decidim.barcelona/assets/avatar-866795c99abc33a3160d1f3fa93ada46eb75e54134e777666b9ed16215b26534.png", 
                "erased": false, 
                "hidden": false, 
                "id": 9262, 
                "name": "Suport General - Decidim Barcelona", 
                "official": false, 
                "official_level": 0, 
                "role": null, 
                "verified_organization": null
            }, 
            "body": "<p><a href=\"https://decidim.barcelona/proposals/millorar-la-il-luminacio-de-la-placa-ferran-reyes\">https://decidim.barcelona/proposals/millorar-la-il-luminacio-de-la-placa-ferran-reyes</a></p>", 
            "commentable_id": 814, 
            "commentable_type": "Proposal", 
            "created_at": "13/04/2016 13:17:15", 
            "flagged": false, 
            "hidden": false, 
            "id": 14649, 
            "moderator_id": null, 
            "permissions": {
                "hide": false, 
                "hide_author": false, 
                "vote": false
            }, 
            "total_dislikes": 0, 
            "total_likes": 0, 
            "total_votes": 0
        }, 
        {
            "administrator_id": null, 
            "alignment": 0, 
            "ancestry": null, 
            "as": null, 
            "author": {
                "avatar_image": "https://decidim.barcelona/assets/avatar-866795c99abc33a3160d1f3fa93ada46eb75e54134e777666b9ed16215b26534.png", 
                "erased": false, 
                "hidden": false, 
                "id": 9262, 
                "name": "Suport General - Decidim Barcelona", 
                "official": false, 
                "official_level": 0, 
                "role": null, 
                "verified_organization": null
            }, 
            "body": "<p><a href=\"https://decidim.barcelona/proposals/arreglar-els-paviments-del-carrer-bofarull\">https://decidim.barcelona/proposals/arreglar-els-paviments-del-carrer-bofarull</a></p>", 
            "commentable_id": 814, 
            "commentable_type": "Proposal", 
            "created_at": "13/04/2016 13:17:34", 
            "flagged": false, 
            "hidden": false, 
            "id": 14651, 
            "moderator_id": null, 
            "permissions": {
                "hide": false, 
                "hide_author": false, 
                "vote": false
            }, 
            "total_dislikes": 0, 
            "total_likes": 0, 
            "total_votes": 0
        }, 
        {
            "administrator_id": null, 
            "alignment": 0, 
            "ancestry": null, 
            "as": null, 
            "author": {
                "avatar_image": "https://decidim.barcelona/assets/avatar-866795c99abc33a3160d1f3fa93ada46eb75e54134e777666b9ed16215b26534.png", 
                "erased": false, 
                "hidden": false, 
                "id": 9262, 
                "name": "Suport General - Decidim Barcelona", 
                "official": false, 
                "official_level": 0, 
                "role": null, 
                "verified_organization": null
            }, 
            "body": "<p><a href=\"https://decidim.barcelona/proposals/millorar-la-il-luminacio-de-la-placa-ferran-reyes-i-dels-jardins-de-maria-soteras-mauri\">https://decidim.barcelona/proposals/millorar-la-il-luminacio-de-la-placa-ferran-reyes-i-dels-jardins-de-maria-soteras-mauri</a></p>", 
            "commentable_id": 814, 
            "commentable_type": "Proposal", 
            "created_at": "13/04/2016 13:17:48", 
            "flagged": false, 
            "hidden": false, 
            "id": 14654, 
            "moderator_id": null, 
            "permissions": {
                "hide": false, 
                "hide_author": false, 
                "vote": false
            }, 
            "total_dislikes": 0, 
            "total_likes": 0, 
            "total_votes": 0
        }, 
        {
            "administrator_id": null, 
            "alignment": 0, 
            "ancestry": null, 
            "as": null, 
            "author": {
                "avatar_image": "https://decidim.barcelona/assets/avatar-866795c99abc33a3160d1f3fa93ada46eb75e54134e777666b9ed16215b26534.png", 
                "erased": false, 
                "hidden": false, 
                "id": 9262, 
                "name": "Suport General - Decidim Barcelona", 
                "official": false, 
                "official_level": 0, 
                "role": null, 
                "verified_organization": null
            }, 
            "body": "<p><a href=\"https://decidim.barcelona/proposals/canviar-la-disposicio-dels-bancs-d-algunes-places-de-la-sagrea-per-facilitar-el-dialeg-i-la-relacio\">https://decidim.barcelona/proposals/canviar-la-disposicio-dels-bancs-d-algunes-places-de-la-sagrea-per-facilitar-el-dialeg-i-la-relacio</a></p>", 
            "commentable_id": 814, 
            "commentable_type": "Proposal", 
            "created_at": "13/04/2016 13:17:59", 
            "flagged": false, 
            "hidden": false, 
            "id": 14655, 
            "moderator_id": null, 
            "permissions": {
                "hide": false, 
                "hide_author": false, 
                "vote": false
            }, 
            "total_dislikes": 0, 
            "total_likes": 0, 
            "total_votes": 0
        }, 
        {
            "administrator_id": null, 
            "alignment": 0, 
            "ancestry": null, 
            "as": null, 
            "author": {
                "avatar_image": "https://decidim.barcelona/assets/avatar-866795c99abc33a3160d1f3fa93ada46eb75e54134e777666b9ed16215b26534.png", 
                "erased": false, 
                "hidden": false, 
                "id": 9262, 
                "name": "Suport General - Decidim Barcelona", 
                "official": false, 
                "official_level": 0, 
                "role": null, 
                "verified_organization": null
            }, 
            "body": "<p><a href=\"https://decidim.barcelona/proposals/reforcar-l-enllumenat-de-la-placa-d-elx-el-carrer-honduras-i-la-vorera-oest-del-carrer-berenguer-de-palou\">https://decidim.barcelona/proposals/reforcar-l-enllumenat-de-la-placa-d-elx-el-carrer-honduras-i-la-vorera-oest-del-carrer-berenguer-de-palou</a></p>", 
            "commentable_id": 814, 
            "commentable_type": "Proposal", 
            "created_at": "13/04/2016 13:18:37", 
            "flagged": false, 
            "hidden": false, 
            "id": 14659, 
            "moderator_id": null, 
            "permissions": {
                "hide": false, 
                "hide_author": false, 
                "vote": false
            }, 
            "total_dislikes": 0, 
            "total_likes": 0, 
            "total_votes": 0
        }, 
        {
            "administrator_id": null, 
            "alignment": 0, 
            "ancestry": null, 
            "as": null, 
            "author": {
                "avatar_image": "https://decidim.barcelona/assets/avatar-866795c99abc33a3160d1f3fa93ada46eb75e54134e777666b9ed16215b26534.png", 
                "erased": false, 
                "hidden": false, 
                "id": 9262, 
                "name": "Suport General - Decidim Barcelona", 
                "official": false, 
                "official_level": 0, 
                "role": null, 
                "verified_organization": null
            }, 
            "body": "<p><a href=\"https://decidim.barcelona/proposals/substituir-paviment-de-llambordes-per-un-paviment-sense-irregularitats-la-sagrera\">https://decidim.barcelona/proposals/substituir-paviment-de-llambordes-per-un-paviment-sense-irregularitats-la-sagrera</a></p>", 
            "commentable_id": 814, 
            "commentable_type": "Proposal", 
            "created_at": "13/04/2016 13:18:46", 
            "flagged": false, 
            "hidden": false, 
            "id": 14661, 
            "moderator_id": null, 
            "permissions": {
                "hide": false, 
                "hide_author": false, 
                "vote": false
            }, 
            "total_dislikes": 0, 
            "total_likes": 0, 
            "total_votes": 0
        }, 
        {
            "administrator_id": null, 
            "alignment": 0, 
            "ancestry": null, 
            "as": null, 
            "author": {
                "avatar_image": "https://decidim.barcelona/assets/avatar-866795c99abc33a3160d1f3fa93ada46eb75e54134e777666b9ed16215b26534.png", 
                "erased": false, 
                "hidden": false, 
                "id": 9262, 
                "name": "Suport General - Decidim Barcelona", 
                "official": false, 
                "official_level": 0, 
                "role": null, 
                "verified_organization": null
            }, 
            "body": "<p><a href=\"https://decidim.barcelona/proposals/desplacar-la-terrassa-de-la-cruilla-entre-els-carrers-garcilaso-i-mossen-juliana-per-facilitar-el-pas-dels-vianants\">https://decidim.barcelona/proposals/desplacar-la-terrassa-de-la-cruilla-entre-els-carrers-garcilaso-i-mossen-juliana-per-facilitar-el-pas-dels-vianants</a></p>", 
            "commentable_id": 814, 
            "commentable_type": "Proposal", 
            "created_at": "13/04/2016 13:18:56", 
            "flagged": false, 
            "hidden": false, 
            "id": 14662, 
            "moderator_id": null, 
            "permissions": {
                "hide": false, 
                "hide_author": false, 
                "vote": false
            }, 
            "total_dislikes": 0, 
            "total_likes": 0, 
            "total_votes": 0
        }, 
        {
            "administrator_id": null, 
            "alignment": 0, 
            "ancestry": null, 
            "as": null, 
            "author": {
                "avatar_image": "https://decidim.barcelona/assets/avatar-866795c99abc33a3160d1f3fa93ada46eb75e54134e777666b9ed16215b26534.png", 
                "erased": false, 
                "hidden": false, 
                "id": 9262, 
                "name": "Suport General - Decidim Barcelona", 
                "official": false, 
                "official_level": 0, 
                "role": null, 
                "verified_organization": null
            }, 
            "body": "<p><a href=\"https://decidim.barcelona/proposals/torre-de-la-sagrera\">https://decidim.barcelona/proposals/torre-de-la-sagrera</a></p>", 
            "commentable_id": 814, 
            "commentable_type": "Proposal", 
            "created_at": "13/04/2016 13:19:09", 
            "flagged": false, 
            "hidden": false, 
            "id": 14664, 
            "moderator_id": null, 
            "permissions": {
                "hide": false, 
                "hide_author": false, 
                "vote": false
            }, 
            "total_dislikes": 0, 
            "total_likes": 0, 
            "total_votes": 0
        }, 
        {
            "administrator_id": null, 
            "alignment": 0, 
            "ancestry": null, 
            "as": null, 
            "author": {
                "avatar_image": "https://decidim.barcelona/assets/avatar-866795c99abc33a3160d1f3fa93ada46eb75e54134e777666b9ed16215b26534.png", 
                "erased": false, 
                "hidden": false, 
                "id": 9262, 
                "name": "Suport General - Decidim Barcelona", 
                "official": false, 
                "official_level": 0, 
                "role": null, 
                "verified_organization": null
            }, 
            "body": "<p><a href=\"https://decidim.barcelona/proposals/instal-lar-proteccio-pels-vianants-al-num-34-del-passatge-de-coello-per-evitar-despreniments-a-la-via-publica\">https://decidim.barcelona/proposals/instal-lar-proteccio-pels-vianants-al-num-34-del-passatge-de-coello-per-evitar-despreniments-a-la-via-publica</a></p>", 
            "commentable_id": 814, 
            "commentable_type": "Proposal", 
            "created_at": "13/04/2016 13:19:19", 
            "flagged": false, 
            "hidden": false, 
            "id": 14665, 
            "moderator_id": null, 
            "permissions": {
                "hide": false, 
                "hide_author": false, 
                "vote": false
            }, 
            "total_dislikes": 0, 
            "total_likes": 0, 
            "total_votes": 0
        }, 
        {
            "administrator_id": null, 
            "alignment": 0, 
            "ancestry": null, 
            "as": null, 
            "author": {
                "avatar_image": "https://decidim.barcelona/assets/avatar-866795c99abc33a3160d1f3fa93ada46eb75e54134e777666b9ed16215b26534.png", 
                "erased": false, 
                "hidden": false, 
                "id": 9262, 
                "name": "Suport General - Decidim Barcelona", 
                "official": false, 
                "official_level": 0, 
                "role": null, 
                "verified_organization": null
            }, 
            "body": "<p><a href=\"https://decidim.barcelona/proposals/substituir-el-paviment-de-la-placa-hispano-suissa-per-un-paviment-anti-lliscant\">https://decidim.barcelona/proposals/substituir-el-paviment-de-la-placa-hispano-suissa-per-un-paviment-anti-lliscant</a></p>", 
            "commentable_id": 814, 
            "commentable_type": "Proposal", 
            "created_at": "13/04/2016 13:19:32", 
            "flagged": false, 
            "hidden": false, 
            "id": 14666, 
            "moderator_id": null, 
            "permissions": {
                "hide": false, 
                "hide_author": false, 
                "vote": false
            }, 
            "total_dislikes": 0, 
            "total_likes": 0, 
            "total_votes": 0
        }, 
        {
            "administrator_id": null, 
            "alignment": 0, 
            "ancestry": null, 
            "as": null, 
            "author": {
                "avatar_image": "https://decidim.barcelona/assets/avatar-866795c99abc33a3160d1f3fa93ada46eb75e54134e777666b9ed16215b26534.png", 
                "erased": false, 
                "hidden": false, 
                "id": 9262, 
                "name": "Suport General - Decidim Barcelona", 
                "official": false, 
                "official_level": 0, 
                "role": null, 
                "verified_organization": null
            }, 
            "body": "<p><a href=\"https://decidim.barcelona/proposals/instal-lar-una-proteccio-normalitzada-als-escocells-del-barri-de-la-sagrera\">https://decidim.barcelona/proposals/instal-lar-una-proteccio-normalitzada-als-escocells-del-barri-de-la-sagrera</a></p>", 
            "commentable_id": 814, 
            "commentable_type": "Proposal", 
            "created_at": "13/04/2016 13:19:44", 
            "flagged": false, 
            "hidden": false, 
            "id": 14669, 
            "moderator_id": null, 
            "permissions": {
                "hide": false, 
                "hide_author": false, 
                "vote": false
            }, 
            "total_dislikes": 0, 
            "total_likes": 0, 
            "total_votes": 0
        }, 
        {
            "administrator_id": null, 
            "alignment": 0, 
            "ancestry": null, 
            "as": null, 
            "author": {
                "avatar_image": "https://decidim.barcelona/assets/avatar-866795c99abc33a3160d1f3fa93ada46eb75e54134e777666b9ed16215b26534.png", 
                "erased": false, 
                "hidden": false, 
                "id": 9262, 
                "name": "Suport General - Decidim Barcelona", 
                "official": false, 
                "official_level": 0, 
                "role": null, 
                "verified_organization": null
            }, 
            "body": "<p><a href=\"https://decidim.barcelona/proposals/treure-el-quiosc-de-la-placa-ferran-reyes-o-donar-li-algun-us\">https://decidim.barcelona/proposals/treure-el-quiosc-de-la-placa-ferran-reyes-o-donar-li-algun-us</a></p>", 
            "commentable_id": 814, 
            "commentable_type": "Proposal", 
            "created_at": "13/04/2016 13:20:32", 
            "flagged": false, 
            "hidden": false, 
            "id": 14672, 
            "moderator_id": null, 
            "permissions": {
                "hide": false, 
                "hide_author": false, 
                "vote": false
            }, 
            "total_dislikes": 0, 
            "total_likes": 0, 
            "total_votes": 0
        }
    ], 
    "meta": {
        "current_page": 1, 
        "next_page": 2, 
        "prev_page": null, 
        "total_count": 32, 
        "total_pages": 2
    }
}