{
    "comments": [
        {
            "administrator_id": null, 
            "alignment": 0, 
            "ancestry": null, 
            "as": null, 
            "author": {
                "avatar_image": "https://decidim.barcelona/assets/avatar-866795c99abc33a3160d1f3fa93ada46eb75e54134e777666b9ed16215b26534.png", 
                "erased": false, 
                "hidden": false, 
                "id": 9262, 
                "name": "Suport General - Decidim Barcelona", 
                "official": false, 
                "official_level": 0, 
                "role": null, 
                "verified_organization": null
            }, 
            "body": "<p><a href=\"https://decidim.barcelona/proposals/remodelacio-del-parc-de-la-pomera-de-sant-andreu\">https://decidim.barcelona/proposals/remodelacio-del-parc-de-la-pomera-de-sant-andreu</a></p>", 
            "commentable_id": 814, 
            "commentable_type": "Proposal", 
            "created_at": "14/04/2016 17:29:35", 
            "flagged": false, 
            "hidden": false, 
            "id": 16093, 
            "moderator_id": null, 
            "permissions": {
                "hide": false, 
                "hide_author": false, 
                "vote": false
            }, 
            "total_dislikes": 0, 
            "total_likes": 0, 
            "total_votes": 0
        }, 
        {
            "administrator_id": null, 
            "alignment": 0, 
            "ancestry": null, 
            "as": null, 
            "author": {
                "avatar_image": "https://decidim.barcelona/assets/avatar-866795c99abc33a3160d1f3fa93ada46eb75e54134e777666b9ed16215b26534.png", 
                "erased": false, 
                "hidden": false, 
                "id": 9262, 
                "name": "Suport General - Decidim Barcelona", 
                "official": false, 
                "official_level": 0, 
                "role": null, 
                "verified_organization": null
            }, 
            "body": "<p><a href=\"https://decidim.barcelona/proposals/tapar-els-forats-dels-arbres-a-gran-de-sant-andreu-per-evitar-caigues\">https://decidim.barcelona/proposals/tapar-els-forats-dels-arbres-a-gran-de-sant-andreu-per-evitar-caigues</a></p>", 
            "commentable_id": 814, 
            "commentable_type": "Proposal", 
            "created_at": "14/04/2016 17:29:44", 
            "flagged": false, 
            "hidden": false, 
            "id": 16094, 
            "moderator_id": null, 
            "permissions": {
                "hide": false, 
                "hide_author": false, 
                "vote": false
            }, 
            "total_dislikes": 0, 
            "total_likes": 0, 
            "total_votes": 0
        }, 
        {
            "administrator_id": null, 
            "alignment": 0, 
            "ancestry": null, 
            "as": null, 
            "author": {
                "avatar_image": "https://decidim.barcelona/assets/avatar-866795c99abc33a3160d1f3fa93ada46eb75e54134e777666b9ed16215b26534.png", 
                "erased": false, 
                "hidden": false, 
                "id": 9262, 
                "name": "Suport General - Decidim Barcelona", 
                "official": false, 
                "official_level": 0, 
                "role": null, 
                "verified_organization": null
            }, 
            "body": "<p><a href=\"https://decidim.barcelona/proposals/millorar-l-entorn-i-potenciar-el-comerc-al-carrer-gran-de-sant-andreu-des-de-joan-torras-cap-a-palomar\">https://decidim.barcelona/proposals/millorar-l-entorn-i-potenciar-el-comerc-al-carrer-gran-de-sant-andreu-des-de-joan-torras-cap-a-palomar</a></p>", 
            "commentable_id": 814, 
            "commentable_type": "Proposal", 
            "created_at": "15/04/2016 13:22:42", 
            "flagged": false, 
            "hidden": false, 
            "id": 17020, 
            "moderator_id": null, 
            "permissions": {
                "hide": false, 
                "hide_author": false, 
                "vote": false
            }, 
            "total_dislikes": 0, 
            "total_likes": 0, 
            "total_votes": 0
        }, 
        {
            "administrator_id": null, 
            "alignment": 0, 
            "ancestry": null, 
            "as": null, 
            "author": {
                "avatar_image": "https://decidim.barcelona/assets/avatar-866795c99abc33a3160d1f3fa93ada46eb75e54134e777666b9ed16215b26534.png", 
                "erased": false, 
                "hidden": false, 
                "id": 9262, 
                "name": "Suport General - Decidim Barcelona", 
                "official": false, 
                "official_level": 0, 
                "role": null, 
                "verified_organization": null
            }, 
            "body": "<p><a href=\"https://decidim.barcelona/proposals/fer-la-vorera-del-carrer-gran-de-sant-andreu-una-mica-mes-ampla\">https://decidim.barcelona/proposals/fer-la-vorera-del-carrer-gran-de-sant-andreu-una-mica-mes-ampla</a></p>", 
            "commentable_id": 814, 
            "commentable_type": "Proposal", 
            "created_at": "15/04/2016 13:23:02", 
            "flagged": false, 
            "hidden": false, 
            "id": 17021, 
            "moderator_id": null, 
            "permissions": {
                "hide": false, 
                "hide_author": false, 
                "vote": false
            }, 
            "total_dislikes": 0, 
            "total_likes": 0, 
            "total_votes": 0
        }, 
        {
            "administrator_id": null, 
            "alignment": 0, 
            "ancestry": null, 
            "as": null, 
            "author": {
                "avatar_image": "https://decidim.barcelona/assets/avatar-866795c99abc33a3160d1f3fa93ada46eb75e54134e777666b9ed16215b26534.png", 
                "erased": false, 
                "hidden": false, 
                "id": 9262, 
                "name": "Suport General - Decidim Barcelona", 
                "official": false, 
                "official_level": 0, 
                "role": null, 
                "verified_organization": null
            }, 
            "body": "<p><a href=\"https://decidim.barcelona/proposals/millora-de-l-enllumenat\">https://decidim.barcelona/proposals/millora-de-l-enllumenat</a></p>", 
            "commentable_id": 814, 
            "commentable_type": "Proposal", 
            "created_at": "17/04/2016 10:45:49", 
            "flagged": false, 
            "hidden": false, 
            "id": 18486, 
            "moderator_id": null, 
            "permissions": {
                "hide": false, 
                "hide_author": false, 
                "vote": false
            }, 
            "total_dislikes": 0, 
            "total_likes": 0, 
            "total_votes": 0
        }, 
        {
            "administrator_id": null, 
            "alignment": 0, 
            "ancestry": null, 
            "as": null, 
            "author": {
                "avatar_image": "https://decidim.barcelona/assets/avatar-866795c99abc33a3160d1f3fa93ada46eb75e54134e777666b9ed16215b26534.png", 
                "erased": false, 
                "hidden": false, 
                "id": 9262, 
                "name": "Suport General - Decidim Barcelona", 
                "official": false, 
                "official_level": 0, 
                "role": null, 
                "verified_organization": null
            }, 
            "body": "<p><a href=\"https://decidim.barcelona/proposals/habilitar-un-espai-on-poder-ballar-i-escoltar-musica-a-la-placa-ferran-reyes\">https://decidim.barcelona/proposals/habilitar-un-espai-on-poder-ballar-i-escoltar-musica-a-la-placa-ferran-reyes</a></p>", 
            "commentable_id": 814, 
            "commentable_type": "Proposal", 
            "created_at": "17/04/2016 10:45:58", 
            "flagged": false, 
            "hidden": false, 
            "id": 18487, 
            "moderator_id": null, 
            "permissions": {
                "hide": false, 
                "hide_author": false, 
                "vote": false
            }, 
            "total_dislikes": 0, 
            "total_likes": 0, 
            "total_votes": 0
        }, 
        {
            "administrator_id": null, 
            "alignment": 0, 
            "ancestry": null, 
            "as": null, 
            "author": {
                "avatar_image": "https://decidim.barcelona/assets/avatar-866795c99abc33a3160d1f3fa93ada46eb75e54134e777666b9ed16215b26534.png", 
                "erased": false, 
                "hidden": false, 
                "id": 9262, 
                "name": "Suport General - Decidim Barcelona", 
                "official": false, 
                "official_level": 0, 
                "role": null, 
                "verified_organization": null
            }, 
            "body": "<p><a href=\"https://decidim.barcelona/proposals/pavimentacio-neteja-i-il-luminacio-del-cami-de-sorra-que-va-des-de-parc-de-la-trinitat-a-via-de-barcino\">https://decidim.barcelona/proposals/pavimentacio-neteja-i-il-luminacio-del-cami-de-sorra-que-va-des-de-parc-de-la-trinitat-a-via-de-barcino</a></p>", 
            "commentable_id": 814, 
            "commentable_type": "Proposal", 
            "created_at": "17/04/2016 10:46:05", 
            "flagged": false, 
            "hidden": false, 
            "id": 18488, 
            "moderator_id": null, 
            "permissions": {
                "hide": false, 
                "hide_author": false, 
                "vote": false
            }, 
            "total_dislikes": 0, 
            "total_likes": 0, 
            "total_votes": 0
        }, 
        {
            "administrator_id": null, 
            "alignment": 0, 
            "ancestry": null, 
            "as": null, 
            "author": {
                "avatar_image": "https://decidim.barcelona/assets/avatar-866795c99abc33a3160d1f3fa93ada46eb75e54134e777666b9ed16215b26534.png", 
                "erased": false, 
                "hidden": false, 
                "id": 9262, 
                "name": "Suport General - Decidim Barcelona", 
                "official": false, 
                "official_level": 0, 
                "role": null, 
                "verified_organization": null
            }, 
            "body": "<p><a href=\"https://decidim.barcelona/proposals/exigir-el-compliment-de-les-ratios-dels-equipaments\">https://decidim.barcelona/proposals/exigir-el-compliment-de-les-ratios-dels-equipaments</a></p>", 
            "commentable_id": 814, 
            "commentable_type": "Proposal", 
            "created_at": "17/04/2016 10:46:12", 
            "flagged": false, 
            "hidden": false, 
            "id": 18489, 
            "moderator_id": null, 
            "permissions": {
                "hide": false, 
                "hide_author": false, 
                "vote": false
            }, 
            "total_dislikes": 0, 
            "total_likes": 0, 
            "total_votes": 0
        }, 
        {
            "administrator_id": null, 
            "alignment": 0, 
            "ancestry": null, 
            "as": null, 
            "author": {
                "avatar_image": "https://decidim.barcelona/assets/avatar-866795c99abc33a3160d1f3fa93ada46eb75e54134e777666b9ed16215b26534.png", 
                "erased": false, 
                "hidden": false, 
                "id": 9262, 
                "name": "Suport General - Decidim Barcelona", 
                "official": false, 
                "official_level": 0, 
                "role": null, 
                "verified_organization": null
            }, 
            "body": "<p><a href=\"https://decidim.barcelona/proposals/projecte-i-execucio-l-espai-sociocultural-i-esportiu-hondures-estivill\">https://decidim.barcelona/proposals/projecte-i-execucio-l-espai-sociocultural-i-esportiu-hondures-estivill</a></p>", 
            "commentable_id": 814, 
            "commentable_type": "Proposal", 
            "created_at": "17/04/2016 10:46:18", 
            "flagged": false, 
            "hidden": false, 
            "id": 18490, 
            "moderator_id": null, 
            "permissions": {
                "hide": false, 
                "hide_author": false, 
                "vote": false
            }, 
            "total_dislikes": 0, 
            "total_likes": 0, 
            "total_votes": 0
        }, 
        {
            "administrator_id": null, 
            "alignment": 0, 
            "ancestry": null, 
            "as": null, 
            "author": {
                "avatar_image": "https://decidim.barcelona/assets/avatar-866795c99abc33a3160d1f3fa93ada46eb75e54134e777666b9ed16215b26534.png", 
                "erased": false, 
                "hidden": false, 
                "id": 9262, 
                "name": "Suport General - Decidim Barcelona", 
                "official": false, 
                "official_level": 0, 
                "role": null, 
                "verified_organization": null
            }, 
            "body": "<p><a href=\"https://decidim.barcelona/proposals/vorera-fabra-i-puig-entre-meridiana-i-concepcio-arenal\">https://decidim.barcelona/proposals/vorera-fabra-i-puig-entre-meridiana-i-concepcio-arenal</a></p>", 
            "commentable_id": 814, 
            "commentable_type": "Proposal", 
            "created_at": "17/04/2016 10:46:26", 
            "flagged": false, 
            "hidden": false, 
            "id": 18491, 
            "moderator_id": null, 
            "permissions": {
                "hide": false, 
                "hide_author": false, 
                "vote": false
            }, 
            "total_dislikes": 0, 
            "total_likes": 0, 
            "total_votes": 0
        }, 
        {
            "administrator_id": null, 
            "alignment": 0, 
            "ancestry": null, 
            "as": null, 
            "author": {
                "avatar_image": "https://decidim.barcelona/assets/avatar-866795c99abc33a3160d1f3fa93ada46eb75e54134e777666b9ed16215b26534.png", 
                "erased": false, 
                "hidden": false, 
                "id": 9262, 
                "name": "Suport General - Decidim Barcelona", 
                "official": false, 
                "official_level": 0, 
                "role": null, 
                "verified_organization": null
            }, 
            "body": "<p><a href=\"https://decidim.barcelona/proposals/adequacio-i-millora-de-la-placa-de-les-palmeres-a-sant-andreu-la-placa-i-el-parc-es-troben-en-un-estat-lamentable\">https://decidim.barcelona/proposals/adequacio-i-millora-de-la-placa-de-les-palmeres-a-sant-andreu-la-placa-i-el-parc-es-troben-en-un-estat-lamentable</a></p>", 
            "commentable_id": 814, 
            "commentable_type": "Proposal", 
            "created_at": "17/04/2016 10:46:33", 
            "flagged": false, 
            "hidden": false, 
            "id": 18492, 
            "moderator_id": null, 
            "permissions": {
                "hide": false, 
                "hide_author": false, 
                "vote": false
            }, 
            "total_dislikes": 0, 
            "total_likes": 0, 
            "total_votes": 0
        }, 
        {
            "administrator_id": null, 
            "alignment": 0, 
            "ancestry": null, 
            "as": null, 
            "author": {
                "avatar_image": "https://decidim.barcelona/assets/avatar-866795c99abc33a3160d1f3fa93ada46eb75e54134e777666b9ed16215b26534.png", 
                "erased": false, 
                "hidden": false, 
                "id": 9262, 
                "name": "Suport General - Decidim Barcelona", 
                "official": false, 
                "official_level": 0, 
                "role": null, 
                "verified_organization": null
            }, 
            "body": "<p><a href=\"https://decidim.barcelona/proposals/arranjament-placa-masadas\">https://decidim.barcelona/proposals/arranjament-placa-masadas</a></p>", 
            "commentable_id": 814, 
            "commentable_type": "Proposal", 
            "created_at": "17/04/2016 10:46:41", 
            "flagged": false, 
            "hidden": false, 
            "id": 18493, 
            "moderator_id": null, 
            "permissions": {
                "hide": false, 
                "hide_author": false, 
                "vote": false
            }, 
            "total_dislikes": 0, 
            "total_likes": 0, 
            "total_votes": 0
        }
    ], 
    "meta": {
        "current_page": 2, 
        "next_page": null, 
        "prev_page": 1, 
        "total_count": 32, 
        "total_pages": 2
    }
}