{
    "comments": [
        {
            "administrator_id": null, 
            "alignment": 1, 
            "ancestry": null, 
            "as": null, 
            "author": {
                "avatar_image": "https://decidim.barcelona/assets/avatar-866795c99abc33a3160d1f3fa93ada46eb75e54134e777666b9ed16215b26534.png", 
                "erased": false, 
                "hidden": false, 
                "id": 177, 
                "name": "Margarida", 
                "official": false, 
                "official_level": 0, 
                "role": null, 
                "verified_organization": null
            }, 
            "body": "<p>Vida Independent no pot ser un programa, ha de ser un eix vertebral pol\u00edtic, social i econ\u00f2mic. Quan parlem de Vida Independent, parlem de desinstitucionalitzaci\u00f3 familiar i residencial, parlem d'habitatge accessible i assist\u00e8ncia personal, parlem d'educaci\u00f3 inclusiva, parlem de suports i recursos per l'alumnat, parlem de convivencia, d'accessibilitat universal al transport, al comer\u00e7, al lleure, a tot arreu, a tots els serveis. Vida Independent \u00e9s un canvi conscient en la mirada i el valor que es d\u00f3na a les persones amb diversitat funcional.</p>", 
            "commentable_id": 851, 
            "commentable_type": "Proposal", 
            "created_at": "01/02/2016 13:18:03", 
            "flagged": false, 
            "hidden": false, 
            "id": 44, 
            "moderator_id": null, 
            "permissions": {
                "hide": false, 
                "hide_author": false, 
                "vote": false
            }, 
            "total_dislikes": 0, 
            "total_likes": 0, 
            "total_votes": 0
        }, 
        {
            "administrator_id": null, 
            "alignment": 0, 
            "ancestry": null, 
            "as": null, 
            "author": {
                "avatar_image": "https://decidim.barcelona/assets/avatar-866795c99abc33a3160d1f3fa93ada46eb75e54134e777666b9ed16215b26534.png", 
                "erased": false, 
                "hidden": false, 
                "id": 17740, 
                "name": "Suport General2 - Decidim Barcelona", 
                "official": false, 
                "official_level": 0, 
                "role": null, 
                "verified_organization": null
            }, 
            "body": "<p><a href=\"https://decidim.barcelona/proposals/recuperacio-prestacio-economica-addicional-assistencia-personal\">https://decidim.barcelona/proposals/recuperacio-prestacio-economica-addicional-assistencia-personal</a></p>", 
            "commentable_id": 851, 
            "commentable_type": "Proposal", 
            "created_at": "06/04/2016 12:33:14", 
            "flagged": false, 
            "hidden": false, 
            "id": 8389, 
            "moderator_id": null, 
            "permissions": {
                "hide": false, 
                "hide_author": false, 
                "vote": false
            }, 
            "total_dislikes": 0, 
            "total_likes": 0, 
            "total_votes": 0
        }, 
        {
            "administrator_id": null, 
            "alignment": 0, 
            "ancestry": null, 
            "as": null, 
            "author": {
                "avatar_image": "https://decidim.barcelona/assets/avatar-866795c99abc33a3160d1f3fa93ada46eb75e54134e777666b9ed16215b26534.png", 
                "erased": false, 
                "hidden": false, 
                "id": 17740, 
                "name": "Suport General2 - Decidim Barcelona", 
                "official": false, 
                "official_level": 0, 
                "role": null, 
                "verified_organization": null
            }, 
            "body": "<p><a href=\"https://decidim.barcelona/proposals/promoure-una-teleassistencia-permanent-mobil-i-no-unicament-lligada-a-un-domicili-sino-a-la-persona\">https://decidim.barcelona/proposals/promoure-una-teleassistencia-permanent-mobil-i-no-unicament-lligada-a-un-domicili-sino-a-la-persona</a></p>", 
            "commentable_id": 851, 
            "commentable_type": "Proposal", 
            "created_at": "06/04/2016 17:51:11", 
            "flagged": false, 
            "hidden": false, 
            "id": 8775, 
            "moderator_id": null, 
            "permissions": {
                "hide": false, 
                "hide_author": false, 
                "vote": false
            }, 
            "total_dislikes": 0, 
            "total_likes": 0, 
            "total_votes": 0
        }, 
        {
            "administrator_id": null, 
            "alignment": 0, 
            "ancestry": null, 
            "as": null, 
            "author": {
                "avatar_image": "https://decidim.barcelona/assets/avatar-866795c99abc33a3160d1f3fa93ada46eb75e54134e777666b9ed16215b26534.png", 
                "erased": false, 
                "hidden": false, 
                "id": 9262, 
                "name": "Suport General - Decidim Barcelona", 
                "official": false, 
                "official_level": 0, 
                "role": null, 
                "verified_organization": null
            }, 
            "body": "<p><a href=\"https://decidim.barcelona/proposals/servei-d-assistents-personal-mes-assequible\">https://decidim.barcelona/proposals/servei-d-assistents-personal-mes-assequible</a></p>", 
            "commentable_id": 851, 
            "commentable_type": "Proposal", 
            "created_at": "07/04/2016 18:36:58", 
            "flagged": false, 
            "hidden": false, 
            "id": 9883, 
            "moderator_id": null, 
            "permissions": {
                "hide": false, 
                "hide_author": false, 
                "vote": false
            }, 
            "total_dislikes": 0, 
            "total_likes": 0, 
            "total_votes": 0
        }, 
        {
            "administrator_id": null, 
            "alignment": 0, 
            "ancestry": null, 
            "as": null, 
            "author": {
                "avatar_image": "https://decidim.barcelona/assets/avatar-866795c99abc33a3160d1f3fa93ada46eb75e54134e777666b9ed16215b26534.png", 
                "erased": false, 
                "hidden": false, 
                "id": 9262, 
                "name": "Suport General - Decidim Barcelona", 
                "official": false, 
                "official_level": 0, 
                "role": null, 
                "verified_organization": null
            }, 
            "body": "<p><a href=\"https://decidim.barcelona/proposals/recolzar-les-experiencies-pilot-d-implementacio-del-model-de-l-aicp\">https://decidim.barcelona/proposals/recolzar-les-experiencies-pilot-d-implementacio-del-model-de-l-aicp</a></p>", 
            "commentable_id": 851, 
            "commentable_type": "Proposal", 
            "created_at": "07/04/2016 18:50:04", 
            "flagged": false, 
            "hidden": false, 
            "id": 9898, 
            "moderator_id": null, 
            "permissions": {
                "hide": false, 
                "hide_author": false, 
                "vote": false
            }, 
            "total_dislikes": 0, 
            "total_likes": 0, 
            "total_votes": 0
        }, 
        {
            "administrator_id": null, 
            "alignment": 0, 
            "ancestry": null, 
            "as": null, 
            "author": {
                "avatar_image": "https://decidim.barcelona/assets/avatar-866795c99abc33a3160d1f3fa93ada46eb75e54134e777666b9ed16215b26534.png", 
                "erased": false, 
                "hidden": false, 
                "id": 9262, 
                "name": "Suport General - Decidim Barcelona", 
                "official": false, 
                "official_level": 0, 
                "role": null, 
                "verified_organization": null
            }, 
            "body": "<p><a href=\"https://decidim.barcelona/proposals/compensacions-economiques-per-tasques-que-suposen-un-estalvi-public-com-les-cures-a-persones-grans\">https://decidim.barcelona/proposals/compensacions-economiques-per-tasques-que-suposen-un-estalvi-public-com-les-cures-a-persones-grans</a></p>", 
            "commentable_id": 851, 
            "commentable_type": "Proposal", 
            "created_at": "07/04/2016 18:53:03", 
            "flagged": false, 
            "hidden": false, 
            "id": 9900, 
            "moderator_id": null, 
            "permissions": {
                "hide": false, 
                "hide_author": false, 
                "vote": false
            }, 
            "total_dislikes": 0, 
            "total_likes": 0, 
            "total_votes": 0
        }, 
        {
            "administrator_id": null, 
            "alignment": 0, 
            "ancestry": null, 
            "as": null, 
            "author": {
                "avatar_image": "https://decidim.barcelona/assets/avatar-866795c99abc33a3160d1f3fa93ada46eb75e54134e777666b9ed16215b26534.png", 
                "erased": false, 
                "hidden": false, 
                "id": 9262, 
                "name": "Suport General - Decidim Barcelona", 
                "official": false, 
                "official_level": 0, 
                "role": null, 
                "verified_organization": null
            }, 
            "body": "<p><a href=\"https://decidim.barcelona/proposals/donar-suport-a-les-cures-compartides-comunitaries\">https://decidim.barcelona/proposals/donar-suport-a-les-cures-compartides-comunitaries</a></p>", 
            "commentable_id": 851, 
            "commentable_type": "Proposal", 
            "created_at": "07/04/2016 18:55:23", 
            "flagged": false, 
            "hidden": false, 
            "id": 9902, 
            "moderator_id": null, 
            "permissions": {
                "hide": false, 
                "hide_author": false, 
                "vote": false
            }, 
            "total_dislikes": 0, 
            "total_likes": 0, 
            "total_votes": 0
        }, 
        {
            "administrator_id": null, 
            "alignment": 0, 
            "ancestry": null, 
            "as": null, 
            "author": {
                "avatar_image": "https://decidim.barcelona/assets/avatar-866795c99abc33a3160d1f3fa93ada46eb75e54134e777666b9ed16215b26534.png", 
                "erased": false, 
                "hidden": false, 
                "id": 9262, 
                "name": "Suport General - Decidim Barcelona", 
                "official": false, 
                "official_level": 0, 
                "role": null, 
                "verified_organization": null
            }, 
            "body": "<p><a href=\"https://decidim.barcelona/proposals/fer-accessibles-per-part-de-l-ajuntament-iniciatives-d-autocura\">https://decidim.barcelona/proposals/fer-accessibles-per-part-de-l-ajuntament-iniciatives-d-autocura</a></p>", 
            "commentable_id": 851, 
            "commentable_type": "Proposal", 
            "created_at": "07/04/2016 18:55:54", 
            "flagged": false, 
            "hidden": false, 
            "id": 9903, 
            "moderator_id": null, 
            "permissions": {
                "hide": false, 
                "hide_author": false, 
                "vote": false
            }, 
            "total_dislikes": 0, 
            "total_likes": 0, 
            "total_votes": 0
        }, 
        {
            "administrator_id": null, 
            "alignment": 0, 
            "ancestry": null, 
            "as": null, 
            "author": {
                "avatar_image": "https://decidim.barcelona/assets/avatar-866795c99abc33a3160d1f3fa93ada46eb75e54134e777666b9ed16215b26534.png", 
                "erased": false, 
                "hidden": false, 
                "id": 9262, 
                "name": "Suport General - Decidim Barcelona", 
                "official": false, 
                "official_level": 0, 
                "role": null, 
                "verified_organization": null
            }, 
            "body": "<p><a href=\"https://decidim.barcelona/proposals/incrementar-l-atencio-a-persones-amb-discapacitat-i-mobilitat-reduida-en-situacio-de-solitud\">https://decidim.barcelona/proposals/incrementar-l-atencio-a-persones-amb-discapacitat-i-mobilitat-reduida-en-situacio-de-solitud</a></p>", 
            "commentable_id": 851, 
            "commentable_type": "Proposal", 
            "created_at": "07/04/2016 18:57:33", 
            "flagged": false, 
            "hidden": false, 
            "id": 9905, 
            "moderator_id": null, 
            "permissions": {
                "hide": false, 
                "hide_author": false, 
                "vote": false
            }, 
            "total_dislikes": 0, 
            "total_likes": 0, 
            "total_votes": 0
        }, 
        {
            "administrator_id": null, 
            "alignment": 0, 
            "ancestry": null, 
            "as": null, 
            "author": {
                "avatar_image": "https://decidim.barcelona/assets/avatar-866795c99abc33a3160d1f3fa93ada46eb75e54134e777666b9ed16215b26534.png", 
                "erased": false, 
                "hidden": false, 
                "id": 9262, 
                "name": "Suport General - Decidim Barcelona", 
                "official": false, 
                "official_level": 0, 
                "role": null, 
                "verified_organization": null
            }, 
            "body": "<p><a href=\"https://decidim.barcelona/proposals/ajudes-tecniques-visuals-i-auditives\">https://decidim.barcelona/proposals/ajudes-tecniques-visuals-i-auditives</a></p>", 
            "commentable_id": 851, 
            "commentable_type": "Proposal", 
            "created_at": "07/04/2016 19:07:21", 
            "flagged": false, 
            "hidden": false, 
            "id": 9916, 
            "moderator_id": null, 
            "permissions": {
                "hide": false, 
                "hide_author": false, 
                "vote": false
            }, 
            "total_dislikes": 0, 
            "total_likes": 0, 
            "total_votes": 0
        }, 
        {
            "administrator_id": null, 
            "alignment": 0, 
            "ancestry": null, 
            "as": null, 
            "author": {
                "avatar_image": "https://decidim.barcelona/assets/avatar-866795c99abc33a3160d1f3fa93ada46eb75e54134e777666b9ed16215b26534.png", 
                "erased": false, 
                "hidden": false, 
                "id": 9262, 
                "name": "Suport General - Decidim Barcelona", 
                "official": false, 
                "official_level": 0, 
                "role": null, 
                "verified_organization": null
            }, 
            "body": "<p><a href=\"https://decidim.barcelona/proposals/targeta-rosa-de-transport-public-no-vinculant-a-grau-de-discapacitat\">https://decidim.barcelona/proposals/targeta-rosa-de-transport-public-no-vinculant-a-grau-de-discapacitat</a></p>", 
            "commentable_id": 851, 
            "commentable_type": "Proposal", 
            "created_at": "07/04/2016 19:20:24", 
            "flagged": false, 
            "hidden": false, 
            "id": 9941, 
            "moderator_id": null, 
            "permissions": {
                "hide": false, 
                "hide_author": false, 
                "vote": false
            }, 
            "total_dislikes": 0, 
            "total_likes": 0, 
            "total_votes": 0
        }, 
        {
            "administrator_id": null, 
            "alignment": 0, 
            "ancestry": null, 
            "as": null, 
            "author": {
                "avatar_image": "https://decidim.barcelona/assets/avatar-866795c99abc33a3160d1f3fa93ada46eb75e54134e777666b9ed16215b26534.png", 
                "erased": false, 
                "hidden": false, 
                "id": 9262, 
                "name": "Suport General - Decidim Barcelona", 
                "official": false, 
                "official_level": 0, 
                "role": null, 
                "verified_organization": null
            }, 
            "body": "<p><a href=\"https://decidim.barcelona/proposals/assistencia-personal-i-domiciliaria-segons-les-necessitats-de-les-persones-amb-diversitat-funcional\">https://decidim.barcelona/proposals/assistencia-personal-i-domiciliaria-segons-les-necessitats-de-les-persones-amb-diversitat-funcional</a></p>", 
            "commentable_id": 851, 
            "commentable_type": "Proposal", 
            "created_at": "07/04/2016 19:23:28", 
            "flagged": false, 
            "hidden": false, 
            "id": 9955, 
            "moderator_id": null, 
            "permissions": {
                "hide": false, 
                "hide_author": false, 
                "vote": false
            }, 
            "total_dislikes": 0, 
            "total_likes": 0, 
            "total_votes": 0
        }, 
        {
            "administrator_id": null, 
            "alignment": 0, 
            "ancestry": null, 
            "as": null, 
            "author": {
                "avatar_image": "https://decidim.barcelona/assets/avatar-866795c99abc33a3160d1f3fa93ada46eb75e54134e777666b9ed16215b26534.png", 
                "erased": false, 
                "hidden": false, 
                "id": 9262, 
                "name": "Suport General - Decidim Barcelona", 
                "official": false, 
                "official_level": 0, 
                "role": null, 
                "verified_organization": null
            }, 
            "body": "<p><a href=\"https://decidim.barcelona/proposals/creacio-de-cooperatives-d-habitatge-de-vida-independent\">https://decidim.barcelona/proposals/creacio-de-cooperatives-d-habitatge-de-vida-independent</a></p>", 
            "commentable_id": 851, 
            "commentable_type": "Proposal", 
            "created_at": "07/04/2016 19:28:52", 
            "flagged": false, 
            "hidden": false, 
            "id": 9972, 
            "moderator_id": null, 
            "permissions": {
                "hide": false, 
                "hide_author": false, 
                "vote": false
            }, 
            "total_dislikes": 0, 
            "total_likes": 0, 
            "total_votes": 0
        }, 
        {
            "administrator_id": null, 
            "alignment": 0, 
            "ancestry": null, 
            "as": null, 
            "author": {
                "avatar_image": "https://decidim.barcelona/assets/avatar-866795c99abc33a3160d1f3fa93ada46eb75e54134e777666b9ed16215b26534.png", 
                "erased": false, 
                "hidden": false, 
                "id": 9262, 
                "name": "Suport General - Decidim Barcelona", 
                "official": false, 
                "official_level": 0, 
                "role": null, 
                "verified_organization": null
            }, 
            "body": "<p><a href=\"https://decidim.barcelona/proposals/promoure-una-millora-de-la-implementacio-de-la-llei-de-dependencia\">https://decidim.barcelona/proposals/promoure-una-millora-de-la-implementacio-de-la-llei-de-dependencia</a></p>", 
            "commentable_id": 851, 
            "commentable_type": "Proposal", 
            "created_at": "07/04/2016 19:33:15", 
            "flagged": false, 
            "hidden": false, 
            "id": 9981, 
            "moderator_id": null, 
            "permissions": {
                "hide": false, 
                "hide_author": false, 
                "vote": false
            }, 
            "total_dislikes": 0, 
            "total_likes": 0, 
            "total_votes": 0
        }, 
        {
            "administrator_id": null, 
            "alignment": 0, 
            "ancestry": null, 
            "as": null, 
            "author": {
                "avatar_image": "https://decidim.barcelona/assets/avatar-866795c99abc33a3160d1f3fa93ada46eb75e54134e777666b9ed16215b26534.png", 
                "erased": false, 
                "hidden": false, 
                "id": 9262, 
                "name": "Suport General - Decidim Barcelona", 
                "official": false, 
                "official_level": 0, 
                "role": null, 
                "verified_organization": null
            }, 
            "body": "<p><a href=\"https://decidim.barcelona/proposals/aplicar-el-copagament-al-servei-d-atencio-domiciliaria-municipal\">https://decidim.barcelona/proposals/aplicar-el-copagament-al-servei-d-atencio-domiciliaria-municipal</a></p>", 
            "commentable_id": 851, 
            "commentable_type": "Proposal", 
            "created_at": "07/04/2016 19:34:07", 
            "flagged": false, 
            "hidden": false, 
            "id": 9983, 
            "moderator_id": null, 
            "permissions": {
                "hide": false, 
                "hide_author": false, 
                "vote": false
            }, 
            "total_dislikes": 0, 
            "total_likes": 0, 
            "total_votes": 0
        }, 
        {
            "administrator_id": null, 
            "alignment": 0, 
            "ancestry": null, 
            "as": null, 
            "author": {
                "avatar_image": "https://decidim.barcelona/assets/avatar-866795c99abc33a3160d1f3fa93ada46eb75e54134e777666b9ed16215b26534.png", 
                "erased": false, 
                "hidden": false, 
                "id": 9262, 
                "name": "Suport General - Decidim Barcelona", 
                "official": false, 
                "official_level": 0, 
                "role": null, 
                "verified_organization": null
            }, 
            "body": "<p><a href=\"https://decidim.barcelona/proposals/habitatges-amb-serveis-comuns\">https://decidim.barcelona/proposals/habitatges-amb-serveis-comuns</a></p>", 
            "commentable_id": 851, 
            "commentable_type": "Proposal", 
            "created_at": "07/04/2016 19:37:30", 
            "flagged": false, 
            "hidden": false, 
            "id": 9989, 
            "moderator_id": null, 
            "permissions": {
                "hide": false, 
                "hide_author": false, 
                "vote": false
            }, 
            "total_dislikes": 0, 
            "total_likes": 0, 
            "total_votes": 0
        }, 
        {
            "administrator_id": null, 
            "alignment": 0, 
            "ancestry": null, 
            "as": null, 
            "author": {
                "avatar_image": "https://decidim.barcelona/assets/avatar-866795c99abc33a3160d1f3fa93ada46eb75e54134e777666b9ed16215b26534.png", 
                "erased": false, 
                "hidden": false, 
                "id": 9262, 
                "name": "Suport General - Decidim Barcelona", 
                "official": false, 
                "official_level": 0, 
                "role": null, 
                "verified_organization": null
            }, 
            "body": "<p><a href=\"https://decidim.barcelona/proposals/ampliar-el-servei-de-tele-assistencia-adaptada-per-a-persones-sense-mobilitat-a-les-extremitats-superiors\">https://decidim.barcelona/proposals/ampliar-el-servei-de-tele-assistencia-adaptada-per-a-persones-sense-mobilitat-a-les-extremitats-superiors</a></p>", 
            "commentable_id": 851, 
            "commentable_type": "Proposal", 
            "created_at": "07/04/2016 19:38:34", 
            "flagged": false, 
            "hidden": false, 
            "id": 9991, 
            "moderator_id": null, 
            "permissions": {
                "hide": false, 
                "hide_author": false, 
                "vote": false
            }, 
            "total_dislikes": 0, 
            "total_likes": 0, 
            "total_votes": 0
        }, 
        {
            "administrator_id": null, 
            "alignment": 0, 
            "ancestry": null, 
            "as": null, 
            "author": {
                "avatar_image": "https://decidim.barcelona/assets/avatar-866795c99abc33a3160d1f3fa93ada46eb75e54134e777666b9ed16215b26534.png", 
                "erased": false, 
                "hidden": false, 
                "id": 9262, 
                "name": "Suport General - Decidim Barcelona", 
                "official": false, 
                "official_level": 0, 
                "role": null, 
                "verified_organization": null
            }, 
            "body": "<p><a href=\"https://decidim.barcelona/proposals/impulsar-la-xarxa-xib-d-insercio-laboral-per-a-les-persones-amb-diversitat-funcional\">https://decidim.barcelona/proposals/impulsar-la-xarxa-xib-d-insercio-laboral-per-a-les-persones-amb-diversitat-funcional</a></p>", 
            "commentable_id": 851, 
            "commentable_type": "Proposal", 
            "created_at": "07/04/2016 19:39:04", 
            "flagged": false, 
            "hidden": false, 
            "id": 9992, 
            "moderator_id": null, 
            "permissions": {
                "hide": false, 
                "hide_author": false, 
                "vote": false
            }, 
            "total_dislikes": 0, 
            "total_likes": 0, 
            "total_votes": 0
        }, 
        {
            "administrator_id": null, 
            "alignment": 0, 
            "ancestry": null, 
            "as": null, 
            "author": {
                "avatar_image": "https://decidim.barcelona/assets/avatar-866795c99abc33a3160d1f3fa93ada46eb75e54134e777666b9ed16215b26534.png", 
                "erased": false, 
                "hidden": false, 
                "id": 9262, 
                "name": "Suport General - Decidim Barcelona", 
                "official": false, 
                "official_level": 0, 
                "role": null, 
                "verified_organization": null
            }, 
            "body": "<p><a href=\"https://decidim.barcelona/proposals/dotar-els-serveis-d-atencio-a-les-persones-amb-els-recursos-de-suport-necessaris-per-a-garantir-que-els-usuaris-del-servei-els-puguin-utilitzar-de-manera-plena\">https://decidim.barcelona/proposals/dotar-els-serveis-d-atencio-a-les-persones-amb-els-recursos-de-suport-necessaris-per-a-garantir-que-els-usuaris-del-servei-els-puguin-utilitzar-de-manera-plena</a></p>", 
            "commentable_id": 851, 
            "commentable_type": "Proposal", 
            "created_at": "07/04/2016 19:39:47", 
            "flagged": false, 
            "hidden": false, 
            "id": 9995, 
            "moderator_id": null, 
            "permissions": {
                "hide": false, 
                "hide_author": false, 
                "vote": false
            }, 
            "total_dislikes": 0, 
            "total_likes": 0, 
            "total_votes": 0
        }, 
        {
            "administrator_id": null, 
            "alignment": 0, 
            "ancestry": null, 
            "as": null, 
            "author": {
                "avatar_image": "https://decidim.barcelona/assets/avatar-866795c99abc33a3160d1f3fa93ada46eb75e54134e777666b9ed16215b26534.png", 
                "erased": false, 
                "hidden": false, 
                "id": 9262, 
                "name": "Suport General - Decidim Barcelona", 
                "official": false, 
                "official_level": 0, 
                "role": null, 
                "verified_organization": null
            }, 
            "body": "<p><a href=\"https://decidim.barcelona/proposals/facilitar-arranjaments-i-programes-d-estalvi-energetic-a-les-persones-que-desitgin-viure-en-el-seu-domicili\">https://decidim.barcelona/proposals/facilitar-arranjaments-i-programes-d-estalvi-energetic-a-les-persones-que-desitgin-viure-en-el-seu-domicili</a></p>", 
            "commentable_id": 851, 
            "commentable_type": "Proposal", 
            "created_at": "07/04/2016 19:41:51", 
            "flagged": false, 
            "hidden": false, 
            "id": 10000, 
            "moderator_id": null, 
            "permissions": {
                "hide": false, 
                "hide_author": false, 
                "vote": false
            }, 
            "total_dislikes": 0, 
            "total_likes": 0, 
            "total_votes": 0
        }
    ], 
    "meta": {
        "current_page": 1, 
        "next_page": 2, 
        "prev_page": null, 
        "total_count": 21, 
        "total_pages": 2
    }
}