{
    "comments": [
        {
            "administrator_id": null, 
            "alignment": 0, 
            "ancestry": null, 
            "as": null, 
            "author": {
                "avatar_image": "https://decidim.barcelona/assets/avatar-866795c99abc33a3160d1f3fa93ada46eb75e54134e777666b9ed16215b26534.png", 
                "erased": false, 
                "hidden": false, 
                "id": 17740, 
                "name": "Suport General2 - Decidim Barcelona", 
                "official": false, 
                "official_level": 0, 
                "role": null, 
                "verified_organization": null
            }, 
            "body": "<p><a href=\"https://decidim.barcelona/proposals/augmentar-el-nombre-de-xerrades-sobre-la-igualtat-de-genere\">https://decidim.barcelona/proposals/augmentar-el-nombre-de-xerrades-sobre-la-igualtat-de-genere</a></p>", 
            "commentable_id": 868, 
            "commentable_type": "Proposal", 
            "created_at": "07/04/2016 13:40:25", 
            "flagged": false, 
            "hidden": false, 
            "id": 9360, 
            "moderator_id": null, 
            "permissions": {
                "hide": false, 
                "hide_author": false, 
                "vote": false
            }, 
            "total_dislikes": 0, 
            "total_likes": 0, 
            "total_votes": 0
        }, 
        {
            "administrator_id": null, 
            "alignment": 0, 
            "ancestry": null, 
            "as": null, 
            "author": {
                "avatar_image": "https://decidim.barcelona/assets/avatar-866795c99abc33a3160d1f3fa93ada46eb75e54134e777666b9ed16215b26534.png", 
                "erased": false, 
                "hidden": false, 
                "id": 17740, 
                "name": "Suport General2 - Decidim Barcelona", 
                "official": false, 
                "official_level": 0, 
                "role": null, 
                "verified_organization": null
            }, 
            "body": "<p><a href=\"https://decidim.barcelona/proposals/mes-punts-d-informacio-i-assessorament-per-la-dona-piad\">https://decidim.barcelona/proposals/mes-punts-d-informacio-i-assessorament-per-la-dona-piad</a></p>", 
            "commentable_id": 868, 
            "commentable_type": "Proposal", 
            "created_at": "07/04/2016 13:50:46", 
            "flagged": false, 
            "hidden": false, 
            "id": 9386, 
            "moderator_id": null, 
            "permissions": {
                "hide": false, 
                "hide_author": false, 
                "vote": false
            }, 
            "total_dislikes": 0, 
            "total_likes": 0, 
            "total_votes": 0
        }, 
        {
            "administrator_id": null, 
            "alignment": 0, 
            "ancestry": null, 
            "as": null, 
            "author": {
                "avatar_image": "https://decidim.barcelona/assets/avatar-866795c99abc33a3160d1f3fa93ada46eb75e54134e777666b9ed16215b26534.png", 
                "erased": false, 
                "hidden": false, 
                "id": 17740, 
                "name": "Suport General2 - Decidim Barcelona", 
                "official": false, 
                "official_level": 0, 
                "role": null, 
                "verified_organization": null
            }, 
            "body": "<p><a href=\"https://decidim.barcelona/proposals/promoure-una-ocupacio-sense-desigualtats-de-genere\">https://decidim.barcelona/proposals/promoure-una-ocupacio-sense-desigualtats-de-genere</a></p>", 
            "commentable_id": 868, 
            "commentable_type": "Proposal", 
            "created_at": "07/04/2016 13:52:43", 
            "flagged": false, 
            "hidden": false, 
            "id": 9387, 
            "moderator_id": null, 
            "permissions": {
                "hide": false, 
                "hide_author": false, 
                "vote": false
            }, 
            "total_dislikes": 0, 
            "total_likes": 0, 
            "total_votes": 0
        }, 
        {
            "administrator_id": null, 
            "alignment": 0, 
            "ancestry": null, 
            "as": null, 
            "author": {
                "avatar_image": "https://decidim.barcelona/assets/avatar-866795c99abc33a3160d1f3fa93ada46eb75e54134e777666b9ed16215b26534.png", 
                "erased": false, 
                "hidden": false, 
                "id": 17740, 
                "name": "Suport General2 - Decidim Barcelona", 
                "official": false, 
                "official_level": 0, 
                "role": null, 
                "verified_organization": null
            }, 
            "body": "<p><a href=\"https://decidim.barcelona/proposals/que-les-dones-tinguin-una-participacio-mes-activa-en-el-teixit-social\">https://decidim.barcelona/proposals/que-les-dones-tinguin-una-participacio-mes-activa-en-el-teixit-social</a></p>", 
            "commentable_id": 868, 
            "commentable_type": "Proposal", 
            "created_at": "07/04/2016 14:14:22", 
            "flagged": false, 
            "hidden": false, 
            "id": 9456, 
            "moderator_id": null, 
            "permissions": {
                "hide": false, 
                "hide_author": false, 
                "vote": false
            }, 
            "total_dislikes": 0, 
            "total_likes": 0, 
            "total_votes": 0
        }, 
        {
            "administrator_id": null, 
            "alignment": 0, 
            "ancestry": null, 
            "as": null, 
            "author": {
                "avatar_image": "https://decidim.barcelona/assets/avatar-866795c99abc33a3160d1f3fa93ada46eb75e54134e777666b9ed16215b26534.png", 
                "erased": false, 
                "hidden": false, 
                "id": 17740, 
                "name": "Suport General2 - Decidim Barcelona", 
                "official": false, 
                "official_level": 0, 
                "role": null, 
                "verified_organization": null
            }, 
            "body": "<p><a href=\"https://decidim.barcelona/proposals/promoure-i-visibilitzar-aquelles-empreses-responsables-amb-la-igualtat-de-genere-i-la-conciliacio-familiar\">https://decidim.barcelona/proposals/promoure-i-visibilitzar-aquelles-empreses-responsables-amb-la-igualtat-de-genere-i-la-conciliacio-familiar</a></p>", 
            "commentable_id": 868, 
            "commentable_type": "Proposal", 
            "created_at": "07/04/2016 14:15:01", 
            "flagged": false, 
            "hidden": false, 
            "id": 9457, 
            "moderator_id": null, 
            "permissions": {
                "hide": false, 
                "hide_author": false, 
                "vote": false
            }, 
            "total_dislikes": 0, 
            "total_likes": 0, 
            "total_votes": 0
        }, 
        {
            "administrator_id": null, 
            "alignment": 0, 
            "ancestry": null, 
            "as": null, 
            "author": {
                "avatar_image": "https://decidim.barcelona/assets/avatar-866795c99abc33a3160d1f3fa93ada46eb75e54134e777666b9ed16215b26534.png", 
                "erased": false, 
                "hidden": false, 
                "id": 17740, 
                "name": "Suport General2 - Decidim Barcelona", 
                "official": false, 
                "official_level": 0, 
                "role": null, 
                "verified_organization": null
            }, 
            "body": "<p><a href=\"https://decidim.barcelona/proposals/premis-i-distincions-de-l-ajuntament-de-barcelona-inclos-en-el-pla-per-la-justicia-de-genere\">https://decidim.barcelona/proposals/premis-i-distincions-de-l-ajuntament-de-barcelona-inclos-en-el-pla-per-la-justicia-de-genere</a></p>", 
            "commentable_id": 868, 
            "commentable_type": "Proposal", 
            "created_at": "07/04/2016 14:17:15", 
            "flagged": false, 
            "hidden": false, 
            "id": 9460, 
            "moderator_id": null, 
            "permissions": {
                "hide": false, 
                "hide_author": false, 
                "vote": false
            }, 
            "total_dislikes": 0, 
            "total_likes": 0, 
            "total_votes": 0
        }, 
        {
            "administrator_id": null, 
            "alignment": 0, 
            "ancestry": null, 
            "as": null, 
            "author": {
                "avatar_image": "https://decidim.barcelona/assets/avatar-866795c99abc33a3160d1f3fa93ada46eb75e54134e777666b9ed16215b26534.png", 
                "erased": false, 
                "hidden": false, 
                "id": 17740, 
                "name": "Suport General2 - Decidim Barcelona", 
                "official": false, 
                "official_level": 0, 
                "role": null, 
                "verified_organization": null
            }, 
            "body": "<p><a href=\"https://decidim.barcelona/proposals/promoure-la-flexibilitat-del-treball\">https://decidim.barcelona/proposals/promoure-la-flexibilitat-del-treball</a></p>", 
            "commentable_id": 868, 
            "commentable_type": "Proposal", 
            "created_at": "07/04/2016 14:25:01", 
            "flagged": false, 
            "hidden": false, 
            "id": 9473, 
            "moderator_id": null, 
            "permissions": {
                "hide": false, 
                "hide_author": false, 
                "vote": false
            }, 
            "total_dislikes": 0, 
            "total_likes": 0, 
            "total_votes": 0
        }, 
        {
            "administrator_id": null, 
            "alignment": 0, 
            "ancestry": null, 
            "as": null, 
            "author": {
                "avatar_image": "https://decidim.barcelona/assets/avatar-866795c99abc33a3160d1f3fa93ada46eb75e54134e777666b9ed16215b26534.png", 
                "erased": false, 
                "hidden": false, 
                "id": 17740, 
                "name": "Suport General2 - Decidim Barcelona", 
                "official": false, 
                "official_level": 0, 
                "role": null, 
                "verified_organization": null
            }, 
            "body": "<p><a href=\"https://decidim.barcelona/proposals/anar-alla-on-estan-les-dones-i-garantir-sempre-espais-de-cura-dels-infants-per-facilitar-la-participacio-de-les-dones\">https://decidim.barcelona/proposals/anar-alla-on-estan-les-dones-i-garantir-sempre-espais-de-cura-dels-infants-per-facilitar-la-participacio-de-les-dones</a></p>", 
            "commentable_id": 868, 
            "commentable_type": "Proposal", 
            "created_at": "07/04/2016 14:35:34", 
            "flagged": false, 
            "hidden": false, 
            "id": 9488, 
            "moderator_id": null, 
            "permissions": {
                "hide": false, 
                "hide_author": false, 
                "vote": false
            }, 
            "total_dislikes": 0, 
            "total_likes": 0, 
            "total_votes": 0
        }, 
        {
            "administrator_id": null, 
            "alignment": 0, 
            "ancestry": null, 
            "as": null, 
            "author": {
                "avatar_image": "https://decidim.barcelona/assets/avatar-866795c99abc33a3160d1f3fa93ada46eb75e54134e777666b9ed16215b26534.png", 
                "erased": false, 
                "hidden": false, 
                "id": 17740, 
                "name": "Suport General2 - Decidim Barcelona", 
                "official": false, 
                "official_level": 0, 
                "role": null, 
                "verified_organization": null
            }, 
            "body": "<p><a href=\"https://decidim.barcelona/proposals/potenciar-i-subvencionar-els-processos-i-projectes-d-empoderament-i-auto-organitzacio-de-dones\">https://decidim.barcelona/proposals/potenciar-i-subvencionar-els-processos-i-projectes-d-empoderament-i-auto-organitzacio-de-dones</a></p>", 
            "commentable_id": 868, 
            "commentable_type": "Proposal", 
            "created_at": "07/04/2016 14:36:27", 
            "flagged": false, 
            "hidden": false, 
            "id": 9490, 
            "moderator_id": null, 
            "permissions": {
                "hide": false, 
                "hide_author": false, 
                "vote": false
            }, 
            "total_dislikes": 0, 
            "total_likes": 0, 
            "total_votes": 0
        }, 
        {
            "administrator_id": null, 
            "alignment": 0, 
            "ancestry": null, 
            "as": null, 
            "author": {
                "avatar_image": "https://decidim.barcelona/assets/avatar-866795c99abc33a3160d1f3fa93ada46eb75e54134e777666b9ed16215b26534.png", 
                "erased": false, 
                "hidden": false, 
                "id": 17740, 
                "name": "Suport General2 - Decidim Barcelona", 
                "official": false, 
                "official_level": 0, 
                "role": null, 
                "verified_organization": null
            }, 
            "body": "<p><a href=\"https://decidim.barcelona/proposals/garantir-l-acces-a-l-us-de-les-tecnologies-a-totes-les-dones-per-disminuir-la-bretxa-digital\">https://decidim.barcelona/proposals/garantir-l-acces-a-l-us-de-les-tecnologies-a-totes-les-dones-per-disminuir-la-bretxa-digital</a></p>", 
            "commentable_id": 868, 
            "commentable_type": "Proposal", 
            "created_at": "07/04/2016 14:41:17", 
            "flagged": false, 
            "hidden": false, 
            "id": 9495, 
            "moderator_id": null, 
            "permissions": {
                "hide": false, 
                "hide_author": false, 
                "vote": false
            }, 
            "total_dislikes": 0, 
            "total_likes": 0, 
            "total_votes": 0
        }, 
        {
            "administrator_id": null, 
            "alignment": 0, 
            "ancestry": null, 
            "as": null, 
            "author": {
                "avatar_image": "https://decidim.barcelona/assets/avatar-866795c99abc33a3160d1f3fa93ada46eb75e54134e777666b9ed16215b26534.png", 
                "erased": false, 
                "hidden": false, 
                "id": 17740, 
                "name": "Suport General2 - Decidim Barcelona", 
                "official": false, 
                "official_level": 0, 
                "role": null, 
                "verified_organization": null
            }, 
            "body": "<p><a href=\"https://decidim.barcelona/proposals/promoure-mesures-per-homologar-les-entitats-i-empreses-proveidores-de-la-formacio-als-centres-educatius-en-diversitat-sexual-i-de-genere-en-l-ambit-escolar\">https://decidim.barcelona/proposals/promoure-mesures-per-homologar-les-entitats-i-empreses-proveidores-de-la-formacio-als-centres-educatius-en-diversitat-sexual-i-de-genere-en-l-ambit-escolar</a></p>", 
            "commentable_id": 868, 
            "commentable_type": "Proposal", 
            "created_at": "07/04/2016 14:50:37", 
            "flagged": false, 
            "hidden": false, 
            "id": 9518, 
            "moderator_id": null, 
            "permissions": {
                "hide": false, 
                "hide_author": false, 
                "vote": false
            }, 
            "total_dislikes": 0, 
            "total_likes": 0, 
            "total_votes": 0
        }, 
        {
            "administrator_id": null, 
            "alignment": 0, 
            "ancestry": null, 
            "as": null, 
            "author": {
                "avatar_image": "https://decidim.barcelona/assets/avatar-866795c99abc33a3160d1f3fa93ada46eb75e54134e777666b9ed16215b26534.png", 
                "erased": false, 
                "hidden": false, 
                "id": 17740, 
                "name": "Suport General2 - Decidim Barcelona", 
                "official": false, 
                "official_level": 0, 
                "role": null, 
                "verified_organization": null
            }, 
            "body": "<p><a href=\"https://decidim.barcelona/proposals/urbanisme-amb-perspectiva-de-genere\">https://decidim.barcelona/proposals/urbanisme-amb-perspectiva-de-genere</a></p>", 
            "commentable_id": 868, 
            "commentable_type": "Proposal", 
            "created_at": "07/04/2016 16:53:28", 
            "flagged": false, 
            "hidden": false, 
            "id": 9718, 
            "moderator_id": null, 
            "permissions": {
                "hide": false, 
                "hide_author": false, 
                "vote": false
            }, 
            "total_dislikes": 0, 
            "total_likes": 0, 
            "total_votes": 0
        }, 
        {
            "administrator_id": null, 
            "alignment": 0, 
            "ancestry": null, 
            "as": null, 
            "author": {
                "avatar_image": "https://decidim.barcelona/assets/avatar-866795c99abc33a3160d1f3fa93ada46eb75e54134e777666b9ed16215b26534.png", 
                "erased": false, 
                "hidden": false, 
                "id": 17740, 
                "name": "Suport General2 - Decidim Barcelona", 
                "official": false, 
                "official_level": 0, 
                "role": null, 
                "verified_organization": null
            }, 
            "body": "<p><a href=\"https://decidim.barcelona/proposals/incloure-als-projectes-urbanistics-una-clausula-de-genere-que-es-consideri-en-el-disseny-i-es-desenvolupi-en-la-memoria-tecnica\">https://decidim.barcelona/proposals/incloure-als-projectes-urbanistics-una-clausula-de-genere-que-es-consideri-en-el-disseny-i-es-desenvolupi-en-la-memoria-tecnica</a></p>", 
            "commentable_id": 868, 
            "commentable_type": "Proposal", 
            "created_at": "07/04/2016 17:48:14", 
            "flagged": false, 
            "hidden": false, 
            "id": 9833, 
            "moderator_id": null, 
            "permissions": {
                "hide": false, 
                "hide_author": false, 
                "vote": false
            }, 
            "total_dislikes": 0, 
            "total_likes": 0, 
            "total_votes": 0
        }, 
        {
            "administrator_id": null, 
            "alignment": 0, 
            "ancestry": null, 
            "as": null, 
            "author": {
                "avatar_image": "https://decidim.barcelona/assets/avatar-866795c99abc33a3160d1f3fa93ada46eb75e54134e777666b9ed16215b26534.png", 
                "erased": false, 
                "hidden": false, 
                "id": 17740, 
                "name": "Suport General2 - Decidim Barcelona", 
                "official": false, 
                "official_level": 0, 
                "role": null, 
                "verified_organization": null
            }, 
            "body": "<p><a href=\"https://decidim.barcelona/proposals/promoure-i-facilitar-l-acces-i-el-manteniment-de-les-dones-en-el-mercat-laboral-i-sense-desigualtats\">https://decidim.barcelona/proposals/promoure-i-facilitar-l-acces-i-el-manteniment-de-les-dones-en-el-mercat-laboral-i-sense-desigualtats</a></p>", 
            "commentable_id": 868, 
            "commentable_type": "Proposal", 
            "created_at": "12/04/2016 16:49:06", 
            "flagged": false, 
            "hidden": false, 
            "id": 13900, 
            "moderator_id": null, 
            "permissions": {
                "hide": false, 
                "hide_author": false, 
                "vote": false
            }, 
            "total_dislikes": 0, 
            "total_likes": 0, 
            "total_votes": 0
        }, 
        {
            "administrator_id": null, 
            "alignment": 0, 
            "ancestry": null, 
            "as": null, 
            "author": {
                "avatar_image": "https://decidim.barcelona/assets/avatar-866795c99abc33a3160d1f3fa93ada46eb75e54134e777666b9ed16215b26534.png", 
                "erased": false, 
                "hidden": false, 
                "id": 17740, 
                "name": "Suport General2 - Decidim Barcelona", 
                "official": false, 
                "official_level": 0, 
                "role": null, 
                "verified_organization": null
            }, 
            "body": "<p><a href=\"https://decidim.barcelona/proposals/promoure-la-participacio-politica-de-les-dones\">https://decidim.barcelona/proposals/promoure-la-participacio-politica-de-les-dones</a></p>", 
            "commentable_id": 868, 
            "commentable_type": "Proposal", 
            "created_at": "12/04/2016 16:51:13", 
            "flagged": false, 
            "hidden": false, 
            "id": 13902, 
            "moderator_id": null, 
            "permissions": {
                "hide": false, 
                "hide_author": false, 
                "vote": false
            }, 
            "total_dislikes": 0, 
            "total_likes": 0, 
            "total_votes": 0
        }, 
        {
            "administrator_id": null, 
            "alignment": 0, 
            "ancestry": null, 
            "as": null, 
            "author": {
                "avatar_image": "https://decidim.barcelona/assets/avatar-866795c99abc33a3160d1f3fa93ada46eb75e54134e777666b9ed16215b26534.png", 
                "erased": false, 
                "hidden": false, 
                "id": 17740, 
                "name": "Suport General2 - Decidim Barcelona", 
                "official": false, 
                "official_level": 0, 
                "role": null, 
                "verified_organization": null
            }, 
            "body": "<p><a href=\"https://decidim.barcelona/proposals/empoderar-totes-les-dones-reforcar-idea-de-ciutadanes-especial-atencio-a-les-minories-etniques\">https://decidim.barcelona/proposals/empoderar-totes-les-dones-reforcar-idea-de-ciutadanes-especial-atencio-a-les-minories-etniques</a></p>", 
            "commentable_id": 868, 
            "commentable_type": "Proposal", 
            "created_at": "12/04/2016 17:16:38", 
            "flagged": false, 
            "hidden": false, 
            "id": 13956, 
            "moderator_id": null, 
            "permissions": {
                "hide": false, 
                "hide_author": false, 
                "vote": false
            }, 
            "total_dislikes": 0, 
            "total_likes": 0, 
            "total_votes": 0
        }, 
        {
            "administrator_id": null, 
            "alignment": 0, 
            "ancestry": null, 
            "as": null, 
            "author": {
                "avatar_image": "https://decidim.barcelona/assets/avatar-866795c99abc33a3160d1f3fa93ada46eb75e54134e777666b9ed16215b26534.png", 
                "erased": false, 
                "hidden": false, 
                "id": 17740, 
                "name": "Suport General2 - Decidim Barcelona", 
                "official": false, 
                "official_level": 0, 
                "role": null, 
                "verified_organization": null
            }, 
            "body": "<p><a href=\"https://decidim.barcelona/proposals/treballar-des-de-la-intereseccionalitat-del-genere-amb-altres-categories-o-variables-que-poden-generar-desigualtats\">https://decidim.barcelona/proposals/treballar-des-de-la-intereseccionalitat-del-genere-amb-altres-categories-o-variables-que-poden-generar-desigualtats</a></p>", 
            "commentable_id": 868, 
            "commentable_type": "Proposal", 
            "created_at": "12/04/2016 17:23:29", 
            "flagged": false, 
            "hidden": false, 
            "id": 13971, 
            "moderator_id": null, 
            "permissions": {
                "hide": false, 
                "hide_author": false, 
                "vote": false
            }, 
            "total_dislikes": 0, 
            "total_likes": 0, 
            "total_votes": 0
        }, 
        {
            "administrator_id": null, 
            "alignment": 0, 
            "ancestry": null, 
            "as": null, 
            "author": {
                "avatar_image": "https://decidim.barcelona/assets/avatar-866795c99abc33a3160d1f3fa93ada46eb75e54134e777666b9ed16215b26534.png", 
                "erased": false, 
                "hidden": false, 
                "id": 17740, 
                "name": "Suport General2 - Decidim Barcelona", 
                "official": false, 
                "official_level": 0, 
                "role": null, 
                "verified_organization": null
            }, 
            "body": "<p><a href=\"https://decidim.barcelona/proposals/impulsar-espais-de-debat-oberts-sobre-questions-com-el-genere-sexual-i-altres-d-aquest-ambit\">https://decidim.barcelona/proposals/impulsar-espais-de-debat-oberts-sobre-questions-com-el-genere-sexual-i-altres-d-aquest-ambit</a></p>", 
            "commentable_id": 868, 
            "commentable_type": "Proposal", 
            "created_at": "12/04/2016 17:29:11", 
            "flagged": false, 
            "hidden": false, 
            "id": 13981, 
            "moderator_id": null, 
            "permissions": {
                "hide": false, 
                "hide_author": false, 
                "vote": false
            }, 
            "total_dislikes": 0, 
            "total_likes": 0, 
            "total_votes": 0
        }, 
        {
            "administrator_id": null, 
            "alignment": 0, 
            "ancestry": null, 
            "as": null, 
            "author": {
                "avatar_image": "https://decidim.barcelona/assets/avatar-866795c99abc33a3160d1f3fa93ada46eb75e54134e777666b9ed16215b26534.png", 
                "erased": false, 
                "hidden": false, 
                "id": 17740, 
                "name": "Suport General2 - Decidim Barcelona", 
                "official": false, 
                "official_level": 0, 
                "role": null, 
                "verified_organization": null
            }, 
            "body": "<p><a href=\"https://decidim.barcelona/proposals/promoure-accions-i-activitats-que-fomentin-la-coparticipacio-d-home-i-dona-en-l-ambit-domestic\">https://decidim.barcelona/proposals/promoure-accions-i-activitats-que-fomentin-la-coparticipacio-d-home-i-dona-en-l-ambit-domestic</a></p>", 
            "commentable_id": 868, 
            "commentable_type": "Proposal", 
            "created_at": "12/04/2016 17:29:54", 
            "flagged": false, 
            "hidden": false, 
            "id": 13983, 
            "moderator_id": null, 
            "permissions": {
                "hide": false, 
                "hide_author": false, 
                "vote": false
            }, 
            "total_dislikes": 0, 
            "total_likes": 0, 
            "total_votes": 0
        }, 
        {
            "administrator_id": null, 
            "alignment": 0, 
            "ancestry": null, 
            "as": null, 
            "author": {
                "avatar_image": "https://decidim.barcelona/assets/avatar-866795c99abc33a3160d1f3fa93ada46eb75e54134e777666b9ed16215b26534.png", 
                "erased": false, 
                "hidden": false, 
                "id": 17740, 
                "name": "Suport General2 - Decidim Barcelona", 
                "official": false, 
                "official_level": 0, 
                "role": null, 
                "verified_organization": null
            }, 
            "body": "<p><a href=\"https://decidim.barcelona/proposals/visibilitzar-i-donar-rellevancia-les-aportacions-femenines-en-tots-els-ambits-del-saber-i-totes-les-ciencies\">https://decidim.barcelona/proposals/visibilitzar-i-donar-rellevancia-les-aportacions-femenines-en-tots-els-ambits-del-saber-i-totes-les-ciencies</a></p>", 
            "commentable_id": 868, 
            "commentable_type": "Proposal", 
            "created_at": "12/04/2016 17:33:00", 
            "flagged": false, 
            "hidden": false, 
            "id": 13995, 
            "moderator_id": null, 
            "permissions": {
                "hide": false, 
                "hide_author": false, 
                "vote": false
            }, 
            "total_dislikes": 0, 
            "total_likes": 0, 
            "total_votes": 0
        }
    ], 
    "meta": {
        "current_page": 2, 
        "next_page": 3, 
        "prev_page": 1, 
        "total_count": 44, 
        "total_pages": 3
    }
}