{
    "comments": [
        {
            "administrator_id": null, 
            "alignment": 1, 
            "ancestry": null, 
            "as": null, 
            "author": {
                "avatar_image": "https://decidim.barcelona/assets/avatar-866795c99abc33a3160d1f3fa93ada46eb75e54134e777666b9ed16215b26534.png", 
                "erased": false, 
                "hidden": false, 
                "id": 3827, 
                "name": "suport decidim.barcelona", 
                "official": false, 
                "official_level": 0, 
                "role": "moderator", 
                "verified_organization": null
            }, 
            "body": "<p>Proposta debatuda en la cita presencial, Debat de les persones grans en el proc\u00e9s participatiu d\u2019elaboraci\u00f3 del PAM 2015 -2016 :\"Que el Pla per la just\u00edcia de g\u00e8nere contempli la variable edat com un element a tenir en compte. \"</p>", 
            "commentable_id": 868, 
            "commentable_type": "Proposal", 
            "created_at": "17/03/2016 12:46:02", 
            "flagged": false, 
            "hidden": false, 
            "id": 5490, 
            "moderator_id": null, 
            "permissions": {
                "hide": false, 
                "hide_author": false, 
                "vote": false
            }, 
            "total_dislikes": 0, 
            "total_likes": 0, 
            "total_votes": 0
        }, 
        {
            "administrator_id": null, 
            "alignment": 1, 
            "ancestry": null, 
            "as": null, 
            "author": {
                "avatar_image": "https://decidim.barcelona/assets/avatar-866795c99abc33a3160d1f3fa93ada46eb75e54134e777666b9ed16215b26534.png", 
                "erased": false, 
                "hidden": false, 
                "id": 12179, 
                "name": "suport.decidim1", 
                "official": false, 
                "official_level": 0, 
                "role": null, 
                "verified_organization": null
            }, 
            "body": "<p>Proposta debatuda en la cita presencial: Consell de Dones. \"Acord respecte al t\u00edtol del Pla recollit en la proposta PAM com a Pla per la Just\u00edcia de G\u00e8nere, ressaltant que primer cal treballar en la consecuci\u00f3 de la just\u00edcia de g\u00e8nere i m\u00e9s endavant ja es podr\u00e0 parlar d\u2019equitat de g\u00e8nere. \"</p>", 
            "commentable_id": 868, 
            "commentable_type": "Proposal", 
            "created_at": "05/04/2016 13:25:23", 
            "flagged": false, 
            "hidden": false, 
            "id": 7999, 
            "moderator_id": null, 
            "permissions": {
                "hide": false, 
                "hide_author": false, 
                "vote": false
            }, 
            "total_dislikes": 0, 
            "total_likes": 0, 
            "total_votes": 0
        }, 
        {
            "administrator_id": null, 
            "alignment": 1, 
            "ancestry": null, 
            "as": null, 
            "author": {
                "avatar_image": "https://decidim.barcelona/assets/avatar-866795c99abc33a3160d1f3fa93ada46eb75e54134e777666b9ed16215b26534.png", 
                "erased": false, 
                "hidden": false, 
                "id": 12179, 
                "name": "suport.decidim1", 
                "official": false, 
                "official_level": 0, 
                "role": null, 
                "verified_organization": null
            }, 
            "body": "<p>Proposta debatuda en la cita presencial: Consell de Dones. \"En el Pla per la Just\u00edcia de G\u00e8nere, integrar l\u2019 \u201ceconomia de les cures i organitzaci\u00f3 del temps\u201d  com  a Ocupacions per a vides dignes i  part de l\u2019\u00e0mbit d\u2019 \u201cEconomia per la vida\u201d, donat que no s\u2019ha de separar les cures i els treballs ja que les cures tamb\u00e9 s\u00f3n treball. Tamb\u00e9 cal incorporar l\u2019element de la corresponsabilitat.\"</p>", 
            "commentable_id": 868, 
            "commentable_type": "Proposal", 
            "created_at": "05/04/2016 13:54:54", 
            "flagged": false, 
            "hidden": false, 
            "id": 8009, 
            "moderator_id": null, 
            "permissions": {
                "hide": false, 
                "hide_author": false, 
                "vote": false
            }, 
            "total_dislikes": 0, 
            "total_likes": 0, 
            "total_votes": 0
        }, 
        {
            "administrator_id": null, 
            "alignment": 1, 
            "ancestry": null, 
            "as": null, 
            "author": {
                "avatar_image": "https://decidim.barcelona/assets/avatar-866795c99abc33a3160d1f3fa93ada46eb75e54134e777666b9ed16215b26534.png", 
                "erased": false, 
                "hidden": false, 
                "id": 12179, 
                "name": "suport.decidim1", 
                "official": false, 
                "official_level": 0, 
                "role": null, 
                "verified_organization": null
            }, 
            "body": "<p>Proposta debatuda en la cita presencial: Consell de Dones. \"Fer visible la conciliaci\u00f3 de la vida laboral i personal en el Pla per la Just\u00edcia de G\u00e8nere, m\u00e9s enll\u00e0 de pressuposar que quedi incl\u00f2s en l\u2019\u00e0mbit  d\u2019 \u201cOrganitzaci\u00f3 del temps\u201d.</p>", 
            "commentable_id": 868, 
            "commentable_type": "Proposal", 
            "created_at": "05/04/2016 14:03:13", 
            "flagged": false, 
            "hidden": false, 
            "id": 8010, 
            "moderator_id": null, 
            "permissions": {
                "hide": false, 
                "hide_author": false, 
                "vote": false
            }, 
            "total_dislikes": 0, 
            "total_likes": 0, 
            "total_votes": 0
        }, 
        {
            "administrator_id": null, 
            "alignment": 1, 
            "ancestry": null, 
            "as": null, 
            "author": {
                "avatar_image": "https://decidim.barcelona/assets/avatar-866795c99abc33a3160d1f3fa93ada46eb75e54134e777666b9ed16215b26534.png", 
                "erased": false, 
                "hidden": false, 
                "id": 12179, 
                "name": "suport.decidim1", 
                "official": false, 
                "official_level": 0, 
                "role": null, 
                "verified_organization": null
            }, 
            "body": "<p>Proposta debatuda en la cita presencial: Consell de Dones. \"Utilitzar la nomenclatura \u201cOcupacions per una vida lliure\u201d o \u201cOcupacions per una vida aut\u00f2noma\u201d, en compte d\u2019\u201cOcupacions per una vida digna\u201d en el  Pla per la Just\u00edcia de G\u00e8nere. El terme \u201cdigne\u201d \u00e9s un terme obert a significats i, en canvi,  \u201cuna vida aut\u00f2noma\u201d es relaciona amb l\u2019ocupaci\u00f3, un salari, unes condicions, etc. \"</p>", 
            "commentable_id": 868, 
            "commentable_type": "Proposal", 
            "created_at": "05/04/2016 14:04:04", 
            "flagged": false, 
            "hidden": false, 
            "id": 8011, 
            "moderator_id": null, 
            "permissions": {
                "hide": false, 
                "hide_author": false, 
                "vote": false
            }, 
            "total_dislikes": 0, 
            "total_likes": 0, 
            "total_votes": 0
        }, 
        {
            "administrator_id": null, 
            "alignment": 1, 
            "ancestry": null, 
            "as": null, 
            "author": {
                "avatar_image": "https://decidim.barcelona/assets/avatar-866795c99abc33a3160d1f3fa93ada46eb75e54134e777666b9ed16215b26534.png", 
                "erased": false, 
                "hidden": false, 
                "id": 10703, 
                "name": "suport decidim.barcelona2", 
                "official": false, 
                "official_level": 0, 
                "role": null, 
                "verified_organization": null
            }, 
            "body": "<p>proposta debatuda al Consell de les Dones de Barcelona: \"Incorporar una visi\u00f3 que garanteixi que els \u00e0mbits que es recullen com a  Drets Fonamentals dins del Pla per la Just\u00edcia de G\u00e8nere no s\u00f3n grups estancs sin\u00f3 que estan relacionats els uns amb els altres. Per exemple, Cultura i Mem\u00f2ria col\u2022lectiva amb Just\u00edcia global i Cooperaci\u00f3 internacional o Interculturalitat i Migracions, etc.\"</p>", 
            "commentable_id": 868, 
            "commentable_type": "Proposal", 
            "created_at": "06/04/2016 10:42:41", 
            "flagged": false, 
            "hidden": false, 
            "id": 8275, 
            "moderator_id": null, 
            "permissions": {
                "hide": false, 
                "hide_author": false, 
                "vote": false
            }, 
            "total_dislikes": 0, 
            "total_likes": 0, 
            "total_votes": 0
        }, 
        {
            "administrator_id": null, 
            "alignment": 1, 
            "ancestry": null, 
            "as": null, 
            "author": {
                "avatar_image": "https://decidim.barcelona/assets/avatar-866795c99abc33a3160d1f3fa93ada46eb75e54134e777666b9ed16215b26534.png", 
                "erased": false, 
                "hidden": false, 
                "id": 10703, 
                "name": "suport decidim.barcelona2", 
                "official": false, 
                "official_level": 0, 
                "role": null, 
                "verified_organization": null
            }, 
            "body": "<p>proposta debatuda a la cita presencial del Consell de Dones de Barcelona: \"Repensar el concepte d\u2019\u201cInterculturalitat i migracions\u201d, del Pla per la Just\u00edcia de G\u00e8nere, per enriquir-lo i plantejar-lo d\u2019una manera m\u00e9s inclusiva.\"</p>", 
            "commentable_id": 868, 
            "commentable_type": "Proposal", 
            "created_at": "06/04/2016 11:00:45", 
            "flagged": false, 
            "hidden": false, 
            "id": 8291, 
            "moderator_id": null, 
            "permissions": {
                "hide": false, 
                "hide_author": false, 
                "vote": false
            }, 
            "total_dislikes": 0, 
            "total_likes": 0, 
            "total_votes": 0
        }, 
        {
            "administrator_id": null, 
            "alignment": 1, 
            "ancestry": null, 
            "as": null, 
            "author": {
                "avatar_image": "https://decidim.barcelona/assets/avatar-866795c99abc33a3160d1f3fa93ada46eb75e54134e777666b9ed16215b26534.png", 
                "erased": false, 
                "hidden": false, 
                "id": 10703, 
                "name": "suport decidim.barcelona2", 
                "official": false, 
                "official_level": 0, 
                "role": null, 
                "verified_organization": null
            }, 
            "body": "<p>proposta debatuda a la cita presencial del Consell de Dones de Barcelona: \"Incloure un \u00e0mbit amb relaci\u00f3 als Mitjans de comunicaci\u00f3 en el Pla per la Just\u00edcia de G\u00e8nere\"</p>", 
            "commentable_id": 868, 
            "commentable_type": "Proposal", 
            "created_at": "06/04/2016 12:19:20", 
            "flagged": false, 
            "hidden": false, 
            "id": 8371, 
            "moderator_id": null, 
            "permissions": {
                "hide": false, 
                "hide_author": false, 
                "vote": false
            }, 
            "total_dislikes": 0, 
            "total_likes": 0, 
            "total_votes": 0
        }, 
        {
            "administrator_id": null, 
            "alignment": 1, 
            "ancestry": null, 
            "as": null, 
            "author": {
                "avatar_image": "https://decidim.barcelona/assets/avatar-866795c99abc33a3160d1f3fa93ada46eb75e54134e777666b9ed16215b26534.png", 
                "erased": false, 
                "hidden": false, 
                "id": 10703, 
                "name": "suport decidim.barcelona2", 
                "official": false, 
                "official_level": 0, 
                "role": null, 
                "verified_organization": null
            }, 
            "body": "<p>proposta debatuda a la cita presencial del Consell de Dones de Barcelona: \"Utilitzar la nomenclatura \u201cEcologia, Accessibilitat universal i Espai urb\u00e0\u201d, en el Pla per la Just\u00edcia de G\u00e8nere,  especificant l\u2019accessibilitat universal.\"</p>", 
            "commentable_id": 868, 
            "commentable_type": "Proposal", 
            "created_at": "06/04/2016 12:21:05", 
            "flagged": false, 
            "hidden": false, 
            "id": 8372, 
            "moderator_id": null, 
            "permissions": {
                "hide": false, 
                "hide_author": false, 
                "vote": false
            }, 
            "total_dislikes": 0, 
            "total_likes": 0, 
            "total_votes": 0
        }, 
        {
            "administrator_id": null, 
            "alignment": 1, 
            "ancestry": null, 
            "as": null, 
            "author": {
                "avatar_image": "https://decidim.barcelona/assets/avatar-866795c99abc33a3160d1f3fa93ada46eb75e54134e777666b9ed16215b26534.png", 
                "erased": false, 
                "hidden": false, 
                "id": 10703, 
                "name": "suport decidim.barcelona2", 
                "official": false, 
                "official_level": 0, 
                "role": null, 
                "verified_organization": null
            }, 
            "body": "<p>proposta debatuda a la cita presencial del Consell de Dones de Barcelona: \"Incloure al Pla per la Just\u00edcia de G\u00e8nere un \u00e0mbit que faci refer\u00e8ncia a la participaci\u00f3 social i comunit\u00e0ria (eix Barris Habitables i inclusius),  ja que actualment no es fa cap esment a les persones i la comunitat com context de la vida quotidiana.\"</p>", 
            "commentable_id": 868, 
            "commentable_type": "Proposal", 
            "created_at": "06/04/2016 12:30:50", 
            "flagged": false, 
            "hidden": false, 
            "id": 8386, 
            "moderator_id": null, 
            "permissions": {
                "hide": false, 
                "hide_author": false, 
                "vote": false
            }, 
            "total_dislikes": 0, 
            "total_likes": 0, 
            "total_votes": 0
        }, 
        {
            "administrator_id": null, 
            "alignment": 1, 
            "ancestry": null, 
            "as": null, 
            "author": {
                "avatar_image": "https://decidim.barcelona/assets/avatar-866795c99abc33a3160d1f3fa93ada46eb75e54134e777666b9ed16215b26534.png", 
                "erased": false, 
                "hidden": false, 
                "id": 10703, 
                "name": "suport decidim.barcelona2", 
                "official": false, 
                "official_level": 0, 
                "role": null, 
                "verified_organization": null
            }, 
            "body": "<p>proposta debatuda a la cita presencial del Consell de Dones de Barcelona:  \"En la definici\u00f3 dels objectius del Pla per la Just\u00edcia de G\u00e8nere, utilitzar els verbs \u201cimplementar, garantir o exigir\u201d, evitant la utilitzaci\u00f3 del verb \u201cpromoure.\"</p>", 
            "commentable_id": 868, 
            "commentable_type": "Proposal", 
            "created_at": "06/04/2016 12:59:54", 
            "flagged": false, 
            "hidden": false, 
            "id": 8428, 
            "moderator_id": null, 
            "permissions": {
                "hide": false, 
                "hide_author": false, 
                "vote": false
            }, 
            "total_dislikes": 0, 
            "total_likes": 0, 
            "total_votes": 0
        }, 
        {
            "administrator_id": null, 
            "alignment": 0, 
            "ancestry": null, 
            "as": null, 
            "author": {
                "avatar_image": "https://decidim.barcelona/assets/avatar-866795c99abc33a3160d1f3fa93ada46eb75e54134e777666b9ed16215b26534.png", 
                "erased": false, 
                "hidden": false, 
                "id": 17740, 
                "name": "Suport General2 - Decidim Barcelona", 
                "official": false, 
                "official_level": 0, 
                "role": null, 
                "verified_organization": null
            }, 
            "body": "<p><a href=\"https://decidim.barcelona/proposals/combatre-els-prototips-del-model-del-cos-de-les-dones\">https://decidim.barcelona/proposals/combatre-els-prototips-del-model-del-cos-de-les-dones</a></p>", 
            "commentable_id": 868, 
            "commentable_type": "Proposal", 
            "created_at": "06/04/2016 18:47:17", 
            "flagged": false, 
            "hidden": false, 
            "id": 8826, 
            "moderator_id": null, 
            "permissions": {
                "hide": false, 
                "hide_author": false, 
                "vote": false
            }, 
            "total_dislikes": 0, 
            "total_likes": 0, 
            "total_votes": 0
        }, 
        {
            "administrator_id": null, 
            "alignment": 0, 
            "ancestry": null, 
            "as": null, 
            "author": {
                "avatar_image": "https://decidim.barcelona/assets/avatar-866795c99abc33a3160d1f3fa93ada46eb75e54134e777666b9ed16215b26534.png", 
                "erased": false, 
                "hidden": false, 
                "id": 17740, 
                "name": "Suport General2 - Decidim Barcelona", 
                "official": false, 
                "official_level": 0, 
                "role": null, 
                "verified_organization": null
            }, 
            "body": "<p><a href=\"https://decidim.barcelona/proposals/prohibir-que-les-discoteques-no-fagin-pagar-a-les-dones-i-els-homes-si\">https://decidim.barcelona/proposals/prohibir-que-les-discoteques-no-fagin-pagar-a-les-dones-i-els-homes-si</a></p>", 
            "commentable_id": 868, 
            "commentable_type": "Proposal", 
            "created_at": "07/04/2016 12:22:38", 
            "flagged": false, 
            "hidden": false, 
            "id": 9158, 
            "moderator_id": null, 
            "permissions": {
                "hide": false, 
                "hide_author": false, 
                "vote": false
            }, 
            "total_dislikes": 0, 
            "total_likes": 0, 
            "total_votes": 0
        }, 
        {
            "administrator_id": null, 
            "alignment": 0, 
            "ancestry": null, 
            "as": null, 
            "author": {
                "avatar_image": "https://decidim.barcelona/assets/avatar-866795c99abc33a3160d1f3fa93ada46eb75e54134e777666b9ed16215b26534.png", 
                "erased": false, 
                "hidden": false, 
                "id": 17740, 
                "name": "Suport General2 - Decidim Barcelona", 
                "official": false, 
                "official_level": 0, 
                "role": null, 
                "verified_organization": null
            }, 
            "body": "<p><a href=\"https://decidim.barcelona/proposals/barcelona-ha-de-ser-un-model-de-ciutat-co-educadora\">https://decidim.barcelona/proposals/barcelona-ha-de-ser-un-model-de-ciutat-co-educadora</a></p>", 
            "commentable_id": 868, 
            "commentable_type": "Proposal", 
            "created_at": "07/04/2016 12:43:34", 
            "flagged": false, 
            "hidden": false, 
            "id": 9197, 
            "moderator_id": null, 
            "permissions": {
                "hide": false, 
                "hide_author": false, 
                "vote": false
            }, 
            "total_dislikes": 0, 
            "total_likes": 0, 
            "total_votes": 0
        }, 
        {
            "administrator_id": null, 
            "alignment": 0, 
            "ancestry": null, 
            "as": null, 
            "author": {
                "avatar_image": "https://decidim.barcelona/assets/avatar-866795c99abc33a3160d1f3fa93ada46eb75e54134e777666b9ed16215b26534.png", 
                "erased": false, 
                "hidden": false, 
                "id": 17740, 
                "name": "Suport General2 - Decidim Barcelona", 
                "official": false, 
                "official_level": 0, 
                "role": null, 
                "verified_organization": null
            }, 
            "body": "<p><a href=\"https://decidim.barcelona/proposals/promoure-i-desplegar-la-llei-d-igualtat-de-genere-aprovada-al-parlament-de-catalunya\">https://decidim.barcelona/proposals/promoure-i-desplegar-la-llei-d-igualtat-de-genere-aprovada-al-parlament-de-catalunya</a></p>", 
            "commentable_id": 868, 
            "commentable_type": "Proposal", 
            "created_at": "07/04/2016 12:44:43", 
            "flagged": false, 
            "hidden": false, 
            "id": 9201, 
            "moderator_id": null, 
            "permissions": {
                "hide": false, 
                "hide_author": false, 
                "vote": false
            }, 
            "total_dislikes": 0, 
            "total_likes": 0, 
            "total_votes": 0
        }, 
        {
            "administrator_id": null, 
            "alignment": 0, 
            "ancestry": null, 
            "as": null, 
            "author": {
                "avatar_image": "https://decidim.barcelona/assets/avatar-866795c99abc33a3160d1f3fa93ada46eb75e54134e777666b9ed16215b26534.png", 
                "erased": false, 
                "hidden": false, 
                "id": 17740, 
                "name": "Suport General2 - Decidim Barcelona", 
                "official": false, 
                "official_level": 0, 
                "role": null, 
                "verified_organization": null
            }, 
            "body": "<p><a href=\"https://decidim.barcelona/proposals/elaborar-pressupostos-municipals-amb-perspectiva-de-genere\">https://decidim.barcelona/proposals/elaborar-pressupostos-municipals-amb-perspectiva-de-genere</a></p>", 
            "commentable_id": 868, 
            "commentable_type": "Proposal", 
            "created_at": "07/04/2016 12:58:48", 
            "flagged": false, 
            "hidden": false, 
            "id": 9234, 
            "moderator_id": null, 
            "permissions": {
                "hide": false, 
                "hide_author": false, 
                "vote": false
            }, 
            "total_dislikes": 0, 
            "total_likes": 0, 
            "total_votes": 0
        }, 
        {
            "administrator_id": null, 
            "alignment": 0, 
            "ancestry": null, 
            "as": null, 
            "author": {
                "avatar_image": "https://decidim.barcelona/assets/avatar-866795c99abc33a3160d1f3fa93ada46eb75e54134e777666b9ed16215b26534.png", 
                "erased": false, 
                "hidden": false, 
                "id": 17740, 
                "name": "Suport General2 - Decidim Barcelona", 
                "official": false, 
                "official_level": 0, 
                "role": null, 
                "verified_organization": null
            }, 
            "body": "<p><a href=\"https://decidim.barcelona/proposals/programacio-dels-mitjans-de-comunicacio-publics-amb-visio-de-genere\">https://decidim.barcelona/proposals/programacio-dels-mitjans-de-comunicacio-publics-amb-visio-de-genere</a></p>", 
            "commentable_id": 868, 
            "commentable_type": "Proposal", 
            "created_at": "07/04/2016 13:12:01", 
            "flagged": false, 
            "hidden": false, 
            "id": 9271, 
            "moderator_id": null, 
            "permissions": {
                "hide": false, 
                "hide_author": false, 
                "vote": false
            }, 
            "total_dislikes": 0, 
            "total_likes": 0, 
            "total_votes": 0
        }, 
        {
            "administrator_id": null, 
            "alignment": 0, 
            "ancestry": null, 
            "as": null, 
            "author": {
                "avatar_image": "https://decidim.barcelona/assets/avatar-866795c99abc33a3160d1f3fa93ada46eb75e54134e777666b9ed16215b26534.png", 
                "erased": false, 
                "hidden": false, 
                "id": 17740, 
                "name": "Suport General2 - Decidim Barcelona", 
                "official": false, 
                "official_level": 0, 
                "role": null, 
                "verified_organization": null
            }, 
            "body": "<p><a href=\"https://decidim.barcelona/proposals/treballar-projectes-coeducatius-als-instituts-del-districte\">https://decidim.barcelona/proposals/treballar-projectes-coeducatius-als-instituts-del-districte</a></p>", 
            "commentable_id": 868, 
            "commentable_type": "Proposal", 
            "created_at": "07/04/2016 13:14:36", 
            "flagged": false, 
            "hidden": false, 
            "id": 9279, 
            "moderator_id": null, 
            "permissions": {
                "hide": false, 
                "hide_author": false, 
                "vote": false
            }, 
            "total_dislikes": 0, 
            "total_likes": 0, 
            "total_votes": 0
        }, 
        {
            "administrator_id": null, 
            "alignment": 0, 
            "ancestry": null, 
            "as": null, 
            "author": {
                "avatar_image": "https://decidim.barcelona/assets/avatar-866795c99abc33a3160d1f3fa93ada46eb75e54134e777666b9ed16215b26534.png", 
                "erased": false, 
                "hidden": false, 
                "id": 17740, 
                "name": "Suport General2 - Decidim Barcelona", 
                "official": false, 
                "official_level": 0, 
                "role": null, 
                "verified_organization": null
            }, 
            "body": "<p><a href=\"https://decidim.barcelona/proposals/implementar-plans-d-igualtat-a-les-empreses\">https://decidim.barcelona/proposals/implementar-plans-d-igualtat-a-les-empreses</a></p>", 
            "commentable_id": 868, 
            "commentable_type": "Proposal", 
            "created_at": "07/04/2016 13:22:36", 
            "flagged": false, 
            "hidden": false, 
            "id": 9294, 
            "moderator_id": null, 
            "permissions": {
                "hide": false, 
                "hide_author": false, 
                "vote": false
            }, 
            "total_dislikes": 0, 
            "total_likes": 0, 
            "total_votes": 0
        }, 
        {
            "administrator_id": null, 
            "alignment": 0, 
            "ancestry": null, 
            "as": null, 
            "author": {
                "avatar_image": "https://decidim.barcelona/assets/avatar-866795c99abc33a3160d1f3fa93ada46eb75e54134e777666b9ed16215b26534.png", 
                "erased": false, 
                "hidden": false, 
                "id": 17740, 
                "name": "Suport General2 - Decidim Barcelona", 
                "official": false, 
                "official_level": 0, 
                "role": null, 
                "verified_organization": null
            }, 
            "body": "<p><a href=\"https://decidim.barcelona/proposals/assessorament-i-orientacio-als-joves-sobre-l-oferta-formativa-sense-prejudicis-de-genere\">https://decidim.barcelona/proposals/assessorament-i-orientacio-als-joves-sobre-l-oferta-formativa-sense-prejudicis-de-genere</a></p>", 
            "commentable_id": 868, 
            "commentable_type": "Proposal", 
            "created_at": "07/04/2016 13:37:01", 
            "flagged": false, 
            "hidden": false, 
            "id": 9349, 
            "moderator_id": null, 
            "permissions": {
                "hide": false, 
                "hide_author": false, 
                "vote": false
            }, 
            "total_dislikes": 0, 
            "total_likes": 0, 
            "total_votes": 0
        }
    ], 
    "meta": {
        "current_page": 1, 
        "next_page": 2, 
        "prev_page": null, 
        "total_count": 44, 
        "total_pages": 3
    }
}