{
    "comments": [
        {
            "administrator_id": null, 
            "alignment": 0, 
            "ancestry": null, 
            "as": null, 
            "author": {
                "avatar_image": "https://decidim.barcelona/assets/avatar-866795c99abc33a3160d1f3fa93ada46eb75e54134e777666b9ed16215b26534.png", 
                "erased": false, 
                "hidden": false, 
                "id": 17740, 
                "name": "Suport General2 - Decidim Barcelona", 
                "official": false, 
                "official_level": 0, 
                "role": null, 
                "verified_organization": null
            }, 
            "body": "<p><a href=\"https://decidim.barcelona/proposals/augmentar-les-xerrades-per-sensibilitzar-i-normalitzar-la-transsexualitat-i-l-homosexualitat\">https://decidim.barcelona/proposals/augmentar-les-xerrades-per-sensibilitzar-i-normalitzar-la-transsexualitat-i-l-homosexualitat</a></p>", 
            "commentable_id": 869, 
            "commentable_type": "Proposal", 
            "created_at": "07/04/2016 14:00:33", 
            "flagged": false, 
            "hidden": false, 
            "id": 9420, 
            "moderator_id": null, 
            "permissions": {
                "hide": false, 
                "hide_author": false, 
                "vote": false
            }, 
            "total_dislikes": 0, 
            "total_likes": 0, 
            "total_votes": 0
        }, 
        {
            "administrator_id": null, 
            "alignment": 0, 
            "ancestry": null, 
            "as": null, 
            "author": {
                "avatar_image": "https://decidim.barcelona/assets/avatar-866795c99abc33a3160d1f3fa93ada46eb75e54134e777666b9ed16215b26534.png", 
                "erased": false, 
                "hidden": false, 
                "id": 17740, 
                "name": "Suport General2 - Decidim Barcelona", 
                "official": false, 
                "official_level": 0, 
                "role": null, 
                "verified_organization": null
            }, 
            "body": "<p><a href=\"https://decidim.barcelona/proposals/impulsar-estrategies-lgtbi-territorialitzades-tambe-al-districtes-de-la-ciutat\">https://decidim.barcelona/proposals/impulsar-estrategies-lgtbi-territorialitzades-tambe-al-districtes-de-la-ciutat</a></p>", 
            "commentable_id": 869, 
            "commentable_type": "Proposal", 
            "created_at": "07/04/2016 14:03:12", 
            "flagged": false, 
            "hidden": false, 
            "id": 9433, 
            "moderator_id": null, 
            "permissions": {
                "hide": false, 
                "hide_author": false, 
                "vote": false
            }, 
            "total_dislikes": 0, 
            "total_likes": 0, 
            "total_votes": 0
        }, 
        {
            "administrator_id": null, 
            "alignment": 0, 
            "ancestry": null, 
            "as": null, 
            "author": {
                "avatar_image": "https://decidim.barcelona/assets/avatar-866795c99abc33a3160d1f3fa93ada46eb75e54134e777666b9ed16215b26534.png", 
                "erased": false, 
                "hidden": false, 
                "id": 17740, 
                "name": "Suport General2 - Decidim Barcelona", 
                "official": false, 
                "official_level": 0, 
                "role": null, 
                "verified_organization": null
            }, 
            "body": "<p><a href=\"https://decidim.barcelona/proposals/donar-suport-municipal-als-espais-comunicatius-promoguts-per-entitats-lgtbi\">https://decidim.barcelona/proposals/donar-suport-municipal-als-espais-comunicatius-promoguts-per-entitats-lgtbi</a></p>", 
            "commentable_id": 869, 
            "commentable_type": "Proposal", 
            "created_at": "07/04/2016 14:18:00", 
            "flagged": false, 
            "hidden": false, 
            "id": 9462, 
            "moderator_id": null, 
            "permissions": {
                "hide": false, 
                "hide_author": false, 
                "vote": false
            }, 
            "total_dislikes": 0, 
            "total_likes": 0, 
            "total_votes": 0
        }, 
        {
            "administrator_id": null, 
            "alignment": 0, 
            "ancestry": null, 
            "as": null, 
            "author": {
                "avatar_image": "https://decidim.barcelona/assets/avatar-866795c99abc33a3160d1f3fa93ada46eb75e54134e777666b9ed16215b26534.png", 
                "erased": false, 
                "hidden": false, 
                "id": 17740, 
                "name": "Suport General2 - Decidim Barcelona", 
                "official": false, 
                "official_level": 0, 
                "role": null, 
                "verified_organization": null
            }, 
            "body": "<p><a href=\"https://decidim.barcelona/proposals/donar-suport-municipal-als-espais-comunicatius-promoguts-per-entitats-lgtbi\">https://decidim.barcelona/proposals/donar-suport-municipal-als-espais-comunicatius-promoguts-per-entitats-lgtbi</a></p>", 
            "commentable_id": 869, 
            "commentable_type": "Proposal", 
            "created_at": "07/04/2016 14:22:37", 
            "flagged": false, 
            "hidden": false, 
            "id": 9469, 
            "moderator_id": null, 
            "permissions": {
                "hide": false, 
                "hide_author": false, 
                "vote": false
            }, 
            "total_dislikes": 0, 
            "total_likes": 0, 
            "total_votes": 0
        }, 
        {
            "administrator_id": null, 
            "alignment": 0, 
            "ancestry": null, 
            "as": null, 
            "author": {
                "avatar_image": "https://decidim.barcelona/assets/avatar-866795c99abc33a3160d1f3fa93ada46eb75e54134e777666b9ed16215b26534.png", 
                "erased": false, 
                "hidden": false, 
                "id": 17740, 
                "name": "Suport General2 - Decidim Barcelona", 
                "official": false, 
                "official_level": 0, 
                "role": null, 
                "verified_organization": null
            }, 
            "body": "<p><a href=\"https://decidim.barcelona/proposals/lgtbifobia-coma-risc-psicosocial\">https://decidim.barcelona/proposals/lgtbifobia-coma-risc-psicosocial</a></p>", 
            "commentable_id": 869, 
            "commentable_type": "Proposal", 
            "created_at": "07/04/2016 14:33:49", 
            "flagged": false, 
            "hidden": false, 
            "id": 9485, 
            "moderator_id": null, 
            "permissions": {
                "hide": false, 
                "hide_author": false, 
                "vote": false
            }, 
            "total_dislikes": 0, 
            "total_likes": 0, 
            "total_votes": 0
        }, 
        {
            "administrator_id": null, 
            "alignment": 0, 
            "ancestry": null, 
            "as": null, 
            "author": {
                "avatar_image": "https://decidim.barcelona/assets/avatar-866795c99abc33a3160d1f3fa93ada46eb75e54134e777666b9ed16215b26534.png", 
                "erased": false, 
                "hidden": false, 
                "id": 17740, 
                "name": "Suport General2 - Decidim Barcelona", 
                "official": false, 
                "official_level": 0, 
                "role": null, 
                "verified_organization": null
            }, 
            "body": "<p><a href=\"https://decidim.barcelona/proposals/publicitar-organ-sancionador\">https://decidim.barcelona/proposals/publicitar-organ-sancionador</a></p>", 
            "commentable_id": 869, 
            "commentable_type": "Proposal", 
            "created_at": "07/04/2016 14:34:25", 
            "flagged": false, 
            "hidden": false, 
            "id": 9487, 
            "moderator_id": null, 
            "permissions": {
                "hide": false, 
                "hide_author": false, 
                "vote": false
            }, 
            "total_dislikes": 0, 
            "total_likes": 0, 
            "total_votes": 0
        }, 
        {
            "administrator_id": null, 
            "alignment": 0, 
            "ancestry": null, 
            "as": null, 
            "author": {
                "avatar_image": "https://decidim.barcelona/assets/avatar-866795c99abc33a3160d1f3fa93ada46eb75e54134e777666b9ed16215b26534.png", 
                "erased": false, 
                "hidden": false, 
                "id": 17740, 
                "name": "Suport General2 - Decidim Barcelona", 
                "official": false, 
                "official_level": 0, 
                "role": null, 
                "verified_organization": null
            }, 
            "body": "<p><a href=\"https://decidim.barcelona/proposals/potenciar-l-esport-no-sexista-com-a-eina-per-abordar-i-prevenir-situacions-lgtbifobiques-en-l-entorn-escolar-aixi-com-en-l-esport-d-adults\">https://decidim.barcelona/proposals/potenciar-l-esport-no-sexista-com-a-eina-per-abordar-i-prevenir-situacions-lgtbifobiques-en-l-entorn-escolar-aixi-com-en-l-esport-d-adults</a></p>", 
            "commentable_id": 869, 
            "commentable_type": "Proposal", 
            "created_at": "07/04/2016 14:42:12", 
            "flagged": false, 
            "hidden": false, 
            "id": 9497, 
            "moderator_id": null, 
            "permissions": {
                "hide": false, 
                "hide_author": false, 
                "vote": false
            }, 
            "total_dislikes": 0, 
            "total_likes": 0, 
            "total_votes": 0
        }, 
        {
            "administrator_id": null, 
            "alignment": 0, 
            "ancestry": null, 
            "as": null, 
            "author": {
                "avatar_image": "https://decidim.barcelona/assets/avatar-866795c99abc33a3160d1f3fa93ada46eb75e54134e777666b9ed16215b26534.png", 
                "erased": false, 
                "hidden": false, 
                "id": 17740, 
                "name": "Suport General2 - Decidim Barcelona", 
                "official": false, 
                "official_level": 0, 
                "role": null, 
                "verified_organization": null
            }, 
            "body": "<p><a href=\"https://decidim.barcelona/proposals/incorporar-la-veu-de-les-organitzacions-d-estudiants-en-l-elaboracio-del-pla-per-incorporar-la-perspectiva-lgtbi\">https://decidim.barcelona/proposals/incorporar-la-veu-de-les-organitzacions-d-estudiants-en-l-elaboracio-del-pla-per-incorporar-la-perspectiva-lgtbi</a></p>", 
            "commentable_id": 869, 
            "commentable_type": "Proposal", 
            "created_at": "07/04/2016 14:43:03", 
            "flagged": false, 
            "hidden": false, 
            "id": 9498, 
            "moderator_id": null, 
            "permissions": {
                "hide": false, 
                "hide_author": false, 
                "vote": false
            }, 
            "total_dislikes": 0, 
            "total_likes": 0, 
            "total_votes": 0
        }, 
        {
            "administrator_id": null, 
            "alignment": 0, 
            "ancestry": null, 
            "as": null, 
            "author": {
                "avatar_image": "https://decidim.barcelona/assets/avatar-866795c99abc33a3160d1f3fa93ada46eb75e54134e777666b9ed16215b26534.png", 
                "erased": false, 
                "hidden": false, 
                "id": 17740, 
                "name": "Suport General2 - Decidim Barcelona", 
                "official": false, 
                "official_level": 0, 
                "role": null, 
                "verified_organization": null
            }, 
            "body": "<p><a href=\"https://decidim.barcelona/proposals/promoure-mesures-per-afavorir-que-l-escola-esdevingui-un-pont-entre-l-alumnat-i-les-associacions-lgtbi-i-permeti-l-empoderament-de-l-alumnat\">https://decidim.barcelona/proposals/promoure-mesures-per-afavorir-que-l-escola-esdevingui-un-pont-entre-l-alumnat-i-les-associacions-lgtbi-i-permeti-l-empoderament-de-l-alumnat</a></p>", 
            "commentable_id": 869, 
            "commentable_type": "Proposal", 
            "created_at": "07/04/2016 14:43:42", 
            "flagged": false, 
            "hidden": false, 
            "id": 9500, 
            "moderator_id": null, 
            "permissions": {
                "hide": false, 
                "hide_author": false, 
                "vote": false
            }, 
            "total_dislikes": 0, 
            "total_likes": 0, 
            "total_votes": 0
        }, 
        {
            "administrator_id": null, 
            "alignment": 0, 
            "ancestry": null, 
            "as": null, 
            "author": {
                "avatar_image": "https://decidim.barcelona/assets/avatar-866795c99abc33a3160d1f3fa93ada46eb75e54134e777666b9ed16215b26534.png", 
                "erased": false, 
                "hidden": false, 
                "id": 17740, 
                "name": "Suport General2 - Decidim Barcelona", 
                "official": false, 
                "official_level": 0, 
                "role": null, 
                "verified_organization": null
            }, 
            "body": "<p><a href=\"https://decidim.barcelona/proposals/implementar-mesures-per-prevenir-la-lgtbfobia-en-l-espai-public\">https://decidim.barcelona/proposals/implementar-mesures-per-prevenir-la-lgtbfobia-en-l-espai-public</a></p>", 
            "commentable_id": 869, 
            "commentable_type": "Proposal", 
            "created_at": "07/04/2016 14:44:20", 
            "flagged": false, 
            "hidden": false, 
            "id": 9503, 
            "moderator_id": null, 
            "permissions": {
                "hide": false, 
                "hide_author": false, 
                "vote": false
            }, 
            "total_dislikes": 0, 
            "total_likes": 0, 
            "total_votes": 0
        }, 
        {
            "administrator_id": null, 
            "alignment": 0, 
            "ancestry": null, 
            "as": null, 
            "author": {
                "avatar_image": "https://decidim.barcelona/assets/avatar-866795c99abc33a3160d1f3fa93ada46eb75e54134e777666b9ed16215b26534.png", 
                "erased": false, 
                "hidden": false, 
                "id": 17740, 
                "name": "Suport General2 - Decidim Barcelona", 
                "official": false, 
                "official_level": 0, 
                "role": null, 
                "verified_organization": null
            }, 
            "body": "<p><a href=\"https://decidim.barcelona/proposals/revisar-i-canviar-els-formularis-de-dades-publics-per-tal-que-siguin-inclusius\">https://decidim.barcelona/proposals/revisar-i-canviar-els-formularis-de-dades-publics-per-tal-que-siguin-inclusius</a></p>", 
            "commentable_id": 869, 
            "commentable_type": "Proposal", 
            "created_at": "07/04/2016 14:46:43", 
            "flagged": false, 
            "hidden": false, 
            "id": 9506, 
            "moderator_id": null, 
            "permissions": {
                "hide": false, 
                "hide_author": false, 
                "vote": false
            }, 
            "total_dislikes": 0, 
            "total_likes": 0, 
            "total_votes": 0
        }, 
        {
            "administrator_id": null, 
            "alignment": 0, 
            "ancestry": null, 
            "as": null, 
            "author": {
                "avatar_image": "https://decidim.barcelona/assets/avatar-866795c99abc33a3160d1f3fa93ada46eb75e54134e777666b9ed16215b26534.png", 
                "erased": false, 
                "hidden": false, 
                "id": 17740, 
                "name": "Suport General2 - Decidim Barcelona", 
                "official": false, 
                "official_level": 0, 
                "role": null, 
                "verified_organization": null
            }, 
            "body": "<p><a href=\"https://decidim.barcelona/proposals/crear-una-xarxa-de-locals-lgtbi-friendly-bars-discoteques-museus-etc\">https://decidim.barcelona/proposals/crear-una-xarxa-de-locals-lgtbi-friendly-bars-discoteques-museus-etc</a></p>", 
            "commentable_id": 869, 
            "commentable_type": "Proposal", 
            "created_at": "07/04/2016 14:48:27", 
            "flagged": false, 
            "hidden": false, 
            "id": 9510, 
            "moderator_id": null, 
            "permissions": {
                "hide": false, 
                "hide_author": false, 
                "vote": false
            }, 
            "total_dislikes": 0, 
            "total_likes": 0, 
            "total_votes": 0
        }, 
        {
            "administrator_id": null, 
            "alignment": 0, 
            "ancestry": null, 
            "as": null, 
            "author": {
                "avatar_image": "https://decidim.barcelona/assets/avatar-866795c99abc33a3160d1f3fa93ada46eb75e54134e777666b9ed16215b26534.png", 
                "erased": false, 
                "hidden": false, 
                "id": 17740, 
                "name": "Suport General2 - Decidim Barcelona", 
                "official": false, 
                "official_level": 0, 
                "role": null, 
                "verified_organization": null
            }, 
            "body": "<p><a href=\"https://decidim.barcelona/proposals/en-la-formacio-del-professorat-cal-que-hi-hagi-eines-per-a-la-prevencio-la-violencia-masclista-i-la-lgtbifobia\">https://decidim.barcelona/proposals/en-la-formacio-del-professorat-cal-que-hi-hagi-eines-per-a-la-prevencio-la-violencia-masclista-i-la-lgtbifobia</a></p>", 
            "commentable_id": 869, 
            "commentable_type": "Proposal", 
            "created_at": "07/04/2016 17:05:16", 
            "flagged": false, 
            "hidden": false, 
            "id": 9750, 
            "moderator_id": null, 
            "permissions": {
                "hide": false, 
                "hide_author": false, 
                "vote": false
            }, 
            "total_dislikes": 0, 
            "total_likes": 0, 
            "total_votes": 0
        }, 
        {
            "administrator_id": null, 
            "alignment": 0, 
            "ancestry": null, 
            "as": null, 
            "author": {
                "avatar_image": "https://decidim.barcelona/assets/avatar-866795c99abc33a3160d1f3fa93ada46eb75e54134e777666b9ed16215b26534.png", 
                "erased": false, 
                "hidden": false, 
                "id": 17740, 
                "name": "Suport General2 - Decidim Barcelona", 
                "official": false, 
                "official_level": 0, 
                "role": null, 
                "verified_organization": null
            }, 
            "body": "<p><a href=\"https://decidim.barcelona/proposals/implementar-programes-d-actuacio-contra-la-homofobia-i-la-transfobia\">https://decidim.barcelona/proposals/implementar-programes-d-actuacio-contra-la-homofobia-i-la-transfobia</a></p>", 
            "commentable_id": 869, 
            "commentable_type": "Proposal", 
            "created_at": "07/04/2016 17:35:50", 
            "flagged": false, 
            "hidden": false, 
            "id": 9812, 
            "moderator_id": null, 
            "permissions": {
                "hide": false, 
                "hide_author": false, 
                "vote": false
            }, 
            "total_dislikes": 0, 
            "total_likes": 0, 
            "total_votes": 0
        }
    ], 
    "meta": {
        "current_page": 2, 
        "next_page": null, 
        "prev_page": 1, 
        "total_count": 34, 
        "total_pages": 2
    }
}