{
    "comments": [
        {
            "administrator_id": null, 
            "alignment": 0, 
            "ancestry": null, 
            "as": null, 
            "author": {
                "avatar_image": "https://decidim.barcelona/assets/avatar-866795c99abc33a3160d1f3fa93ada46eb75e54134e777666b9ed16215b26534.png", 
                "erased": false, 
                "hidden": false, 
                "id": 20399, 
                "name": "Elsa O.", 
                "official": false, 
                "official_level": 0, 
                "role": null, 
                "verified_organization": null
            }, 
            "body": "<p>- Orientar en rechazo  la violencia desde una perspectiva que incluya tanto su rechazo de forma general. A trav\u00e9s de talleres de: teatro, charlas, juegos.\n<br />- Estimular el desarrollo de la capacidad de ponerse en el lugar del otro.\n<br />- Establecer contextos y procedimientos alternativos en el sistema escolar, a trav\u00e9s de los cuales de forma normalizada puedan expresarse las discrepancias y las tensiones, y resolverse los conflictos sin recurrir a la violencia ( a trav\u00e9s del di\u00e1logo, comunicaci\u00f3n, mediaci\u00f3n ...) promoviendo los valores y habilidades en todas las personas.\n<br />- Que los padres participen m\u00e1s en las reuniones de los AMPAS, que las mismas sean fuera del horario laboral, para una participaci\u00f3n y compromiso de ellos en la educaci\u00f3n de sus hijos. Las reuniones en castellano.\n<br />En Bolivia es una obligaci\u00f3n de asistir a las reuniones de la Junta Escolar, sino son penalizadas las inasistencias.\n</p>", 
            "commentable_id": 866, 
            "commentable_type": "Proposal", 
            "created_at": "08/04/2016 10:19:36", 
            "flagged": false, 
            "hidden": false, 
            "id": 10291, 
            "moderator_id": null, 
            "permissions": {
                "hide": false, 
                "hide_author": false, 
                "vote": false
            }, 
            "total_dislikes": 0, 
            "total_likes": 0, 
            "total_votes": 0
        }, 
        {
            "administrator_id": null, 
            "alignment": 0, 
            "ancestry": null, 
            "as": null, 
            "author": {
                "avatar_image": "https://decidim.barcelona/assets/avatar-866795c99abc33a3160d1f3fa93ada46eb75e54134e777666b9ed16215b26534.png", 
                "erased": false, 
                "hidden": false, 
                "id": 20399, 
                "name": "Elsa O.", 
                "official": false, 
                "official_level": 0, 
                "role": null, 
                "verified_organization": null
            }, 
            "body": "<p>- Orientar en rechazo  la violencia desde una perspectiva que incluya tanto su rechazo de forma general. A trav\u00e9s de talleres de: teatro, charlas, juegos.\n<br />- Estimular el desarrollo de la capacidad de ponerse en el lugar del otro.\n<br />- Establecer contextos y procedimientos alternativos en el sistema escolar, a trav\u00e9s de los cuales de forma normalizada puedan expresarse las discrepancias y las tensiones, y resolverse los conflictos sin recurrir a la violencia ( a trav\u00e9s del di\u00e1logo, comunicaci\u00f3n, mediaci\u00f3n ...) promoviendo los valores y habilidades en todas las personas.\n<br />- Que los padres participen m\u00e1s en las reuniones de los AMPAS, que las mismas sean fuera del horario laboral, para una participaci\u00f3n y compromiso de ellos en la educaci\u00f3n de sus hijos. Las reuniones en castellano.\n<br />En Bolivia es una obligaci\u00f3n de asistir a las reuniones de la Junta Escolar, sino son penalizadas las inasistencias.</p>", 
            "commentable_id": 866, 
            "commentable_type": "Proposal", 
            "created_at": "08/04/2016 10:20:20", 
            "flagged": false, 
            "hidden": false, 
            "id": 10295, 
            "moderator_id": null, 
            "permissions": {
                "hide": false, 
                "hide_author": false, 
                "vote": false
            }, 
            "total_dislikes": 0, 
            "total_likes": 0, 
            "total_votes": 0
        }, 
        {
            "administrator_id": null, 
            "alignment": 0, 
            "ancestry": null, 
            "as": null, 
            "author": {
                "avatar_image": "https://decidim.barcelona/assets/avatar-866795c99abc33a3160d1f3fa93ada46eb75e54134e777666b9ed16215b26534.png", 
                "erased": false, 
                "hidden": false, 
                "id": 17740, 
                "name": "Suport General2 - Decidim Barcelona", 
                "official": false, 
                "official_level": 0, 
                "role": null, 
                "verified_organization": null
            }, 
            "body": "<p><a href=\"https://decidim.barcelona/proposals/barcelona-ciutat-lliure-de-masclisme\">https://decidim.barcelona/proposals/barcelona-ciutat-lliure-de-masclisme</a></p>", 
            "commentable_id": 866, 
            "commentable_type": "Proposal", 
            "created_at": "12/04/2016 16:46:31", 
            "flagged": false, 
            "hidden": false, 
            "id": 13898, 
            "moderator_id": null, 
            "permissions": {
                "hide": false, 
                "hide_author": false, 
                "vote": false
            }, 
            "total_dislikes": 0, 
            "total_likes": 0, 
            "total_votes": 0
        }, 
        {
            "administrator_id": null, 
            "alignment": 0, 
            "ancestry": null, 
            "as": null, 
            "author": {
                "avatar_image": "https://decidim.barcelona/assets/avatar-866795c99abc33a3160d1f3fa93ada46eb75e54134e777666b9ed16215b26534.png", 
                "erased": false, 
                "hidden": false, 
                "id": 17740, 
                "name": "Suport General2 - Decidim Barcelona", 
                "official": false, 
                "official_level": 0, 
                "role": null, 
                "verified_organization": null
            }, 
            "body": "<p><a href=\"https://decidim.barcelona/proposals/augmentar-els-recursos-en-la-prevencio-i-l-atencio-de-les-dones-victimes-de-violencia-masclista\">https://decidim.barcelona/proposals/augmentar-els-recursos-en-la-prevencio-i-l-atencio-de-les-dones-victimes-de-violencia-masclista</a></p>", 
            "commentable_id": 866, 
            "commentable_type": "Proposal", 
            "created_at": "12/04/2016 17:14:00", 
            "flagged": false, 
            "hidden": false, 
            "id": 13943, 
            "moderator_id": null, 
            "permissions": {
                "hide": false, 
                "hide_author": false, 
                "vote": false
            }, 
            "total_dislikes": 0, 
            "total_likes": 0, 
            "total_votes": 0
        }, 
        {
            "administrator_id": null, 
            "alignment": 0, 
            "ancestry": null, 
            "as": null, 
            "author": {
                "avatar_image": "https://decidim.barcelona/assets/avatar-866795c99abc33a3160d1f3fa93ada46eb75e54134e777666b9ed16215b26534.png", 
                "erased": false, 
                "hidden": false, 
                "id": 17740, 
                "name": "Suport General2 - Decidim Barcelona", 
                "official": false, 
                "official_level": 0, 
                "role": null, 
                "verified_organization": null
            }, 
            "body": "<p><a href=\"https://decidim.barcelona/proposals/impulsar-una-linia-de-treball-sobre-diversitat-sexual-i-violencia-masclista\">https://decidim.barcelona/proposals/impulsar-una-linia-de-treball-sobre-diversitat-sexual-i-violencia-masclista</a></p>", 
            "commentable_id": 866, 
            "commentable_type": "Proposal", 
            "created_at": "12/04/2016 17:17:20", 
            "flagged": false, 
            "hidden": false, 
            "id": 13958, 
            "moderator_id": null, 
            "permissions": {
                "hide": false, 
                "hide_author": false, 
                "vote": false
            }, 
            "total_dislikes": 0, 
            "total_likes": 0, 
            "total_votes": 0
        }, 
        {
            "administrator_id": null, 
            "alignment": 0, 
            "ancestry": null, 
            "as": null, 
            "author": {
                "avatar_image": "https://decidim.barcelona/assets/avatar-866795c99abc33a3160d1f3fa93ada46eb75e54134e777666b9ed16215b26534.png", 
                "erased": false, 
                "hidden": false, 
                "id": 17740, 
                "name": "Suport General2 - Decidim Barcelona", 
                "official": false, 
                "official_level": 0, 
                "role": null, 
                "verified_organization": null
            }, 
            "body": "<p><a href=\"https://decidim.barcelona/proposals/reforcar-les-plantilles-i-formar-als-i-les-professionals-dels-css-i-altres-serveis-municipals\">https://decidim.barcelona/proposals/reforcar-les-plantilles-i-formar-als-i-les-professionals-dels-css-i-altres-serveis-municipals</a></p>", 
            "commentable_id": 866, 
            "commentable_type": "Proposal", 
            "created_at": "12/04/2016 17:20:08", 
            "flagged": false, 
            "hidden": false, 
            "id": 13966, 
            "moderator_id": null, 
            "permissions": {
                "hide": false, 
                "hide_author": false, 
                "vote": false
            }, 
            "total_dislikes": 0, 
            "total_likes": 0, 
            "total_votes": 0
        }, 
        {
            "administrator_id": null, 
            "alignment": 0, 
            "ancestry": null, 
            "as": null, 
            "author": {
                "avatar_image": "https://decidim.barcelona/assets/avatar-866795c99abc33a3160d1f3fa93ada46eb75e54134e777666b9ed16215b26534.png", 
                "erased": false, 
                "hidden": false, 
                "id": 17740, 
                "name": "Suport General2 - Decidim Barcelona", 
                "official": false, 
                "official_level": 0, 
                "role": null, 
                "verified_organization": null
            }, 
            "body": "<p><a href=\"https://decidim.barcelona/proposals/impulsar-millores-reals-del-circuit-entre-els-diferents-serveis-i-administracions\">https://decidim.barcelona/proposals/impulsar-millores-reals-del-circuit-entre-els-diferents-serveis-i-administracions</a></p>", 
            "commentable_id": 866, 
            "commentable_type": "Proposal", 
            "created_at": "12/04/2016 17:24:28", 
            "flagged": false, 
            "hidden": false, 
            "id": 13973, 
            "moderator_id": null, 
            "permissions": {
                "hide": false, 
                "hide_author": false, 
                "vote": false
            }, 
            "total_dislikes": 0, 
            "total_likes": 0, 
            "total_votes": 0
        }, 
        {
            "administrator_id": null, 
            "alignment": 0, 
            "ancestry": null, 
            "as": null, 
            "author": {
                "avatar_image": "https://decidim.barcelona/assets/avatar-866795c99abc33a3160d1f3fa93ada46eb75e54134e777666b9ed16215b26534.png", 
                "erased": false, 
                "hidden": false, 
                "id": 17740, 
                "name": "Suport General2 - Decidim Barcelona", 
                "official": false, 
                "official_level": 0, 
                "role": null, 
                "verified_organization": null
            }, 
            "body": "<p><a href=\"https://decidim.barcelona/proposals/impulsar-accions-que-permetin-sensibilitzar-i-formar-diferents-estaments-judicials-en-materia-de-diversitat-sexual-i-violencia-masclista\">https://decidim.barcelona/proposals/impulsar-accions-que-permetin-sensibilitzar-i-formar-diferents-estaments-judicials-en-materia-de-diversitat-sexual-i-violencia-masclista</a></p>", 
            "commentable_id": 866, 
            "commentable_type": "Proposal", 
            "created_at": "12/04/2016 17:36:44", 
            "flagged": false, 
            "hidden": false, 
            "id": 14007, 
            "moderator_id": null, 
            "permissions": {
                "hide": false, 
                "hide_author": false, 
                "vote": false
            }, 
            "total_dislikes": 0, 
            "total_likes": 0, 
            "total_votes": 0
        }, 
        {
            "administrator_id": null, 
            "alignment": 0, 
            "ancestry": null, 
            "as": null, 
            "author": {
                "avatar_image": "https://decidim.barcelona/assets/avatar-866795c99abc33a3160d1f3fa93ada46eb75e54134e777666b9ed16215b26534.png", 
                "erased": false, 
                "hidden": false, 
                "id": 17740, 
                "name": "Suport General2 - Decidim Barcelona", 
                "official": false, 
                "official_level": 0, 
                "role": null, 
                "verified_organization": null
            }, 
            "body": "<p><a href=\"https://decidim.barcelona/proposals/incrementar-la-prevencio-de-la-violencia-masclista\">https://decidim.barcelona/proposals/incrementar-la-prevencio-de-la-violencia-masclista</a></p>", 
            "commentable_id": 866, 
            "commentable_type": "Proposal", 
            "created_at": "12/04/2016 17:37:46", 
            "flagged": false, 
            "hidden": false, 
            "id": 14009, 
            "moderator_id": null, 
            "permissions": {
                "hide": false, 
                "hide_author": false, 
                "vote": false
            }, 
            "total_dislikes": 0, 
            "total_likes": 0, 
            "total_votes": 0
        }, 
        {
            "administrator_id": null, 
            "alignment": 0, 
            "ancestry": null, 
            "as": null, 
            "author": {
                "avatar_image": "https://decidim.barcelona/assets/avatar-866795c99abc33a3160d1f3fa93ada46eb75e54134e777666b9ed16215b26534.png", 
                "erased": false, 
                "hidden": false, 
                "id": 17740, 
                "name": "Suport General2 - Decidim Barcelona", 
                "official": false, 
                "official_level": 0, 
                "role": null, 
                "verified_organization": null
            }, 
            "body": "<p><a href=\"https://decidim.barcelona/proposals/desencallar-la-saturacio-dels-serveis-socials-d-atencio-a-la-reparacio-del-dany\">https://decidim.barcelona/proposals/desencallar-la-saturacio-dels-serveis-socials-d-atencio-a-la-reparacio-del-dany</a></p>", 
            "commentable_id": 866, 
            "commentable_type": "Proposal", 
            "created_at": "12/04/2016 17:45:25", 
            "flagged": false, 
            "hidden": false, 
            "id": 14028, 
            "moderator_id": null, 
            "permissions": {
                "hide": false, 
                "hide_author": false, 
                "vote": false
            }, 
            "total_dislikes": 0, 
            "total_likes": 0, 
            "total_votes": 0
        }, 
        {
            "administrator_id": null, 
            "alignment": 0, 
            "ancestry": null, 
            "as": null, 
            "author": {
                "avatar_image": "https://decidim.barcelona/assets/avatar-866795c99abc33a3160d1f3fa93ada46eb75e54134e777666b9ed16215b26534.png", 
                "erased": false, 
                "hidden": false, 
                "id": 17740, 
                "name": "Suport General2 - Decidim Barcelona", 
                "official": false, 
                "official_level": 0, 
                "role": null, 
                "verified_organization": null
            }, 
            "body": "<p><a href=\"https://decidim.barcelona/proposals/proteccio-a-les-dones-afectades-per-violencia-de-genere\">https://decidim.barcelona/proposals/proteccio-a-les-dones-afectades-per-violencia-de-genere</a></p>", 
            "commentable_id": 866, 
            "commentable_type": "Proposal", 
            "created_at": "17/04/2016 13:03:37", 
            "flagged": false, 
            "hidden": false, 
            "id": 18598, 
            "moderator_id": null, 
            "permissions": {
                "hide": false, 
                "hide_author": false, 
                "vote": false
            }, 
            "total_dislikes": 0, 
            "total_likes": 0, 
            "total_votes": 0
        }, 
        {
            "administrator_id": null, 
            "alignment": null, 
            "ancestry": "10295", 
            "as": null, 
            "author": {
                "avatar_image": "https://decidim.barcelona/assets/avatar-866795c99abc33a3160d1f3fa93ada46eb75e54134e777666b9ed16215b26534.png", 
                "erased": false, 
                "hidden": false, 
                "id": 20399, 
                "name": "Elsa O.", 
                "official": false, 
                "official_level": 0, 
                "role": null, 
                "verified_organization": null
            }, 
            "body": "<p>- Gestionar desde los AMPAS y entidades comprometidas con la educaci\u00f3n  de los infantes y adolescentes, en la b\u00fasqueda de subvenciones y patrocinios de los comedores y las actividades extraescolares. \n<br />- Apertura de los patios escolares y espacios deportivos los fines de semana. Sobre todo en barrios de mayor concentraci\u00f3n de ni\u00f1os, adolescentes de procedencia extranjera.\n<br />- Escuelas nocturnas para la nivelaci\u00f3n de los padres en los mismos centros educativos de sus hijos.\n<br />- Analizar cada uno de los casos y proponer desde los centros y la familia como poder ayudar a que los chicos retornen a los centros educativos.\n<br />- Trabajar las entidades de inmigrantes que no comprendemos la \"Ley de Protecci\u00f3n al menor\", los AMPAS y Colegios de Abogados.\n<br />- Que se contrate personal capacitado, consciente y comprometido en ayudar a mejorar la situaci\u00f3n de nuestros ni\u00f1os y adolescentes. Sobretodo mediadores de origen extranjero.</p>", 
            "commentable_id": 866, 
            "commentable_type": "Proposal", 
            "created_at": "08/04/2016 10:21:12", 
            "flagged": false, 
            "hidden": false, 
            "id": 10297, 
            "moderator_id": null, 
            "permissions": {
                "hide": false, 
                "hide_author": false, 
                "vote": false
            }, 
            "total_dislikes": 0, 
            "total_likes": 0, 
            "total_votes": 0
        }, 
        {
            "administrator_id": null, 
            "alignment": null, 
            "ancestry": "10295/10297", 
            "as": null, 
            "author": {
                "avatar_image": "https://decidim.barcelona/assets/avatar-866795c99abc33a3160d1f3fa93ada46eb75e54134e777666b9ed16215b26534.png", 
                "erased": false, 
                "hidden": false, 
                "id": 20399, 
                "name": "Elsa O.", 
                "official": false, 
                "official_level": 0, 
                "role": null, 
                "verified_organization": null
            }, 
            "body": "<p>- La participaci\u00f3n  desde su planteamiento inicial de los verdaderos actores, nosotros los nuevos vecinos, y no as\u00ed que nos entreguen un documento ya elaborado y nos pidan que lo revisemos.\n<br />-  Contrataci\u00f3n del personal, que lleva trabajando mucho tiempo de voluntarios en las asociaciones de inmigrantes.\n<br />- Trabajo en red de las asociaciones de inmigrantes, AMPAs y la Xarxa Antirumores.\n<br />- Poner carteles grandes en los puntos de atenci\u00f3n primaria de salud sobre la gratuidad de la atenci\u00f3n.\n<br />- Capacitaci\u00f3n a los agentes sanitarios desde el punto de informaci\u00f3n, enfermeros y m\u00e9dicos sobre los colectivos que est\u00e1n atendiendo en los centros sanitarios de mayor concentraci\u00f3n de pacientes de origen extranjero.\n</p>", 
            "commentable_id": 866, 
            "commentable_type": "Proposal", 
            "created_at": "08/04/2016 10:22:06", 
            "flagged": false, 
            "hidden": false, 
            "id": 10298, 
            "moderator_id": null, 
            "permissions": {
                "hide": false, 
                "hide_author": false, 
                "vote": false
            }, 
            "total_dislikes": 0, 
            "total_likes": 0, 
            "total_votes": 0
        }
    ], 
    "meta": {
        "current_page": 2, 
        "next_page": null, 
        "prev_page": 1, 
        "total_count": 31, 
        "total_pages": 2
    }
}