{
    "comments": [
        {
            "administrator_id": null, 
            "alignment": 0, 
            "ancestry": null, 
            "as": null, 
            "author": {
                "avatar_image": "https://decidim.barcelona/assets/avatar-866795c99abc33a3160d1f3fa93ada46eb75e54134e777666b9ed16215b26534.png", 
                "erased": false, 
                "hidden": false, 
                "id": 17740, 
                "name": "Suport General2 - Decidim Barcelona", 
                "official": false, 
                "official_level": 0, 
                "role": null, 
                "verified_organization": null
            }, 
            "body": "<p><a href=\"https://decidim.barcelona/proposals/revisar-els-criteris-actuals-pels-quals-es-concedeixen-subvencions\">https://decidim.barcelona/proposals/revisar-els-criteris-actuals-pels-quals-es-concedeixen-subvencions</a></p>", 
            "commentable_id": 868, 
            "commentable_type": "Proposal", 
            "created_at": "12/04/2016 17:43:56", 
            "flagged": false, 
            "hidden": false, 
            "id": 14024, 
            "moderator_id": null, 
            "permissions": {
                "hide": false, 
                "hide_author": false, 
                "vote": false
            }, 
            "total_dislikes": 0, 
            "total_likes": 0, 
            "total_votes": 0
        }, 
        {
            "administrator_id": null, 
            "alignment": 0, 
            "ancestry": null, 
            "as": null, 
            "author": {
                "avatar_image": "https://decidim.barcelona/assets/avatar-866795c99abc33a3160d1f3fa93ada46eb75e54134e777666b9ed16215b26534.png", 
                "erased": false, 
                "hidden": false, 
                "id": 17740, 
                "name": "Suport General2 - Decidim Barcelona", 
                "official": false, 
                "official_level": 0, 
                "role": null, 
                "verified_organization": null
            }, 
            "body": "<p><a href=\"https://decidim.barcelona/proposals/fomentar-la-participacio-dels-homes\">https://decidim.barcelona/proposals/fomentar-la-participacio-dels-homes</a></p>", 
            "commentable_id": 868, 
            "commentable_type": "Proposal", 
            "created_at": "12/04/2016 18:14:48", 
            "flagged": false, 
            "hidden": false, 
            "id": 14100, 
            "moderator_id": null, 
            "permissions": {
                "hide": false, 
                "hide_author": false, 
                "vote": false
            }, 
            "total_dislikes": 0, 
            "total_likes": 0, 
            "total_votes": 0
        }, 
        {
            "administrator_id": null, 
            "alignment": 0, 
            "ancestry": null, 
            "as": null, 
            "author": {
                "avatar_image": "https://decidim.barcelona/assets/avatar-866795c99abc33a3160d1f3fa93ada46eb75e54134e777666b9ed16215b26534.png", 
                "erased": false, 
                "hidden": false, 
                "id": 17740, 
                "name": "Suport General2 - Decidim Barcelona", 
                "official": false, 
                "official_level": 0, 
                "role": null, 
                "verified_organization": null
            }, 
            "body": "<p><a href=\"https://decidim.barcelona/proposals/protegir-la-dona-dels-abusos-empresarials\">https://decidim.barcelona/proposals/protegir-la-dona-dels-abusos-empresarials</a></p>", 
            "commentable_id": 868, 
            "commentable_type": "Proposal", 
            "created_at": "15/04/2016 10:51:43", 
            "flagged": false, 
            "hidden": false, 
            "id": 16566, 
            "moderator_id": null, 
            "permissions": {
                "hide": false, 
                "hide_author": false, 
                "vote": false
            }, 
            "total_dislikes": 0, 
            "total_likes": 0, 
            "total_votes": 0
        }, 
        {
            "administrator_id": null, 
            "alignment": 0, 
            "ancestry": null, 
            "as": null, 
            "author": {
                "avatar_image": "https://decidim.barcelona/assets/avatar-866795c99abc33a3160d1f3fa93ada46eb75e54134e777666b9ed16215b26534.png", 
                "erased": false, 
                "hidden": false, 
                "id": 17740, 
                "name": "Suport General2 - Decidim Barcelona", 
                "official": false, 
                "official_level": 0, 
                "role": null, 
                "verified_organization": null
            }, 
            "body": "<p><a href=\"https://decidim.barcelona/proposals/fomentar-les-mesures-de-corresponsabilitat-orientades-al-sexe-masculi\">https://decidim.barcelona/proposals/fomentar-les-mesures-de-corresponsabilitat-orientades-al-sexe-masculi</a></p>", 
            "commentable_id": 868, 
            "commentable_type": "Proposal", 
            "created_at": "17/04/2016 13:13:42", 
            "flagged": false, 
            "hidden": false, 
            "id": 18602, 
            "moderator_id": null, 
            "permissions": {
                "hide": false, 
                "hide_author": false, 
                "vote": false
            }, 
            "total_dislikes": 0, 
            "total_likes": 0, 
            "total_votes": 0
        }
    ], 
    "meta": {
        "current_page": 3, 
        "next_page": null, 
        "prev_page": 2, 
        "total_count": 44, 
        "total_pages": 3
    }
}