{
    "comments": [
        {
            "administrator_id": null, 
            "alignment": 0, 
            "ancestry": null, 
            "as": null, 
            "author": {
                "avatar_image": "https://decidim.barcelona/assets/avatar-866795c99abc33a3160d1f3fa93ada46eb75e54134e777666b9ed16215b26534.png", 
                "erased": false, 
                "hidden": false, 
                "id": 17740, 
                "name": "Suport General2 - Decidim Barcelona", 
                "official": false, 
                "official_level": 0, 
                "role": null, 
                "verified_organization": null
            }, 
            "body": "<p><a href=\"https://decidim.barcelona/proposals/centres-planificacio-sexual\">https://decidim.barcelona/proposals/centres-planificacio-sexual</a></p>", 
            "commentable_id": 891, 
            "commentable_type": "Proposal", 
            "created_at": "08/04/2016 10:55:57", 
            "flagged": false, 
            "hidden": false, 
            "id": 10384, 
            "moderator_id": null, 
            "permissions": {
                "hide": false, 
                "hide_author": false, 
                "vote": false
            }, 
            "total_dislikes": 0, 
            "total_likes": 0, 
            "total_votes": 0
        }, 
        {
            "administrator_id": null, 
            "alignment": 0, 
            "ancestry": null, 
            "as": null, 
            "author": {
                "avatar_image": "https://decidim.barcelona/assets/avatar-866795c99abc33a3160d1f3fa93ada46eb75e54134e777666b9ed16215b26534.png", 
                "erased": false, 
                "hidden": false, 
                "id": 17740, 
                "name": "Suport General2 - Decidim Barcelona", 
                "official": false, 
                "official_level": 0, 
                "role": null, 
                "verified_organization": null
            }, 
            "body": "<p><a href=\"https://decidim.barcelona/proposals/repartir-condons-gratuits-als-joves-des-de-punts-estrategics\">https://decidim.barcelona/proposals/repartir-condons-gratuits-als-joves-des-de-punts-estrategics</a></p>", 
            "commentable_id": 891, 
            "commentable_type": "Proposal", 
            "created_at": "11/04/2016 15:43:54", 
            "flagged": false, 
            "hidden": false, 
            "id": 12861, 
            "moderator_id": null, 
            "permissions": {
                "hide": false, 
                "hide_author": false, 
                "vote": false
            }, 
            "total_dislikes": 0, 
            "total_likes": 0, 
            "total_votes": 0
        }, 
        {
            "administrator_id": null, 
            "alignment": 0, 
            "ancestry": null, 
            "as": null, 
            "author": {
                "avatar_image": "https://decidim.barcelona/assets/avatar-866795c99abc33a3160d1f3fa93ada46eb75e54134e777666b9ed16215b26534.png", 
                "erased": false, 
                "hidden": false, 
                "id": 17740, 
                "name": "Suport General2 - Decidim Barcelona", 
                "official": false, 
                "official_level": 0, 
                "role": null, 
                "verified_organization": null
            }, 
            "body": "<p><a href=\"https://decidim.barcelona/proposals/campanya-comunitaria-sobre-els-drets-sexuals\">https://decidim.barcelona/proposals/campanya-comunitaria-sobre-els-drets-sexuals</a></p>", 
            "commentable_id": 891, 
            "commentable_type": "Proposal", 
            "created_at": "11/04/2016 15:59:09", 
            "flagged": false, 
            "hidden": false, 
            "id": 12921, 
            "moderator_id": null, 
            "permissions": {
                "hide": false, 
                "hide_author": false, 
                "vote": false
            }, 
            "total_dislikes": 0, 
            "total_likes": 0, 
            "total_votes": 0
        }, 
        {
            "administrator_id": null, 
            "alignment": 0, 
            "ancestry": null, 
            "as": null, 
            "author": {
                "avatar_image": "https://decidim.barcelona/assets/avatar-866795c99abc33a3160d1f3fa93ada46eb75e54134e777666b9ed16215b26534.png", 
                "erased": false, 
                "hidden": false, 
                "id": 17740, 
                "name": "Suport General2 - Decidim Barcelona", 
                "official": false, 
                "official_level": 0, 
                "role": null, 
                "verified_organization": null
            }, 
            "body": "<p><a href=\"https://decidim.barcelona/proposals/treballar-en-la-implicacio-del-consum-de-drogues-en-relacions-sexuals-desprotegides-entre-homes\">https://decidim.barcelona/proposals/treballar-en-la-implicacio-del-consum-de-drogues-en-relacions-sexuals-desprotegides-entre-homes</a></p>", 
            "commentable_id": 891, 
            "commentable_type": "Proposal", 
            "created_at": "11/04/2016 15:59:55", 
            "flagged": false, 
            "hidden": false, 
            "id": 12924, 
            "moderator_id": null, 
            "permissions": {
                "hide": false, 
                "hide_author": false, 
                "vote": false
            }, 
            "total_dislikes": 0, 
            "total_likes": 0, 
            "total_votes": 0
        }, 
        {
            "administrator_id": null, 
            "alignment": 0, 
            "ancestry": null, 
            "as": null, 
            "author": {
                "avatar_image": "https://decidim.barcelona/assets/avatar-866795c99abc33a3160d1f3fa93ada46eb75e54134e777666b9ed16215b26534.png", 
                "erased": false, 
                "hidden": false, 
                "id": 17740, 
                "name": "Suport General2 - Decidim Barcelona", 
                "official": false, 
                "official_level": 0, 
                "role": null, 
                "verified_organization": null
            }, 
            "body": "<p><a href=\"https://decidim.barcelona/proposals/distribuir-anticonceptius-i-o-preservatius-de-franc-a-les-poblacions-en-risc\">https://decidim.barcelona/proposals/distribuir-anticonceptius-i-o-preservatius-de-franc-a-les-poblacions-en-risc</a></p>", 
            "commentable_id": 891, 
            "commentable_type": "Proposal", 
            "created_at": "12/04/2016 11:35:14", 
            "flagged": false, 
            "hidden": false, 
            "id": 13508, 
            "moderator_id": null, 
            "permissions": {
                "hide": false, 
                "hide_author": false, 
                "vote": false
            }, 
            "total_dislikes": 0, 
            "total_likes": 0, 
            "total_votes": 0
        }, 
        {
            "administrator_id": null, 
            "alignment": 0, 
            "ancestry": null, 
            "as": null, 
            "author": {
                "avatar_image": "https://decidim.barcelona/assets/avatar-866795c99abc33a3160d1f3fa93ada46eb75e54134e777666b9ed16215b26534.png", 
                "erased": false, 
                "hidden": false, 
                "id": 17740, 
                "name": "Suport General2 - Decidim Barcelona", 
                "official": false, 
                "official_level": 0, 
                "role": null, 
                "verified_organization": null
            }, 
            "body": "<p><a href=\"https://decidim.barcelona/proposals/promoure-projectes-per-combatre-el-preocupant-increment-d-embarassos-adolescents-al-districte\">https://decidim.barcelona/proposals/promoure-projectes-per-combatre-el-preocupant-increment-d-embarassos-adolescents-al-districte</a></p>", 
            "commentable_id": 891, 
            "commentable_type": "Proposal", 
            "created_at": "15/04/2016 11:05:56", 
            "flagged": false, 
            "hidden": false, 
            "id": 16605, 
            "moderator_id": null, 
            "permissions": {
                "hide": false, 
                "hide_author": false, 
                "vote": false
            }, 
            "total_dislikes": 0, 
            "total_likes": 0, 
            "total_votes": 0
        }
    ], 
    "meta": {
        "current_page": 2, 
        "next_page": null, 
        "prev_page": 1, 
        "total_count": 26, 
        "total_pages": 2
    }
}