{
    "comments": [
        {
            "administrator_id": null, 
            "alignment": 0, 
            "ancestry": null, 
            "as": null, 
            "author": {
                "avatar_image": "https://decidim.barcelona/assets/avatar-866795c99abc33a3160d1f3fa93ada46eb75e54134e777666b9ed16215b26534.png", 
                "erased": false, 
                "hidden": false, 
                "id": 17740, 
                "name": "Suport General2 - Decidim Barcelona", 
                "official": false, 
                "official_level": 0, 
                "role": null, 
                "verified_organization": null
            }, 
            "body": "<p><a href=\"https://decidim.barcelona/proposals/garantir-la-salut-de-la-poblacio-des-la-prevencio-comunitaria\">https://decidim.barcelona/proposals/garantir-la-salut-de-la-poblacio-des-la-prevencio-comunitaria</a></p>", 
            "commentable_id": 898, 
            "commentable_type": "Proposal", 
            "created_at": "08/04/2016 10:34:56", 
            "flagged": false, 
            "hidden": false, 
            "id": 10333, 
            "moderator_id": null, 
            "permissions": {
                "hide": false, 
                "hide_author": false, 
                "vote": false
            }, 
            "total_dislikes": 0, 
            "total_likes": 0, 
            "total_votes": 0
        }, 
        {
            "administrator_id": null, 
            "alignment": 0, 
            "ancestry": null, 
            "as": null, 
            "author": {
                "avatar_image": "https://decidim.barcelona/assets/avatar-866795c99abc33a3160d1f3fa93ada46eb75e54134e777666b9ed16215b26534.png", 
                "erased": false, 
                "hidden": false, 
                "id": 17740, 
                "name": "Suport General2 - Decidim Barcelona", 
                "official": false, 
                "official_level": 0, 
                "role": null, 
                "verified_organization": null
            }, 
            "body": "<p><a href=\"https://decidim.barcelona/proposals/incentivar-i-donar-suport-a-la-recerca-i-comprensio-de-l-economia-col-laborativa-procomu-cartografiar-la-presencia-de-l-amiant-a-barcelona\">https://decidim.barcelona/proposals/incentivar-i-donar-suport-a-la-recerca-i-comprensio-de-l-economia-col-laborativa-procomu-cartografiar-la-presencia-de-l-amiant-a-barcelona</a></p>", 
            "commentable_id": 898, 
            "commentable_type": "Proposal", 
            "created_at": "11/04/2016 15:28:27", 
            "flagged": false, 
            "hidden": false, 
            "id": 12819, 
            "moderator_id": null, 
            "permissions": {
                "hide": false, 
                "hide_author": false, 
                "vote": false
            }, 
            "total_dislikes": 0, 
            "total_likes": 0, 
            "total_votes": 0
        }, 
        {
            "administrator_id": null, 
            "alignment": 0, 
            "ancestry": null, 
            "as": null, 
            "author": {
                "avatar_image": "https://decidim.barcelona/assets/avatar-866795c99abc33a3160d1f3fa93ada46eb75e54134e777666b9ed16215b26534.png", 
                "erased": false, 
                "hidden": false, 
                "id": 17740, 
                "name": "Suport General2 - Decidim Barcelona", 
                "official": false, 
                "official_level": 0, 
                "role": null, 
                "verified_organization": null
            }, 
            "body": "<p><a href=\"https://decidim.barcelona/proposals/parlar-d-estrategies-per-garantir-programes-de-prevencio-universal\">https://decidim.barcelona/proposals/parlar-d-estrategies-per-garantir-programes-de-prevencio-universal</a></p>", 
            "commentable_id": 898, 
            "commentable_type": "Proposal", 
            "created_at": "11/04/2016 15:39:22", 
            "flagged": false, 
            "hidden": false, 
            "id": 12846, 
            "moderator_id": null, 
            "permissions": {
                "hide": false, 
                "hide_author": false, 
                "vote": false
            }, 
            "total_dislikes": 0, 
            "total_likes": 0, 
            "total_votes": 0
        }, 
        {
            "administrator_id": null, 
            "alignment": 0, 
            "ancestry": null, 
            "as": null, 
            "author": {
                "avatar_image": "https://decidim.barcelona/assets/avatar-866795c99abc33a3160d1f3fa93ada46eb75e54134e777666b9ed16215b26534.png", 
                "erased": false, 
                "hidden": false, 
                "id": 17740, 
                "name": "Suport General2 - Decidim Barcelona", 
                "official": false, 
                "official_level": 0, 
                "role": null, 
                "verified_organization": null
            }, 
            "body": "<p><a href=\"https://decidim.barcelona/proposals/donar-a-coneixer-les-plantes-medicinals-a-les-escoles\">https://decidim.barcelona/proposals/donar-a-coneixer-les-plantes-medicinals-a-les-escoles</a></p>", 
            "commentable_id": 898, 
            "commentable_type": "Proposal", 
            "created_at": "11/04/2016 15:43:22", 
            "flagged": false, 
            "hidden": false, 
            "id": 12858, 
            "moderator_id": null, 
            "permissions": {
                "hide": false, 
                "hide_author": false, 
                "vote": false
            }, 
            "total_dislikes": 0, 
            "total_likes": 0, 
            "total_votes": 0
        }, 
        {
            "administrator_id": null, 
            "alignment": 0, 
            "ancestry": null, 
            "as": null, 
            "author": {
                "avatar_image": "https://decidim.barcelona/assets/avatar-866795c99abc33a3160d1f3fa93ada46eb75e54134e777666b9ed16215b26534.png", 
                "erased": false, 
                "hidden": false, 
                "id": 17740, 
                "name": "Suport General2 - Decidim Barcelona", 
                "official": false, 
                "official_level": 0, 
                "role": null, 
                "verified_organization": null
            }, 
            "body": "<p><a href=\"https://decidim.barcelona/proposals/fibromialgia-instar-als-comercos-a-disposar-de-cadires-per-a-persones-grans-o-amb-malalties-que-cursen-amb-fatiga\">https://decidim.barcelona/proposals/fibromialgia-instar-als-comercos-a-disposar-de-cadires-per-a-persones-grans-o-amb-malalties-que-cursen-amb-fatiga</a></p>", 
            "commentable_id": 898, 
            "commentable_type": "Proposal", 
            "created_at": "11/04/2016 15:48:59", 
            "flagged": false, 
            "hidden": false, 
            "id": 12892, 
            "moderator_id": null, 
            "permissions": {
                "hide": false, 
                "hide_author": false, 
                "vote": false
            }, 
            "total_dislikes": 0, 
            "total_likes": 0, 
            "total_votes": 0
        }, 
        {
            "administrator_id": null, 
            "alignment": 0, 
            "ancestry": null, 
            "as": null, 
            "author": {
                "avatar_image": "https://decidim.barcelona/assets/avatar-866795c99abc33a3160d1f3fa93ada46eb75e54134e777666b9ed16215b26534.png", 
                "erased": false, 
                "hidden": false, 
                "id": 17740, 
                "name": "Suport General2 - Decidim Barcelona", 
                "official": false, 
                "official_level": 0, 
                "role": null, 
                "verified_organization": null
            }, 
            "body": "<p><a href=\"https://decidim.barcelona/proposals/fibromialgia-poder-disposar-d-algun-espai-centric-centre-civic-local-lliure-de-tallers-de-pintura-de-cuina\">https://decidim.barcelona/proposals/fibromialgia-poder-disposar-d-algun-espai-centric-centre-civic-local-lliure-de-tallers-de-pintura-de-cuina</a></p>", 
            "commentable_id": 898, 
            "commentable_type": "Proposal", 
            "created_at": "11/04/2016 15:52:02", 
            "flagged": false, 
            "hidden": false, 
            "id": 12901, 
            "moderator_id": null, 
            "permissions": {
                "hide": false, 
                "hide_author": false, 
                "vote": false
            }, 
            "total_dislikes": 0, 
            "total_likes": 0, 
            "total_votes": 0
        }, 
        {
            "administrator_id": null, 
            "alignment": 0, 
            "ancestry": null, 
            "as": null, 
            "author": {
                "avatar_image": "https://decidim.barcelona/assets/avatar-866795c99abc33a3160d1f3fa93ada46eb75e54134e777666b9ed16215b26534.png", 
                "erased": false, 
                "hidden": false, 
                "id": 17740, 
                "name": "Suport General2 - Decidim Barcelona", 
                "official": false, 
                "official_level": 0, 
                "role": null, 
                "verified_organization": null
            }, 
            "body": "<p><a href=\"https://decidim.barcelona/proposals/fibromialgia-disposar-bancs-i-espais-de-descans-repartits-per-tots-els-carrers-i-places\">https://decidim.barcelona/proposals/fibromialgia-disposar-bancs-i-espais-de-descans-repartits-per-tots-els-carrers-i-places</a></p>", 
            "commentable_id": 898, 
            "commentable_type": "Proposal", 
            "created_at": "11/04/2016 16:00:42", 
            "flagged": false, 
            "hidden": false, 
            "id": 12925, 
            "moderator_id": null, 
            "permissions": {
                "hide": false, 
                "hide_author": false, 
                "vote": false
            }, 
            "total_dislikes": 0, 
            "total_likes": 0, 
            "total_votes": 0
        }, 
        {
            "administrator_id": null, 
            "alignment": 0, 
            "ancestry": null, 
            "as": null, 
            "author": {
                "avatar_image": "https://decidim.barcelona/assets/avatar-866795c99abc33a3160d1f3fa93ada46eb75e54134e777666b9ed16215b26534.png", 
                "erased": false, 
                "hidden": false, 
                "id": 17740, 
                "name": "Suport General2 - Decidim Barcelona", 
                "official": false, 
                "official_level": 0, 
                "role": null, 
                "verified_organization": null
            }, 
            "body": "<p><a href=\"https://decidim.barcelona/proposals/impulsar-l-acompanyament-entre-iguals-en-totes-les-fases-de-la-prevencio\">https://decidim.barcelona/proposals/impulsar-l-acompanyament-entre-iguals-en-totes-les-fases-de-la-prevencio</a></p>", 
            "commentable_id": 898, 
            "commentable_type": "Proposal", 
            "created_at": "11/04/2016 16:02:15", 
            "flagged": false, 
            "hidden": false, 
            "id": 12930, 
            "moderator_id": null, 
            "permissions": {
                "hide": false, 
                "hide_author": false, 
                "vote": false
            }, 
            "total_dislikes": 0, 
            "total_likes": 0, 
            "total_votes": 0
        }, 
        {
            "administrator_id": null, 
            "alignment": 0, 
            "ancestry": null, 
            "as": null, 
            "author": {
                "avatar_image": "https://decidim.barcelona/assets/avatar-866795c99abc33a3160d1f3fa93ada46eb75e54134e777666b9ed16215b26534.png", 
                "erased": false, 
                "hidden": false, 
                "id": 17740, 
                "name": "Suport General2 - Decidim Barcelona", 
                "official": false, 
                "official_level": 0, 
                "role": null, 
                "verified_organization": null
            }, 
            "body": "<p><a href=\"https://decidim.barcelona/proposals/promocio-de-la-salut-a-les-escoles\">https://decidim.barcelona/proposals/promocio-de-la-salut-a-les-escoles</a></p>", 
            "commentable_id": 898, 
            "commentable_type": "Proposal", 
            "created_at": "11/04/2016 16:04:06", 
            "flagged": false, 
            "hidden": false, 
            "id": 12935, 
            "moderator_id": null, 
            "permissions": {
                "hide": false, 
                "hide_author": false, 
                "vote": false
            }, 
            "total_dislikes": 0, 
            "total_likes": 0, 
            "total_votes": 0
        }, 
        {
            "administrator_id": null, 
            "alignment": 0, 
            "ancestry": null, 
            "as": null, 
            "author": {
                "avatar_image": "https://decidim.barcelona/assets/avatar-866795c99abc33a3160d1f3fa93ada46eb75e54134e777666b9ed16215b26534.png", 
                "erased": false, 
                "hidden": false, 
                "id": 17740, 
                "name": "Suport General2 - Decidim Barcelona", 
                "official": false, 
                "official_level": 0, 
                "role": null, 
                "verified_organization": null
            }, 
            "body": "<p><a href=\"https://decidim.barcelona/proposals/crear-una-assignatura-de-salut-a-les-escoles-i-instituts\">https://decidim.barcelona/proposals/crear-una-assignatura-de-salut-a-les-escoles-i-instituts</a></p>", 
            "commentable_id": 898, 
            "commentable_type": "Proposal", 
            "created_at": "11/04/2016 16:04:49", 
            "flagged": false, 
            "hidden": false, 
            "id": 12938, 
            "moderator_id": null, 
            "permissions": {
                "hide": false, 
                "hide_author": false, 
                "vote": false
            }, 
            "total_dislikes": 0, 
            "total_likes": 0, 
            "total_votes": 0
        }, 
        {
            "administrator_id": null, 
            "alignment": 0, 
            "ancestry": null, 
            "as": null, 
            "author": {
                "avatar_image": "https://decidim.barcelona/assets/avatar-866795c99abc33a3160d1f3fa93ada46eb75e54134e777666b9ed16215b26534.png", 
                "erased": false, 
                "hidden": false, 
                "id": 17740, 
                "name": "Suport General2 - Decidim Barcelona", 
                "official": false, 
                "official_level": 0, 
                "role": null, 
                "verified_organization": null
            }, 
            "body": "<p><a href=\"https://decidim.barcelona/proposals/parlar-d-estrategies-per-garantir-programes-de-prevencio-universal-c8009daf-3a6a-403a-b0f3-42e10c316ac6\">https://decidim.barcelona/proposals/parlar-d-estrategies-per-garantir-programes-de-prevencio-universal-c8009daf-3a6a-403a-b0f3-42e10c316ac6</a></p>", 
            "commentable_id": 898, 
            "commentable_type": "Proposal", 
            "created_at": "11/04/2016 16:06:23", 
            "flagged": false, 
            "hidden": false, 
            "id": 12945, 
            "moderator_id": null, 
            "permissions": {
                "hide": false, 
                "hide_author": false, 
                "vote": false
            }, 
            "total_dislikes": 0, 
            "total_likes": 0, 
            "total_votes": 0
        }, 
        {
            "administrator_id": null, 
            "alignment": 0, 
            "ancestry": null, 
            "as": null, 
            "author": {
                "avatar_image": "https://decidim.barcelona/assets/avatar-866795c99abc33a3160d1f3fa93ada46eb75e54134e777666b9ed16215b26534.png", 
                "erased": false, 
                "hidden": false, 
                "id": 17740, 
                "name": "Suport General2 - Decidim Barcelona", 
                "official": false, 
                "official_level": 0, 
                "role": null, 
                "verified_organization": null
            }, 
            "body": "<p><a href=\"https://decidim.barcelona/proposals/regalar-llibres-d-habits-saludables-per-a-que-els-i-les-barcelonines-siguin-mes-sans\">https://decidim.barcelona/proposals/regalar-llibres-d-habits-saludables-per-a-que-els-i-les-barcelonines-siguin-mes-sans</a></p>", 
            "commentable_id": 898, 
            "commentable_type": "Proposal", 
            "created_at": "11/04/2016 16:06:53", 
            "flagged": false, 
            "hidden": false, 
            "id": 12947, 
            "moderator_id": null, 
            "permissions": {
                "hide": false, 
                "hide_author": false, 
                "vote": false
            }, 
            "total_dislikes": 0, 
            "total_likes": 0, 
            "total_votes": 0
        }, 
        {
            "administrator_id": null, 
            "alignment": 0, 
            "ancestry": null, 
            "as": null, 
            "author": {
                "avatar_image": "https://decidim.barcelona/assets/avatar-866795c99abc33a3160d1f3fa93ada46eb75e54134e777666b9ed16215b26534.png", 
                "erased": false, 
                "hidden": false, 
                "id": 17740, 
                "name": "Suport General2 - Decidim Barcelona", 
                "official": false, 
                "official_level": 0, 
                "role": null, 
                "verified_organization": null
            }, 
            "body": "<p><a href=\"https://decidim.barcelona/proposals/fibromialgia-disposar-d-un-espai-lliure-de-quimics\">https://decidim.barcelona/proposals/fibromialgia-disposar-d-un-espai-lliure-de-quimics</a></p>", 
            "commentable_id": 898, 
            "commentable_type": "Proposal", 
            "created_at": "11/04/2016 16:07:22", 
            "flagged": false, 
            "hidden": false, 
            "id": 12948, 
            "moderator_id": null, 
            "permissions": {
                "hide": false, 
                "hide_author": false, 
                "vote": false
            }, 
            "total_dislikes": 0, 
            "total_likes": 0, 
            "total_votes": 0
        }, 
        {
            "administrator_id": null, 
            "alignment": 0, 
            "ancestry": null, 
            "as": null, 
            "author": {
                "avatar_image": "https://decidim.barcelona/assets/avatar-866795c99abc33a3160d1f3fa93ada46eb75e54134e777666b9ed16215b26534.png", 
                "erased": false, 
                "hidden": false, 
                "id": 17740, 
                "name": "Suport General2 - Decidim Barcelona", 
                "official": false, 
                "official_level": 0, 
                "role": null, 
                "verified_organization": null
            }, 
            "body": "<p><a href=\"https://decidim.barcelona/proposals/neteja-de-la-via-publica\">https://decidim.barcelona/proposals/neteja-de-la-via-publica</a></p>", 
            "commentable_id": 898, 
            "commentable_type": "Proposal", 
            "created_at": "11/04/2016 16:09:07", 
            "flagged": false, 
            "hidden": false, 
            "id": 12952, 
            "moderator_id": null, 
            "permissions": {
                "hide": false, 
                "hide_author": false, 
                "vote": false
            }, 
            "total_dislikes": 0, 
            "total_likes": 0, 
            "total_votes": 0
        }, 
        {
            "administrator_id": null, 
            "alignment": 0, 
            "ancestry": null, 
            "as": null, 
            "author": {
                "avatar_image": "https://decidim.barcelona/assets/avatar-866795c99abc33a3160d1f3fa93ada46eb75e54134e777666b9ed16215b26534.png", 
                "erased": false, 
                "hidden": false, 
                "id": 17740, 
                "name": "Suport General2 - Decidim Barcelona", 
                "official": false, 
                "official_level": 0, 
                "role": null, 
                "verified_organization": null
            }, 
            "body": "<p><a href=\"https://decidim.barcelona/proposals/fibromialgia-treure-ambientadors-i-insecticides-dels-espais-publics\">https://decidim.barcelona/proposals/fibromialgia-treure-ambientadors-i-insecticides-dels-espais-publics</a></p>", 
            "commentable_id": 898, 
            "commentable_type": "Proposal", 
            "created_at": "11/04/2016 16:09:33", 
            "flagged": false, 
            "hidden": false, 
            "id": 12954, 
            "moderator_id": null, 
            "permissions": {
                "hide": false, 
                "hide_author": false, 
                "vote": false
            }, 
            "total_dislikes": 0, 
            "total_likes": 0, 
            "total_votes": 0
        }, 
        {
            "administrator_id": null, 
            "alignment": 0, 
            "ancestry": null, 
            "as": null, 
            "author": {
                "avatar_image": "https://decidim.barcelona/assets/avatar-866795c99abc33a3160d1f3fa93ada46eb75e54134e777666b9ed16215b26534.png", 
                "erased": false, 
                "hidden": false, 
                "id": 17740, 
                "name": "Suport General2 - Decidim Barcelona", 
                "official": false, 
                "official_level": 0, 
                "role": null, 
                "verified_organization": null
            }, 
            "body": "<p><a href=\"https://decidim.barcelona/proposals/vincular-els-professionals-que-ofereixen-formacio-en-l-ambit-de-la-salut-i-les-entitats-del-barri-per-coordinar-actuacions\">https://decidim.barcelona/proposals/vincular-els-professionals-que-ofereixen-formacio-en-l-ambit-de-la-salut-i-les-entitats-del-barri-per-coordinar-actuacions</a></p>", 
            "commentable_id": 898, 
            "commentable_type": "Proposal", 
            "created_at": "12/04/2016 10:58:19", 
            "flagged": false, 
            "hidden": false, 
            "id": 13430, 
            "moderator_id": null, 
            "permissions": {
                "hide": false, 
                "hide_author": false, 
                "vote": false
            }, 
            "total_dislikes": 0, 
            "total_likes": 0, 
            "total_votes": 0
        }, 
        {
            "administrator_id": null, 
            "alignment": 0, 
            "ancestry": null, 
            "as": null, 
            "author": {
                "avatar_image": "https://decidim.barcelona/assets/avatar-866795c99abc33a3160d1f3fa93ada46eb75e54134e777666b9ed16215b26534.png", 
                "erased": false, 
                "hidden": false, 
                "id": 17740, 
                "name": "Suport General2 - Decidim Barcelona", 
                "official": false, 
                "official_level": 0, 
                "role": null, 
                "verified_organization": null
            }, 
            "body": "<p><a href=\"https://decidim.barcelona/proposals/potenciar-el-consum-de-productes-ecologics\">https://decidim.barcelona/proposals/potenciar-el-consum-de-productes-ecologics</a></p>", 
            "commentable_id": 898, 
            "commentable_type": "Proposal", 
            "created_at": "12/04/2016 11:01:10", 
            "flagged": false, 
            "hidden": false, 
            "id": 13440, 
            "moderator_id": null, 
            "permissions": {
                "hide": false, 
                "hide_author": false, 
                "vote": false
            }, 
            "total_dislikes": 0, 
            "total_likes": 0, 
            "total_votes": 0
        }, 
        {
            "administrator_id": null, 
            "alignment": 0, 
            "ancestry": null, 
            "as": null, 
            "author": {
                "avatar_image": "https://decidim.barcelona/assets/avatar-866795c99abc33a3160d1f3fa93ada46eb75e54134e777666b9ed16215b26534.png", 
                "erased": false, 
                "hidden": false, 
                "id": 17740, 
                "name": "Suport General2 - Decidim Barcelona", 
                "official": false, 
                "official_level": 0, 
                "role": null, 
                "verified_organization": null
            }, 
            "body": "<p><a href=\"https://decidim.barcelona/proposals/promoure-campanyes-de-sensibilitzacio-cap-a-les-persones-amb-malaltia-mental-2b8a211a-09f9-4930-aa4a-780da0138046\">https://decidim.barcelona/proposals/promoure-campanyes-de-sensibilitzacio-cap-a-les-persones-amb-malaltia-mental-2b8a211a-09f9-4930-aa4a-780da0138046</a></p>", 
            "commentable_id": 898, 
            "commentable_type": "Proposal", 
            "created_at": "12/04/2016 11:24:43", 
            "flagged": false, 
            "hidden": false, 
            "id": 13491, 
            "moderator_id": null, 
            "permissions": {
                "hide": false, 
                "hide_author": false, 
                "vote": false
            }, 
            "total_dislikes": 0, 
            "total_likes": 0, 
            "total_votes": 0
        }, 
        {
            "administrator_id": null, 
            "alignment": 0, 
            "ancestry": null, 
            "as": null, 
            "author": {
                "avatar_image": "https://decidim.barcelona/assets/avatar-866795c99abc33a3160d1f3fa93ada46eb75e54134e777666b9ed16215b26534.png", 
                "erased": false, 
                "hidden": false, 
                "id": 17740, 
                "name": "Suport General2 - Decidim Barcelona", 
                "official": false, 
                "official_level": 0, 
                "role": null, 
                "verified_organization": null
            }, 
            "body": "<p><a href=\"https://decidim.barcelona/proposals/fer-una-ciutat-mes-amable-tranquil-la-i-amb-menys-estres\">https://decidim.barcelona/proposals/fer-una-ciutat-mes-amable-tranquil-la-i-amb-menys-estres</a></p>", 
            "commentable_id": 898, 
            "commentable_type": "Proposal", 
            "created_at": "12/04/2016 12:08:32", 
            "flagged": false, 
            "hidden": false, 
            "id": 13576, 
            "moderator_id": null, 
            "permissions": {
                "hide": false, 
                "hide_author": false, 
                "vote": false
            }, 
            "total_dislikes": 0, 
            "total_likes": 0, 
            "total_votes": 0
        }, 
        {
            "administrator_id": null, 
            "alignment": 0, 
            "ancestry": null, 
            "as": null, 
            "author": {
                "avatar_image": "https://decidim.barcelona/assets/avatar-866795c99abc33a3160d1f3fa93ada46eb75e54134e777666b9ed16215b26534.png", 
                "erased": false, 
                "hidden": false, 
                "id": 17740, 
                "name": "Suport General2 - Decidim Barcelona", 
                "official": false, 
                "official_level": 0, 
                "role": null, 
                "verified_organization": null
            }, 
            "body": "<p><a href=\"https://decidim.barcelona/proposals/millorar-els-aspectes-mediambientals-de-la-ciutat-per-millorar-la-salut-de-la-ciutadania\">https://decidim.barcelona/proposals/millorar-els-aspectes-mediambientals-de-la-ciutat-per-millorar-la-salut-de-la-ciutadania</a></p>", 
            "commentable_id": 898, 
            "commentable_type": "Proposal", 
            "created_at": "15/04/2016 11:04:43", 
            "flagged": false, 
            "hidden": false, 
            "id": 16602, 
            "moderator_id": null, 
            "permissions": {
                "hide": false, 
                "hide_author": false, 
                "vote": false
            }, 
            "total_dislikes": 0, 
            "total_likes": 0, 
            "total_votes": 0
        }
    ], 
    "meta": {
        "current_page": 3, 
        "next_page": 4, 
        "prev_page": 2, 
        "total_count": 62, 
        "total_pages": 4
    }
}