{
    "comments": [
        {
            "administrator_id": null, 
            "alignment": 1, 
            "ancestry": null, 
            "as": null, 
            "author": {
                "avatar_image": "https://decidim.barcelona/assets/avatar-866795c99abc33a3160d1f3fa93ada46eb75e54134e777666b9ed16215b26534.png", 
                "erased": false, 
                "hidden": false, 
                "id": 9259, 
                "name": "suport decidim.salut", 
                "official": false, 
                "official_level": 0, 
                "role": null, 
                "verified_organization": null
            }, 
            "body": "<p>Comentaris efectuats en el marc de la cita: Com creem salut als barris per reduir desigualtats</p>\n\n<p>\u2022\tDemanda general d\u2019augment dels recursos econ\u00f2mics i humans, i una demanda de reconeixement als professionals que fan feines de naturalesa comunit\u00e0ria. \n<br />\u2022\tImport\u00e0ncia d\u2019inclusi\u00f3 dels  diferents agents implicats en la promoci\u00f3 de la salut (educaci\u00f3, seguretat social, etc.).\n<br />\u2022\tVoldrien que es tingu\u00e9s en compte un gran treball en xarxa entre ve\u00efns, entitats,\u2026incloent tots els agents implicats en salut.\n<br />\u2022\tProposaven una millora de la xarxa entre els diferents nivells administratius, no nom\u00e9s entre sectors sin\u00f3 tamb\u00e9 de forma vertical, una millor coordinaci\u00f3 i treball en com\u00fa.\n<br />\u2022\tCoordinaci\u00f3 dels diferents programes que despleguen les administracions. \n<br />\u2022\tMajor difusi\u00f3 de la informaci\u00f3 de les activitats al territori, arribant a persones amb m\u00e9s dificultat d\u2019acc\u00e9s a la informaci\u00f3.\n<br />\u2022\tUna visi\u00f3 m\u00e9s transversal i social de la salut.\n<br />\u2022\tInversi\u00f3 en prevenci\u00f3.</p>\n\n<p>(continua)</p>", 
            "commentable_id": 898, 
            "commentable_type": "Proposal", 
            "created_at": "04/04/2016 12:32:32", 
            "flagged": false, 
            "hidden": false, 
            "id": 7732, 
            "moderator_id": null, 
            "permissions": {
                "hide": false, 
                "hide_author": false, 
                "vote": false
            }, 
            "total_dislikes": 0, 
            "total_likes": 0, 
            "total_votes": 0
        }, 
        {
            "administrator_id": null, 
            "alignment": 1, 
            "ancestry": null, 
            "as": null, 
            "author": {
                "avatar_image": "https://decidim.barcelona/assets/avatar-866795c99abc33a3160d1f3fa93ada46eb75e54134e777666b9ed16215b26534.png", 
                "erased": false, 
                "hidden": false, 
                "id": 9259, 
                "name": "suport decidim.salut", 
                "official": false, 
                "official_level": 0, 
                "role": null, 
                "verified_organization": null
            }, 
            "body": "<p>Comentaris efectuats en el marc de la cita: Com creem salut als barris per reduir desigualtats.</p>\n\n<p>\u2022\tCal m\u00e9s treball conjunt amb la ciutadania, fer-ho des de baix i no allunyats d'ells. Una veu diu que s\u00ed que \u00e9s necessari diferenciar els espais i que hi hagi un de professionals, per legitimar aquesta tasca i que sigui reconeguda des de la Instituci\u00f3 i un altre espai amb ciutadania per construir conjuntament.\n<br />\u2022\tTamb\u00e9 s'ha parlat de la import\u00e0ncia de la transversalitat i de la comunicaci\u00f3 entre les diferents \u00e0rees.\n<br />\u2022\tEs senyala que caldria establir i/o compartir uns criteris comuns a l'hora d'avaluar la salut comunit\u00e0ria. Es proposa: educaci\u00f3, treball i habitatge, a pesar de que es comenta que ja hi ha uns indicadors establerts.\n<br />\u2022\tDurant el debat es remarca i es reivindica la incorporaci\u00f3 de la mirada vers la salut mental ja que es considera que cal realitzar un treball m\u00e9s profund per la desestigmatitzaci\u00f3 i de sensibilitzaci\u00f3.</p>\n\n<p>(Continua)</p>", 
            "commentable_id": 898, 
            "commentable_type": "Proposal", 
            "created_at": "04/04/2016 12:33:33", 
            "flagged": false, 
            "hidden": false, 
            "id": 7733, 
            "moderator_id": null, 
            "permissions": {
                "hide": false, 
                "hide_author": false, 
                "vote": false
            }, 
            "total_dislikes": 0, 
            "total_likes": 0, 
            "total_votes": 0
        }, 
        {
            "administrator_id": null, 
            "alignment": 1, 
            "ancestry": null, 
            "as": null, 
            "author": {
                "avatar_image": "https://decidim.barcelona/assets/avatar-866795c99abc33a3160d1f3fa93ada46eb75e54134e777666b9ed16215b26534.png", 
                "erased": false, 
                "hidden": false, 
                "id": 9259, 
                "name": "suport decidim.salut", 
                "official": false, 
                "official_level": 0, 
                "role": null, 
                "verified_organization": null
            }, 
            "body": "<p>Comentaris efectuats a la cita: Com creem salut als barris per reduir desigualtats.</p>\n\n<p>\u2022\tCal m\u00e9s organitzaci\u00f3, m\u00e9s i millor coordinaci\u00f3, integraci\u00f3, creaci\u00f3 d\u2019aliances, treball en xarxa per evitar moltes duplicacions que s\u2019estan donant. \n<br />\u2022\tEl CAPs haurien de donar m\u00e9s informaci\u00f3 sobre els recursos i els actius en salut als territoris on intervenen. \n<br />\u2022\tHem d\u2019aprendre millor a convocar.</p>", 
            "commentable_id": 898, 
            "commentable_type": "Proposal", 
            "created_at": "04/04/2016 12:34:07", 
            "flagged": false, 
            "hidden": false, 
            "id": 7734, 
            "moderator_id": null, 
            "permissions": {
                "hide": false, 
                "hide_author": false, 
                "vote": false
            }, 
            "total_dislikes": 0, 
            "total_likes": 0, 
            "total_votes": 0
        }, 
        {
            "administrator_id": null, 
            "alignment": 0, 
            "ancestry": null, 
            "as": null, 
            "author": {
                "avatar_image": "https://decidim.barcelona/assets/avatar-866795c99abc33a3160d1f3fa93ada46eb75e54134e777666b9ed16215b26534.png", 
                "erased": false, 
                "hidden": false, 
                "id": 17740, 
                "name": "Suport General2 - Decidim Barcelona", 
                "official": false, 
                "official_level": 0, 
                "role": null, 
                "verified_organization": null
            }, 
            "body": "<p><a href=\"https://decidim.barcelona/proposals/prohibir-explicitament-fumar-a-les-parades-d-autobus\">https://decidim.barcelona/proposals/prohibir-explicitament-fumar-a-les-parades-d-autobus</a></p>", 
            "commentable_id": 898, 
            "commentable_type": "Proposal", 
            "created_at": "06/04/2016 19:41:20", 
            "flagged": false, 
            "hidden": false, 
            "id": 8861, 
            "moderator_id": null, 
            "permissions": {
                "hide": false, 
                "hide_author": false, 
                "vote": false
            }, 
            "total_dislikes": 0, 
            "total_likes": 0, 
            "total_votes": 0
        }, 
        {
            "administrator_id": null, 
            "alignment": 0, 
            "ancestry": null, 
            "as": null, 
            "author": {
                "avatar_image": "https://decidim.barcelona/assets/avatar-866795c99abc33a3160d1f3fa93ada46eb75e54134e777666b9ed16215b26534.png", 
                "erased": false, 
                "hidden": false, 
                "id": 17740, 
                "name": "Suport General2 - Decidim Barcelona", 
                "official": false, 
                "official_level": 0, 
                "role": null, 
                "verified_organization": null
            }, 
            "body": "<p><a href=\"https://decidim.barcelona/proposals/fomentar-i-treballar-la-salut-psicosocial-per-aconseguir-una-societat-mes-sana\">https://decidim.barcelona/proposals/fomentar-i-treballar-la-salut-psicosocial-per-aconseguir-una-societat-mes-sana</a></p>", 
            "commentable_id": 898, 
            "commentable_type": "Proposal", 
            "created_at": "06/04/2016 19:43:27", 
            "flagged": false, 
            "hidden": false, 
            "id": 8863, 
            "moderator_id": null, 
            "permissions": {
                "hide": false, 
                "hide_author": false, 
                "vote": false
            }, 
            "total_dislikes": 0, 
            "total_likes": 0, 
            "total_votes": 0
        }, 
        {
            "administrator_id": null, 
            "alignment": 0, 
            "ancestry": null, 
            "as": null, 
            "author": {
                "avatar_image": "https://decidim.barcelona/assets/avatar-866795c99abc33a3160d1f3fa93ada46eb75e54134e777666b9ed16215b26534.png", 
                "erased": false, 
                "hidden": false, 
                "id": 17740, 
                "name": "Suport General2 - Decidim Barcelona", 
                "official": false, 
                "official_level": 0, 
                "role": null, 
                "verified_organization": null
            }, 
            "body": "<p><a href=\"https://decidim.barcelona/proposals/terrazas-para-no-fumadores\">https://decidim.barcelona/proposals/terrazas-para-no-fumadores</a></p>", 
            "commentable_id": 898, 
            "commentable_type": "Proposal", 
            "created_at": "06/04/2016 19:55:40", 
            "flagged": false, 
            "hidden": false, 
            "id": 8874, 
            "moderator_id": null, 
            "permissions": {
                "hide": false, 
                "hide_author": false, 
                "vote": false
            }, 
            "total_dislikes": 0, 
            "total_likes": 0, 
            "total_votes": 0
        }, 
        {
            "administrator_id": null, 
            "alignment": 0, 
            "ancestry": null, 
            "as": null, 
            "author": {
                "avatar_image": "https://decidim.barcelona/assets/avatar-866795c99abc33a3160d1f3fa93ada46eb75e54134e777666b9ed16215b26534.png", 
                "erased": false, 
                "hidden": false, 
                "id": 17740, 
                "name": "Suport General2 - Decidim Barcelona", 
                "official": false, 
                "official_level": 0, 
                "role": null, 
                "verified_organization": null
            }, 
            "body": "<p><a href=\"https://decidim.barcelona/proposals/barcelona-una-ciutat-apta-pels-celiacs-garantir-acces-a-dieta-sense-gluten\">https://decidim.barcelona/proposals/barcelona-una-ciutat-apta-pels-celiacs-garantir-acces-a-dieta-sense-gluten</a></p>", 
            "commentable_id": 898, 
            "commentable_type": "Proposal", 
            "created_at": "07/04/2016 18:54:45", 
            "flagged": false, 
            "hidden": false, 
            "id": 9901, 
            "moderator_id": null, 
            "permissions": {
                "hide": false, 
                "hide_author": false, 
                "vote": false
            }, 
            "total_dislikes": 0, 
            "total_likes": 0, 
            "total_votes": 0
        }, 
        {
            "administrator_id": null, 
            "alignment": 0, 
            "ancestry": null, 
            "as": null, 
            "author": {
                "avatar_image": "https://decidim.barcelona/assets/avatar-866795c99abc33a3160d1f3fa93ada46eb75e54134e777666b9ed16215b26534.png", 
                "erased": false, 
                "hidden": false, 
                "id": 17740, 
                "name": "Suport General2 - Decidim Barcelona", 
                "official": false, 
                "official_level": 0, 
                "role": null, 
                "verified_organization": null
            }, 
            "body": "<p><a href=\"https://decidim.barcelona/proposals/piscinas-municipales-libres-de-cloro\">https://decidim.barcelona/proposals/piscinas-municipales-libres-de-cloro</a></p>", 
            "commentable_id": 898, 
            "commentable_type": "Proposal", 
            "created_at": "07/04/2016 18:59:20", 
            "flagged": false, 
            "hidden": false, 
            "id": 9909, 
            "moderator_id": null, 
            "permissions": {
                "hide": false, 
                "hide_author": false, 
                "vote": false
            }, 
            "total_dislikes": 0, 
            "total_likes": 0, 
            "total_votes": 0
        }, 
        {
            "administrator_id": null, 
            "alignment": 0, 
            "ancestry": null, 
            "as": null, 
            "author": {
                "avatar_image": "https://decidim.barcelona/assets/avatar-866795c99abc33a3160d1f3fa93ada46eb75e54134e777666b9ed16215b26534.png", 
                "erased": false, 
                "hidden": false, 
                "id": 17740, 
                "name": "Suport General2 - Decidim Barcelona", 
                "official": false, 
                "official_level": 0, 
                "role": null, 
                "verified_organization": null
            }, 
            "body": "<p><a href=\"https://decidim.barcelona/proposals/prohibir-ambientadors-a-tots-els-espais-on-sigui-vigent-la-llei-anti-tabac\">https://decidim.barcelona/proposals/prohibir-ambientadors-a-tots-els-espais-on-sigui-vigent-la-llei-anti-tabac</a></p>", 
            "commentable_id": 898, 
            "commentable_type": "Proposal", 
            "created_at": "07/04/2016 19:08:20", 
            "flagged": false, 
            "hidden": false, 
            "id": 9917, 
            "moderator_id": null, 
            "permissions": {
                "hide": false, 
                "hide_author": false, 
                "vote": false
            }, 
            "total_dislikes": 0, 
            "total_likes": 0, 
            "total_votes": 0
        }, 
        {
            "administrator_id": null, 
            "alignment": 0, 
            "ancestry": null, 
            "as": null, 
            "author": {
                "avatar_image": "https://decidim.barcelona/assets/avatar-866795c99abc33a3160d1f3fa93ada46eb75e54134e777666b9ed16215b26534.png", 
                "erased": false, 
                "hidden": false, 
                "id": 17740, 
                "name": "Suport General2 - Decidim Barcelona", 
                "official": false, 
                "official_level": 0, 
                "role": null, 
                "verified_organization": null
            }, 
            "body": "<p><a href=\"https://decidim.barcelona/proposals/prohibir-fumar-al-carrer-en-moviment\">https://decidim.barcelona/proposals/prohibir-fumar-al-carrer-en-moviment</a></p>", 
            "commentable_id": 898, 
            "commentable_type": "Proposal", 
            "created_at": "07/04/2016 19:09:36", 
            "flagged": false, 
            "hidden": false, 
            "id": 9922, 
            "moderator_id": null, 
            "permissions": {
                "hide": false, 
                "hide_author": false, 
                "vote": false
            }, 
            "total_dislikes": 0, 
            "total_likes": 0, 
            "total_votes": 0
        }, 
        {
            "administrator_id": null, 
            "alignment": 0, 
            "ancestry": null, 
            "as": null, 
            "author": {
                "avatar_image": "https://decidim.barcelona/assets/avatar-866795c99abc33a3160d1f3fa93ada46eb75e54134e777666b9ed16215b26534.png", 
                "erased": false, 
                "hidden": false, 
                "id": 17740, 
                "name": "Suport General2 - Decidim Barcelona", 
                "official": false, 
                "official_level": 0, 
                "role": null, 
                "verified_organization": null
            }, 
            "body": "<p><a href=\"https://decidim.barcelona/proposals/horaris-dermosaludables-piscines-descobertes\">https://decidim.barcelona/proposals/horaris-dermosaludables-piscines-descobertes</a></p>", 
            "commentable_id": 898, 
            "commentable_type": "Proposal", 
            "created_at": "07/04/2016 19:10:14", 
            "flagged": false, 
            "hidden": false, 
            "id": 9923, 
            "moderator_id": null, 
            "permissions": {
                "hide": false, 
                "hide_author": false, 
                "vote": false
            }, 
            "total_dislikes": 0, 
            "total_likes": 0, 
            "total_votes": 0
        }, 
        {
            "administrator_id": null, 
            "alignment": 0, 
            "ancestry": null, 
            "as": null, 
            "author": {
                "avatar_image": "https://decidim.barcelona/assets/avatar-866795c99abc33a3160d1f3fa93ada46eb75e54134e777666b9ed16215b26534.png", 
                "erased": false, 
                "hidden": false, 
                "id": 17740, 
                "name": "Suport General2 - Decidim Barcelona", 
                "official": false, 
                "official_level": 0, 
                "role": null, 
                "verified_organization": null
            }, 
            "body": "<p><a href=\"https://decidim.barcelona/proposals/prohibir-fumar-en-las-terrasas\">https://decidim.barcelona/proposals/prohibir-fumar-en-las-terrasas</a></p>", 
            "commentable_id": 898, 
            "commentable_type": "Proposal", 
            "created_at": "07/04/2016 19:15:15", 
            "flagged": false, 
            "hidden": false, 
            "id": 9934, 
            "moderator_id": null, 
            "permissions": {
                "hide": false, 
                "hide_author": false, 
                "vote": false
            }, 
            "total_dislikes": 0, 
            "total_likes": 0, 
            "total_votes": 0
        }, 
        {
            "administrator_id": null, 
            "alignment": 0, 
            "ancestry": null, 
            "as": null, 
            "author": {
                "avatar_image": "https://decidim.barcelona/assets/avatar-866795c99abc33a3160d1f3fa93ada46eb75e54134e777666b9ed16215b26534.png", 
                "erased": false, 
                "hidden": false, 
                "id": 17740, 
                "name": "Suport General2 - Decidim Barcelona", 
                "official": false, 
                "official_level": 0, 
                "role": null, 
                "verified_organization": null
            }, 
            "body": "<p><a href=\"https://decidim.barcelona/proposals/identificar-nanoproductes-en-construccio-i-asfaltat-i-prohibicio\">https://decidim.barcelona/proposals/identificar-nanoproductes-en-construccio-i-asfaltat-i-prohibicio</a></p>", 
            "commentable_id": 898, 
            "commentable_type": "Proposal", 
            "created_at": "07/04/2016 19:26:54", 
            "flagged": false, 
            "hidden": false, 
            "id": 9964, 
            "moderator_id": null, 
            "permissions": {
                "hide": false, 
                "hide_author": false, 
                "vote": false
            }, 
            "total_dislikes": 0, 
            "total_likes": 0, 
            "total_votes": 0
        }, 
        {
            "administrator_id": null, 
            "alignment": 0, 
            "ancestry": null, 
            "as": null, 
            "author": {
                "avatar_image": "https://decidim.barcelona/assets/avatar-866795c99abc33a3160d1f3fa93ada46eb75e54134e777666b9ed16215b26534.png", 
                "erased": false, 
                "hidden": false, 
                "id": 17740, 
                "name": "Suport General2 - Decidim Barcelona", 
                "official": false, 
                "official_level": 0, 
                "role": null, 
                "verified_organization": null
            }, 
            "body": "<p><a href=\"https://decidim.barcelona/proposals/inspectors-alimentacio\">https://decidim.barcelona/proposals/inspectors-alimentacio</a></p>", 
            "commentable_id": 898, 
            "commentable_type": "Proposal", 
            "created_at": "07/04/2016 19:32:09", 
            "flagged": false, 
            "hidden": false, 
            "id": 9978, 
            "moderator_id": null, 
            "permissions": {
                "hide": false, 
                "hide_author": false, 
                "vote": false
            }, 
            "total_dislikes": 0, 
            "total_likes": 0, 
            "total_votes": 0
        }, 
        {
            "administrator_id": null, 
            "alignment": 0, 
            "ancestry": null, 
            "as": null, 
            "author": {
                "avatar_image": "https://decidim.barcelona/assets/avatar-866795c99abc33a3160d1f3fa93ada46eb75e54134e777666b9ed16215b26534.png", 
                "erased": false, 
                "hidden": false, 
                "id": 17740, 
                "name": "Suport General2 - Decidim Barcelona", 
                "official": false, 
                "official_level": 0, 
                "role": null, 
                "verified_organization": null
            }, 
            "body": "<p><a href=\"https://decidim.barcelona/proposals/controlar-las-emisiones-y-radiaciones-electromagneticas-nocivas\">https://decidim.barcelona/proposals/controlar-las-emisiones-y-radiaciones-electromagneticas-nocivas</a></p>", 
            "commentable_id": 898, 
            "commentable_type": "Proposal", 
            "created_at": "07/04/2016 19:35:02", 
            "flagged": false, 
            "hidden": false, 
            "id": 9985, 
            "moderator_id": null, 
            "permissions": {
                "hide": false, 
                "hide_author": false, 
                "vote": false
            }, 
            "total_dislikes": 0, 
            "total_likes": 0, 
            "total_votes": 0
        }, 
        {
            "administrator_id": null, 
            "alignment": 0, 
            "ancestry": null, 
            "as": null, 
            "author": {
                "avatar_image": "https://decidim.barcelona/assets/avatar-866795c99abc33a3160d1f3fa93ada46eb75e54134e777666b9ed16215b26534.png", 
                "erased": false, 
                "hidden": false, 
                "id": 17740, 
                "name": "Suport General2 - Decidim Barcelona", 
                "official": false, 
                "official_level": 0, 
                "role": null, 
                "verified_organization": null
            }, 
            "body": "<p><a href=\"https://decidim.barcelona/proposals/millorar-la-qualitat-d-aigua-potable-per-evitar-el-consum-d-aigua-de-les-ampolles-de-plastic\">https://decidim.barcelona/proposals/millorar-la-qualitat-d-aigua-potable-per-evitar-el-consum-d-aigua-de-les-ampolles-de-plastic</a></p>", 
            "commentable_id": 898, 
            "commentable_type": "Proposal", 
            "created_at": "07/04/2016 19:35:56", 
            "flagged": false, 
            "hidden": false, 
            "id": 9986, 
            "moderator_id": null, 
            "permissions": {
                "hide": false, 
                "hide_author": false, 
                "vote": false
            }, 
            "total_dislikes": 0, 
            "total_likes": 0, 
            "total_votes": 0
        }, 
        {
            "administrator_id": null, 
            "alignment": 0, 
            "ancestry": null, 
            "as": null, 
            "author": {
                "avatar_image": "https://decidim.barcelona/assets/avatar-866795c99abc33a3160d1f3fa93ada46eb75e54134e777666b9ed16215b26534.png", 
                "erased": false, 
                "hidden": false, 
                "id": 17740, 
                "name": "Suport General2 - Decidim Barcelona", 
                "official": false, 
                "official_level": 0, 
                "role": null, 
                "verified_organization": null
            }, 
            "body": "<p><a href=\"https://decidim.barcelona/proposals/salut-comunitaria-a-traves-de-projectes-socials-i-comunitaris\">https://decidim.barcelona/proposals/salut-comunitaria-a-traves-de-projectes-socials-i-comunitaris</a></p>", 
            "commentable_id": 898, 
            "commentable_type": "Proposal", 
            "created_at": "07/04/2016 19:43:12", 
            "flagged": false, 
            "hidden": false, 
            "id": 10004, 
            "moderator_id": null, 
            "permissions": {
                "hide": false, 
                "hide_author": false, 
                "vote": false
            }, 
            "total_dislikes": 0, 
            "total_likes": 0, 
            "total_votes": 0
        }, 
        {
            "administrator_id": null, 
            "alignment": 0, 
            "ancestry": null, 
            "as": null, 
            "author": {
                "avatar_image": "https://decidim.barcelona/assets/avatar-866795c99abc33a3160d1f3fa93ada46eb75e54134e777666b9ed16215b26534.png", 
                "erased": false, 
                "hidden": false, 
                "id": 17740, 
                "name": "Suport General2 - Decidim Barcelona", 
                "official": false, 
                "official_level": 0, 
                "role": null, 
                "verified_organization": null
            }, 
            "body": "<p><a href=\"https://decidim.barcelona/proposals/establir-col-laboracions-amb-centres-esportius\">https://decidim.barcelona/proposals/establir-col-laboracions-amb-centres-esportius</a></p>", 
            "commentable_id": 898, 
            "commentable_type": "Proposal", 
            "created_at": "07/04/2016 19:57:35", 
            "flagged": false, 
            "hidden": false, 
            "id": 10021, 
            "moderator_id": null, 
            "permissions": {
                "hide": false, 
                "hide_author": false, 
                "vote": false
            }, 
            "total_dislikes": 0, 
            "total_likes": 0, 
            "total_votes": 0
        }, 
        {
            "administrator_id": null, 
            "alignment": 0, 
            "ancestry": null, 
            "as": null, 
            "author": {
                "avatar_image": "https://decidim.barcelona/assets/avatar-866795c99abc33a3160d1f3fa93ada46eb75e54134e777666b9ed16215b26534.png", 
                "erased": false, 
                "hidden": false, 
                "id": 17740, 
                "name": "Suport General2 - Decidim Barcelona", 
                "official": false, 
                "official_level": 0, 
                "role": null, 
                "verified_organization": null
            }, 
            "body": "<p><a href=\"https://decidim.barcelona/proposals/recuperar-la-figura-de-les-mediadores-agents-femenins-en-salut-comunitaria\">https://decidim.barcelona/proposals/recuperar-la-figura-de-les-mediadores-agents-femenins-en-salut-comunitaria</a></p>", 
            "commentable_id": 898, 
            "commentable_type": "Proposal", 
            "created_at": "07/04/2016 20:36:17", 
            "flagged": false, 
            "hidden": false, 
            "id": 10046, 
            "moderator_id": null, 
            "permissions": {
                "hide": false, 
                "hide_author": false, 
                "vote": false
            }, 
            "total_dislikes": 0, 
            "total_likes": 0, 
            "total_votes": 0
        }, 
        {
            "administrator_id": null, 
            "alignment": 0, 
            "ancestry": null, 
            "as": null, 
            "author": {
                "avatar_image": "https://decidim.barcelona/assets/avatar-866795c99abc33a3160d1f3fa93ada46eb75e54134e777666b9ed16215b26534.png", 
                "erased": false, 
                "hidden": false, 
                "id": 17740, 
                "name": "Suport General2 - Decidim Barcelona", 
                "official": false, 
                "official_level": 0, 
                "role": null, 
                "verified_organization": null
            }, 
            "body": "<p><a href=\"https://decidim.barcelona/proposals/facilitar-l-acces-a-la-informacio-en-materia-de-salut\">https://decidim.barcelona/proposals/facilitar-l-acces-a-la-informacio-en-materia-de-salut</a></p>", 
            "commentable_id": 898, 
            "commentable_type": "Proposal", 
            "created_at": "07/04/2016 20:40:26", 
            "flagged": false, 
            "hidden": false, 
            "id": 10053, 
            "moderator_id": null, 
            "permissions": {
                "hide": false, 
                "hide_author": false, 
                "vote": false
            }, 
            "total_dislikes": 0, 
            "total_likes": 0, 
            "total_votes": 0
        }
    ], 
    "meta": {
        "current_page": 1, 
        "next_page": 2, 
        "prev_page": null, 
        "total_count": 62, 
        "total_pages": 4
    }
}