{
    "comments": [
        {
            "administrator_id": null, 
            "alignment": 0, 
            "ancestry": null, 
            "as": null, 
            "author": {
                "avatar_image": "https://decidim.barcelona/assets/avatar-866795c99abc33a3160d1f3fa93ada46eb75e54134e777666b9ed16215b26534.png", 
                "erased": false, 
                "hidden": false, 
                "id": 17740, 
                "name": "Suport General2 - Decidim Barcelona", 
                "official": false, 
                "official_level": 0, 
                "role": null, 
                "verified_organization": null
            }, 
            "body": "<p><a href=\"https://decidim.barcelona/proposals/politiques-transversals-de-salut-sota-un-paradigma-de-salut-en-totes-les-politiques\">https://decidim.barcelona/proposals/politiques-transversals-de-salut-sota-un-paradigma-de-salut-en-totes-les-politiques</a></p>", 
            "commentable_id": 898, 
            "commentable_type": "Proposal", 
            "created_at": "07/04/2016 20:41:48", 
            "flagged": false, 
            "hidden": false, 
            "id": 10056, 
            "moderator_id": null, 
            "permissions": {
                "hide": false, 
                "hide_author": false, 
                "vote": false
            }, 
            "total_dislikes": 0, 
            "total_likes": 0, 
            "total_votes": 0
        }, 
        {
            "administrator_id": null, 
            "alignment": 0, 
            "ancestry": null, 
            "as": null, 
            "author": {
                "avatar_image": "https://decidim.barcelona/assets/avatar-866795c99abc33a3160d1f3fa93ada46eb75e54134e777666b9ed16215b26534.png", 
                "erased": false, 
                "hidden": false, 
                "id": 17740, 
                "name": "Suport General2 - Decidim Barcelona", 
                "official": false, 
                "official_level": 0, 
                "role": null, 
                "verified_organization": null
            }, 
            "body": "<p><a href=\"https://decidim.barcelona/proposals/millorar-i-integrar-el-model-bio-psico-social\">https://decidim.barcelona/proposals/millorar-i-integrar-el-model-bio-psico-social</a></p>", 
            "commentable_id": 898, 
            "commentable_type": "Proposal", 
            "created_at": "07/04/2016 20:42:27", 
            "flagged": false, 
            "hidden": false, 
            "id": 10057, 
            "moderator_id": null, 
            "permissions": {
                "hide": false, 
                "hide_author": false, 
                "vote": false
            }, 
            "total_dislikes": 0, 
            "total_likes": 0, 
            "total_votes": 0
        }, 
        {
            "administrator_id": null, 
            "alignment": 0, 
            "ancestry": null, 
            "as": null, 
            "author": {
                "avatar_image": "https://decidim.barcelona/assets/avatar-866795c99abc33a3160d1f3fa93ada46eb75e54134e777666b9ed16215b26534.png", 
                "erased": false, 
                "hidden": false, 
                "id": 17740, 
                "name": "Suport General2 - Decidim Barcelona", 
                "official": false, 
                "official_level": 0, 
                "role": null, 
                "verified_organization": null
            }, 
            "body": "<p><a href=\"https://decidim.barcelona/proposals/impulsar-un-pla-de-comunicacio-sobre-salut-i-sanitat\">https://decidim.barcelona/proposals/impulsar-un-pla-de-comunicacio-sobre-salut-i-sanitat</a></p>", 
            "commentable_id": 898, 
            "commentable_type": "Proposal", 
            "created_at": "07/04/2016 20:44:39", 
            "flagged": false, 
            "hidden": false, 
            "id": 10059, 
            "moderator_id": null, 
            "permissions": {
                "hide": false, 
                "hide_author": false, 
                "vote": false
            }, 
            "total_dislikes": 0, 
            "total_likes": 0, 
            "total_votes": 0
        }, 
        {
            "administrator_id": null, 
            "alignment": 0, 
            "ancestry": null, 
            "as": null, 
            "author": {
                "avatar_image": "https://decidim.barcelona/assets/avatar-866795c99abc33a3160d1f3fa93ada46eb75e54134e777666b9ed16215b26534.png", 
                "erased": false, 
                "hidden": false, 
                "id": 17740, 
                "name": "Suport General2 - Decidim Barcelona", 
                "official": false, 
                "official_level": 0, 
                "role": null, 
                "verified_organization": null
            }, 
            "body": "<p><a href=\"https://decidim.barcelona/proposals/impulsar-programes-de-vigilancia-epidemiologica\">https://decidim.barcelona/proposals/impulsar-programes-de-vigilancia-epidemiologica</a></p>", 
            "commentable_id": 898, 
            "commentable_type": "Proposal", 
            "created_at": "07/04/2016 20:49:21", 
            "flagged": false, 
            "hidden": false, 
            "id": 10064, 
            "moderator_id": null, 
            "permissions": {
                "hide": false, 
                "hide_author": false, 
                "vote": false
            }, 
            "total_dislikes": 0, 
            "total_likes": 0, 
            "total_votes": 0
        }, 
        {
            "administrator_id": null, 
            "alignment": 0, 
            "ancestry": null, 
            "as": null, 
            "author": {
                "avatar_image": "https://decidim.barcelona/assets/avatar-866795c99abc33a3160d1f3fa93ada46eb75e54134e777666b9ed16215b26534.png", 
                "erased": false, 
                "hidden": false, 
                "id": 17740, 
                "name": "Suport General2 - Decidim Barcelona", 
                "official": false, 
                "official_level": 0, 
                "role": null, 
                "verified_organization": null
            }, 
            "body": "<p><a href=\"https://decidim.barcelona/proposals/incorporar-la-visio-social-de-la-salut\">https://decidim.barcelona/proposals/incorporar-la-visio-social-de-la-salut</a></p>", 
            "commentable_id": 898, 
            "commentable_type": "Proposal", 
            "created_at": "07/04/2016 20:50:48", 
            "flagged": false, 
            "hidden": false, 
            "id": 10066, 
            "moderator_id": null, 
            "permissions": {
                "hide": false, 
                "hide_author": false, 
                "vote": false
            }, 
            "total_dislikes": 0, 
            "total_likes": 0, 
            "total_votes": 0
        }, 
        {
            "administrator_id": null, 
            "alignment": 0, 
            "ancestry": null, 
            "as": null, 
            "author": {
                "avatar_image": "https://decidim.barcelona/assets/avatar-866795c99abc33a3160d1f3fa93ada46eb75e54134e777666b9ed16215b26534.png", 
                "erased": false, 
                "hidden": false, 
                "id": 17740, 
                "name": "Suport General2 - Decidim Barcelona", 
                "official": false, 
                "official_level": 0, 
                "role": null, 
                "verified_organization": null
            }, 
            "body": "<p><a href=\"https://decidim.barcelona/proposals/charlas-sobre-nutricion-y-dietetica\">https://decidim.barcelona/proposals/charlas-sobre-nutricion-y-dietetica</a></p>", 
            "commentable_id": 898, 
            "commentable_type": "Proposal", 
            "created_at": "07/04/2016 20:55:16", 
            "flagged": false, 
            "hidden": false, 
            "id": 10073, 
            "moderator_id": null, 
            "permissions": {
                "hide": false, 
                "hide_author": false, 
                "vote": false
            }, 
            "total_dislikes": 0, 
            "total_likes": 0, 
            "total_votes": 0
        }, 
        {
            "administrator_id": null, 
            "alignment": 0, 
            "ancestry": null, 
            "as": null, 
            "author": {
                "avatar_image": "https://decidim.barcelona/assets/avatar-866795c99abc33a3160d1f3fa93ada46eb75e54134e777666b9ed16215b26534.png", 
                "erased": false, 
                "hidden": false, 
                "id": 17740, 
                "name": "Suport General2 - Decidim Barcelona", 
                "official": false, 
                "official_level": 0, 
                "role": null, 
                "verified_organization": null
            }, 
            "body": "<p><a href=\"https://decidim.barcelona/proposals/les-noves-tecnologies-per-a-prevenir-l-aillament\">https://decidim.barcelona/proposals/les-noves-tecnologies-per-a-prevenir-l-aillament</a></p>", 
            "commentable_id": 898, 
            "commentable_type": "Proposal", 
            "created_at": "07/04/2016 20:55:58", 
            "flagged": false, 
            "hidden": false, 
            "id": 10074, 
            "moderator_id": null, 
            "permissions": {
                "hide": false, 
                "hide_author": false, 
                "vote": false
            }, 
            "total_dislikes": 0, 
            "total_likes": 0, 
            "total_votes": 0
        }, 
        {
            "administrator_id": null, 
            "alignment": 0, 
            "ancestry": null, 
            "as": null, 
            "author": {
                "avatar_image": "https://decidim.barcelona/assets/avatar-866795c99abc33a3160d1f3fa93ada46eb75e54134e777666b9ed16215b26534.png", 
                "erased": false, 
                "hidden": false, 
                "id": 17740, 
                "name": "Suport General2 - Decidim Barcelona", 
                "official": false, 
                "official_level": 0, 
                "role": null, 
                "verified_organization": null
            }, 
            "body": "<p><a href=\"https://decidim.barcelona/proposals/centres-terapeutics-residencials-de-proximitat-per-adolescents\">https://decidim.barcelona/proposals/centres-terapeutics-residencials-de-proximitat-per-adolescents</a></p>", 
            "commentable_id": 898, 
            "commentable_type": "Proposal", 
            "created_at": "07/04/2016 21:08:32", 
            "flagged": false, 
            "hidden": false, 
            "id": 10079, 
            "moderator_id": null, 
            "permissions": {
                "hide": false, 
                "hide_author": false, 
                "vote": false
            }, 
            "total_dislikes": 0, 
            "total_likes": 0, 
            "total_votes": 0
        }, 
        {
            "administrator_id": null, 
            "alignment": 0, 
            "ancestry": null, 
            "as": null, 
            "author": {
                "avatar_image": "https://decidim.barcelona/assets/avatar-866795c99abc33a3160d1f3fa93ada46eb75e54134e777666b9ed16215b26534.png", 
                "erased": false, 
                "hidden": false, 
                "id": 17740, 
                "name": "Suport General2 - Decidim Barcelona", 
                "official": false, 
                "official_level": 0, 
                "role": null, 
                "verified_organization": null
            }, 
            "body": "<p><a href=\"https://decidim.barcelona/proposals/incloure-en-el-pla-de-salut-comunitaria-una-mencio-especifica-als-centres-educatius-i-al-paper-rellevant-que-tenen-en-relacio-a-la-prevencio-de-la-salut\">https://decidim.barcelona/proposals/incloure-en-el-pla-de-salut-comunitaria-una-mencio-especifica-als-centres-educatius-i-al-paper-rellevant-que-tenen-en-relacio-a-la-prevencio-de-la-salut</a></p>", 
            "commentable_id": 898, 
            "commentable_type": "Proposal", 
            "created_at": "07/04/2016 21:13:23", 
            "flagged": false, 
            "hidden": false, 
            "id": 10085, 
            "moderator_id": null, 
            "permissions": {
                "hide": false, 
                "hide_author": false, 
                "vote": false
            }, 
            "total_dislikes": 0, 
            "total_likes": 0, 
            "total_votes": 0
        }, 
        {
            "administrator_id": null, 
            "alignment": 0, 
            "ancestry": null, 
            "as": null, 
            "author": {
                "avatar_image": "https://decidim.barcelona/assets/avatar-866795c99abc33a3160d1f3fa93ada46eb75e54134e777666b9ed16215b26534.png", 
                "erased": false, 
                "hidden": false, 
                "id": 17740, 
                "name": "Suport General2 - Decidim Barcelona", 
                "official": false, 
                "official_level": 0, 
                "role": null, 
                "verified_organization": null
            }, 
            "body": "<p><a href=\"https://decidim.barcelona/proposals/reforcar-el-paper-dels-serveis-socials-en-l-accio-comunitaria-i-la-prevencio-de-la-salut\">https://decidim.barcelona/proposals/reforcar-el-paper-dels-serveis-socials-en-l-accio-comunitaria-i-la-prevencio-de-la-salut</a></p>", 
            "commentable_id": 898, 
            "commentable_type": "Proposal", 
            "created_at": "07/04/2016 21:14:05", 
            "flagged": false, 
            "hidden": false, 
            "id": 10086, 
            "moderator_id": null, 
            "permissions": {
                "hide": false, 
                "hide_author": false, 
                "vote": false
            }, 
            "total_dislikes": 0, 
            "total_likes": 0, 
            "total_votes": 0
        }, 
        {
            "administrator_id": null, 
            "alignment": 0, 
            "ancestry": null, 
            "as": null, 
            "author": {
                "avatar_image": "https://decidim.barcelona/assets/avatar-866795c99abc33a3160d1f3fa93ada46eb75e54134e777666b9ed16215b26534.png", 
                "erased": false, 
                "hidden": false, 
                "id": 17740, 
                "name": "Suport General2 - Decidim Barcelona", 
                "official": false, 
                "official_level": 0, 
                "role": null, 
                "verified_organization": null
            }, 
            "body": "<p><a href=\"https://decidim.barcelona/proposals/oferir-grups-d-habilitats-de-crianca-per-a-families-de-tots-els-barris-amb-perspectiva-d-equitat-de-genere\">https://decidim.barcelona/proposals/oferir-grups-d-habilitats-de-crianca-per-a-families-de-tots-els-barris-amb-perspectiva-d-equitat-de-genere</a></p>", 
            "commentable_id": 898, 
            "commentable_type": "Proposal", 
            "created_at": "07/04/2016 21:15:46", 
            "flagged": false, 
            "hidden": false, 
            "id": 10088, 
            "moderator_id": null, 
            "permissions": {
                "hide": false, 
                "hide_author": false, 
                "vote": false
            }, 
            "total_dislikes": 0, 
            "total_likes": 0, 
            "total_votes": 0
        }, 
        {
            "administrator_id": null, 
            "alignment": 0, 
            "ancestry": null, 
            "as": null, 
            "author": {
                "avatar_image": "https://decidim.barcelona/assets/avatar-866795c99abc33a3160d1f3fa93ada46eb75e54134e777666b9ed16215b26534.png", 
                "erased": false, 
                "hidden": false, 
                "id": 17740, 
                "name": "Suport General2 - Decidim Barcelona", 
                "official": false, 
                "official_level": 0, 
                "role": null, 
                "verified_organization": null
            }, 
            "body": "<p><a href=\"https://decidim.barcelona/proposals/garantir-recursos-per-poder-treballar-amb-les-escoles-per-a-que-els-programes-d-educacio-per-la-salut-puguin-tenir-cobertura-municipal\">https://decidim.barcelona/proposals/garantir-recursos-per-poder-treballar-amb-les-escoles-per-a-que-els-programes-d-educacio-per-la-salut-puguin-tenir-cobertura-municipal</a></p>", 
            "commentable_id": 898, 
            "commentable_type": "Proposal", 
            "created_at": "07/04/2016 21:16:18", 
            "flagged": false, 
            "hidden": false, 
            "id": 10089, 
            "moderator_id": null, 
            "permissions": {
                "hide": false, 
                "hide_author": false, 
                "vote": false
            }, 
            "total_dislikes": 0, 
            "total_likes": 0, 
            "total_votes": 0
        }, 
        {
            "administrator_id": null, 
            "alignment": 0, 
            "ancestry": null, 
            "as": null, 
            "author": {
                "avatar_image": "https://decidim.barcelona/assets/avatar-866795c99abc33a3160d1f3fa93ada46eb75e54134e777666b9ed16215b26534.png", 
                "erased": false, 
                "hidden": false, 
                "id": 17740, 
                "name": "Suport General2 - Decidim Barcelona", 
                "official": false, 
                "official_level": 0, 
                "role": null, 
                "verified_organization": null
            }, 
            "body": "<p><a href=\"https://decidim.barcelona/proposals/augmentar-actuacions-per-fomentar-una-alimentacio-equilibrada-i-segura-i-promoure-l-activitat-fisica\">https://decidim.barcelona/proposals/augmentar-actuacions-per-fomentar-una-alimentacio-equilibrada-i-segura-i-promoure-l-activitat-fisica</a></p>", 
            "commentable_id": 898, 
            "commentable_type": "Proposal", 
            "created_at": "07/04/2016 21:18:06", 
            "flagged": false, 
            "hidden": false, 
            "id": 10091, 
            "moderator_id": null, 
            "permissions": {
                "hide": false, 
                "hide_author": false, 
                "vote": false
            }, 
            "total_dislikes": 0, 
            "total_likes": 0, 
            "total_votes": 0
        }, 
        {
            "administrator_id": null, 
            "alignment": 0, 
            "ancestry": null, 
            "as": null, 
            "author": {
                "avatar_image": "https://decidim.barcelona/assets/avatar-866795c99abc33a3160d1f3fa93ada46eb75e54134e777666b9ed16215b26534.png", 
                "erased": false, 
                "hidden": false, 
                "id": 17740, 
                "name": "Suport General2 - Decidim Barcelona", 
                "official": false, 
                "official_level": 0, 
                "role": null, 
                "verified_organization": null
            }, 
            "body": "<p><a href=\"https://decidim.barcelona/proposals/acostar-la-professio-dels-metges-als-infants-a-traves-de-xerrades-a-les-escoles\">https://decidim.barcelona/proposals/acostar-la-professio-dels-metges-als-infants-a-traves-de-xerrades-a-les-escoles</a></p>", 
            "commentable_id": 898, 
            "commentable_type": "Proposal", 
            "created_at": "07/04/2016 21:19:57", 
            "flagged": false, 
            "hidden": false, 
            "id": 10092, 
            "moderator_id": null, 
            "permissions": {
                "hide": false, 
                "hide_author": false, 
                "vote": false
            }, 
            "total_dislikes": 0, 
            "total_likes": 0, 
            "total_votes": 0
        }, 
        {
            "administrator_id": null, 
            "alignment": 0, 
            "ancestry": null, 
            "as": null, 
            "author": {
                "avatar_image": "https://decidim.barcelona/assets/avatar-866795c99abc33a3160d1f3fa93ada46eb75e54134e777666b9ed16215b26534.png", 
                "erased": false, 
                "hidden": false, 
                "id": 17740, 
                "name": "Suport General2 - Decidim Barcelona", 
                "official": false, 
                "official_level": 0, 
                "role": null, 
                "verified_organization": null
            }, 
            "body": "<p><a href=\"https://decidim.barcelona/proposals/oferir-mes-informacio-sobre-salut-i-sanitat-a-la-ciutadania\">https://decidim.barcelona/proposals/oferir-mes-informacio-sobre-salut-i-sanitat-a-la-ciutadania</a></p>", 
            "commentable_id": 898, 
            "commentable_type": "Proposal", 
            "created_at": "07/04/2016 21:39:40", 
            "flagged": false, 
            "hidden": false, 
            "id": 10105, 
            "moderator_id": null, 
            "permissions": {
                "hide": false, 
                "hide_author": false, 
                "vote": false
            }, 
            "total_dislikes": 0, 
            "total_likes": 0, 
            "total_votes": 0
        }, 
        {
            "administrator_id": null, 
            "alignment": 0, 
            "ancestry": null, 
            "as": null, 
            "author": {
                "avatar_image": "https://decidim.barcelona/assets/avatar-866795c99abc33a3160d1f3fa93ada46eb75e54134e777666b9ed16215b26534.png", 
                "erased": false, 
                "hidden": false, 
                "id": 17740, 
                "name": "Suport General2 - Decidim Barcelona", 
                "official": false, 
                "official_level": 0, 
                "role": null, 
                "verified_organization": null
            }, 
            "body": "<p><a href=\"https://decidim.barcelona/proposals/potenciar-iniciatives-d-educacio-per-a-la-salut-a-l-escola-que-contemplin-la-comunitat-educativa-l-entorn-escolar-i-el-barri\">https://decidim.barcelona/proposals/potenciar-iniciatives-d-educacio-per-a-la-salut-a-l-escola-que-contemplin-la-comunitat-educativa-l-entorn-escolar-i-el-barri</a></p>", 
            "commentable_id": 898, 
            "commentable_type": "Proposal", 
            "created_at": "07/04/2016 21:42:01", 
            "flagged": false, 
            "hidden": false, 
            "id": 10106, 
            "moderator_id": null, 
            "permissions": {
                "hide": false, 
                "hide_author": false, 
                "vote": false
            }, 
            "total_dislikes": 0, 
            "total_likes": 0, 
            "total_votes": 0
        }, 
        {
            "administrator_id": null, 
            "alignment": 0, 
            "ancestry": null, 
            "as": null, 
            "author": {
                "avatar_image": "https://decidim.barcelona/assets/avatar-866795c99abc33a3160d1f3fa93ada46eb75e54134e777666b9ed16215b26534.png", 
                "erased": false, 
                "hidden": false, 
                "id": 17740, 
                "name": "Suport General2 - Decidim Barcelona", 
                "official": false, 
                "official_level": 0, 
                "role": null, 
                "verified_organization": null
            }, 
            "body": "<p><a href=\"https://decidim.barcelona/proposals/incorporar-altres-perfils-professionals-especialistes-a-l-atencio-a-domicili-que-es-fa-des-de-l-ajuntament\">https://decidim.barcelona/proposals/incorporar-altres-perfils-professionals-especialistes-a-l-atencio-a-domicili-que-es-fa-des-de-l-ajuntament</a></p>", 
            "commentable_id": 898, 
            "commentable_type": "Proposal", 
            "created_at": "07/04/2016 21:46:16", 
            "flagged": false, 
            "hidden": false, 
            "id": 10111, 
            "moderator_id": null, 
            "permissions": {
                "hide": false, 
                "hide_author": false, 
                "vote": false
            }, 
            "total_dislikes": 0, 
            "total_likes": 0, 
            "total_votes": 0
        }, 
        {
            "administrator_id": null, 
            "alignment": 0, 
            "ancestry": null, 
            "as": null, 
            "author": {
                "avatar_image": "https://decidim.barcelona/assets/avatar-866795c99abc33a3160d1f3fa93ada46eb75e54134e777666b9ed16215b26534.png", 
                "erased": false, 
                "hidden": false, 
                "id": 17740, 
                "name": "Suport General2 - Decidim Barcelona", 
                "official": false, 
                "official_level": 0, 
                "role": null, 
                "verified_organization": null
            }, 
            "body": "<p><a href=\"https://decidim.barcelona/proposals/crear-una-xarxa-informatica-unificada-de-proveidors-per-compartir-informacio-i-coneixements\">https://decidim.barcelona/proposals/crear-una-xarxa-informatica-unificada-de-proveidors-per-compartir-informacio-i-coneixements</a></p>", 
            "commentable_id": 898, 
            "commentable_type": "Proposal", 
            "created_at": "07/04/2016 21:49:06", 
            "flagged": false, 
            "hidden": false, 
            "id": 10113, 
            "moderator_id": null, 
            "permissions": {
                "hide": false, 
                "hide_author": false, 
                "vote": false
            }, 
            "total_dislikes": 0, 
            "total_likes": 0, 
            "total_votes": 0
        }, 
        {
            "administrator_id": null, 
            "alignment": 0, 
            "ancestry": null, 
            "as": null, 
            "author": {
                "avatar_image": "https://decidim.barcelona/assets/avatar-866795c99abc33a3160d1f3fa93ada46eb75e54134e777666b9ed16215b26534.png", 
                "erased": false, 
                "hidden": false, 
                "id": 17740, 
                "name": "Suport General2 - Decidim Barcelona", 
                "official": false, 
                "official_level": 0, 
                "role": null, 
                "verified_organization": null
            }, 
            "body": "<p><a href=\"https://decidim.barcelona/proposals/impulsar-accions-a-tota-la-ciutat-de-temps-lliure-i-salut\">https://decidim.barcelona/proposals/impulsar-accions-a-tota-la-ciutat-de-temps-lliure-i-salut</a></p>", 
            "commentable_id": 898, 
            "commentable_type": "Proposal", 
            "created_at": "08/04/2016 09:37:03", 
            "flagged": false, 
            "hidden": false, 
            "id": 10195, 
            "moderator_id": null, 
            "permissions": {
                "hide": false, 
                "hide_author": false, 
                "vote": false
            }, 
            "total_dislikes": 0, 
            "total_likes": 0, 
            "total_votes": 0
        }, 
        {
            "administrator_id": null, 
            "alignment": 0, 
            "ancestry": null, 
            "as": null, 
            "author": {
                "avatar_image": "https://decidim.barcelona/assets/avatar-866795c99abc33a3160d1f3fa93ada46eb75e54134e777666b9ed16215b26534.png", 
                "erased": false, 
                "hidden": false, 
                "id": 17740, 
                "name": "Suport General2 - Decidim Barcelona", 
                "official": false, 
                "official_level": 0, 
                "role": null, 
                "verified_organization": null
            }, 
            "body": "<p><a href=\"https://decidim.barcelona/proposals/fomentar-la-salut-als-espais-d-oci\">https://decidim.barcelona/proposals/fomentar-la-salut-als-espais-d-oci</a></p>", 
            "commentable_id": 898, 
            "commentable_type": "Proposal", 
            "created_at": "08/04/2016 10:30:51", 
            "flagged": false, 
            "hidden": false, 
            "id": 10326, 
            "moderator_id": null, 
            "permissions": {
                "hide": false, 
                "hide_author": false, 
                "vote": false
            }, 
            "total_dislikes": 0, 
            "total_likes": 0, 
            "total_votes": 0
        }
    ], 
    "meta": {
        "current_page": 2, 
        "next_page": 3, 
        "prev_page": 1, 
        "total_count": 62, 
        "total_pages": 4
    }
}