{
    "comments": [
        {
            "administrator_id": null, 
            "alignment": 0, 
            "ancestry": null, 
            "as": null, 
            "author": {
                "avatar_image": "https://decidim.barcelona/assets/avatar-866795c99abc33a3160d1f3fa93ada46eb75e54134e777666b9ed16215b26534.png", 
                "erased": false, 
                "hidden": false, 
                "id": 17740, 
                "name": "Suport General2 - Decidim Barcelona", 
                "official": false, 
                "official_level": 0, 
                "role": null, 
                "verified_organization": null
            }, 
            "body": "<p><a href=\"https://decidim.barcelona/proposals/barcelona-ciutat-que-garanteix-els-drets-sexuals-i-reproductius\">https://decidim.barcelona/proposals/barcelona-ciutat-que-garanteix-els-drets-sexuals-i-reproductius</a></p>", 
            "commentable_id": 891, 
            "commentable_type": "Proposal", 
            "created_at": "06/04/2016 18:25:23", 
            "flagged": false, 
            "hidden": false, 
            "id": 8813, 
            "moderator_id": null, 
            "permissions": {
                "hide": false, 
                "hide_author": false, 
                "vote": false
            }, 
            "total_dislikes": 0, 
            "total_likes": 0, 
            "total_votes": 0
        }, 
        {
            "administrator_id": null, 
            "alignment": 0, 
            "ancestry": null, 
            "as": null, 
            "author": {
                "avatar_image": "https://decidim.barcelona/assets/avatar-866795c99abc33a3160d1f3fa93ada46eb75e54134e777666b9ed16215b26534.png", 
                "erased": false, 
                "hidden": false, 
                "id": 17740, 
                "name": "Suport General2 - Decidim Barcelona", 
                "official": false, 
                "official_level": 0, 
                "role": null, 
                "verified_organization": null
            }, 
            "body": "<p><a href=\"https://decidim.barcelona/proposals/certificat-de-discapacitat-per-vih-a-l-administracio\">https://decidim.barcelona/proposals/certificat-de-discapacitat-per-vih-a-l-administracio</a></p>", 
            "commentable_id": 891, 
            "commentable_type": "Proposal", 
            "created_at": "06/04/2016 19:44:10", 
            "flagged": false, 
            "hidden": false, 
            "id": 8864, 
            "moderator_id": null, 
            "permissions": {
                "hide": false, 
                "hide_author": false, 
                "vote": false
            }, 
            "total_dislikes": 0, 
            "total_likes": 0, 
            "total_votes": 0
        }, 
        {
            "administrator_id": null, 
            "alignment": 0, 
            "ancestry": null, 
            "as": null, 
            "author": {
                "avatar_image": "https://decidim.barcelona/assets/avatar-866795c99abc33a3160d1f3fa93ada46eb75e54134e777666b9ed16215b26534.png", 
                "erased": false, 
                "hidden": false, 
                "id": 17740, 
                "name": "Suport General2 - Decidim Barcelona", 
                "official": false, 
                "official_level": 0, 
                "role": null, 
                "verified_organization": null
            }, 
            "body": "<p><a href=\"https://decidim.barcelona/proposals/pla-pilot-per-a-la-reproduccio-assistida-per-a-dones-soles-i-lesbianes\">https://decidim.barcelona/proposals/pla-pilot-per-a-la-reproduccio-assistida-per-a-dones-soles-i-lesbianes</a></p>", 
            "commentable_id": 891, 
            "commentable_type": "Proposal", 
            "created_at": "06/04/2016 19:45:01", 
            "flagged": false, 
            "hidden": false, 
            "id": 8865, 
            "moderator_id": null, 
            "permissions": {
                "hide": false, 
                "hide_author": false, 
                "vote": false
            }, 
            "total_dislikes": 0, 
            "total_likes": 0, 
            "total_votes": 0
        }, 
        {
            "administrator_id": null, 
            "alignment": 0, 
            "ancestry": null, 
            "as": null, 
            "author": {
                "avatar_image": "https://decidim.barcelona/assets/avatar-866795c99abc33a3160d1f3fa93ada46eb75e54134e777666b9ed16215b26534.png", 
                "erased": false, 
                "hidden": false, 
                "id": 17740, 
                "name": "Suport General2 - Decidim Barcelona", 
                "official": false, 
                "official_level": 0, 
                "role": null, 
                "verified_organization": null
            }, 
            "body": "<p><a href=\"https://decidim.barcelona/proposals/garantir-el-dret-a-la-reproduccio-assistida-a-traves-de-les-competencies-municipals\">https://decidim.barcelona/proposals/garantir-el-dret-a-la-reproduccio-assistida-a-traves-de-les-competencies-municipals</a></p>", 
            "commentable_id": 891, 
            "commentable_type": "Proposal", 
            "created_at": "06/04/2016 19:45:31", 
            "flagged": false, 
            "hidden": false, 
            "id": 8866, 
            "moderator_id": null, 
            "permissions": {
                "hide": false, 
                "hide_author": false, 
                "vote": false
            }, 
            "total_dislikes": 0, 
            "total_likes": 0, 
            "total_votes": 0
        }, 
        {
            "administrator_id": null, 
            "alignment": 0, 
            "ancestry": null, 
            "as": null, 
            "author": {
                "avatar_image": "https://decidim.barcelona/assets/avatar-866795c99abc33a3160d1f3fa93ada46eb75e54134e777666b9ed16215b26534.png", 
                "erased": false, 
                "hidden": false, 
                "id": 17740, 
                "name": "Suport General2 - Decidim Barcelona", 
                "official": false, 
                "official_level": 0, 
                "role": null, 
                "verified_organization": null
            }, 
            "body": "<p><a href=\"https://decidim.barcelona/proposals/debat-sobre-el-protocol-de-reproduccio-assistida\">https://decidim.barcelona/proposals/debat-sobre-el-protocol-de-reproduccio-assistida</a></p>", 
            "commentable_id": 891, 
            "commentable_type": "Proposal", 
            "created_at": "06/04/2016 19:46:06", 
            "flagged": false, 
            "hidden": false, 
            "id": 8867, 
            "moderator_id": null, 
            "permissions": {
                "hide": false, 
                "hide_author": false, 
                "vote": false
            }, 
            "total_dislikes": 0, 
            "total_likes": 0, 
            "total_votes": 0
        }, 
        {
            "administrator_id": null, 
            "alignment": 0, 
            "ancestry": null, 
            "as": null, 
            "author": {
                "avatar_image": "https://decidim.barcelona/assets/avatar-866795c99abc33a3160d1f3fa93ada46eb75e54134e777666b9ed16215b26534.png", 
                "erased": false, 
                "hidden": false, 
                "id": 17740, 
                "name": "Suport General2 - Decidim Barcelona", 
                "official": false, 
                "official_level": 0, 
                "role": null, 
                "verified_organization": null
            }, 
            "body": "<p><a href=\"https://decidim.barcelona/proposals/revisar-els-protocols-d-acces-als-bancs-de-semen\">https://decidim.barcelona/proposals/revisar-els-protocols-d-acces-als-bancs-de-semen</a></p>", 
            "commentable_id": 891, 
            "commentable_type": "Proposal", 
            "created_at": "06/04/2016 19:47:53", 
            "flagged": false, 
            "hidden": false, 
            "id": 8870, 
            "moderator_id": null, 
            "permissions": {
                "hide": false, 
                "hide_author": false, 
                "vote": false
            }, 
            "total_dislikes": 0, 
            "total_likes": 0, 
            "total_votes": 0
        }, 
        {
            "administrator_id": null, 
            "alignment": 0, 
            "ancestry": null, 
            "as": null, 
            "author": {
                "avatar_image": "https://decidim.barcelona/assets/avatar-866795c99abc33a3160d1f3fa93ada46eb75e54134e777666b9ed16215b26534.png", 
                "erased": false, 
                "hidden": false, 
                "id": 17740, 
                "name": "Suport General2 - Decidim Barcelona", 
                "official": false, 
                "official_level": 0, 
                "role": null, 
                "verified_organization": null
            }, 
            "body": "<p><a href=\"https://decidim.barcelona/proposals/garantir-la-maxima-informacio-i-serveis-adrecats-als-i-les-joves-en-materia-de-salut-sexual\">https://decidim.barcelona/proposals/garantir-la-maxima-informacio-i-serveis-adrecats-als-i-les-joves-en-materia-de-salut-sexual</a></p>", 
            "commentable_id": 891, 
            "commentable_type": "Proposal", 
            "created_at": "07/04/2016 12:35:23", 
            "flagged": false, 
            "hidden": false, 
            "id": 9172, 
            "moderator_id": null, 
            "permissions": {
                "hide": false, 
                "hide_author": false, 
                "vote": false
            }, 
            "total_dislikes": 0, 
            "total_likes": 0, 
            "total_votes": 0
        }, 
        {
            "administrator_id": null, 
            "alignment": 0, 
            "ancestry": null, 
            "as": null, 
            "author": {
                "avatar_image": "https://decidim.barcelona/assets/avatar-866795c99abc33a3160d1f3fa93ada46eb75e54134e777666b9ed16215b26534.png", 
                "erased": false, 
                "hidden": false, 
                "id": 17740, 
                "name": "Suport General2 - Decidim Barcelona", 
                "official": false, 
                "official_level": 0, 
                "role": null, 
                "verified_organization": null
            }, 
            "body": "<p><a href=\"https://decidim.barcelona/proposals/crear-un-espai-de-debat-municipal-sobre-la-gestacio-subrogada\">https://decidim.barcelona/proposals/crear-un-espai-de-debat-municipal-sobre-la-gestacio-subrogada</a></p>", 
            "commentable_id": 891, 
            "commentable_type": "Proposal", 
            "created_at": "07/04/2016 14:04:19", 
            "flagged": false, 
            "hidden": false, 
            "id": 9440, 
            "moderator_id": null, 
            "permissions": {
                "hide": false, 
                "hide_author": false, 
                "vote": false
            }, 
            "total_dislikes": 0, 
            "total_likes": 0, 
            "total_votes": 0
        }, 
        {
            "administrator_id": null, 
            "alignment": 0, 
            "ancestry": null, 
            "as": null, 
            "author": {
                "avatar_image": "https://decidim.barcelona/assets/avatar-866795c99abc33a3160d1f3fa93ada46eb75e54134e777666b9ed16215b26534.png", 
                "erased": false, 
                "hidden": false, 
                "id": 17740, 
                "name": "Suport General2 - Decidim Barcelona", 
                "official": false, 
                "official_level": 0, 
                "role": null, 
                "verified_organization": null
            }, 
            "body": "<p><a href=\"https://decidim.barcelona/proposals/anticoncepcio-gratuita-per-a-menors-de-30-anys-i-dones-vulnerables\">https://decidim.barcelona/proposals/anticoncepcio-gratuita-per-a-menors-de-30-anys-i-dones-vulnerables</a></p>", 
            "commentable_id": 891, 
            "commentable_type": "Proposal", 
            "created_at": "07/04/2016 19:19:18", 
            "flagged": false, 
            "hidden": false, 
            "id": 9940, 
            "moderator_id": null, 
            "permissions": {
                "hide": false, 
                "hide_author": false, 
                "vote": false
            }, 
            "total_dislikes": 0, 
            "total_likes": 0, 
            "total_votes": 0
        }, 
        {
            "administrator_id": null, 
            "alignment": 0, 
            "ancestry": null, 
            "as": null, 
            "author": {
                "avatar_image": "https://decidim.barcelona/assets/avatar-866795c99abc33a3160d1f3fa93ada46eb75e54134e777666b9ed16215b26534.png", 
                "erased": false, 
                "hidden": false, 
                "id": 17740, 
                "name": "Suport General2 - Decidim Barcelona", 
                "official": false, 
                "official_level": 0, 
                "role": null, 
                "verified_organization": null
            }, 
            "body": "<p><a href=\"https://decidim.barcelona/proposals/ampliar-el-projecte-ja-tenim-un-fill\">https://decidim.barcelona/proposals/ampliar-el-projecte-ja-tenim-un-fill</a></p>", 
            "commentable_id": 891, 
            "commentable_type": "Proposal", 
            "created_at": "07/04/2016 19:29:33", 
            "flagged": false, 
            "hidden": false, 
            "id": 9974, 
            "moderator_id": null, 
            "permissions": {
                "hide": false, 
                "hide_author": false, 
                "vote": false
            }, 
            "total_dislikes": 0, 
            "total_likes": 0, 
            "total_votes": 0
        }, 
        {
            "administrator_id": null, 
            "alignment": 0, 
            "ancestry": null, 
            "as": null, 
            "author": {
                "avatar_image": "https://decidim.barcelona/assets/avatar-866795c99abc33a3160d1f3fa93ada46eb75e54134e777666b9ed16215b26534.png", 
                "erased": false, 
                "hidden": false, 
                "id": 17740, 
                "name": "Suport General2 - Decidim Barcelona", 
                "official": false, 
                "official_level": 0, 
                "role": null, 
                "verified_organization": null
            }, 
            "body": "<p><a href=\"https://decidim.barcelona/proposals/garantir-la-universalitat-dels-recursos-per-la-salut-sexual-de-les-dones-especialment-les-joves\">https://decidim.barcelona/proposals/garantir-la-universalitat-dels-recursos-per-la-salut-sexual-de-les-dones-especialment-les-joves</a></p>", 
            "commentable_id": 891, 
            "commentable_type": "Proposal", 
            "created_at": "07/04/2016 19:32:38", 
            "flagged": false, 
            "hidden": false, 
            "id": 9979, 
            "moderator_id": null, 
            "permissions": {
                "hide": false, 
                "hide_author": false, 
                "vote": false
            }, 
            "total_dislikes": 0, 
            "total_likes": 0, 
            "total_votes": 0
        }, 
        {
            "administrator_id": null, 
            "alignment": 0, 
            "ancestry": null, 
            "as": null, 
            "author": {
                "avatar_image": "https://decidim.barcelona/assets/avatar-866795c99abc33a3160d1f3fa93ada46eb75e54134e777666b9ed16215b26534.png", 
                "erased": false, 
                "hidden": false, 
                "id": 17740, 
                "name": "Suport General2 - Decidim Barcelona", 
                "official": false, 
                "official_level": 0, 
                "role": null, 
                "verified_organization": null
            }, 
            "body": "<p><a href=\"https://decidim.barcelona/proposals/programes-preventius-en-salut-afectiva-sexual-i-reproductiva\">https://decidim.barcelona/proposals/programes-preventius-en-salut-afectiva-sexual-i-reproductiva</a></p>", 
            "commentable_id": 891, 
            "commentable_type": "Proposal", 
            "created_at": "07/04/2016 19:33:05", 
            "flagged": false, 
            "hidden": false, 
            "id": 9980, 
            "moderator_id": null, 
            "permissions": {
                "hide": false, 
                "hide_author": false, 
                "vote": false
            }, 
            "total_dislikes": 0, 
            "total_likes": 0, 
            "total_votes": 0
        }, 
        {
            "administrator_id": null, 
            "alignment": 0, 
            "ancestry": null, 
            "as": null, 
            "author": {
                "avatar_image": "https://decidim.barcelona/assets/avatar-866795c99abc33a3160d1f3fa93ada46eb75e54134e777666b9ed16215b26534.png", 
                "erased": false, 
                "hidden": false, 
                "id": 17740, 
                "name": "Suport General2 - Decidim Barcelona", 
                "official": false, 
                "official_level": 0, 
                "role": null, 
                "verified_organization": null
            }, 
            "body": "<p><a href=\"https://decidim.barcelona/proposals/reobrir-crear-els-serveis-anteriorment-denominats-de-planificacio-familiar\">https://decidim.barcelona/proposals/reobrir-crear-els-serveis-anteriorment-denominats-de-planificacio-familiar</a></p>", 
            "commentable_id": 891, 
            "commentable_type": "Proposal", 
            "created_at": "07/04/2016 19:33:40", 
            "flagged": false, 
            "hidden": false, 
            "id": 9982, 
            "moderator_id": null, 
            "permissions": {
                "hide": false, 
                "hide_author": false, 
                "vote": false
            }, 
            "total_dislikes": 0, 
            "total_likes": 0, 
            "total_votes": 0
        }, 
        {
            "administrator_id": null, 
            "alignment": 0, 
            "ancestry": null, 
            "as": null, 
            "author": {
                "avatar_image": "https://decidim.barcelona/assets/avatar-866795c99abc33a3160d1f3fa93ada46eb75e54134e777666b9ed16215b26534.png", 
                "erased": false, 
                "hidden": false, 
                "id": 17740, 
                "name": "Suport General2 - Decidim Barcelona", 
                "official": false, 
                "official_level": 0, 
                "role": null, 
                "verified_organization": null
            }, 
            "body": "<p><a href=\"https://decidim.barcelona/proposals/en-salut-sexual-d-ambit-de-la-ciutat-garantir-recursos-anticonceptius-gratuits-i-universals\">https://decidim.barcelona/proposals/en-salut-sexual-d-ambit-de-la-ciutat-garantir-recursos-anticonceptius-gratuits-i-universals</a></p>", 
            "commentable_id": 891, 
            "commentable_type": "Proposal", 
            "created_at": "07/04/2016 19:59:39", 
            "flagged": false, 
            "hidden": false, 
            "id": 10022, 
            "moderator_id": null, 
            "permissions": {
                "hide": false, 
                "hide_author": false, 
                "vote": false
            }, 
            "total_dislikes": 0, 
            "total_likes": 0, 
            "total_votes": 0
        }, 
        {
            "administrator_id": null, 
            "alignment": 0, 
            "ancestry": null, 
            "as": null, 
            "author": {
                "avatar_image": "https://decidim.barcelona/assets/avatar-866795c99abc33a3160d1f3fa93ada46eb75e54134e777666b9ed16215b26534.png", 
                "erased": false, 
                "hidden": false, 
                "id": 17740, 
                "name": "Suport General2 - Decidim Barcelona", 
                "official": false, 
                "official_level": 0, 
                "role": null, 
                "verified_organization": null
            }, 
            "body": "<p><a href=\"https://decidim.barcelona/proposals/en-salut-sexual-d-ambit-de-la-ciutat-garantir-recursos-anticonceptius-gratuits-i-universals\">https://decidim.barcelona/proposals/en-salut-sexual-d-ambit-de-la-ciutat-garantir-recursos-anticonceptius-gratuits-i-universals</a></p>", 
            "commentable_id": 891, 
            "commentable_type": "Proposal", 
            "created_at": "07/04/2016 20:09:24", 
            "flagged": false, 
            "hidden": false, 
            "id": 10027, 
            "moderator_id": null, 
            "permissions": {
                "hide": false, 
                "hide_author": false, 
                "vote": false
            }, 
            "total_dislikes": 0, 
            "total_likes": 0, 
            "total_votes": 0
        }, 
        {
            "administrator_id": null, 
            "alignment": 0, 
            "ancestry": null, 
            "as": null, 
            "author": {
                "avatar_image": "https://decidim.barcelona/assets/avatar-866795c99abc33a3160d1f3fa93ada46eb75e54134e777666b9ed16215b26534.png", 
                "erased": false, 
                "hidden": false, 
                "id": 17740, 
                "name": "Suport General2 - Decidim Barcelona", 
                "official": false, 
                "official_level": 0, 
                "role": null, 
                "verified_organization": null
            }, 
            "body": "<p><a href=\"https://decidim.barcelona/proposals/augmentar-i-potenciar-els-serveis-de-salut-de-suport-a-les-mares-embassades-i-petita-infancia\">https://decidim.barcelona/proposals/augmentar-i-potenciar-els-serveis-de-salut-de-suport-a-les-mares-embassades-i-petita-infancia</a></p>", 
            "commentable_id": 891, 
            "commentable_type": "Proposal", 
            "created_at": "07/04/2016 20:15:03", 
            "flagged": false, 
            "hidden": false, 
            "id": 10034, 
            "moderator_id": null, 
            "permissions": {
                "hide": false, 
                "hide_author": false, 
                "vote": false
            }, 
            "total_dislikes": 0, 
            "total_likes": 0, 
            "total_votes": 0
        }, 
        {
            "administrator_id": null, 
            "alignment": 0, 
            "ancestry": null, 
            "as": null, 
            "author": {
                "avatar_image": "https://decidim.barcelona/assets/avatar-866795c99abc33a3160d1f3fa93ada46eb75e54134e777666b9ed16215b26534.png", 
                "erased": false, 
                "hidden": false, 
                "id": 17740, 
                "name": "Suport General2 - Decidim Barcelona", 
                "official": false, 
                "official_level": 0, 
                "role": null, 
                "verified_organization": null
            }, 
            "body": "<p><a href=\"https://decidim.barcelona/proposals/facilitar-a-la-dona-la-reproduccio-assistida\">https://decidim.barcelona/proposals/facilitar-a-la-dona-la-reproduccio-assistida</a></p>", 
            "commentable_id": 891, 
            "commentable_type": "Proposal", 
            "created_at": "07/04/2016 20:15:41", 
            "flagged": false, 
            "hidden": false, 
            "id": 10035, 
            "moderator_id": null, 
            "permissions": {
                "hide": false, 
                "hide_author": false, 
                "vote": false
            }, 
            "total_dislikes": 0, 
            "total_likes": 0, 
            "total_votes": 0
        }, 
        {
            "administrator_id": null, 
            "alignment": 0, 
            "ancestry": null, 
            "as": null, 
            "author": {
                "avatar_image": "https://decidim.barcelona/assets/avatar-866795c99abc33a3160d1f3fa93ada46eb75e54134e777666b9ed16215b26534.png", 
                "erased": false, 
                "hidden": false, 
                "id": 17740, 
                "name": "Suport General2 - Decidim Barcelona", 
                "official": false, 
                "official_level": 0, 
                "role": null, 
                "verified_organization": null
            }, 
            "body": "<p><a href=\"https://decidim.barcelona/proposals/crear-un-circuit-a-la-ciutat-que-vetlli-per-facilitar-l-avortament-amb-llibertat-i-anonimat-de-les-dones-menors-d-edat-en-situacio-d-especial-risc-o-vulnerabilitat\">https://decidim.barcelona/proposals/crear-un-circuit-a-la-ciutat-que-vetlli-per-facilitar-l-avortament-amb-llibertat-i-anonimat-de-les-dones-menors-d-edat-en-situacio-d-especial-risc-o-vulnerabilitat</a></p>", 
            "commentable_id": 891, 
            "commentable_type": "Proposal", 
            "created_at": "07/04/2016 20:34:45", 
            "flagged": false, 
            "hidden": false, 
            "id": 10044, 
            "moderator_id": null, 
            "permissions": {
                "hide": false, 
                "hide_author": false, 
                "vote": false
            }, 
            "total_dislikes": 0, 
            "total_likes": 0, 
            "total_votes": 0
        }, 
        {
            "administrator_id": null, 
            "alignment": 0, 
            "ancestry": null, 
            "as": null, 
            "author": {
                "avatar_image": "https://decidim.barcelona/assets/avatar-866795c99abc33a3160d1f3fa93ada46eb75e54134e777666b9ed16215b26534.png", 
                "erased": false, 
                "hidden": false, 
                "id": 17740, 
                "name": "Suport General2 - Decidim Barcelona", 
                "official": false, 
                "official_level": 0, 
                "role": null, 
                "verified_organization": null
            }, 
            "body": "<p><a href=\"https://decidim.barcelona/proposals/potenciar-els-grups-pre-part-en-embarassos-adolescents\">https://decidim.barcelona/proposals/potenciar-els-grups-pre-part-en-embarassos-adolescents</a></p>", 
            "commentable_id": 891, 
            "commentable_type": "Proposal", 
            "created_at": "07/04/2016 21:16:53", 
            "flagged": false, 
            "hidden": false, 
            "id": 10090, 
            "moderator_id": null, 
            "permissions": {
                "hide": false, 
                "hide_author": false, 
                "vote": false
            }, 
            "total_dislikes": 0, 
            "total_likes": 0, 
            "total_votes": 0
        }, 
        {
            "administrator_id": null, 
            "alignment": 0, 
            "ancestry": null, 
            "as": null, 
            "author": {
                "avatar_image": "https://decidim.barcelona/assets/avatar-866795c99abc33a3160d1f3fa93ada46eb75e54134e777666b9ed16215b26534.png", 
                "erased": false, 
                "hidden": false, 
                "id": 17740, 
                "name": "Suport General2 - Decidim Barcelona", 
                "official": false, 
                "official_level": 0, 
                "role": null, 
                "verified_organization": null
            }, 
            "body": "<p><a href=\"https://decidim.barcelona/proposals/implantacio-de-centres-d-informacio-sobre-sexualitat-a-tots-els-barris\">https://decidim.barcelona/proposals/implantacio-de-centres-d-informacio-sobre-sexualitat-a-tots-els-barris</a></p>", 
            "commentable_id": 891, 
            "commentable_type": "Proposal", 
            "created_at": "07/04/2016 21:32:40", 
            "flagged": false, 
            "hidden": false, 
            "id": 10098, 
            "moderator_id": null, 
            "permissions": {
                "hide": false, 
                "hide_author": false, 
                "vote": false
            }, 
            "total_dislikes": 0, 
            "total_likes": 0, 
            "total_votes": 0
        }
    ], 
    "meta": {
        "current_page": 1, 
        "next_page": 2, 
        "prev_page": null, 
        "total_count": 26, 
        "total_pages": 2
    }
}