{
    "comments": [
        {
            "administrator_id": null, 
            "alignment": 0, 
            "ancestry": null, 
            "as": null, 
            "author": {
                "avatar_image": "https://decidim.barcelona/assets/avatar-866795c99abc33a3160d1f3fa93ada46eb75e54134e777666b9ed16215b26534.png", 
                "erased": false, 
                "hidden": false, 
                "id": 17740, 
                "name": "Suport General2 - Decidim Barcelona", 
                "official": false, 
                "official_level": 0, 
                "role": null, 
                "verified_organization": null
            }, 
            "body": "<p><a href=\"https://decidim.barcelona/proposals/mes-musica-a-la-ciutat-al-exterior-als-carrers-i-dintre-dels-bars\">https://decidim.barcelona/proposals/mes-musica-a-la-ciutat-al-exterior-als-carrers-i-dintre-dels-bars</a></p>", 
            "commentable_id": 911, 
            "commentable_type": "Proposal", 
            "created_at": "08/04/2016 11:56:55", 
            "flagged": false, 
            "hidden": false, 
            "id": 10563, 
            "moderator_id": null, 
            "permissions": {
                "hide": false, 
                "hide_author": false, 
                "vote": false
            }, 
            "total_dislikes": 0, 
            "total_likes": 0, 
            "total_votes": 0
        }, 
        {
            "administrator_id": null, 
            "alignment": 0, 
            "ancestry": null, 
            "as": null, 
            "author": {
                "avatar_image": "https://decidim.barcelona/assets/avatar-866795c99abc33a3160d1f3fa93ada46eb75e54134e777666b9ed16215b26534.png", 
                "erased": false, 
                "hidden": false, 
                "id": 17740, 
                "name": "Suport General2 - Decidim Barcelona", 
                "official": false, 
                "official_level": 0, 
                "role": null, 
                "verified_organization": null
            }, 
            "body": "<p><a href=\"https://decidim.barcelona/proposals/que-se-autorice-la-musica-y-fiestas-en-la-playa\">https://decidim.barcelona/proposals/que-se-autorice-la-musica-y-fiestas-en-la-playa</a></p>", 
            "commentable_id": 911, 
            "commentable_type": "Proposal", 
            "created_at": "08/04/2016 12:07:04", 
            "flagged": false, 
            "hidden": false, 
            "id": 10580, 
            "moderator_id": null, 
            "permissions": {
                "hide": false, 
                "hide_author": false, 
                "vote": false
            }, 
            "total_dislikes": 0, 
            "total_likes": 0, 
            "total_votes": 0
        }, 
        {
            "administrator_id": null, 
            "alignment": 0, 
            "ancestry": null, 
            "as": null, 
            "author": {
                "avatar_image": "https://decidim.barcelona/assets/avatar-866795c99abc33a3160d1f3fa93ada46eb75e54134e777666b9ed16215b26534.png", 
                "erased": false, 
                "hidden": false, 
                "id": 17740, 
                "name": "Suport General2 - Decidim Barcelona", 
                "official": false, 
                "official_level": 0, 
                "role": null, 
                "verified_organization": null
            }, 
            "body": "<p><a href=\"https://decidim.barcelona/proposals/oci-nocturn\">https://decidim.barcelona/proposals/oci-nocturn</a></p>", 
            "commentable_id": 911, 
            "commentable_type": "Proposal", 
            "created_at": "08/04/2016 12:31:21", 
            "flagged": false, 
            "hidden": false, 
            "id": 10651, 
            "moderator_id": null, 
            "permissions": {
                "hide": false, 
                "hide_author": false, 
                "vote": false
            }, 
            "total_dislikes": 0, 
            "total_likes": 0, 
            "total_votes": 0
        }, 
        {
            "administrator_id": null, 
            "alignment": 0, 
            "ancestry": null, 
            "as": null, 
            "author": {
                "avatar_image": "https://decidim.barcelona/assets/avatar-866795c99abc33a3160d1f3fa93ada46eb75e54134e777666b9ed16215b26534.png", 
                "erased": false, 
                "hidden": false, 
                "id": 17740, 
                "name": "Suport General2 - Decidim Barcelona", 
                "official": false, 
                "official_level": 0, 
                "role": null, 
                "verified_organization": null
            }, 
            "body": "<p><a href=\"https://decidim.barcelona/proposals/musica-en-directe-als-petits-bars\">https://decidim.barcelona/proposals/musica-en-directe-als-petits-bars</a></p>", 
            "commentable_id": 911, 
            "commentable_type": "Proposal", 
            "created_at": "08/04/2016 12:50:29", 
            "flagged": false, 
            "hidden": false, 
            "id": 10680, 
            "moderator_id": null, 
            "permissions": {
                "hide": false, 
                "hide_author": false, 
                "vote": false
            }, 
            "total_dislikes": 0, 
            "total_likes": 0, 
            "total_votes": 0
        }, 
        {
            "administrator_id": null, 
            "alignment": 1, 
            "ancestry": null, 
            "as": null, 
            "author": {
                "avatar_image": "https://decidim.barcelona/assets/avatar-866795c99abc33a3160d1f3fa93ada46eb75e54134e777666b9ed16215b26534.png", 
                "erased": false, 
                "hidden": false, 
                "id": 11749, 
                "name": "sergio marcovich", 
                "official": false, 
                "official_level": 0, 
                "role": null, 
                "verified_organization": null
            }, 
            "body": "<p>Hola a tod@s, comparto otra propuesta interesante en donde se habla de locales de peque\u00f1o formato y asociaciones culturales y m\u00fasicos. \n<br /><a href=\"http://www.tjussana.cat/assessoraments.php\">http://www.tjussana.cat/assessoraments.php</a></p>\n\n<p>Un saludo a tod@s</p>", 
            "commentable_id": 911, 
            "commentable_type": "Proposal", 
            "created_at": "08/04/2016 13:01:38", 
            "flagged": false, 
            "hidden": false, 
            "id": 10702, 
            "moderator_id": null, 
            "permissions": {
                "hide": false, 
                "hide_author": false, 
                "vote": false
            }, 
            "total_dislikes": 0, 
            "total_likes": 0, 
            "total_votes": 0
        }, 
        {
            "administrator_id": null, 
            "alignment": 0, 
            "ancestry": null, 
            "as": null, 
            "author": {
                "avatar_image": "https://decidim.barcelona/assets/avatar-866795c99abc33a3160d1f3fa93ada46eb75e54134e777666b9ed16215b26534.png", 
                "erased": false, 
                "hidden": false, 
                "id": 17740, 
                "name": "Suport General2 - Decidim Barcelona", 
                "official": false, 
                "official_level": 0, 
                "role": null, 
                "verified_organization": null
            }, 
            "body": "<p><a href=\"https://decidim.barcelona/proposals/facilitar-llicencies-de-llocs-per-fer-musica-i-esdeveniments-musicals\">https://decidim.barcelona/proposals/facilitar-llicencies-de-llocs-per-fer-musica-i-esdeveniments-musicals</a></p>", 
            "commentable_id": 911, 
            "commentable_type": "Proposal", 
            "created_at": "08/04/2016 18:56:51", 
            "flagged": false, 
            "hidden": false, 
            "id": 11385, 
            "moderator_id": null, 
            "permissions": {
                "hide": false, 
                "hide_author": false, 
                "vote": false
            }, 
            "total_dislikes": 0, 
            "total_likes": 0, 
            "total_votes": 0
        }, 
        {
            "administrator_id": null, 
            "alignment": 0, 
            "ancestry": null, 
            "as": null, 
            "author": {
                "avatar_image": "https://decidim.barcelona/assets/avatar-866795c99abc33a3160d1f3fa93ada46eb75e54134e777666b9ed16215b26534.png", 
                "erased": false, 
                "hidden": false, 
                "id": 17740, 
                "name": "Suport General2 - Decidim Barcelona", 
                "official": false, 
                "official_level": 0, 
                "role": null, 
                "verified_organization": null
            }, 
            "body": "<p><a href=\"https://decidim.barcelona/proposals/modificar-la-normativa-del-civisme-per-permetre-la-musica-al-carrer\">https://decidim.barcelona/proposals/modificar-la-normativa-del-civisme-per-permetre-la-musica-al-carrer</a></p>", 
            "commentable_id": 911, 
            "commentable_type": "Proposal", 
            "created_at": "15/04/2016 18:49:43", 
            "flagged": false, 
            "hidden": false, 
            "id": 17500, 
            "moderator_id": null, 
            "permissions": {
                "hide": false, 
                "hide_author": false, 
                "vote": false
            }, 
            "total_dislikes": 0, 
            "total_likes": 0, 
            "total_votes": 0
        }
    ], 
    "meta": {
        "current_page": 2, 
        "next_page": null, 
        "prev_page": 1, 
        "total_count": 27, 
        "total_pages": 2
    }
}