{
    "comments": [
        {
            "administrator_id": null, 
            "alignment": 1, 
            "ancestry": null, 
            "as": null, 
            "author": {
                "avatar_image": "https://decidim.barcelona/assets/avatar-866795c99abc33a3160d1f3fa93ada46eb75e54134e777666b9ed16215b26534.png", 
                "erased": false, 
                "hidden": false, 
                "id": 11339, 
                "name": "Fina Moreno Hern\u00e1ndez", 
                "official": false, 
                "official_level": 0, 
                "role": null, 
                "verified_organization": null
            }, 
            "body": "<p>Afavorir els descomptes o preus m\u00e9s baixos en els centres d'esport, per fer-lo accessible a tothom.</p>", 
            "commentable_id": 914, 
            "commentable_type": "Proposal", 
            "created_at": "06/04/2016 14:08:14", 
            "flagged": false, 
            "hidden": false, 
            "id": 8582, 
            "moderator_id": null, 
            "permissions": {
                "hide": false, 
                "hide_author": false, 
                "vote": false
            }, 
            "total_dislikes": 0, 
            "total_likes": 0, 
            "total_votes": 0
        }, 
        {
            "administrator_id": null, 
            "alignment": 0, 
            "ancestry": null, 
            "as": null, 
            "author": {
                "avatar_image": "https://decidim.barcelona/assets/avatar-866795c99abc33a3160d1f3fa93ada46eb75e54134e777666b9ed16215b26534.png", 
                "erased": false, 
                "hidden": false, 
                "id": 17740, 
                "name": "Suport General2 - Decidim Barcelona", 
                "official": false, 
                "official_level": 0, 
                "role": null, 
                "verified_organization": null
            }, 
            "body": "<p><a href=\"https://decidim.barcelona/proposals/equipaments-esportius-gestionats-per-cooperatives-d-usuaris-i-treballadors-que-inclogui-tambe-el-manteniment-de-les-instal-lacions\">https://decidim.barcelona/proposals/equipaments-esportius-gestionats-per-cooperatives-d-usuaris-i-treballadors-que-inclogui-tambe-el-manteniment-de-les-instal-lacions</a></p>", 
            "commentable_id": 914, 
            "commentable_type": "Proposal", 
            "created_at": "16/04/2016 11:56:16", 
            "flagged": false, 
            "hidden": false, 
            "id": 17997, 
            "moderator_id": null, 
            "permissions": {
                "hide": false, 
                "hide_author": false, 
                "vote": false
            }, 
            "total_dislikes": 0, 
            "total_likes": 0, 
            "total_votes": 0
        }, 
        {
            "administrator_id": null, 
            "alignment": 0, 
            "ancestry": null, 
            "as": null, 
            "author": {
                "avatar_image": "https://decidim.barcelona/assets/avatar-866795c99abc33a3160d1f3fa93ada46eb75e54134e777666b9ed16215b26534.png", 
                "erased": false, 
                "hidden": false, 
                "id": 17740, 
                "name": "Suport General2 - Decidim Barcelona", 
                "official": false, 
                "official_level": 0, 
                "role": null, 
                "verified_organization": null
            }, 
            "body": "<p><a href=\"https://decidim.barcelona/proposals/construir-mes-pavellons-coberts\">https://decidim.barcelona/proposals/construir-mes-pavellons-coberts</a></p>", 
            "commentable_id": 914, 
            "commentable_type": "Proposal", 
            "created_at": "16/04/2016 11:56:25", 
            "flagged": false, 
            "hidden": false, 
            "id": 17998, 
            "moderator_id": null, 
            "permissions": {
                "hide": false, 
                "hide_author": false, 
                "vote": false
            }, 
            "total_dislikes": 0, 
            "total_likes": 0, 
            "total_votes": 0
        }, 
        {
            "administrator_id": null, 
            "alignment": 0, 
            "ancestry": null, 
            "as": null, 
            "author": {
                "avatar_image": "https://decidim.barcelona/assets/avatar-866795c99abc33a3160d1f3fa93ada46eb75e54134e777666b9ed16215b26534.png", 
                "erased": false, 
                "hidden": false, 
                "id": 17740, 
                "name": "Suport General2 - Decidim Barcelona", 
                "official": false, 
                "official_level": 0, 
                "role": null, 
                "verified_organization": null
            }, 
            "body": "<p><a href=\"https://decidim.barcelona/proposals/pista-de-gel-municipal\">https://decidim.barcelona/proposals/pista-de-gel-municipal</a></p>", 
            "commentable_id": 914, 
            "commentable_type": "Proposal", 
            "created_at": "16/04/2016 11:56:31", 
            "flagged": false, 
            "hidden": false, 
            "id": 17999, 
            "moderator_id": null, 
            "permissions": {
                "hide": false, 
                "hide_author": false, 
                "vote": false
            }, 
            "total_dislikes": 0, 
            "total_likes": 0, 
            "total_votes": 0
        }, 
        {
            "administrator_id": null, 
            "alignment": 0, 
            "ancestry": null, 
            "as": null, 
            "author": {
                "avatar_image": "https://decidim.barcelona/assets/avatar-866795c99abc33a3160d1f3fa93ada46eb75e54134e777666b9ed16215b26534.png", 
                "erased": false, 
                "hidden": false, 
                "id": 17740, 
                "name": "Suport General2 - Decidim Barcelona", 
                "official": false, 
                "official_level": 0, 
                "role": null, 
                "verified_organization": null
            }, 
            "body": "<p><a href=\"https://decidim.barcelona/proposals/coherencia-en-els-equipaments-esportius-municipals-amb-les-politiques-ambientals-promogudes-per-l-ajuntament\">https://decidim.barcelona/proposals/coherencia-en-els-equipaments-esportius-municipals-amb-les-politiques-ambientals-promogudes-per-l-ajuntament</a></p>", 
            "commentable_id": 914, 
            "commentable_type": "Proposal", 
            "created_at": "16/04/2016 11:56:36", 
            "flagged": false, 
            "hidden": false, 
            "id": 18000, 
            "moderator_id": null, 
            "permissions": {
                "hide": false, 
                "hide_author": false, 
                "vote": false
            }, 
            "total_dislikes": 0, 
            "total_likes": 0, 
            "total_votes": 0
        }, 
        {
            "administrator_id": null, 
            "alignment": 0, 
            "ancestry": null, 
            "as": null, 
            "author": {
                "avatar_image": "https://decidim.barcelona/assets/avatar-866795c99abc33a3160d1f3fa93ada46eb75e54134e777666b9ed16215b26534.png", 
                "erased": false, 
                "hidden": false, 
                "id": 17740, 
                "name": "Suport General2 - Decidim Barcelona", 
                "official": false, 
                "official_level": 0, 
                "role": null, 
                "verified_organization": null
            }, 
            "body": "<p><a href=\"https://decidim.barcelona/proposals/adaptar-el-manteniment-dels-espais-esportius-al-volum-d-usuaris-i-usuaries\">https://decidim.barcelona/proposals/adaptar-el-manteniment-dels-espais-esportius-al-volum-d-usuaris-i-usuaries</a></p>", 
            "commentable_id": 914, 
            "commentable_type": "Proposal", 
            "created_at": "16/04/2016 11:56:47", 
            "flagged": false, 
            "hidden": false, 
            "id": 18001, 
            "moderator_id": null, 
            "permissions": {
                "hide": false, 
                "hide_author": false, 
                "vote": false
            }, 
            "total_dislikes": 0, 
            "total_likes": 0, 
            "total_votes": 0
        }, 
        {
            "administrator_id": null, 
            "alignment": 0, 
            "ancestry": null, 
            "as": null, 
            "author": {
                "avatar_image": "https://decidim.barcelona/assets/avatar-866795c99abc33a3160d1f3fa93ada46eb75e54134e777666b9ed16215b26534.png", 
                "erased": false, 
                "hidden": false, 
                "id": 17740, 
                "name": "Suport General2 - Decidim Barcelona", 
                "official": false, 
                "official_level": 0, 
                "role": null, 
                "verified_organization": null
            }, 
            "body": "<p><a href=\"https://decidim.barcelona/proposals/impulsar-un-servei-bressol-als-cems\">https://decidim.barcelona/proposals/impulsar-un-servei-bressol-als-cems</a></p>", 
            "commentable_id": 914, 
            "commentable_type": "Proposal", 
            "created_at": "16/04/2016 11:56:54", 
            "flagged": false, 
            "hidden": false, 
            "id": 18002, 
            "moderator_id": null, 
            "permissions": {
                "hide": false, 
                "hide_author": false, 
                "vote": false
            }, 
            "total_dislikes": 0, 
            "total_likes": 0, 
            "total_votes": 0
        }, 
        {
            "administrator_id": null, 
            "alignment": 0, 
            "ancestry": null, 
            "as": null, 
            "author": {
                "avatar_image": "https://decidim.barcelona/assets/avatar-866795c99abc33a3160d1f3fa93ada46eb75e54134e777666b9ed16215b26534.png", 
                "erased": false, 
                "hidden": false, 
                "id": 17740, 
                "name": "Suport General2 - Decidim Barcelona", 
                "official": false, 
                "official_level": 0, 
                "role": null, 
                "verified_organization": null
            }, 
            "body": "<p><a href=\"https://decidim.barcelona/proposals/servei-de-perruqueria-als-cems\">https://decidim.barcelona/proposals/servei-de-perruqueria-als-cems</a></p>", 
            "commentable_id": 914, 
            "commentable_type": "Proposal", 
            "created_at": "16/04/2016 11:56:59", 
            "flagged": false, 
            "hidden": false, 
            "id": 18003, 
            "moderator_id": null, 
            "permissions": {
                "hide": false, 
                "hide_author": false, 
                "vote": false
            }, 
            "total_dislikes": 0, 
            "total_likes": 0, 
            "total_votes": 0
        }, 
        {
            "administrator_id": null, 
            "alignment": 0, 
            "ancestry": null, 
            "as": null, 
            "author": {
                "avatar_image": "https://decidim.barcelona/assets/avatar-866795c99abc33a3160d1f3fa93ada46eb75e54134e777666b9ed16215b26534.png", 
                "erased": false, 
                "hidden": false, 
                "id": 17740, 
                "name": "Suport General2 - Decidim Barcelona", 
                "official": false, 
                "official_level": 0, 
                "role": null, 
                "verified_organization": null
            }, 
            "body": "<p><a href=\"https://decidim.barcelona/proposals/mes-pistes-de-tennis-publiques\">https://decidim.barcelona/proposals/mes-pistes-de-tennis-publiques</a></p>", 
            "commentable_id": 914, 
            "commentable_type": "Proposal", 
            "created_at": "16/04/2016 11:57:05", 
            "flagged": false, 
            "hidden": false, 
            "id": 18004, 
            "moderator_id": null, 
            "permissions": {
                "hide": false, 
                "hide_author": false, 
                "vote": false
            }, 
            "total_dislikes": 0, 
            "total_likes": 0, 
            "total_votes": 0
        }, 
        {
            "administrator_id": null, 
            "alignment": 0, 
            "ancestry": null, 
            "as": null, 
            "author": {
                "avatar_image": "https://decidim.barcelona/assets/avatar-866795c99abc33a3160d1f3fa93ada46eb75e54134e777666b9ed16215b26534.png", 
                "erased": false, 
                "hidden": false, 
                "id": 17740, 
                "name": "Suport General2 - Decidim Barcelona", 
                "official": false, 
                "official_level": 0, 
                "role": null, 
                "verified_organization": null
            }, 
            "body": "<p><a href=\"https://decidim.barcelona/proposals/incrementar-la-oferta-de-piscines-a-l-aire-lliure-municipals\">https://decidim.barcelona/proposals/incrementar-la-oferta-de-piscines-a-l-aire-lliure-municipals</a></p>", 
            "commentable_id": 914, 
            "commentable_type": "Proposal", 
            "created_at": "16/04/2016 11:57:12", 
            "flagged": false, 
            "hidden": false, 
            "id": 18005, 
            "moderator_id": null, 
            "permissions": {
                "hide": false, 
                "hide_author": false, 
                "vote": false
            }, 
            "total_dislikes": 0, 
            "total_likes": 0, 
            "total_votes": 0
        }, 
        {
            "administrator_id": null, 
            "alignment": 0, 
            "ancestry": null, 
            "as": null, 
            "author": {
                "avatar_image": "https://decidim.barcelona/assets/avatar-866795c99abc33a3160d1f3fa93ada46eb75e54134e777666b9ed16215b26534.png", 
                "erased": false, 
                "hidden": false, 
                "id": 17740, 
                "name": "Suport General2 - Decidim Barcelona", 
                "official": false, 
                "official_level": 0, 
                "role": null, 
                "verified_organization": null
            }, 
            "body": "<p><a href=\"https://decidim.barcelona/proposals/servei-de-fisioterapia-especialitzat-en-natacio\">https://decidim.barcelona/proposals/servei-de-fisioterapia-especialitzat-en-natacio</a></p>", 
            "commentable_id": 914, 
            "commentable_type": "Proposal", 
            "created_at": "16/04/2016 11:57:18", 
            "flagged": false, 
            "hidden": false, 
            "id": 18006, 
            "moderator_id": null, 
            "permissions": {
                "hide": false, 
                "hide_author": false, 
                "vote": false
            }, 
            "total_dislikes": 0, 
            "total_likes": 0, 
            "total_votes": 0
        }, 
        {
            "administrator_id": null, 
            "alignment": 0, 
            "ancestry": null, 
            "as": null, 
            "author": {
                "avatar_image": "https://decidim.barcelona/assets/avatar-866795c99abc33a3160d1f3fa93ada46eb75e54134e777666b9ed16215b26534.png", 
                "erased": false, 
                "hidden": false, 
                "id": 17740, 
                "name": "Suport General2 - Decidim Barcelona", 
                "official": false, 
                "official_level": 0, 
                "role": null, 
                "verified_organization": null
            }, 
            "body": "<p><a href=\"https://decidim.barcelona/proposals/millorar-difusio-de-les-subvencions-del-imeb\">https://decidim.barcelona/proposals/millorar-difusio-de-les-subvencions-del-imeb</a></p>", 
            "commentable_id": 914, 
            "commentable_type": "Proposal", 
            "created_at": "16/04/2016 11:57:25", 
            "flagged": false, 
            "hidden": false, 
            "id": 18007, 
            "moderator_id": null, 
            "permissions": {
                "hide": false, 
                "hide_author": false, 
                "vote": false
            }, 
            "total_dislikes": 0, 
            "total_likes": 0, 
            "total_votes": 0
        }, 
        {
            "administrator_id": null, 
            "alignment": 0, 
            "ancestry": null, 
            "as": null, 
            "author": {
                "avatar_image": "https://decidim.barcelona/assets/avatar-866795c99abc33a3160d1f3fa93ada46eb75e54134e777666b9ed16215b26534.png", 
                "erased": false, 
                "hidden": false, 
                "id": 17740, 
                "name": "Suport General2 - Decidim Barcelona", 
                "official": false, 
                "official_level": 0, 
                "role": null, 
                "verified_organization": null
            }, 
            "body": "<p><a href=\"https://decidim.barcelona/proposals/impulsar-practiques-de-berenar-saludables-als-equipaments-esportius-municipals\">https://decidim.barcelona/proposals/impulsar-practiques-de-berenar-saludables-als-equipaments-esportius-municipals</a></p>", 
            "commentable_id": 914, 
            "commentable_type": "Proposal", 
            "created_at": "16/04/2016 11:57:34", 
            "flagged": false, 
            "hidden": false, 
            "id": 18008, 
            "moderator_id": null, 
            "permissions": {
                "hide": false, 
                "hide_author": false, 
                "vote": false
            }, 
            "total_dislikes": 0, 
            "total_likes": 0, 
            "total_votes": 0
        }, 
        {
            "administrator_id": null, 
            "alignment": 0, 
            "ancestry": null, 
            "as": null, 
            "author": {
                "avatar_image": "https://decidim.barcelona/assets/avatar-866795c99abc33a3160d1f3fa93ada46eb75e54134e777666b9ed16215b26534.png", 
                "erased": false, 
                "hidden": false, 
                "id": 17740, 
                "name": "Suport General2 - Decidim Barcelona", 
                "official": false, 
                "official_level": 0, 
                "role": null, 
                "verified_organization": null
            }, 
            "body": "<p><a href=\"https://decidim.barcelona/proposals/millorar-la-difusio-dels-serveis-nutricionals-als-equipaments-esportius-municipals\">https://decidim.barcelona/proposals/millorar-la-difusio-dels-serveis-nutricionals-als-equipaments-esportius-municipals</a></p>", 
            "commentable_id": 914, 
            "commentable_type": "Proposal", 
            "created_at": "16/04/2016 11:57:44", 
            "flagged": false, 
            "hidden": false, 
            "id": 18009, 
            "moderator_id": null, 
            "permissions": {
                "hide": false, 
                "hide_author": false, 
                "vote": false
            }, 
            "total_dislikes": 0, 
            "total_likes": 0, 
            "total_votes": 0
        }, 
        {
            "administrator_id": null, 
            "alignment": 0, 
            "ancestry": null, 
            "as": null, 
            "author": {
                "avatar_image": "https://decidim.barcelona/assets/avatar-866795c99abc33a3160d1f3fa93ada46eb75e54134e777666b9ed16215b26534.png", 
                "erased": false, 
                "hidden": false, 
                "id": 17740, 
                "name": "Suport General2 - Decidim Barcelona", 
                "official": false, 
                "official_level": 0, 
                "role": null, 
                "verified_organization": null
            }, 
            "body": "<p><a href=\"https://decidim.barcelona/proposals/mantenir-i-potenciar-la-oferta-de-casals-de-vacances-esportius-als-centres-esportius-municipals\">https://decidim.barcelona/proposals/mantenir-i-potenciar-la-oferta-de-casals-de-vacances-esportius-als-centres-esportius-municipals</a></p>", 
            "commentable_id": 914, 
            "commentable_type": "Proposal", 
            "created_at": "16/04/2016 11:57:51", 
            "flagged": false, 
            "hidden": false, 
            "id": 18010, 
            "moderator_id": null, 
            "permissions": {
                "hide": false, 
                "hide_author": false, 
                "vote": false
            }, 
            "total_dislikes": 0, 
            "total_likes": 0, 
            "total_votes": 0
        }, 
        {
            "administrator_id": null, 
            "alignment": 0, 
            "ancestry": null, 
            "as": null, 
            "author": {
                "avatar_image": "https://decidim.barcelona/assets/avatar-866795c99abc33a3160d1f3fa93ada46eb75e54134e777666b9ed16215b26534.png", 
                "erased": false, 
                "hidden": false, 
                "id": 17740, 
                "name": "Suport General2 - Decidim Barcelona", 
                "official": false, 
                "official_level": 0, 
                "role": null, 
                "verified_organization": null
            }, 
            "body": "<p><a href=\"https://decidim.barcelona/proposals/adaptar-els-espais-dels-equipaments-esportius-per-a-infants-de-0-a-3-anys\">https://decidim.barcelona/proposals/adaptar-els-espais-dels-equipaments-esportius-per-a-infants-de-0-a-3-anys</a></p>", 
            "commentable_id": 914, 
            "commentable_type": "Proposal", 
            "created_at": "16/04/2016 11:57:58", 
            "flagged": false, 
            "hidden": false, 
            "id": 18011, 
            "moderator_id": null, 
            "permissions": {
                "hide": false, 
                "hide_author": false, 
                "vote": false
            }, 
            "total_dislikes": 0, 
            "total_likes": 0, 
            "total_votes": 0
        }, 
        {
            "administrator_id": null, 
            "alignment": 0, 
            "ancestry": null, 
            "as": null, 
            "author": {
                "avatar_image": "https://decidim.barcelona/assets/avatar-866795c99abc33a3160d1f3fa93ada46eb75e54134e777666b9ed16215b26534.png", 
                "erased": false, 
                "hidden": false, 
                "id": 17740, 
                "name": "Suport General2 - Decidim Barcelona", 
                "official": false, 
                "official_level": 0, 
                "role": null, 
                "verified_organization": null
            }, 
            "body": "<p><a href=\"https://decidim.barcelona/proposals/impulsar-i-fomentar-als-equipaments-esportius-municipals-mes-activitats-familiars-i-augmentar-la-oferta-d-activitats-infantils\">https://decidim.barcelona/proposals/impulsar-i-fomentar-als-equipaments-esportius-municipals-mes-activitats-familiars-i-augmentar-la-oferta-d-activitats-infantils</a></p>", 
            "commentable_id": 914, 
            "commentable_type": "Proposal", 
            "created_at": "16/04/2016 11:58:07", 
            "flagged": false, 
            "hidden": false, 
            "id": 18012, 
            "moderator_id": null, 
            "permissions": {
                "hide": false, 
                "hide_author": false, 
                "vote": false
            }, 
            "total_dislikes": 0, 
            "total_likes": 0, 
            "total_votes": 0
        }, 
        {
            "administrator_id": null, 
            "alignment": 0, 
            "ancestry": null, 
            "as": null, 
            "author": {
                "avatar_image": "https://decidim.barcelona/assets/avatar-866795c99abc33a3160d1f3fa93ada46eb75e54134e777666b9ed16215b26534.png", 
                "erased": false, 
                "hidden": false, 
                "id": 17740, 
                "name": "Suport General2 - Decidim Barcelona", 
                "official": false, 
                "official_level": 0, 
                "role": null, 
                "verified_organization": null
            }, 
            "body": "<p><a href=\"https://decidim.barcelona/proposals/impulsar-activitats-de-meditacio-als-centres-esportius-municipals\">https://decidim.barcelona/proposals/impulsar-activitats-de-meditacio-als-centres-esportius-municipals</a></p>", 
            "commentable_id": 914, 
            "commentable_type": "Proposal", 
            "created_at": "16/04/2016 11:58:13", 
            "flagged": false, 
            "hidden": false, 
            "id": 18013, 
            "moderator_id": null, 
            "permissions": {
                "hide": false, 
                "hide_author": false, 
                "vote": false
            }, 
            "total_dislikes": 0, 
            "total_likes": 0, 
            "total_votes": 0
        }, 
        {
            "administrator_id": null, 
            "alignment": 0, 
            "ancestry": null, 
            "as": null, 
            "author": {
                "avatar_image": "https://decidim.barcelona/assets/avatar-866795c99abc33a3160d1f3fa93ada46eb75e54134e777666b9ed16215b26534.png", 
                "erased": false, 
                "hidden": false, 
                "id": 17740, 
                "name": "Suport General2 - Decidim Barcelona", 
                "official": false, 
                "official_level": 0, 
                "role": null, 
                "verified_organization": null
            }, 
            "body": "<p><a href=\"https://decidim.barcelona/proposals/ampliacio-dels-horaris-dels-equipaments-esportius-municipals\">https://decidim.barcelona/proposals/ampliacio-dels-horaris-dels-equipaments-esportius-municipals</a></p>", 
            "commentable_id": 914, 
            "commentable_type": "Proposal", 
            "created_at": "16/04/2016 11:58:20", 
            "flagged": false, 
            "hidden": false, 
            "id": 18014, 
            "moderator_id": null, 
            "permissions": {
                "hide": false, 
                "hide_author": false, 
                "vote": false
            }, 
            "total_dislikes": 0, 
            "total_likes": 0, 
            "total_votes": 0
        }, 
        {
            "administrator_id": null, 
            "alignment": 0, 
            "ancestry": null, 
            "as": null, 
            "author": {
                "avatar_image": "https://decidim.barcelona/assets/avatar-866795c99abc33a3160d1f3fa93ada46eb75e54134e777666b9ed16215b26534.png", 
                "erased": false, 
                "hidden": false, 
                "id": 17740, 
                "name": "Suport General2 - Decidim Barcelona", 
                "official": false, 
                "official_level": 0, 
                "role": null, 
                "verified_organization": null
            }, 
            "body": "<p><a href=\"https://decidim.barcelona/proposals/fibromialgia-esports-adaptats-i-mes-fluixos-per-les-persones-que-tenen-fm-sfc-i-o-sqm-als-centres-civics\">https://decidim.barcelona/proposals/fibromialgia-esports-adaptats-i-mes-fluixos-per-les-persones-que-tenen-fm-sfc-i-o-sqm-als-centres-civics</a></p>", 
            "commentable_id": 914, 
            "commentable_type": "Proposal", 
            "created_at": "16/04/2016 11:58:25", 
            "flagged": false, 
            "hidden": false, 
            "id": 18015, 
            "moderator_id": null, 
            "permissions": {
                "hide": false, 
                "hide_author": false, 
                "vote": false
            }, 
            "total_dislikes": 0, 
            "total_likes": 0, 
            "total_votes": 0
        }
    ], 
    "meta": {
        "current_page": 1, 
        "next_page": 2, 
        "prev_page": null, 
        "total_count": 37, 
        "total_pages": 2
    }
}