{
    "comments": [
        {
            "administrator_id": null, 
            "alignment": 0, 
            "ancestry": null, 
            "as": null, 
            "author": {
                "avatar_image": "https://decidim.barcelona/assets/avatar-866795c99abc33a3160d1f3fa93ada46eb75e54134e777666b9ed16215b26534.png", 
                "erased": false, 
                "hidden": false, 
                "id": 17740, 
                "name": "Suport General2 - Decidim Barcelona", 
                "official": false, 
                "official_level": 0, 
                "role": null, 
                "verified_organization": null
            }, 
            "body": "<p><a href=\"https://decidim.barcelona/proposals/fer-extensiu-el-lloguer-de-bicicletes-a-la-ciutat-als-menors-d-edat\">https://decidim.barcelona/proposals/fer-extensiu-el-lloguer-de-bicicletes-a-la-ciutat-als-menors-d-edat</a></p>", 
            "commentable_id": 914, 
            "commentable_type": "Proposal", 
            "created_at": "16/04/2016 11:58:31", 
            "flagged": false, 
            "hidden": false, 
            "id": 18016, 
            "moderator_id": null, 
            "permissions": {
                "hide": false, 
                "hide_author": false, 
                "vote": false
            }, 
            "total_dislikes": 0, 
            "total_likes": 0, 
            "total_votes": 0
        }, 
        {
            "administrator_id": null, 
            "alignment": 0, 
            "ancestry": null, 
            "as": null, 
            "author": {
                "avatar_image": "https://decidim.barcelona/assets/avatar-866795c99abc33a3160d1f3fa93ada46eb75e54134e777666b9ed16215b26534.png", 
                "erased": false, 
                "hidden": false, 
                "id": 17740, 
                "name": "Suport General2 - Decidim Barcelona", 
                "official": false, 
                "official_level": 0, 
                "role": null, 
                "verified_organization": null
            }, 
            "body": "<p><a href=\"https://decidim.barcelona/proposals/ampliar-la-oferta-de-taekwondo-als-centres-esportius-municipals\">https://decidim.barcelona/proposals/ampliar-la-oferta-de-taekwondo-als-centres-esportius-municipals</a></p>", 
            "commentable_id": 914, 
            "commentable_type": "Proposal", 
            "created_at": "16/04/2016 11:58:42", 
            "flagged": false, 
            "hidden": false, 
            "id": 18017, 
            "moderator_id": null, 
            "permissions": {
                "hide": false, 
                "hide_author": false, 
                "vote": false
            }, 
            "total_dislikes": 0, 
            "total_likes": 0, 
            "total_votes": 0
        }, 
        {
            "administrator_id": null, 
            "alignment": 0, 
            "ancestry": null, 
            "as": null, 
            "author": {
                "avatar_image": "https://decidim.barcelona/assets/avatar-866795c99abc33a3160d1f3fa93ada46eb75e54134e777666b9ed16215b26534.png", 
                "erased": false, 
                "hidden": false, 
                "id": 17740, 
                "name": "Suport General2 - Decidim Barcelona", 
                "official": false, 
                "official_level": 0, 
                "role": null, 
                "verified_organization": null
            }, 
            "body": "<p><a href=\"https://decidim.barcelona/proposals/taxa-metropolitana-de-l-esport\">https://decidim.barcelona/proposals/taxa-metropolitana-de-l-esport</a></p>", 
            "commentable_id": 914, 
            "commentable_type": "Proposal", 
            "created_at": "16/04/2016 11:58:49", 
            "flagged": false, 
            "hidden": false, 
            "id": 18018, 
            "moderator_id": null, 
            "permissions": {
                "hide": false, 
                "hide_author": false, 
                "vote": false
            }, 
            "total_dislikes": 0, 
            "total_likes": 0, 
            "total_votes": 0
        }, 
        {
            "administrator_id": null, 
            "alignment": 0, 
            "ancestry": null, 
            "as": null, 
            "author": {
                "avatar_image": "https://decidim.barcelona/assets/avatar-866795c99abc33a3160d1f3fa93ada46eb75e54134e777666b9ed16215b26534.png", 
                "erased": false, 
                "hidden": false, 
                "id": 17740, 
                "name": "Suport General2 - Decidim Barcelona", 
                "official": false, 
                "official_level": 0, 
                "role": null, 
                "verified_organization": null
            }, 
            "body": "<p><a href=\"https://decidim.barcelona/proposals/xarxa-metropolitana-de-centres-esportius\">https://decidim.barcelona/proposals/xarxa-metropolitana-de-centres-esportius</a></p>", 
            "commentable_id": 914, 
            "commentable_type": "Proposal", 
            "created_at": "16/04/2016 11:58:55", 
            "flagged": false, 
            "hidden": false, 
            "id": 18019, 
            "moderator_id": null, 
            "permissions": {
                "hide": false, 
                "hide_author": false, 
                "vote": false
            }, 
            "total_dislikes": 0, 
            "total_likes": 0, 
            "total_votes": 0
        }, 
        {
            "administrator_id": null, 
            "alignment": 0, 
            "ancestry": null, 
            "as": null, 
            "author": {
                "avatar_image": "https://decidim.barcelona/assets/avatar-866795c99abc33a3160d1f3fa93ada46eb75e54134e777666b9ed16215b26534.png", 
                "erased": false, 
                "hidden": false, 
                "id": 17740, 
                "name": "Suport General2 - Decidim Barcelona", 
                "official": false, 
                "official_level": 0, 
                "role": null, 
                "verified_organization": null
            }, 
            "body": "<p><a href=\"https://decidim.barcelona/proposals/tecnologia-de-l-esport-i-municipi\">https://decidim.barcelona/proposals/tecnologia-de-l-esport-i-municipi</a></p>", 
            "commentable_id": 914, 
            "commentable_type": "Proposal", 
            "created_at": "16/04/2016 11:59:05", 
            "flagged": false, 
            "hidden": false, 
            "id": 18020, 
            "moderator_id": null, 
            "permissions": {
                "hide": false, 
                "hide_author": false, 
                "vote": false
            }, 
            "total_dislikes": 0, 
            "total_likes": 0, 
            "total_votes": 0
        }, 
        {
            "administrator_id": null, 
            "alignment": 0, 
            "ancestry": null, 
            "as": null, 
            "author": {
                "avatar_image": "https://decidim.barcelona/assets/avatar-866795c99abc33a3160d1f3fa93ada46eb75e54134e777666b9ed16215b26534.png", 
                "erased": false, 
                "hidden": false, 
                "id": 17740, 
                "name": "Suport General2 - Decidim Barcelona", 
                "official": false, 
                "official_level": 0, 
                "role": null, 
                "verified_organization": null
            }, 
            "body": "<p><a href=\"https://decidim.barcelona/proposals/patinodrom-a-la-ciutat-de-barcelona\">https://decidim.barcelona/proposals/patinodrom-a-la-ciutat-de-barcelona</a></p>", 
            "commentable_id": 914, 
            "commentable_type": "Proposal", 
            "created_at": "16/04/2016 11:59:10", 
            "flagged": false, 
            "hidden": false, 
            "id": 18021, 
            "moderator_id": null, 
            "permissions": {
                "hide": false, 
                "hide_author": false, 
                "vote": false
            }, 
            "total_dislikes": 0, 
            "total_likes": 0, 
            "total_votes": 0
        }, 
        {
            "administrator_id": null, 
            "alignment": 0, 
            "ancestry": null, 
            "as": null, 
            "author": {
                "avatar_image": "https://decidim.barcelona/assets/avatar-866795c99abc33a3160d1f3fa93ada46eb75e54134e777666b9ed16215b26534.png", 
                "erased": false, 
                "hidden": false, 
                "id": 17740, 
                "name": "Suport General2 - Decidim Barcelona", 
                "official": false, 
                "official_level": 0, 
                "role": null, 
                "verified_organization": null
            }, 
            "body": "<p><a href=\"https://decidim.barcelona/proposals/promocio-de-les-bitlles-catalanes\">https://decidim.barcelona/proposals/promocio-de-les-bitlles-catalanes</a></p>", 
            "commentable_id": 914, 
            "commentable_type": "Proposal", 
            "created_at": "16/04/2016 11:59:17", 
            "flagged": false, 
            "hidden": false, 
            "id": 18022, 
            "moderator_id": null, 
            "permissions": {
                "hide": false, 
                "hide_author": false, 
                "vote": false
            }, 
            "total_dislikes": 0, 
            "total_likes": 0, 
            "total_votes": 0
        }, 
        {
            "administrator_id": null, 
            "alignment": 0, 
            "ancestry": null, 
            "as": null, 
            "author": {
                "avatar_image": "https://decidim.barcelona/assets/avatar-866795c99abc33a3160d1f3fa93ada46eb75e54134e777666b9ed16215b26534.png", 
                "erased": false, 
                "hidden": false, 
                "id": 17740, 
                "name": "Suport General2 - Decidim Barcelona", 
                "official": false, 
                "official_level": 0, 
                "role": null, 
                "verified_organization": null
            }, 
            "body": "<p><a href=\"https://decidim.barcelona/proposals/mes-subvencions-per-a-nous-esports\">https://decidim.barcelona/proposals/mes-subvencions-per-a-nous-esports</a></p>", 
            "commentable_id": 914, 
            "commentable_type": "Proposal", 
            "created_at": "16/04/2016 11:59:23", 
            "flagged": false, 
            "hidden": false, 
            "id": 18023, 
            "moderator_id": null, 
            "permissions": {
                "hide": false, 
                "hide_author": false, 
                "vote": false
            }, 
            "total_dislikes": 0, 
            "total_likes": 0, 
            "total_votes": 0
        }, 
        {
            "administrator_id": null, 
            "alignment": 0, 
            "ancestry": null, 
            "as": null, 
            "author": {
                "avatar_image": "https://decidim.barcelona/assets/avatar-866795c99abc33a3160d1f3fa93ada46eb75e54134e777666b9ed16215b26534.png", 
                "erased": false, 
                "hidden": false, 
                "id": 17740, 
                "name": "Suport General2 - Decidim Barcelona", 
                "official": false, 
                "official_level": 0, 
                "role": null, 
                "verified_organization": null
            }, 
            "body": "<p><a href=\"https://decidim.barcelona/proposals/municipalitzar-els-centres-esportius\">https://decidim.barcelona/proposals/municipalitzar-els-centres-esportius</a></p>", 
            "commentable_id": 914, 
            "commentable_type": "Proposal", 
            "created_at": "16/04/2016 11:59:29", 
            "flagged": false, 
            "hidden": false, 
            "id": 18024, 
            "moderator_id": null, 
            "permissions": {
                "hide": false, 
                "hide_author": false, 
                "vote": false
            }, 
            "total_dislikes": 0, 
            "total_likes": 0, 
            "total_votes": 0
        }, 
        {
            "administrator_id": null, 
            "alignment": 0, 
            "ancestry": null, 
            "as": null, 
            "author": {
                "avatar_image": "https://decidim.barcelona/assets/avatar-866795c99abc33a3160d1f3fa93ada46eb75e54134e777666b9ed16215b26534.png", 
                "erased": false, 
                "hidden": false, 
                "id": 17740, 
                "name": "Suport General2 - Decidim Barcelona", 
                "official": false, 
                "official_level": 0, 
                "role": null, 
                "verified_organization": null
            }, 
            "body": "<p><a href=\"https://decidim.barcelona/proposals/pista-coberta-d-atletisme-al-barri-del-bon-pastor\">https://decidim.barcelona/proposals/pista-coberta-d-atletisme-al-barri-del-bon-pastor</a></p>", 
            "commentable_id": 914, 
            "commentable_type": "Proposal", 
            "created_at": "16/04/2016 11:59:37", 
            "flagged": false, 
            "hidden": false, 
            "id": 18025, 
            "moderator_id": null, 
            "permissions": {
                "hide": false, 
                "hide_author": false, 
                "vote": false
            }, 
            "total_dislikes": 0, 
            "total_likes": 0, 
            "total_votes": 0
        }, 
        {
            "administrator_id": null, 
            "alignment": 0, 
            "ancestry": null, 
            "as": null, 
            "author": {
                "avatar_image": "https://decidim.barcelona/assets/avatar-866795c99abc33a3160d1f3fa93ada46eb75e54134e777666b9ed16215b26534.png", 
                "erased": false, 
                "hidden": false, 
                "id": 17740, 
                "name": "Suport General2 - Decidim Barcelona", 
                "official": false, 
                "official_level": 0, 
                "role": null, 
                "verified_organization": null
            }, 
            "body": "<p><a href=\"https://decidim.barcelona/proposals/introduir-la-reivindicacio-historica-de-seleccions-catalanes-al-museu-olimpic\">https://decidim.barcelona/proposals/introduir-la-reivindicacio-historica-de-seleccions-catalanes-al-museu-olimpic</a></p>", 
            "commentable_id": 914, 
            "commentable_type": "Proposal", 
            "created_at": "16/04/2016 11:59:45", 
            "flagged": false, 
            "hidden": false, 
            "id": 18026, 
            "moderator_id": null, 
            "permissions": {
                "hide": false, 
                "hide_author": false, 
                "vote": false
            }, 
            "total_dislikes": 0, 
            "total_likes": 0, 
            "total_votes": 0
        }, 
        {
            "administrator_id": null, 
            "alignment": 0, 
            "ancestry": null, 
            "as": null, 
            "author": {
                "avatar_image": "https://decidim.barcelona/assets/avatar-866795c99abc33a3160d1f3fa93ada46eb75e54134e777666b9ed16215b26534.png", 
                "erased": false, 
                "hidden": false, 
                "id": 17740, 
                "name": "Suport General2 - Decidim Barcelona", 
                "official": false, 
                "official_level": 0, 
                "role": null, 
                "verified_organization": null
            }, 
            "body": "<p><a href=\"https://decidim.barcelona/proposals/camp-de-basquet-a-josep-pla-pallars-pista-esportiva-joan-pujades\">https://decidim.barcelona/proposals/camp-de-basquet-a-josep-pla-pallars-pista-esportiva-joan-pujades</a></p>", 
            "commentable_id": 914, 
            "commentable_type": "Proposal", 
            "created_at": "16/04/2016 11:59:51", 
            "flagged": false, 
            "hidden": false, 
            "id": 18027, 
            "moderator_id": null, 
            "permissions": {
                "hide": false, 
                "hide_author": false, 
                "vote": false
            }, 
            "total_dislikes": 0, 
            "total_likes": 0, 
            "total_votes": 0
        }, 
        {
            "administrator_id": null, 
            "alignment": 0, 
            "ancestry": null, 
            "as": null, 
            "author": {
                "avatar_image": "https://decidim.barcelona/assets/avatar-866795c99abc33a3160d1f3fa93ada46eb75e54134e777666b9ed16215b26534.png", 
                "erased": false, 
                "hidden": false, 
                "id": 17740, 
                "name": "Suport General2 - Decidim Barcelona", 
                "official": false, 
                "official_level": 0, 
                "role": null, 
                "verified_organization": null
            }, 
            "body": "<p><a href=\"https://decidim.barcelona/proposals/poliesportiu-torre-baro\">https://decidim.barcelona/proposals/poliesportiu-torre-baro</a></p>", 
            "commentable_id": 914, 
            "commentable_type": "Proposal", 
            "created_at": "16/04/2016 11:59:59", 
            "flagged": false, 
            "hidden": false, 
            "id": 18028, 
            "moderator_id": null, 
            "permissions": {
                "hide": false, 
                "hide_author": false, 
                "vote": false
            }, 
            "total_dislikes": 0, 
            "total_likes": 0, 
            "total_votes": 0
        }, 
        {
            "administrator_id": null, 
            "alignment": 0, 
            "ancestry": null, 
            "as": null, 
            "author": {
                "avatar_image": "https://decidim.barcelona/assets/avatar-866795c99abc33a3160d1f3fa93ada46eb75e54134e777666b9ed16215b26534.png", 
                "erased": false, 
                "hidden": false, 
                "id": 17740, 
                "name": "Suport General2 - Decidim Barcelona", 
                "official": false, 
                "official_level": 0, 
                "role": null, 
                "verified_organization": null
            }, 
            "body": "<p><a href=\"https://decidim.barcelona/proposals/construccio-d-un-poliesportiu-al-districte-de-nou-barris-zona-prosperitat\">https://decidim.barcelona/proposals/construccio-d-un-poliesportiu-al-districte-de-nou-barris-zona-prosperitat</a></p>", 
            "commentable_id": 914, 
            "commentable_type": "Proposal", 
            "created_at": "16/04/2016 12:00:11", 
            "flagged": false, 
            "hidden": false, 
            "id": 18029, 
            "moderator_id": null, 
            "permissions": {
                "hide": false, 
                "hide_author": false, 
                "vote": false
            }, 
            "total_dislikes": 0, 
            "total_likes": 0, 
            "total_votes": 0
        }, 
        {
            "administrator_id": null, 
            "alignment": 0, 
            "ancestry": null, 
            "as": null, 
            "author": {
                "avatar_image": "https://decidim.barcelona/assets/avatar-866795c99abc33a3160d1f3fa93ada46eb75e54134e777666b9ed16215b26534.png", 
                "erased": false, 
                "hidden": false, 
                "id": 17740, 
                "name": "Suport General2 - Decidim Barcelona", 
                "official": false, 
                "official_level": 0, 
                "role": null, 
                "verified_organization": null
            }, 
            "body": "<p><a href=\"https://decidim.barcelona/proposals/poliesportiu-o-pista-coberta-al-barri-de-canyelles-nou-barris\">https://decidim.barcelona/proposals/poliesportiu-o-pista-coberta-al-barri-de-canyelles-nou-barris</a></p>", 
            "commentable_id": 914, 
            "commentable_type": "Proposal", 
            "created_at": "16/04/2016 12:00:17", 
            "flagged": false, 
            "hidden": false, 
            "id": 18030, 
            "moderator_id": null, 
            "permissions": {
                "hide": false, 
                "hide_author": false, 
                "vote": false
            }, 
            "total_dislikes": 0, 
            "total_likes": 0, 
            "total_votes": 0
        }, 
        {
            "administrator_id": null, 
            "alignment": 0, 
            "ancestry": null, 
            "as": null, 
            "author": {
                "avatar_image": "https://decidim.barcelona/assets/avatar-866795c99abc33a3160d1f3fa93ada46eb75e54134e777666b9ed16215b26534.png", 
                "erased": false, 
                "hidden": false, 
                "id": 17740, 
                "name": "Suport General2 - Decidim Barcelona", 
                "official": false, 
                "official_level": 0, 
                "role": null, 
                "verified_organization": null
            }, 
            "body": "<p><a href=\"https://decidim.barcelona/proposals/nueva-instalacion-deportiva-en-el-turo-de-la-peira-para-el-cfs-montsant\">https://decidim.barcelona/proposals/nueva-instalacion-deportiva-en-el-turo-de-la-peira-para-el-cfs-montsant</a></p>", 
            "commentable_id": 914, 
            "commentable_type": "Proposal", 
            "created_at": "16/04/2016 12:00:25", 
            "flagged": false, 
            "hidden": false, 
            "id": 18031, 
            "moderator_id": null, 
            "permissions": {
                "hide": false, 
                "hide_author": false, 
                "vote": false
            }, 
            "total_dislikes": 0, 
            "total_likes": 0, 
            "total_votes": 0
        }, 
        {
            "administrator_id": null, 
            "alignment": 0, 
            "ancestry": null, 
            "as": null, 
            "author": {
                "avatar_image": "https://decidim.barcelona/assets/avatar-866795c99abc33a3160d1f3fa93ada46eb75e54134e777666b9ed16215b26534.png", 
                "erased": false, 
                "hidden": false, 
                "id": 17740, 
                "name": "Suport General2 - Decidim Barcelona", 
                "official": false, 
                "official_level": 0, 
                "role": null, 
                "verified_organization": null
            }, 
            "body": "<p><a href=\"https://decidim.barcelona/proposals/equipaments-esportius-a-la-trinitat-nova\">https://decidim.barcelona/proposals/equipaments-esportius-a-la-trinitat-nova</a></p>", 
            "commentable_id": 914, 
            "commentable_type": "Proposal", 
            "created_at": "16/04/2016 12:00:35", 
            "flagged": false, 
            "hidden": false, 
            "id": 18032, 
            "moderator_id": null, 
            "permissions": {
                "hide": false, 
                "hide_author": false, 
                "vote": false
            }, 
            "total_dislikes": 0, 
            "total_likes": 0, 
            "total_votes": 0
        }
    ], 
    "meta": {
        "current_page": 2, 
        "next_page": null, 
        "prev_page": 1, 
        "total_count": 37, 
        "total_pages": 2
    }
}