{
    "comments": [
        {
            "administrator_id": null, 
            "alignment": 0, 
            "ancestry": null, 
            "as": null, 
            "author": {
                "avatar_image": "https://decidim.barcelona/assets/avatar-866795c99abc33a3160d1f3fa93ada46eb75e54134e777666b9ed16215b26534.png", 
                "erased": false, 
                "hidden": false, 
                "id": 17740, 
                "name": "Suport General2 - Decidim Barcelona", 
                "official": false, 
                "official_level": 0, 
                "role": null, 
                "verified_organization": null
            }, 
            "body": "<p><a href=\"https://decidim.barcelona/proposals/ubicacio-contenidors-pro-peatons\">https://decidim.barcelona/proposals/ubicacio-contenidors-pro-peatons</a></p>", 
            "commentable_id": 924, 
            "commentable_type": "Proposal", 
            "created_at": "13/04/2016 12:41:16", 
            "flagged": false, 
            "hidden": false, 
            "id": 14552, 
            "moderator_id": null, 
            "permissions": {
                "hide": false, 
                "hide_author": false, 
                "vote": false
            }, 
            "total_dislikes": 0, 
            "total_likes": 0, 
            "total_votes": 0
        }, 
        {
            "administrator_id": null, 
            "alignment": 0, 
            "ancestry": null, 
            "as": null, 
            "author": {
                "avatar_image": "https://decidim.barcelona/assets/avatar-866795c99abc33a3160d1f3fa93ada46eb75e54134e777666b9ed16215b26534.png", 
                "erased": false, 
                "hidden": false, 
                "id": 17740, 
                "name": "Suport General2 - Decidim Barcelona", 
                "official": false, 
                "official_level": 0, 
                "role": null, 
                "verified_organization": null
            }, 
            "body": "<p><a href=\"https://decidim.barcelona/proposals/bicicletes-i-respecte-als-vianants\">https://decidim.barcelona/proposals/bicicletes-i-respecte-als-vianants</a></p>", 
            "commentable_id": 924, 
            "commentable_type": "Proposal", 
            "created_at": "13/04/2016 12:48:31", 
            "flagged": false, 
            "hidden": false, 
            "id": 14567, 
            "moderator_id": null, 
            "permissions": {
                "hide": false, 
                "hide_author": false, 
                "vote": false
            }, 
            "total_dislikes": 0, 
            "total_likes": 0, 
            "total_votes": 0
        }, 
        {
            "administrator_id": null, 
            "alignment": 0, 
            "ancestry": null, 
            "as": null, 
            "author": {
                "avatar_image": "https://decidim.barcelona/assets/avatar-866795c99abc33a3160d1f3fa93ada46eb75e54134e777666b9ed16215b26534.png", 
                "erased": false, 
                "hidden": false, 
                "id": 17740, 
                "name": "Suport General2 - Decidim Barcelona", 
                "official": false, 
                "official_level": 0, 
                "role": null, 
                "verified_organization": null
            }, 
            "body": "<p><a href=\"https://decidim.barcelona/proposals/una-ciutat-per-poder-ser-gaudida\">https://decidim.barcelona/proposals/una-ciutat-per-poder-ser-gaudida</a></p>", 
            "commentable_id": 924, 
            "commentable_type": "Proposal", 
            "created_at": "13/04/2016 12:49:07", 
            "flagged": false, 
            "hidden": false, 
            "id": 14568, 
            "moderator_id": null, 
            "permissions": {
                "hide": false, 
                "hide_author": false, 
                "vote": false
            }, 
            "total_dislikes": 0, 
            "total_likes": 0, 
            "total_votes": 0
        }, 
        {
            "administrator_id": null, 
            "alignment": 0, 
            "ancestry": null, 
            "as": null, 
            "author": {
                "avatar_image": "https://decidim.barcelona/assets/avatar-866795c99abc33a3160d1f3fa93ada46eb75e54134e777666b9ed16215b26534.png", 
                "erased": false, 
                "hidden": false, 
                "id": 17740, 
                "name": "Suport General2 - Decidim Barcelona", 
                "official": false, 
                "official_level": 0, 
                "role": null, 
                "verified_organization": null
            }, 
            "body": "<p><a href=\"https://decidim.barcelona/proposals/senyalitzacio-dels-passos-de-vianants-amb-una-franja-de-color-per-evitar-l-apropament-a-la-calcada\">https://decidim.barcelona/proposals/senyalitzacio-dels-passos-de-vianants-amb-una-franja-de-color-per-evitar-l-apropament-a-la-calcada</a></p>", 
            "commentable_id": 924, 
            "commentable_type": "Proposal", 
            "created_at": "13/04/2016 12:49:41", 
            "flagged": false, 
            "hidden": false, 
            "id": 14570, 
            "moderator_id": null, 
            "permissions": {
                "hide": false, 
                "hide_author": false, 
                "vote": false
            }, 
            "total_dislikes": 0, 
            "total_likes": 0, 
            "total_votes": 0
        }, 
        {
            "administrator_id": null, 
            "alignment": 0, 
            "ancestry": null, 
            "as": null, 
            "author": {
                "avatar_image": "https://decidim.barcelona/assets/avatar-866795c99abc33a3160d1f3fa93ada46eb75e54134e777666b9ed16215b26534.png", 
                "erased": false, 
                "hidden": false, 
                "id": 17740, 
                "name": "Suport General2 - Decidim Barcelona", 
                "official": false, 
                "official_level": 0, 
                "role": null, 
                "verified_organization": null
            }, 
            "body": "<p><a href=\"https://decidim.barcelona/proposals/ordenem-i-organitzem-el-espai-ciutada-els-vianants-tenen-preferencia\">https://decidim.barcelona/proposals/ordenem-i-organitzem-el-espai-ciutada-els-vianants-tenen-preferencia</a></p>", 
            "commentable_id": 924, 
            "commentable_type": "Proposal", 
            "created_at": "13/04/2016 12:52:43", 
            "flagged": false, 
            "hidden": false, 
            "id": 14579, 
            "moderator_id": null, 
            "permissions": {
                "hide": false, 
                "hide_author": false, 
                "vote": false
            }, 
            "total_dislikes": 0, 
            "total_likes": 0, 
            "total_votes": 0
        }, 
        {
            "administrator_id": null, 
            "alignment": 0, 
            "ancestry": null, 
            "as": null, 
            "author": {
                "avatar_image": "https://decidim.barcelona/assets/avatar-866795c99abc33a3160d1f3fa93ada46eb75e54134e777666b9ed16215b26534.png", 
                "erased": false, 
                "hidden": false, 
                "id": 17740, 
                "name": "Suport General2 - Decidim Barcelona", 
                "official": false, 
                "official_level": 0, 
                "role": null, 
                "verified_organization": null
            }, 
            "body": "<p><a href=\"https://decidim.barcelona/proposals/eliminar-o-substituir-pintura-roja-de-la-calzada\">https://decidim.barcelona/proposals/eliminar-o-substituir-pintura-roja-de-la-calzada</a></p>", 
            "commentable_id": 924, 
            "commentable_type": "Proposal", 
            "created_at": "13/04/2016 12:53:25", 
            "flagged": false, 
            "hidden": false, 
            "id": 14580, 
            "moderator_id": null, 
            "permissions": {
                "hide": false, 
                "hide_author": false, 
                "vote": false
            }, 
            "total_dislikes": 0, 
            "total_likes": 0, 
            "total_votes": 0
        }, 
        {
            "administrator_id": null, 
            "alignment": 0, 
            "ancestry": null, 
            "as": null, 
            "author": {
                "avatar_image": "https://decidim.barcelona/assets/avatar-866795c99abc33a3160d1f3fa93ada46eb75e54134e777666b9ed16215b26534.png", 
                "erased": false, 
                "hidden": false, 
                "id": 17740, 
                "name": "Suport General2 - Decidim Barcelona", 
                "official": false, 
                "official_level": 0, 
                "role": null, 
                "verified_organization": null
            }, 
            "body": "<p><a href=\"https://decidim.barcelona/proposals/fer-una-nova-regulacio-per-la-circulacio-de-bicicletes-patins-i-d-altres-elements-mobils\">https://decidim.barcelona/proposals/fer-una-nova-regulacio-per-la-circulacio-de-bicicletes-patins-i-d-altres-elements-mobils</a></p>", 
            "commentable_id": 924, 
            "commentable_type": "Proposal", 
            "created_at": "13/04/2016 12:56:17", 
            "flagged": false, 
            "hidden": false, 
            "id": 14588, 
            "moderator_id": null, 
            "permissions": {
                "hide": false, 
                "hide_author": false, 
                "vote": false
            }, 
            "total_dislikes": 0, 
            "total_likes": 0, 
            "total_votes": 0
        }, 
        {
            "administrator_id": null, 
            "alignment": 0, 
            "ancestry": null, 
            "as": null, 
            "author": {
                "avatar_image": "https://decidim.barcelona/assets/avatar-866795c99abc33a3160d1f3fa93ada46eb75e54134e777666b9ed16215b26534.png", 
                "erased": false, 
                "hidden": false, 
                "id": 17740, 
                "name": "Suport General2 - Decidim Barcelona", 
                "official": false, 
                "official_level": 0, 
                "role": null, 
                "verified_organization": null
            }, 
            "body": "<p><a href=\"https://decidim.barcelona/proposals/motoristes-incivics\">https://decidim.barcelona/proposals/motoristes-incivics</a></p>", 
            "commentable_id": 924, 
            "commentable_type": "Proposal", 
            "created_at": "13/04/2016 12:58:16", 
            "flagged": false, 
            "hidden": false, 
            "id": 14591, 
            "moderator_id": null, 
            "permissions": {
                "hide": false, 
                "hide_author": false, 
                "vote": false
            }, 
            "total_dislikes": 0, 
            "total_likes": 0, 
            "total_votes": 0
        }, 
        {
            "administrator_id": null, 
            "alignment": 0, 
            "ancestry": null, 
            "as": null, 
            "author": {
                "avatar_image": "https://decidim.barcelona/assets/avatar-866795c99abc33a3160d1f3fa93ada46eb75e54134e777666b9ed16215b26534.png", 
                "erased": false, 
                "hidden": false, 
                "id": 17740, 
                "name": "Suport General2 - Decidim Barcelona", 
                "official": false, 
                "official_level": 0, 
                "role": null, 
                "verified_organization": null
            }, 
            "body": "<p><a href=\"https://decidim.barcelona/proposals/seguridad-en-las-aceras\">https://decidim.barcelona/proposals/seguridad-en-las-aceras</a></p>", 
            "commentable_id": 924, 
            "commentable_type": "Proposal", 
            "created_at": "13/04/2016 13:02:57", 
            "flagged": false, 
            "hidden": false, 
            "id": 14597, 
            "moderator_id": null, 
            "permissions": {
                "hide": false, 
                "hide_author": false, 
                "vote": false
            }, 
            "total_dislikes": 0, 
            "total_likes": 0, 
            "total_votes": 0
        }, 
        {
            "administrator_id": null, 
            "alignment": 0, 
            "ancestry": null, 
            "as": null, 
            "author": {
                "avatar_image": "https://decidim.barcelona/assets/avatar-866795c99abc33a3160d1f3fa93ada46eb75e54134e777666b9ed16215b26534.png", 
                "erased": false, 
                "hidden": false, 
                "id": 17740, 
                "name": "Suport General2 - Decidim Barcelona", 
                "official": false, 
                "official_level": 0, 
                "role": null, 
                "verified_organization": null
            }, 
            "body": "<p><a href=\"https://decidim.barcelona/proposals/que-con-los-semaforos-en-verde-para-los-peatones-no-puedan-pasar-vehiculos\">https://decidim.barcelona/proposals/que-con-los-semaforos-en-verde-para-los-peatones-no-puedan-pasar-vehiculos</a></p>", 
            "commentable_id": 924, 
            "commentable_type": "Proposal", 
            "created_at": "13/04/2016 13:20:21", 
            "flagged": false, 
            "hidden": false, 
            "id": 14671, 
            "moderator_id": null, 
            "permissions": {
                "hide": false, 
                "hide_author": false, 
                "vote": false
            }, 
            "total_dislikes": 0, 
            "total_likes": 0, 
            "total_votes": 0
        }, 
        {
            "administrator_id": null, 
            "alignment": 0, 
            "ancestry": null, 
            "as": null, 
            "author": {
                "avatar_image": "https://decidim.barcelona/assets/avatar-866795c99abc33a3160d1f3fa93ada46eb75e54134e777666b9ed16215b26534.png", 
                "erased": false, 
                "hidden": false, 
                "id": 17740, 
                "name": "Suport General2 - Decidim Barcelona", 
                "official": false, 
                "official_level": 0, 
                "role": null, 
                "verified_organization": null
            }, 
            "body": "<p><a href=\"https://decidim.barcelona/proposals/tramvia-a-maxim-50km\">https://decidim.barcelona/proposals/tramvia-a-maxim-50km</a></p>", 
            "commentable_id": 924, 
            "commentable_type": "Proposal", 
            "created_at": "13/04/2016 13:20:55", 
            "flagged": false, 
            "hidden": false, 
            "id": 14674, 
            "moderator_id": null, 
            "permissions": {
                "hide": false, 
                "hide_author": false, 
                "vote": false
            }, 
            "total_dislikes": 0, 
            "total_likes": 0, 
            "total_votes": 0
        }, 
        {
            "administrator_id": null, 
            "alignment": 0, 
            "ancestry": null, 
            "as": null, 
            "author": {
                "avatar_image": "https://decidim.barcelona/assets/avatar-866795c99abc33a3160d1f3fa93ada46eb75e54134e777666b9ed16215b26534.png", 
                "erased": false, 
                "hidden": false, 
                "id": 17740, 
                "name": "Suport General2 - Decidim Barcelona", 
                "official": false, 
                "official_level": 0, 
                "role": null, 
                "verified_organization": null
            }, 
            "body": "<p><a href=\"https://decidim.barcelona/proposals/carrils-bici-direccio-unica-com-els-carrers\">https://decidim.barcelona/proposals/carrils-bici-direccio-unica-com-els-carrers</a></p>", 
            "commentable_id": 924, 
            "commentable_type": "Proposal", 
            "created_at": "13/04/2016 13:27:59", 
            "flagged": false, 
            "hidden": false, 
            "id": 14701, 
            "moderator_id": null, 
            "permissions": {
                "hide": false, 
                "hide_author": false, 
                "vote": false
            }, 
            "total_dislikes": 0, 
            "total_likes": 0, 
            "total_votes": 0
        }, 
        {
            "administrator_id": null, 
            "alignment": 0, 
            "ancestry": null, 
            "as": null, 
            "author": {
                "avatar_image": "https://decidim.barcelona/assets/avatar-866795c99abc33a3160d1f3fa93ada46eb75e54134e777666b9ed16215b26534.png", 
                "erased": false, 
                "hidden": false, 
                "id": 17740, 
                "name": "Suport General2 - Decidim Barcelona", 
                "official": false, 
                "official_level": 0, 
                "role": null, 
                "verified_organization": null
            }, 
            "body": "<p><a href=\"https://decidim.barcelona/proposals/prohibir-els-patinets-electrics-i-els-segways-a-la-ciutat-de-barcelona\">https://decidim.barcelona/proposals/prohibir-els-patinets-electrics-i-els-segways-a-la-ciutat-de-barcelona</a></p>", 
            "commentable_id": 924, 
            "commentable_type": "Proposal", 
            "created_at": "13/04/2016 13:33:05", 
            "flagged": false, 
            "hidden": false, 
            "id": 14711, 
            "moderator_id": null, 
            "permissions": {
                "hide": false, 
                "hide_author": false, 
                "vote": false
            }, 
            "total_dislikes": 0, 
            "total_likes": 0, 
            "total_votes": 0
        }, 
        {
            "administrator_id": null, 
            "alignment": 0, 
            "ancestry": null, 
            "as": null, 
            "author": {
                "avatar_image": "https://decidim.barcelona/assets/avatar-866795c99abc33a3160d1f3fa93ada46eb75e54134e777666b9ed16215b26534.png", 
                "erased": false, 
                "hidden": false, 
                "id": 17740, 
                "name": "Suport General2 - Decidim Barcelona", 
                "official": false, 
                "official_level": 0, 
                "role": null, 
                "verified_organization": null
            }, 
            "body": "<p><a href=\"https://decidim.barcelona/proposals/millora-carril-bici-al-pg-pujades-parc-de-la-ciutadella\">https://decidim.barcelona/proposals/millora-carril-bici-al-pg-pujades-parc-de-la-ciutadella</a></p>", 
            "commentable_id": 924, 
            "commentable_type": "Proposal", 
            "created_at": "13/04/2016 13:43:23", 
            "flagged": false, 
            "hidden": false, 
            "id": 14727, 
            "moderator_id": null, 
            "permissions": {
                "hide": false, 
                "hide_author": false, 
                "vote": false
            }, 
            "total_dislikes": 0, 
            "total_likes": 0, 
            "total_votes": 0
        }, 
        {
            "administrator_id": null, 
            "alignment": 0, 
            "ancestry": null, 
            "as": null, 
            "author": {
                "avatar_image": "https://decidim.barcelona/assets/avatar-866795c99abc33a3160d1f3fa93ada46eb75e54134e777666b9ed16215b26534.png", 
                "erased": false, 
                "hidden": false, 
                "id": 17740, 
                "name": "Suport General2 - Decidim Barcelona", 
                "official": false, 
                "official_level": 0, 
                "role": null, 
                "verified_organization": null
            }, 
            "body": "<p><a href=\"https://decidim.barcelona/proposals/solucionar-la-conflictiva-convivencia-entre-vianants-bicicletes-i-skaters-fent-campanyes-de-conscienciacio-posant-multes\">https://decidim.barcelona/proposals/solucionar-la-conflictiva-convivencia-entre-vianants-bicicletes-i-skaters-fent-campanyes-de-conscienciacio-posant-multes</a></p>", 
            "commentable_id": 924, 
            "commentable_type": "Proposal", 
            "created_at": "13/04/2016 14:34:35", 
            "flagged": false, 
            "hidden": false, 
            "id": 14841, 
            "moderator_id": null, 
            "permissions": {
                "hide": false, 
                "hide_author": false, 
                "vote": false
            }, 
            "total_dislikes": 0, 
            "total_likes": 0, 
            "total_votes": 0
        }, 
        {
            "administrator_id": null, 
            "alignment": 0, 
            "ancestry": null, 
            "as": null, 
            "author": {
                "avatar_image": "https://decidim.barcelona/assets/avatar-866795c99abc33a3160d1f3fa93ada46eb75e54134e777666b9ed16215b26534.png", 
                "erased": false, 
                "hidden": false, 
                "id": 17740, 
                "name": "Suport General2 - Decidim Barcelona", 
                "official": false, 
                "official_level": 0, 
                "role": null, 
                "verified_organization": null
            }, 
            "body": "<p><a href=\"https://decidim.barcelona/proposals/respect-del-carril-bici-de-part-dels-vianants\">https://decidim.barcelona/proposals/respect-del-carril-bici-de-part-dels-vianants</a></p>", 
            "commentable_id": 924, 
            "commentable_type": "Proposal", 
            "created_at": "13/04/2016 16:29:23", 
            "flagged": false, 
            "hidden": false, 
            "id": 14915, 
            "moderator_id": null, 
            "permissions": {
                "hide": false, 
                "hide_author": false, 
                "vote": false
            }, 
            "total_dislikes": 0, 
            "total_likes": 0, 
            "total_votes": 0
        }, 
        {
            "administrator_id": null, 
            "alignment": 0, 
            "ancestry": null, 
            "as": null, 
            "author": {
                "avatar_image": "https://decidim.barcelona/assets/avatar-866795c99abc33a3160d1f3fa93ada46eb75e54134e777666b9ed16215b26534.png", 
                "erased": false, 
                "hidden": false, 
                "id": 17740, 
                "name": "Suport General2 - Decidim Barcelona", 
                "official": false, 
                "official_level": 0, 
                "role": null, 
                "verified_organization": null
            }, 
            "body": "<p><a href=\"https://decidim.barcelona/proposals/instal-lar-un-semafor-a-la-perillosa-cruilla-de-tamarit-amb-lleida\">https://decidim.barcelona/proposals/instal-lar-un-semafor-a-la-perillosa-cruilla-de-tamarit-amb-lleida</a></p>", 
            "commentable_id": 924, 
            "commentable_type": "Proposal", 
            "created_at": "13/04/2016 17:16:15", 
            "flagged": false, 
            "hidden": false, 
            "id": 14958, 
            "moderator_id": null, 
            "permissions": {
                "hide": false, 
                "hide_author": false, 
                "vote": false
            }, 
            "total_dislikes": 0, 
            "total_likes": 0, 
            "total_votes": 0
        }, 
        {
            "administrator_id": null, 
            "alignment": 0, 
            "ancestry": null, 
            "as": null, 
            "author": {
                "avatar_image": "https://decidim.barcelona/assets/avatar-866795c99abc33a3160d1f3fa93ada46eb75e54134e777666b9ed16215b26534.png", 
                "erased": false, 
                "hidden": false, 
                "id": 17740, 
                "name": "Suport General2 - Decidim Barcelona", 
                "official": false, 
                "official_level": 0, 
                "role": null, 
                "verified_organization": null
            }, 
            "body": "<p><a href=\"https://decidim.barcelona/proposals/col-locar-bandes-sonores-en-algunes-cruilles\">https://decidim.barcelona/proposals/col-locar-bandes-sonores-en-algunes-cruilles</a></p>", 
            "commentable_id": 924, 
            "commentable_type": "Proposal", 
            "created_at": "13/04/2016 17:27:02", 
            "flagged": false, 
            "hidden": false, 
            "id": 14973, 
            "moderator_id": null, 
            "permissions": {
                "hide": false, 
                "hide_author": false, 
                "vote": false
            }, 
            "total_dislikes": 0, 
            "total_likes": 0, 
            "total_votes": 0
        }, 
        {
            "administrator_id": null, 
            "alignment": 0, 
            "ancestry": null, 
            "as": null, 
            "author": {
                "avatar_image": "https://decidim.barcelona/assets/avatar-866795c99abc33a3160d1f3fa93ada46eb75e54134e777666b9ed16215b26534.png", 
                "erased": false, 
                "hidden": false, 
                "id": 17740, 
                "name": "Suport General2 - Decidim Barcelona", 
                "official": false, 
                "official_level": 0, 
                "role": null, 
                "verified_organization": null
            }, 
            "body": "<p><a href=\"https://decidim.barcelona/proposals/posar-bandes-rugoses-al-passeig-de-montjuic\">https://decidim.barcelona/proposals/posar-bandes-rugoses-al-passeig-de-montjuic</a></p>", 
            "commentable_id": 924, 
            "commentable_type": "Proposal", 
            "created_at": "13/04/2016 17:36:38", 
            "flagged": false, 
            "hidden": false, 
            "id": 14983, 
            "moderator_id": null, 
            "permissions": {
                "hide": false, 
                "hide_author": false, 
                "vote": false
            }, 
            "total_dislikes": 0, 
            "total_likes": 0, 
            "total_votes": 0
        }, 
        {
            "administrator_id": null, 
            "alignment": 0, 
            "ancestry": null, 
            "as": null, 
            "author": {
                "avatar_image": "https://decidim.barcelona/assets/avatar-866795c99abc33a3160d1f3fa93ada46eb75e54134e777666b9ed16215b26534.png", 
                "erased": false, 
                "hidden": false, 
                "id": 17740, 
                "name": "Suport General2 - Decidim Barcelona", 
                "official": false, 
                "official_level": 0, 
                "role": null, 
                "verified_organization": null
            }, 
            "body": "<p><a href=\"https://decidim.barcelona/proposals/limitar-la-velocitat-al-c-moianes-de-forma-efectiva\">https://decidim.barcelona/proposals/limitar-la-velocitat-al-c-moianes-de-forma-efectiva</a></p>", 
            "commentable_id": 924, 
            "commentable_type": "Proposal", 
            "created_at": "13/04/2016 17:43:26", 
            "flagged": false, 
            "hidden": false, 
            "id": 14992, 
            "moderator_id": null, 
            "permissions": {
                "hide": false, 
                "hide_author": false, 
                "vote": false
            }, 
            "total_dislikes": 0, 
            "total_likes": 0, 
            "total_votes": 0
        }
    ], 
    "meta": {
        "current_page": 2, 
        "next_page": 3, 
        "prev_page": 1, 
        "total_count": 53, 
        "total_pages": 3
    }
}