{
    "comments": [
        {
            "administrator_id": null, 
            "alignment": 1, 
            "ancestry": null, 
            "as": "organization", 
            "author": {
                "avatar_image": "https://decidim.barcelona/assets/avatar-866795c99abc33a3160d1f3fa93ada46eb75e54134e777666b9ed16215b26534.png", 
                "erased": false, 
                "hidden": false, 
                "id": 1529, 
                "name": "P(A)T - Associaci\u00f3 de Prevenci\u00f3 d'Accidents de Tr\u00e0nsit", 
                "official": false, 
                "official_level": 0, 
                "role": "organization", 
                "verified_organization": false
            }, 
            "body": "<p>Per aconseguir millores en la Mobilitat i en la Seguretat Vi\u00e0ria s\u2019ha de treballar de forma transversal.  Reduir la contaminaci\u00f3 per emissions i la contaminaci\u00f3 ac\u00fastica i reduir els sinistres de tr\u00e0nsit. No podem permetre que hi hagin m\u00e9s morts per aquestes causes a la ciutat de Barcelona.</p>", 
            "commentable_id": 924, 
            "commentable_type": "Proposal", 
            "created_at": "03/02/2016 12:56:59", 
            "flagged": false, 
            "hidden": false, 
            "id": 430, 
            "moderator_id": null, 
            "permissions": {
                "hide": false, 
                "hide_author": false, 
                "vote": false
            }, 
            "total_dislikes": 0, 
            "total_likes": 0, 
            "total_votes": 0
        }, 
        {
            "administrator_id": null, 
            "alignment": 0, 
            "ancestry": null, 
            "as": null, 
            "author": {
                "avatar_image": "https://decidim.barcelona/assets/avatar-866795c99abc33a3160d1f3fa93ada46eb75e54134e777666b9ed16215b26534.png", 
                "erased": false, 
                "hidden": false, 
                "id": 17740, 
                "name": "Suport General2 - Decidim Barcelona", 
                "official": false, 
                "official_level": 0, 
                "role": null, 
                "verified_organization": null
            }, 
            "body": "<p><a href=\"https://decidim.barcelona/proposals/exigir-cumplimiento-de-no-circular-bicicletas-y-monopatines-por-aceras-y-paseos\">https://decidim.barcelona/proposals/exigir-cumplimiento-de-no-circular-bicicletas-y-monopatines-por-aceras-y-paseos</a></p>", 
            "commentable_id": 924, 
            "commentable_type": "Proposal", 
            "created_at": "09/04/2016 15:19:45", 
            "flagged": false, 
            "hidden": false, 
            "id": 12399, 
            "moderator_id": null, 
            "permissions": {
                "hide": false, 
                "hide_author": false, 
                "vote": false
            }, 
            "total_dislikes": 0, 
            "total_likes": 0, 
            "total_votes": 0
        }, 
        {
            "administrator_id": null, 
            "alignment": 0, 
            "ancestry": null, 
            "as": null, 
            "author": {
                "avatar_image": "https://decidim.barcelona/assets/avatar-866795c99abc33a3160d1f3fa93ada46eb75e54134e777666b9ed16215b26534.png", 
                "erased": false, 
                "hidden": false, 
                "id": 17740, 
                "name": "Suport General2 - Decidim Barcelona", 
                "official": false, 
                "official_level": 0, 
                "role": null, 
                "verified_organization": null
            }, 
            "body": "<p><a href=\"https://decidim.barcelona/proposals/pasear-tranquilos-por-aceras-paseos-y-parques-sin-bicis-ni-patines\">https://decidim.barcelona/proposals/pasear-tranquilos-por-aceras-paseos-y-parques-sin-bicis-ni-patines</a></p>", 
            "commentable_id": 924, 
            "commentable_type": "Proposal", 
            "created_at": "09/04/2016 15:21:07", 
            "flagged": false, 
            "hidden": false, 
            "id": 12403, 
            "moderator_id": null, 
            "permissions": {
                "hide": false, 
                "hide_author": false, 
                "vote": false
            }, 
            "total_dislikes": 0, 
            "total_likes": 0, 
            "total_votes": 0
        }, 
        {
            "administrator_id": null, 
            "alignment": 0, 
            "ancestry": null, 
            "as": null, 
            "author": {
                "avatar_image": "https://decidim.barcelona/assets/avatar-866795c99abc33a3160d1f3fa93ada46eb75e54134e777666b9ed16215b26534.png", 
                "erased": false, 
                "hidden": false, 
                "id": 17740, 
                "name": "Suport General2 - Decidim Barcelona", 
                "official": false, 
                "official_level": 0, 
                "role": null, 
                "verified_organization": null
            }, 
            "body": "<p><a href=\"https://decidim.barcelona/proposals/no-mes-atropellaments-de-bicicletes-seguretat-per-al-vianant-en-voreres-ja\">https://decidim.barcelona/proposals/no-mes-atropellaments-de-bicicletes-seguretat-per-al-vianant-en-voreres-ja</a></p>", 
            "commentable_id": 924, 
            "commentable_type": "Proposal", 
            "created_at": "09/04/2016 15:21:42", 
            "flagged": false, 
            "hidden": false, 
            "id": 12405, 
            "moderator_id": null, 
            "permissions": {
                "hide": false, 
                "hide_author": false, 
                "vote": false
            }, 
            "total_dislikes": 0, 
            "total_likes": 0, 
            "total_votes": 0
        }, 
        {
            "administrator_id": null, 
            "alignment": 0, 
            "ancestry": null, 
            "as": null, 
            "author": {
                "avatar_image": "https://decidim.barcelona/assets/avatar-866795c99abc33a3160d1f3fa93ada46eb75e54134e777666b9ed16215b26534.png", 
                "erased": false, 
                "hidden": false, 
                "id": 17740, 
                "name": "Suport General2 - Decidim Barcelona", 
                "official": false, 
                "official_level": 0, 
                "role": null, 
                "verified_organization": null
            }, 
            "body": "<p><a href=\"https://decidim.barcelona/proposals/circulacio-de-bicicletes-amb-matricula-i-polissa-d-assegurances-d-accidents\">https://decidim.barcelona/proposals/circulacio-de-bicicletes-amb-matricula-i-polissa-d-assegurances-d-accidents</a></p>", 
            "commentable_id": 924, 
            "commentable_type": "Proposal", 
            "created_at": "13/04/2016 11:01:37", 
            "flagged": false, 
            "hidden": false, 
            "id": 14359, 
            "moderator_id": null, 
            "permissions": {
                "hide": false, 
                "hide_author": false, 
                "vote": false
            }, 
            "total_dislikes": 0, 
            "total_likes": 0, 
            "total_votes": 0
        }, 
        {
            "administrator_id": null, 
            "alignment": 0, 
            "ancestry": null, 
            "as": null, 
            "author": {
                "avatar_image": "https://decidim.barcelona/assets/avatar-866795c99abc33a3160d1f3fa93ada46eb75e54134e777666b9ed16215b26534.png", 
                "erased": false, 
                "hidden": false, 
                "id": 17740, 
                "name": "Suport General2 - Decidim Barcelona", 
                "official": false, 
                "official_level": 0, 
                "role": null, 
                "verified_organization": null
            }, 
            "body": "<p><a href=\"https://decidim.barcelona/proposals/regulacion-del-alquiler-de-vehiculos-electricos-segways-patinetes\">https://decidim.barcelona/proposals/regulacion-del-alquiler-de-vehiculos-electricos-segways-patinetes</a></p>", 
            "commentable_id": 924, 
            "commentable_type": "Proposal", 
            "created_at": "13/04/2016 11:04:04", 
            "flagged": false, 
            "hidden": false, 
            "id": 14365, 
            "moderator_id": null, 
            "permissions": {
                "hide": false, 
                "hide_author": false, 
                "vote": false
            }, 
            "total_dislikes": 0, 
            "total_likes": 0, 
            "total_votes": 0
        }, 
        {
            "administrator_id": null, 
            "alignment": 0, 
            "ancestry": null, 
            "as": null, 
            "author": {
                "avatar_image": "https://decidim.barcelona/assets/avatar-866795c99abc33a3160d1f3fa93ada46eb75e54134e777666b9ed16215b26534.png", 
                "erased": false, 
                "hidden": false, 
                "id": 17740, 
                "name": "Suport General2 - Decidim Barcelona", 
                "official": false, 
                "official_level": 0, 
                "role": null, 
                "verified_organization": null
            }, 
            "body": "<p><a href=\"https://decidim.barcelona/proposals/campana-de-concienciacion-ciclistas-respeten-a-los-viandantes-respeten-las-normas\">https://decidim.barcelona/proposals/campana-de-concienciacion-ciclistas-respeten-a-los-viandantes-respeten-las-normas</a></p>", 
            "commentable_id": 924, 
            "commentable_type": "Proposal", 
            "created_at": "13/04/2016 11:09:52", 
            "flagged": false, 
            "hidden": false, 
            "id": 14382, 
            "moderator_id": null, 
            "permissions": {
                "hide": false, 
                "hide_author": false, 
                "vote": false
            }, 
            "total_dislikes": 0, 
            "total_likes": 0, 
            "total_votes": 0
        }, 
        {
            "administrator_id": null, 
            "alignment": 0, 
            "ancestry": null, 
            "as": null, 
            "author": {
                "avatar_image": "https://decidim.barcelona/assets/avatar-866795c99abc33a3160d1f3fa93ada46eb75e54134e777666b9ed16215b26534.png", 
                "erased": false, 
                "hidden": false, 
                "id": 17740, 
                "name": "Suport General2 - Decidim Barcelona", 
                "official": false, 
                "official_level": 0, 
                "role": null, 
                "verified_organization": null
            }, 
            "body": "<p><a href=\"https://decidim.barcelona/proposals/respectar-marge-d-error-radar-per-exces-de-velocitat\">https://decidim.barcelona/proposals/respectar-marge-d-error-radar-per-exces-de-velocitat</a></p>", 
            "commentable_id": 924, 
            "commentable_type": "Proposal", 
            "created_at": "13/04/2016 11:14:55", 
            "flagged": false, 
            "hidden": false, 
            "id": 14399, 
            "moderator_id": null, 
            "permissions": {
                "hide": false, 
                "hide_author": false, 
                "vote": false
            }, 
            "total_dislikes": 0, 
            "total_likes": 0, 
            "total_votes": 0
        }, 
        {
            "administrator_id": null, 
            "alignment": 0, 
            "ancestry": null, 
            "as": null, 
            "author": {
                "avatar_image": "https://decidim.barcelona/assets/avatar-866795c99abc33a3160d1f3fa93ada46eb75e54134e777666b9ed16215b26534.png", 
                "erased": false, 
                "hidden": false, 
                "id": 17740, 
                "name": "Suport General2 - Decidim Barcelona", 
                "official": false, 
                "official_level": 0, 
                "role": null, 
                "verified_organization": null
            }, 
            "body": "<p><a href=\"https://decidim.barcelona/proposals/controlar-mes-durament-el-transit-i-penalitzar-els-conductors-incivics\">https://decidim.barcelona/proposals/controlar-mes-durament-el-transit-i-penalitzar-els-conductors-incivics</a></p>", 
            "commentable_id": 924, 
            "commentable_type": "Proposal", 
            "created_at": "13/04/2016 11:15:23", 
            "flagged": false, 
            "hidden": false, 
            "id": 14401, 
            "moderator_id": null, 
            "permissions": {
                "hide": false, 
                "hide_author": false, 
                "vote": false
            }, 
            "total_dislikes": 0, 
            "total_likes": 0, 
            "total_votes": 0
        }, 
        {
            "administrator_id": null, 
            "alignment": 0, 
            "ancestry": null, 
            "as": null, 
            "author": {
                "avatar_image": "https://decidim.barcelona/assets/avatar-866795c99abc33a3160d1f3fa93ada46eb75e54134e777666b9ed16215b26534.png", 
                "erased": false, 
                "hidden": false, 
                "id": 17740, 
                "name": "Suport General2 - Decidim Barcelona", 
                "official": false, 
                "official_level": 0, 
                "role": null, 
                "verified_organization": null
            }, 
            "body": "<p><a href=\"https://decidim.barcelona/proposals/caminar-tranquils-per-la-ciutat\">https://decidim.barcelona/proposals/caminar-tranquils-per-la-ciutat</a></p>", 
            "commentable_id": 924, 
            "commentable_type": "Proposal", 
            "created_at": "13/04/2016 11:21:47", 
            "flagged": false, 
            "hidden": false, 
            "id": 14424, 
            "moderator_id": null, 
            "permissions": {
                "hide": false, 
                "hide_author": false, 
                "vote": false
            }, 
            "total_dislikes": 0, 
            "total_likes": 0, 
            "total_votes": 0
        }, 
        {
            "administrator_id": null, 
            "alignment": 0, 
            "ancestry": null, 
            "as": null, 
            "author": {
                "avatar_image": "https://decidim.barcelona/assets/avatar-866795c99abc33a3160d1f3fa93ada46eb75e54134e777666b9ed16215b26534.png", 
                "erased": false, 
                "hidden": false, 
                "id": 17740, 
                "name": "Suport General2 - Decidim Barcelona", 
                "official": false, 
                "official_level": 0, 
                "role": null, 
                "verified_organization": null
            }, 
            "body": "<p><a href=\"https://decidim.barcelona/proposals/senyalitzar-amb-senyal-de-trafic-la-velocitat-maxima-en-els-carrers-de-pacificacio-de-transit\">https://decidim.barcelona/proposals/senyalitzar-amb-senyal-de-trafic-la-velocitat-maxima-en-els-carrers-de-pacificacio-de-transit</a></p>", 
            "commentable_id": 924, 
            "commentable_type": "Proposal", 
            "created_at": "13/04/2016 11:27:59", 
            "flagged": false, 
            "hidden": false, 
            "id": 14441, 
            "moderator_id": null, 
            "permissions": {
                "hide": false, 
                "hide_author": false, 
                "vote": false
            }, 
            "total_dislikes": 0, 
            "total_likes": 0, 
            "total_votes": 0
        }, 
        {
            "administrator_id": null, 
            "alignment": 0, 
            "ancestry": null, 
            "as": null, 
            "author": {
                "avatar_image": "https://decidim.barcelona/assets/avatar-866795c99abc33a3160d1f3fa93ada46eb75e54134e777666b9ed16215b26534.png", 
                "erased": false, 
                "hidden": false, 
                "id": 17740, 
                "name": "Suport General2 - Decidim Barcelona", 
                "official": false, 
                "official_level": 0, 
                "role": null, 
                "verified_organization": null
            }, 
            "body": "<p><a href=\"https://decidim.barcelona/proposals/perseguir-als-infractors-de-les-normes-de-seguretat-vial\">https://decidim.barcelona/proposals/perseguir-als-infractors-de-les-normes-de-seguretat-vial</a></p>", 
            "commentable_id": 924, 
            "commentable_type": "Proposal", 
            "created_at": "13/04/2016 11:54:44", 
            "flagged": false, 
            "hidden": false, 
            "id": 14467, 
            "moderator_id": null, 
            "permissions": {
                "hide": false, 
                "hide_author": false, 
                "vote": false
            }, 
            "total_dislikes": 0, 
            "total_likes": 0, 
            "total_votes": 0
        }, 
        {
            "administrator_id": null, 
            "alignment": 0, 
            "ancestry": null, 
            "as": null, 
            "author": {
                "avatar_image": "https://decidim.barcelona/assets/avatar-866795c99abc33a3160d1f3fa93ada46eb75e54134e777666b9ed16215b26534.png", 
                "erased": false, 
                "hidden": false, 
                "id": 17740, 
                "name": "Suport General2 - Decidim Barcelona", 
                "official": false, 
                "official_level": 0, 
                "role": null, 
                "verified_organization": null
            }, 
            "body": "<p><a href=\"https://decidim.barcelona/proposals/regulacio-pels-ciclistes-curs-d-educacio-viaria-i-casc-obligatori-ef5cf046-3301-4b6f-8ae6-1e761078bad0\">https://decidim.barcelona/proposals/regulacio-pels-ciclistes-curs-d-educacio-viaria-i-casc-obligatori-ef5cf046-3301-4b6f-8ae6-1e761078bad0</a></p>", 
            "commentable_id": 924, 
            "commentable_type": "Proposal", 
            "created_at": "13/04/2016 11:55:27", 
            "flagged": false, 
            "hidden": false, 
            "id": 14468, 
            "moderator_id": null, 
            "permissions": {
                "hide": false, 
                "hide_author": false, 
                "vote": false
            }, 
            "total_dislikes": 0, 
            "total_likes": 0, 
            "total_votes": 0
        }, 
        {
            "administrator_id": null, 
            "alignment": 0, 
            "ancestry": null, 
            "as": null, 
            "author": {
                "avatar_image": "https://decidim.barcelona/assets/avatar-866795c99abc33a3160d1f3fa93ada46eb75e54134e777666b9ed16215b26534.png", 
                "erased": false, 
                "hidden": false, 
                "id": 17740, 
                "name": "Suport General2 - Decidim Barcelona", 
                "official": false, 
                "official_level": 0, 
                "role": null, 
                "verified_organization": null
            }, 
            "body": "<p><a href=\"https://decidim.barcelona/proposals/carril-moto-ronda-litoral\">https://decidim.barcelona/proposals/carril-moto-ronda-litoral</a></p>", 
            "commentable_id": 924, 
            "commentable_type": "Proposal", 
            "created_at": "13/04/2016 12:11:23", 
            "flagged": false, 
            "hidden": false, 
            "id": 14491, 
            "moderator_id": null, 
            "permissions": {
                "hide": false, 
                "hide_author": false, 
                "vote": false
            }, 
            "total_dislikes": 0, 
            "total_likes": 0, 
            "total_votes": 0
        }, 
        {
            "administrator_id": null, 
            "alignment": 0, 
            "ancestry": null, 
            "as": null, 
            "author": {
                "avatar_image": "https://decidim.barcelona/assets/avatar-866795c99abc33a3160d1f3fa93ada46eb75e54134e777666b9ed16215b26534.png", 
                "erased": false, 
                "hidden": false, 
                "id": 17740, 
                "name": "Suport General2 - Decidim Barcelona", 
                "official": false, 
                "official_level": 0, 
                "role": null, 
                "verified_organization": null
            }, 
            "body": "<p><a href=\"https://decidim.barcelona/proposals/problema-semafors-en-ambar-en-els-passos-de-vianants-d-interseccions\">https://decidim.barcelona/proposals/problema-semafors-en-ambar-en-els-passos-de-vianants-d-interseccions</a></p>", 
            "commentable_id": 924, 
            "commentable_type": "Proposal", 
            "created_at": "13/04/2016 12:12:07", 
            "flagged": false, 
            "hidden": false, 
            "id": 14492, 
            "moderator_id": null, 
            "permissions": {
                "hide": false, 
                "hide_author": false, 
                "vote": false
            }, 
            "total_dislikes": 0, 
            "total_likes": 0, 
            "total_votes": 0
        }, 
        {
            "administrator_id": null, 
            "alignment": 0, 
            "ancestry": null, 
            "as": null, 
            "author": {
                "avatar_image": "https://decidim.barcelona/assets/avatar-866795c99abc33a3160d1f3fa93ada46eb75e54134e777666b9ed16215b26534.png", 
                "erased": false, 
                "hidden": false, 
                "id": 17740, 
                "name": "Suport General2 - Decidim Barcelona", 
                "official": false, 
                "official_level": 0, 
                "role": null, 
                "verified_organization": null
            }, 
            "body": "<p><a href=\"https://decidim.barcelona/proposals/asseguranca-obligatoria-bicicletes\">https://decidim.barcelona/proposals/asseguranca-obligatoria-bicicletes</a></p>", 
            "commentable_id": 924, 
            "commentable_type": "Proposal", 
            "created_at": "13/04/2016 12:15:29", 
            "flagged": false, 
            "hidden": false, 
            "id": 14495, 
            "moderator_id": null, 
            "permissions": {
                "hide": false, 
                "hide_author": false, 
                "vote": false
            }, 
            "total_dislikes": 0, 
            "total_likes": 0, 
            "total_votes": 0
        }, 
        {
            "administrator_id": null, 
            "alignment": 0, 
            "ancestry": null, 
            "as": null, 
            "author": {
                "avatar_image": "https://decidim.barcelona/assets/avatar-866795c99abc33a3160d1f3fa93ada46eb75e54134e777666b9ed16215b26534.png", 
                "erased": false, 
                "hidden": false, 
                "id": 17740, 
                "name": "Suport General2 - Decidim Barcelona", 
                "official": false, 
                "official_level": 0, 
                "role": null, 
                "verified_organization": null
            }, 
            "body": "<p><a href=\"https://decidim.barcelona/proposals/prou-de-bicis-per-les-voreres\">https://decidim.barcelona/proposals/prou-de-bicis-per-les-voreres</a></p>", 
            "commentable_id": 924, 
            "commentable_type": "Proposal", 
            "created_at": "13/04/2016 12:30:09", 
            "flagged": false, 
            "hidden": false, 
            "id": 14528, 
            "moderator_id": null, 
            "permissions": {
                "hide": false, 
                "hide_author": false, 
                "vote": false
            }, 
            "total_dislikes": 0, 
            "total_likes": 0, 
            "total_votes": 0
        }, 
        {
            "administrator_id": null, 
            "alignment": 0, 
            "ancestry": null, 
            "as": null, 
            "author": {
                "avatar_image": "https://decidim.barcelona/assets/avatar-866795c99abc33a3160d1f3fa93ada46eb75e54134e777666b9ed16215b26534.png", 
                "erased": false, 
                "hidden": false, 
                "id": 17740, 
                "name": "Suport General2 - Decidim Barcelona", 
                "official": false, 
                "official_level": 0, 
                "role": null, 
                "verified_organization": null
            }, 
            "body": "<p><a href=\"https://decidim.barcelona/proposals/regulacio-pels-ciclistes-curs-d-educacio-viaria-i-casc-obligatori\">https://decidim.barcelona/proposals/regulacio-pels-ciclistes-curs-d-educacio-viaria-i-casc-obligatori</a></p>", 
            "commentable_id": 924, 
            "commentable_type": "Proposal", 
            "created_at": "13/04/2016 12:31:41", 
            "flagged": false, 
            "hidden": false, 
            "id": 14530, 
            "moderator_id": null, 
            "permissions": {
                "hide": false, 
                "hide_author": false, 
                "vote": false
            }, 
            "total_dislikes": 0, 
            "total_likes": 0, 
            "total_votes": 0
        }, 
        {
            "administrator_id": null, 
            "alignment": 0, 
            "ancestry": null, 
            "as": null, 
            "author": {
                "avatar_image": "https://decidim.barcelona/assets/avatar-866795c99abc33a3160d1f3fa93ada46eb75e54134e777666b9ed16215b26534.png", 
                "erased": false, 
                "hidden": false, 
                "id": 17740, 
                "name": "Suport General2 - Decidim Barcelona", 
                "official": false, 
                "official_level": 0, 
                "role": null, 
                "verified_organization": null
            }, 
            "body": "<p><a href=\"https://decidim.barcelona/proposals/senyalitzacio-dels-passos-de-vianants-amb-una-franja-de-color-per-evitar-l-apropament-a-la-calcada\">https://decidim.barcelona/proposals/senyalitzacio-dels-passos-de-vianants-amb-una-franja-de-color-per-evitar-l-apropament-a-la-calcada</a></p>", 
            "commentable_id": 924, 
            "commentable_type": "Proposal", 
            "created_at": "13/04/2016 12:33:50", 
            "flagged": false, 
            "hidden": false, 
            "id": 14540, 
            "moderator_id": null, 
            "permissions": {
                "hide": false, 
                "hide_author": false, 
                "vote": false
            }, 
            "total_dislikes": 0, 
            "total_likes": 0, 
            "total_votes": 0
        }, 
        {
            "administrator_id": null, 
            "alignment": 0, 
            "ancestry": null, 
            "as": null, 
            "author": {
                "avatar_image": "https://decidim.barcelona/assets/avatar-866795c99abc33a3160d1f3fa93ada46eb75e54134e777666b9ed16215b26534.png", 
                "erased": false, 
                "hidden": false, 
                "id": 17740, 
                "name": "Suport General2 - Decidim Barcelona", 
                "official": false, 
                "official_level": 0, 
                "role": null, 
                "verified_organization": null
            }, 
            "body": "<p><a href=\"https://decidim.barcelona/proposals/prohibir-els-radars-mobils-ocults-no-senyalitzats\">https://decidim.barcelona/proposals/prohibir-els-radars-mobils-ocults-no-senyalitzats</a></p>", 
            "commentable_id": 924, 
            "commentable_type": "Proposal", 
            "created_at": "13/04/2016 12:37:46", 
            "flagged": false, 
            "hidden": false, 
            "id": 14549, 
            "moderator_id": null, 
            "permissions": {
                "hide": false, 
                "hide_author": false, 
                "vote": false
            }, 
            "total_dislikes": 0, 
            "total_likes": 0, 
            "total_votes": 0
        }
    ], 
    "meta": {
        "current_page": 1, 
        "next_page": 2, 
        "prev_page": null, 
        "total_count": 53, 
        "total_pages": 3
    }
}