{
    "comments": [
        {
            "administrator_id": null, 
            "alignment": 0, 
            "ancestry": null, 
            "as": null, 
            "author": {
                "avatar_image": "https://decidim.barcelona/assets/avatar-866795c99abc33a3160d1f3fa93ada46eb75e54134e777666b9ed16215b26534.png", 
                "erased": false, 
                "hidden": false, 
                "id": 17740, 
                "name": "Suport General2 - Decidim Barcelona", 
                "official": false, 
                "official_level": 0, 
                "role": null, 
                "verified_organization": null
            }, 
            "body": "<p><a href=\"https://decidim.barcelona/proposals/impulsar-la-cultura-del-pacte-en-temes-relacionars-amb-l-espai-public\">https://decidim.barcelona/proposals/impulsar-la-cultura-del-pacte-en-temes-relacionars-amb-l-espai-public</a></p>", 
            "commentable_id": 923, 
            "commentable_type": "Proposal", 
            "created_at": "13/04/2016 15:54:10", 
            "flagged": false, 
            "hidden": false, 
            "id": 14879, 
            "moderator_id": null, 
            "permissions": {
                "hide": false, 
                "hide_author": false, 
                "vote": false
            }, 
            "total_dislikes": 0, 
            "total_likes": 0, 
            "total_votes": 0
        }, 
        {
            "administrator_id": null, 
            "alignment": 0, 
            "ancestry": null, 
            "as": null, 
            "author": {
                "avatar_image": "https://decidim.barcelona/assets/avatar-866795c99abc33a3160d1f3fa93ada46eb75e54134e777666b9ed16215b26534.png", 
                "erased": false, 
                "hidden": false, 
                "id": 17740, 
                "name": "Suport General2 - Decidim Barcelona", 
                "official": false, 
                "official_level": 0, 
                "role": null, 
                "verified_organization": null
            }, 
            "body": "<p><a href=\"https://decidim.barcelona/proposals/regular-la-possibilitat-de-fer-graffitis-a-edificis\">https://decidim.barcelona/proposals/regular-la-possibilitat-de-fer-graffitis-a-edificis</a></p>", 
            "commentable_id": 923, 
            "commentable_type": "Proposal", 
            "created_at": "13/04/2016 16:20:35", 
            "flagged": false, 
            "hidden": false, 
            "id": 14905, 
            "moderator_id": null, 
            "permissions": {
                "hide": false, 
                "hide_author": false, 
                "vote": false
            }, 
            "total_dislikes": 0, 
            "total_likes": 0, 
            "total_votes": 0
        }, 
        {
            "administrator_id": null, 
            "alignment": 0, 
            "ancestry": null, 
            "as": null, 
            "author": {
                "avatar_image": "https://decidim.barcelona/assets/avatar-866795c99abc33a3160d1f3fa93ada46eb75e54134e777666b9ed16215b26534.png", 
                "erased": false, 
                "hidden": false, 
                "id": 17740, 
                "name": "Suport General2 - Decidim Barcelona", 
                "official": false, 
                "official_level": 0, 
                "role": null, 
                "verified_organization": null
            }, 
            "body": "<p><a href=\"https://decidim.barcelona/proposals/revisar-els-punts-de-l-ordenanca-civica-que-criminalitzen-els-joves\">https://decidim.barcelona/proposals/revisar-els-punts-de-l-ordenanca-civica-que-criminalitzen-els-joves</a></p>", 
            "commentable_id": 923, 
            "commentable_type": "Proposal", 
            "created_at": "13/04/2016 17:47:34", 
            "flagged": false, 
            "hidden": false, 
            "id": 14996, 
            "moderator_id": null, 
            "permissions": {
                "hide": false, 
                "hide_author": false, 
                "vote": false
            }, 
            "total_dislikes": 0, 
            "total_likes": 0, 
            "total_votes": 0
        }, 
        {
            "administrator_id": null, 
            "alignment": 0, 
            "ancestry": null, 
            "as": null, 
            "author": {
                "avatar_image": "https://decidim.barcelona/assets/avatar-866795c99abc33a3160d1f3fa93ada46eb75e54134e777666b9ed16215b26534.png", 
                "erased": false, 
                "hidden": false, 
                "id": 17740, 
                "name": "Suport General2 - Decidim Barcelona", 
                "official": false, 
                "official_level": 0, 
                "role": null, 
                "verified_organization": null
            }, 
            "body": "<p><a href=\"https://decidim.barcelona/proposals/mediacion-para-los-conflictos-vecinales-en-ciudad-meridiana-nou-barris\">https://decidim.barcelona/proposals/mediacion-para-los-conflictos-vecinales-en-ciudad-meridiana-nou-barris</a></p>", 
            "commentable_id": 923, 
            "commentable_type": "Proposal", 
            "created_at": "14/04/2016 13:31:29", 
            "flagged": false, 
            "hidden": false, 
            "id": 15600, 
            "moderator_id": null, 
            "permissions": {
                "hide": false, 
                "hide_author": false, 
                "vote": false
            }, 
            "total_dislikes": 0, 
            "total_likes": 0, 
            "total_votes": 0
        }, 
        {
            "administrator_id": null, 
            "alignment": 0, 
            "ancestry": null, 
            "as": null, 
            "author": {
                "avatar_image": "https://decidim.barcelona/assets/avatar-866795c99abc33a3160d1f3fa93ada46eb75e54134e777666b9ed16215b26534.png", 
                "erased": false, 
                "hidden": false, 
                "id": 17740, 
                "name": "Suport General2 - Decidim Barcelona", 
                "official": false, 
                "official_level": 0, 
                "role": null, 
                "verified_organization": null
            }, 
            "body": "<p><a href=\"https://decidim.barcelona/proposals/separacio-establiments-d-oci-discoteques-i-similars-de-les-zones-residencials\">https://decidim.barcelona/proposals/separacio-establiments-d-oci-discoteques-i-similars-de-les-zones-residencials</a></p>", 
            "commentable_id": 923, 
            "commentable_type": "Proposal", 
            "created_at": "14/04/2016 16:28:27", 
            "flagged": false, 
            "hidden": false, 
            "id": 15930, 
            "moderator_id": null, 
            "permissions": {
                "hide": false, 
                "hide_author": false, 
                "vote": false
            }, 
            "total_dislikes": 0, 
            "total_likes": 0, 
            "total_votes": 0
        }, 
        {
            "administrator_id": null, 
            "alignment": 0, 
            "ancestry": null, 
            "as": null, 
            "author": {
                "avatar_image": "https://decidim.barcelona/assets/avatar-866795c99abc33a3160d1f3fa93ada46eb75e54134e777666b9ed16215b26534.png", 
                "erased": false, 
                "hidden": false, 
                "id": 17741, 
                "name": "Suport General3 - Decidim Barcelona", 
                "official": false, 
                "official_level": 0, 
                "role": null, 
                "verified_organization": null
            }, 
            "body": "<p><a href=\"https://decidim.barcelona/proposals/que-barcelona-vuelva-a-ser-la-unica-ciudad-nudista-del-mundo\">https://decidim.barcelona/proposals/que-barcelona-vuelva-a-ser-la-unica-ciudad-nudista-del-mundo</a></p>", 
            "commentable_id": 923, 
            "commentable_type": "Proposal", 
            "created_at": "16/04/2016 12:45:27", 
            "flagged": false, 
            "hidden": false, 
            "id": 18128, 
            "moderator_id": null, 
            "permissions": {
                "hide": false, 
                "hide_author": false, 
                "vote": false
            }, 
            "total_dislikes": 0, 
            "total_likes": 0, 
            "total_votes": 0
        }
    ], 
    "meta": {
        "current_page": 2, 
        "next_page": null, 
        "prev_page": 1, 
        "total_count": 26, 
        "total_pages": 2
    }
}