{
    "comments": [
        {
            "administrator_id": null, 
            "alignment": 0, 
            "ancestry": null, 
            "as": null, 
            "author": {
                "avatar_image": "https://decidim.barcelona/assets/avatar-866795c99abc33a3160d1f3fa93ada46eb75e54134e777666b9ed16215b26534.png", 
                "erased": false, 
                "hidden": false, 
                "id": 17740, 
                "name": "Suport General2 - Decidim Barcelona", 
                "official": false, 
                "official_level": 0, 
                "role": null, 
                "verified_organization": null
            }, 
            "body": "<p><a href=\"https://decidim.barcelona/proposals/garantir-la-seguretat-dels-vianants-que-travessen-pl-lesseps\">https://decidim.barcelona/proposals/garantir-la-seguretat-dels-vianants-que-travessen-pl-lesseps</a></p>", 
            "commentable_id": 924, 
            "commentable_type": "Proposal", 
            "created_at": "14/04/2016 11:15:02", 
            "flagged": false, 
            "hidden": false, 
            "id": 15319, 
            "moderator_id": null, 
            "permissions": {
                "hide": false, 
                "hide_author": false, 
                "vote": false
            }, 
            "total_dislikes": 0, 
            "total_likes": 0, 
            "total_votes": 0
        }, 
        {
            "administrator_id": null, 
            "alignment": 0, 
            "ancestry": null, 
            "as": null, 
            "author": {
                "avatar_image": "https://decidim.barcelona/assets/avatar-866795c99abc33a3160d1f3fa93ada46eb75e54134e777666b9ed16215b26534.png", 
                "erased": false, 
                "hidden": false, 
                "id": 17740, 
                "name": "Suport General2 - Decidim Barcelona", 
                "official": false, 
                "official_level": 0, 
                "role": null, 
                "verified_organization": null
            }, 
            "body": "<p><a href=\"https://decidim.barcelona/proposals/seguretat-viaria-en-els-carrers\">https://decidim.barcelona/proposals/seguretat-viaria-en-els-carrers</a></p>", 
            "commentable_id": 924, 
            "commentable_type": "Proposal", 
            "created_at": "14/04/2016 11:47:00", 
            "flagged": false, 
            "hidden": false, 
            "id": 15363, 
            "moderator_id": null, 
            "permissions": {
                "hide": false, 
                "hide_author": false, 
                "vote": false
            }, 
            "total_dislikes": 0, 
            "total_likes": 0, 
            "total_votes": 0
        }, 
        {
            "administrator_id": null, 
            "alignment": 0, 
            "ancestry": null, 
            "as": null, 
            "author": {
                "avatar_image": "https://decidim.barcelona/assets/avatar-866795c99abc33a3160d1f3fa93ada46eb75e54134e777666b9ed16215b26534.png", 
                "erased": false, 
                "hidden": false, 
                "id": 17740, 
                "name": "Suport General2 - Decidim Barcelona", 
                "official": false, 
                "official_level": 0, 
                "role": null, 
                "verified_organization": null
            }, 
            "body": "<p><a href=\"https://decidim.barcelona/proposals/control-velocitat-vehicles-al-carrer-d-horta\">https://decidim.barcelona/proposals/control-velocitat-vehicles-al-carrer-d-horta</a></p>", 
            "commentable_id": 924, 
            "commentable_type": "Proposal", 
            "created_at": "14/04/2016 11:59:53", 
            "flagged": false, 
            "hidden": false, 
            "id": 15398, 
            "moderator_id": null, 
            "permissions": {
                "hide": false, 
                "hide_author": false, 
                "vote": false
            }, 
            "total_dislikes": 0, 
            "total_likes": 0, 
            "total_votes": 0
        }, 
        {
            "administrator_id": null, 
            "alignment": 0, 
            "ancestry": null, 
            "as": null, 
            "author": {
                "avatar_image": "https://decidim.barcelona/assets/avatar-866795c99abc33a3160d1f3fa93ada46eb75e54134e777666b9ed16215b26534.png", 
                "erased": false, 
                "hidden": false, 
                "id": 17740, 
                "name": "Suport General2 - Decidim Barcelona", 
                "official": false, 
                "official_level": 0, 
                "role": null, 
                "verified_organization": null
            }, 
            "body": "<p><a href=\"https://decidim.barcelona/proposals/cambiar-els-temps-dels-semafors-carrer-art-ronda-guinardo\">https://decidim.barcelona/proposals/cambiar-els-temps-dels-semafors-carrer-art-ronda-guinardo</a></p>", 
            "commentable_id": 924, 
            "commentable_type": "Proposal", 
            "created_at": "14/04/2016 12:24:28", 
            "flagged": false, 
            "hidden": false, 
            "id": 15457, 
            "moderator_id": null, 
            "permissions": {
                "hide": false, 
                "hide_author": false, 
                "vote": false
            }, 
            "total_dislikes": 0, 
            "total_likes": 0, 
            "total_votes": 0
        }, 
        {
            "administrator_id": null, 
            "alignment": 0, 
            "ancestry": null, 
            "as": null, 
            "author": {
                "avatar_image": "https://decidim.barcelona/assets/avatar-866795c99abc33a3160d1f3fa93ada46eb75e54134e777666b9ed16215b26534.png", 
                "erased": false, 
                "hidden": false, 
                "id": 17740, 
                "name": "Suport General2 - Decidim Barcelona", 
                "official": false, 
                "official_level": 0, 
                "role": null, 
                "verified_organization": null
            }, 
            "body": "<p><a href=\"https://decidim.barcelona/proposals/pacificacio-carrer-lepant\">https://decidim.barcelona/proposals/pacificacio-carrer-lepant</a></p>", 
            "commentable_id": 924, 
            "commentable_type": "Proposal", 
            "created_at": "14/04/2016 12:28:23", 
            "flagged": false, 
            "hidden": false, 
            "id": 15460, 
            "moderator_id": null, 
            "permissions": {
                "hide": false, 
                "hide_author": false, 
                "vote": false
            }, 
            "total_dislikes": 0, 
            "total_likes": 0, 
            "total_votes": 0
        }, 
        {
            "administrator_id": null, 
            "alignment": 0, 
            "ancestry": null, 
            "as": null, 
            "author": {
                "avatar_image": "https://decidim.barcelona/assets/avatar-866795c99abc33a3160d1f3fa93ada46eb75e54134e777666b9ed16215b26534.png", 
                "erased": false, 
                "hidden": false, 
                "id": 17740, 
                "name": "Suport General2 - Decidim Barcelona", 
                "official": false, 
                "official_level": 0, 
                "role": null, 
                "verified_organization": null
            }, 
            "body": "<p><a href=\"https://decidim.barcelona/proposals/pacificacio-c-aiguablava-integrament-mitjancant-guals-zona-30-a-trinitat-nova\">https://decidim.barcelona/proposals/pacificacio-c-aiguablava-integrament-mitjancant-guals-zona-30-a-trinitat-nova</a></p>", 
            "commentable_id": 924, 
            "commentable_type": "Proposal", 
            "created_at": "14/04/2016 13:33:09", 
            "flagged": false, 
            "hidden": false, 
            "id": 15604, 
            "moderator_id": null, 
            "permissions": {
                "hide": false, 
                "hide_author": false, 
                "vote": false
            }, 
            "total_dislikes": 0, 
            "total_likes": 0, 
            "total_votes": 0
        }, 
        {
            "administrator_id": null, 
            "alignment": 0, 
            "ancestry": null, 
            "as": null, 
            "author": {
                "avatar_image": "https://decidim.barcelona/assets/avatar-866795c99abc33a3160d1f3fa93ada46eb75e54134e777666b9ed16215b26534.png", 
                "erased": false, 
                "hidden": false, 
                "id": 17740, 
                "name": "Suport General2 - Decidim Barcelona", 
                "official": false, 
                "official_level": 0, 
                "role": null, 
                "verified_organization": null
            }, 
            "body": "<p><a href=\"https://decidim.barcelona/proposals/reforcar-la-senyalitzacio-de-cediu-el-pas-al-carril-bici-quan-passa-per-un-pas-de-vianants-a-la-meridiana\">https://decidim.barcelona/proposals/reforcar-la-senyalitzacio-de-cediu-el-pas-al-carril-bici-quan-passa-per-un-pas-de-vianants-a-la-meridiana</a></p>", 
            "commentable_id": 924, 
            "commentable_type": "Proposal", 
            "created_at": "14/04/2016 13:57:05", 
            "flagged": false, 
            "hidden": false, 
            "id": 15685, 
            "moderator_id": null, 
            "permissions": {
                "hide": false, 
                "hide_author": false, 
                "vote": false
            }, 
            "total_dislikes": 0, 
            "total_likes": 0, 
            "total_votes": 0
        }, 
        {
            "administrator_id": null, 
            "alignment": 0, 
            "ancestry": null, 
            "as": null, 
            "author": {
                "avatar_image": "https://decidim.barcelona/assets/avatar-866795c99abc33a3160d1f3fa93ada46eb75e54134e777666b9ed16215b26534.png", 
                "erased": false, 
                "hidden": false, 
                "id": 9262, 
                "name": "Suport General - Decidim Barcelona", 
                "official": false, 
                "official_level": 0, 
                "role": null, 
                "verified_organization": null
            }, 
            "body": "<p><a href=\"https://decidim.barcelona/proposals/avui-dues-dones-en-cadira-de-rodes-mortes-atropellades-cal-pendre-mesures\">https://decidim.barcelona/proposals/avui-dues-dones-en-cadira-de-rodes-mortes-atropellades-cal-pendre-mesures</a></p>", 
            "commentable_id": 924, 
            "commentable_type": "Proposal", 
            "created_at": "14/04/2016 14:56:35", 
            "flagged": false, 
            "hidden": false, 
            "id": 15781, 
            "moderator_id": null, 
            "permissions": {
                "hide": false, 
                "hide_author": false, 
                "vote": false
            }, 
            "total_dislikes": 0, 
            "total_likes": 0, 
            "total_votes": 0
        }, 
        {
            "administrator_id": null, 
            "alignment": 0, 
            "ancestry": null, 
            "as": null, 
            "author": {
                "avatar_image": "https://decidim.barcelona/assets/avatar-866795c99abc33a3160d1f3fa93ada46eb75e54134e777666b9ed16215b26534.png", 
                "erased": false, 
                "hidden": false, 
                "id": 17740, 
                "name": "Suport General2 - Decidim Barcelona", 
                "official": false, 
                "official_level": 0, 
                "role": null, 
                "verified_organization": null
            }, 
            "body": "<p><a href=\"https://decidim.barcelona/proposals/regular-l-us-de-les-bicicletes\">https://decidim.barcelona/proposals/regular-l-us-de-les-bicicletes</a></p>", 
            "commentable_id": 924, 
            "commentable_type": "Proposal", 
            "created_at": "14/04/2016 16:27:01", 
            "flagged": false, 
            "hidden": false, 
            "id": 15926, 
            "moderator_id": null, 
            "permissions": {
                "hide": false, 
                "hide_author": false, 
                "vote": false
            }, 
            "total_dislikes": 0, 
            "total_likes": 0, 
            "total_votes": 0
        }, 
        {
            "administrator_id": null, 
            "alignment": 0, 
            "ancestry": null, 
            "as": null, 
            "author": {
                "avatar_image": "https://decidim.barcelona/assets/avatar-866795c99abc33a3160d1f3fa93ada46eb75e54134e777666b9ed16215b26534.png", 
                "erased": false, 
                "hidden": false, 
                "id": 17740, 
                "name": "Suport General2 - Decidim Barcelona", 
                "official": false, 
                "official_level": 0, 
                "role": null, 
                "verified_organization": null
            }, 
            "body": "<p><a href=\"https://decidim.barcelona/proposals/bicicletes\">https://decidim.barcelona/proposals/bicicletes</a></p>", 
            "commentable_id": 924, 
            "commentable_type": "Proposal", 
            "created_at": "15/04/2016 19:14:47", 
            "flagged": false, 
            "hidden": false, 
            "id": 17568, 
            "moderator_id": null, 
            "permissions": {
                "hide": false, 
                "hide_author": false, 
                "vote": false
            }, 
            "total_dislikes": 0, 
            "total_likes": 0, 
            "total_votes": 0
        }, 
        {
            "administrator_id": null, 
            "alignment": 0, 
            "ancestry": null, 
            "as": null, 
            "author": {
                "avatar_image": "https://decidim.barcelona/assets/avatar-866795c99abc33a3160d1f3fa93ada46eb75e54134e777666b9ed16215b26534.png", 
                "erased": false, 
                "hidden": false, 
                "id": 17740, 
                "name": "Suport General2 - Decidim Barcelona", 
                "official": false, 
                "official_level": 0, 
                "role": null, 
                "verified_organization": null
            }, 
            "body": "<p><a href=\"https://decidim.barcelona/proposals/radars-fixes-de-control-de-velocitat-dins-el-tunel-de-la-rovira\">https://decidim.barcelona/proposals/radars-fixes-de-control-de-velocitat-dins-el-tunel-de-la-rovira</a></p>", 
            "commentable_id": 924, 
            "commentable_type": "Proposal", 
            "created_at": "15/04/2016 19:15:14", 
            "flagged": false, 
            "hidden": false, 
            "id": 17569, 
            "moderator_id": null, 
            "permissions": {
                "hide": false, 
                "hide_author": false, 
                "vote": false
            }, 
            "total_dislikes": 0, 
            "total_likes": 0, 
            "total_votes": 0
        }, 
        {
            "administrator_id": null, 
            "alignment": 0, 
            "ancestry": null, 
            "as": null, 
            "author": {
                "avatar_image": "https://decidim.barcelona/assets/avatar-866795c99abc33a3160d1f3fa93ada46eb75e54134e777666b9ed16215b26534.png", 
                "erased": false, 
                "hidden": false, 
                "id": 17740, 
                "name": "Suport General2 - Decidim Barcelona", 
                "official": false, 
                "official_level": 0, 
                "role": null, 
                "verified_organization": null
            }, 
            "body": "<p><a href=\"https://decidim.barcelona/proposals/major-control-de-la-circulacio-de-bicis-per-la-vorera-per-evitar-accidents\">https://decidim.barcelona/proposals/major-control-de-la-circulacio-de-bicis-per-la-vorera-per-evitar-accidents</a></p>", 
            "commentable_id": 924, 
            "commentable_type": "Proposal", 
            "created_at": "15/04/2016 19:21:15", 
            "flagged": false, 
            "hidden": false, 
            "id": 17575, 
            "moderator_id": null, 
            "permissions": {
                "hide": false, 
                "hide_author": false, 
                "vote": false
            }, 
            "total_dislikes": 0, 
            "total_likes": 0, 
            "total_votes": 0
        }, 
        {
            "administrator_id": null, 
            "alignment": 0, 
            "ancestry": null, 
            "as": null, 
            "author": {
                "avatar_image": "https://decidim.barcelona/assets/avatar-866795c99abc33a3160d1f3fa93ada46eb75e54134e777666b9ed16215b26534.png", 
                "erased": false, 
                "hidden": false, 
                "id": 17740, 
                "name": "Suport General2 - Decidim Barcelona", 
                "official": false, 
                "official_level": 0, 
                "role": null, 
                "verified_organization": null
            }, 
            "body": "<p><a href=\"https://decidim.barcelona/proposals/fer-jornades-de-conscienciacio-civica-per-la-mobilitat\">https://decidim.barcelona/proposals/fer-jornades-de-conscienciacio-civica-per-la-mobilitat</a></p>", 
            "commentable_id": 924, 
            "commentable_type": "Proposal", 
            "created_at": "15/04/2016 19:23:29", 
            "flagged": false, 
            "hidden": false, 
            "id": 17577, 
            "moderator_id": null, 
            "permissions": {
                "hide": false, 
                "hide_author": false, 
                "vote": false
            }, 
            "total_dislikes": 0, 
            "total_likes": 0, 
            "total_votes": 0
        }
    ], 
    "meta": {
        "current_page": 3, 
        "next_page": null, 
        "prev_page": 2, 
        "total_count": 53, 
        "total_pages": 3
    }
}