{
    "comments": [
        {
            "administrator_id": null, 
            "alignment": 1, 
            "ancestry": null, 
            "as": null, 
            "author": {
                "avatar_image": "https://decidim.barcelona/assets/avatar-866795c99abc33a3160d1f3fa93ada46eb75e54134e777666b9ed16215b26534.png", 
                "erased": false, 
                "hidden": false, 
                "id": 838, 
                "name": "Vict\u00f2ria Barcel\u00f3 Roca", 
                "official": false, 
                "official_level": 0, 
                "role": null, 
                "verified_organization": null
            }, 
            "body": "<p>Revertir el model implantat per anteriors governs d'instal\u00b7lar una gran superf\u00edcie amb la condici\u00f3 de no vendre producte fresc com a reclam per a les parades del mercat. No s'han d'instal\u00b7lar grans superf\u00edcies en els mercats. S'ha de promocionar la compra als mercats municipals mitjan\u00e7ant altres estrat\u00e8gies i fomentant les associacions de consumidors, el bon consum i el producte de proximitat</p>", 
            "commentable_id": 930, 
            "commentable_type": "Proposal", 
            "created_at": "02/02/2016 12:22:50", 
            "flagged": false, 
            "hidden": false, 
            "id": 225, 
            "moderator_id": null, 
            "permissions": {
                "hide": false, 
                "hide_author": false, 
                "vote": false
            }, 
            "total_dislikes": 0, 
            "total_likes": 0, 
            "total_votes": 0
        }, 
        {
            "administrator_id": null, 
            "alignment": 0, 
            "ancestry": null, 
            "as": null, 
            "author": {
                "avatar_image": "https://decidim.barcelona/assets/avatar-866795c99abc33a3160d1f3fa93ada46eb75e54134e777666b9ed16215b26534.png", 
                "erased": false, 
                "hidden": false, 
                "id": 9262, 
                "name": "Suport General - Decidim Barcelona", 
                "official": false, 
                "official_level": 0, 
                "role": null, 
                "verified_organization": null
            }, 
            "body": "<p><a href=\"https://decidim.barcelona/proposals/nous-sistemes-de-millora-de-l-eficiencia-energetica-i-mediambiental-en-edificis-i-instal-lacions-dels-mercats\">https://decidim.barcelona/proposals/nous-sistemes-de-millora-de-l-eficiencia-energetica-i-mediambiental-en-edificis-i-instal-lacions-dels-mercats</a></p>", 
            "commentable_id": 930, 
            "commentable_type": "Proposal", 
            "created_at": "07/04/2016 15:54:46", 
            "flagged": false, 
            "hidden": false, 
            "id": 9565, 
            "moderator_id": null, 
            "permissions": {
                "hide": false, 
                "hide_author": false, 
                "vote": false
            }, 
            "total_dislikes": 0, 
            "total_likes": 0, 
            "total_votes": 0
        }, 
        {
            "administrator_id": null, 
            "alignment": 0, 
            "ancestry": null, 
            "as": null, 
            "author": {
                "avatar_image": "https://decidim.barcelona/assets/avatar-866795c99abc33a3160d1f3fa93ada46eb75e54134e777666b9ed16215b26534.png", 
                "erased": false, 
                "hidden": false, 
                "id": 9262, 
                "name": "Suport General - Decidim Barcelona", 
                "official": false, 
                "official_level": 0, 
                "role": null, 
                "verified_organization": null
            }, 
            "body": "<p><a href=\"https://decidim.barcelona/proposals/pla-de-millores-als-mercats-fisiques-funcionals-i-ambientals-i-pla-de-manteniment-general\">https://decidim.barcelona/proposals/pla-de-millores-als-mercats-fisiques-funcionals-i-ambientals-i-pla-de-manteniment-general</a></p>", 
            "commentable_id": 930, 
            "commentable_type": "Proposal", 
            "created_at": "07/04/2016 15:59:31", 
            "flagged": false, 
            "hidden": false, 
            "id": 9571, 
            "moderator_id": null, 
            "permissions": {
                "hide": false, 
                "hide_author": false, 
                "vote": false
            }, 
            "total_dislikes": 0, 
            "total_likes": 0, 
            "total_votes": 0
        }, 
        {
            "administrator_id": null, 
            "alignment": 0, 
            "ancestry": null, 
            "as": null, 
            "author": {
                "avatar_image": "https://decidim.barcelona/assets/avatar-866795c99abc33a3160d1f3fa93ada46eb75e54134e777666b9ed16215b26534.png", 
                "erased": false, 
                "hidden": false, 
                "id": 9262, 
                "name": "Suport General - Decidim Barcelona", 
                "official": false, 
                "official_level": 0, 
                "role": null, 
                "verified_organization": null
            }, 
            "body": "<p><a href=\"https://decidim.barcelona/proposals/promoure-campanyes-per-posicionar-els-mercats-com-a-referents-de-producte-fresc-i-de-proximitat\">https://decidim.barcelona/proposals/promoure-campanyes-per-posicionar-els-mercats-com-a-referents-de-producte-fresc-i-de-proximitat</a></p>", 
            "commentable_id": 930, 
            "commentable_type": "Proposal", 
            "created_at": "07/04/2016 16:00:15", 
            "flagged": false, 
            "hidden": false, 
            "id": 9572, 
            "moderator_id": null, 
            "permissions": {
                "hide": false, 
                "hide_author": false, 
                "vote": false
            }, 
            "total_dislikes": 0, 
            "total_likes": 0, 
            "total_votes": 0
        }, 
        {
            "administrator_id": null, 
            "alignment": 0, 
            "ancestry": null, 
            "as": null, 
            "author": {
                "avatar_image": "https://decidim.barcelona/assets/avatar-866795c99abc33a3160d1f3fa93ada46eb75e54134e777666b9ed16215b26534.png", 
                "erased": false, 
                "hidden": false, 
                "id": 9262, 
                "name": "Suport General - Decidim Barcelona", 
                "official": false, 
                "official_level": 0, 
                "role": null, 
                "verified_organization": null
            }, 
            "body": "<p><a href=\"https://decidim.barcelona/proposals/promocio-d-habits-d-alimentacio-saludable-i-consum-responsable-en-els-infants\">https://decidim.barcelona/proposals/promocio-d-habits-d-alimentacio-saludable-i-consum-responsable-en-els-infants</a></p>", 
            "commentable_id": 930, 
            "commentable_type": "Proposal", 
            "created_at": "07/04/2016 16:02:22", 
            "flagged": false, 
            "hidden": false, 
            "id": 9576, 
            "moderator_id": null, 
            "permissions": {
                "hide": false, 
                "hide_author": false, 
                "vote": false
            }, 
            "total_dislikes": 0, 
            "total_likes": 0, 
            "total_votes": 0
        }, 
        {
            "administrator_id": null, 
            "alignment": 0, 
            "ancestry": null, 
            "as": null, 
            "author": {
                "avatar_image": "https://decidim.barcelona/assets/avatar-866795c99abc33a3160d1f3fa93ada46eb75e54134e777666b9ed16215b26534.png", 
                "erased": false, 
                "hidden": false, 
                "id": 9262, 
                "name": "Suport General - Decidim Barcelona", 
                "official": false, 
                "official_level": 0, 
                "role": null, 
                "verified_organization": null
            }, 
            "body": "<p><a href=\"https://decidim.barcelona/proposals/pla-de-comunicacio-i-marketing-per-reforcar-el-rol-dels-mercats-com-a-motor-de-la-vida-comunitaria-l-economia-i-la-sostenibilitat-als-barris\">https://decidim.barcelona/proposals/pla-de-comunicacio-i-marketing-per-reforcar-el-rol-dels-mercats-com-a-motor-de-la-vida-comunitaria-l-economia-i-la-sostenibilitat-als-barris</a></p>", 
            "commentable_id": 930, 
            "commentable_type": "Proposal", 
            "created_at": "07/04/2016 16:13:06", 
            "flagged": false, 
            "hidden": false, 
            "id": 9599, 
            "moderator_id": null, 
            "permissions": {
                "hide": false, 
                "hide_author": false, 
                "vote": false
            }, 
            "total_dislikes": 0, 
            "total_likes": 0, 
            "total_votes": 0
        }, 
        {
            "administrator_id": null, 
            "alignment": 0, 
            "ancestry": null, 
            "as": null, 
            "author": {
                "avatar_image": "https://decidim.barcelona/assets/avatar-866795c99abc33a3160d1f3fa93ada46eb75e54134e777666b9ed16215b26534.png", 
                "erased": false, 
                "hidden": false, 
                "id": 9262, 
                "name": "Suport General - Decidim Barcelona", 
                "official": false, 
                "official_level": 0, 
                "role": null, 
                "verified_organization": null
            }, 
            "body": "<p><a href=\"https://decidim.barcelona/proposals/reforcar-els-mercats-com-a-espais-comunitaris\">https://decidim.barcelona/proposals/reforcar-els-mercats-com-a-espais-comunitaris</a></p>", 
            "commentable_id": 930, 
            "commentable_type": "Proposal", 
            "created_at": "07/04/2016 16:21:52", 
            "flagged": false, 
            "hidden": false, 
            "id": 9613, 
            "moderator_id": null, 
            "permissions": {
                "hide": false, 
                "hide_author": false, 
                "vote": false
            }, 
            "total_dislikes": 0, 
            "total_likes": 0, 
            "total_votes": 0
        }, 
        {
            "administrator_id": null, 
            "alignment": 0, 
            "ancestry": null, 
            "as": null, 
            "author": {
                "avatar_image": "https://decidim.barcelona/assets/avatar-866795c99abc33a3160d1f3fa93ada46eb75e54134e777666b9ed16215b26534.png", 
                "erased": false, 
                "hidden": false, 
                "id": 9262, 
                "name": "Suport General - Decidim Barcelona", 
                "official": false, 
                "official_level": 0, 
                "role": null, 
                "verified_organization": null
            }, 
            "body": "<p><a href=\"https://decidim.barcelona/proposals/homogeneitzacio-d-horaris-dels-mercats\">https://decidim.barcelona/proposals/homogeneitzacio-d-horaris-dels-mercats</a></p>", 
            "commentable_id": 930, 
            "commentable_type": "Proposal", 
            "created_at": "07/04/2016 16:30:56", 
            "flagged": false, 
            "hidden": false, 
            "id": 9638, 
            "moderator_id": null, 
            "permissions": {
                "hide": false, 
                "hide_author": false, 
                "vote": false
            }, 
            "total_dislikes": 0, 
            "total_likes": 0, 
            "total_votes": 0
        }, 
        {
            "administrator_id": null, 
            "alignment": 0, 
            "ancestry": null, 
            "as": null, 
            "author": {
                "avatar_image": "https://decidim.barcelona/assets/avatar-866795c99abc33a3160d1f3fa93ada46eb75e54134e777666b9ed16215b26534.png", 
                "erased": false, 
                "hidden": false, 
                "id": 9262, 
                "name": "Suport General - Decidim Barcelona", 
                "official": false, 
                "official_level": 0, 
                "role": null, 
                "verified_organization": null
            }, 
            "body": "<p><a href=\"https://decidim.barcelona/proposals/posicionar-els-mercats-com-a-principal-lloc-de-compra-sostenible-i-saludable\">https://decidim.barcelona/proposals/posicionar-els-mercats-com-a-principal-lloc-de-compra-sostenible-i-saludable</a></p>", 
            "commentable_id": 930, 
            "commentable_type": "Proposal", 
            "created_at": "07/04/2016 16:50:34", 
            "flagged": false, 
            "hidden": false, 
            "id": 9699, 
            "moderator_id": null, 
            "permissions": {
                "hide": false, 
                "hide_author": false, 
                "vote": false
            }, 
            "total_dislikes": 0, 
            "total_likes": 0, 
            "total_votes": 0
        }, 
        {
            "administrator_id": null, 
            "alignment": 0, 
            "ancestry": null, 
            "as": null, 
            "author": {
                "avatar_image": "https://decidim.barcelona/assets/avatar-866795c99abc33a3160d1f3fa93ada46eb75e54134e777666b9ed16215b26534.png", 
                "erased": false, 
                "hidden": false, 
                "id": 9262, 
                "name": "Suport General - Decidim Barcelona", 
                "official": false, 
                "official_level": 0, 
                "role": null, 
                "verified_organization": null
            }, 
            "body": "<p><a href=\"https://decidim.barcelona/proposals/potenciar-la-relacio-i-accions-conjuntes-dels-mercats-i-els-eixos-i-el-comerc-de-l-entorn\">https://decidim.barcelona/proposals/potenciar-la-relacio-i-accions-conjuntes-dels-mercats-i-els-eixos-i-el-comerc-de-l-entorn</a></p>", 
            "commentable_id": 930, 
            "commentable_type": "Proposal", 
            "created_at": "07/04/2016 16:51:23", 
            "flagged": false, 
            "hidden": false, 
            "id": 9704, 
            "moderator_id": null, 
            "permissions": {
                "hide": false, 
                "hide_author": false, 
                "vote": false
            }, 
            "total_dislikes": 0, 
            "total_likes": 0, 
            "total_votes": 0
        }, 
        {
            "administrator_id": null, 
            "alignment": 0, 
            "ancestry": null, 
            "as": null, 
            "author": {
                "avatar_image": "https://decidim.barcelona/assets/avatar-866795c99abc33a3160d1f3fa93ada46eb75e54134e777666b9ed16215b26534.png", 
                "erased": false, 
                "hidden": false, 
                "id": 9262, 
                "name": "Suport General - Decidim Barcelona", 
                "official": false, 
                "official_level": 0, 
                "role": null, 
                "verified_organization": null
            }, 
            "body": "<p><a href=\"https://decidim.barcelona/proposals/augment-i-suport-al-serveis-a-domicili-aparcament-i-altres-serveis-als-mercats\">https://decidim.barcelona/proposals/augment-i-suport-al-serveis-a-domicili-aparcament-i-altres-serveis-als-mercats</a></p>", 
            "commentable_id": 930, 
            "commentable_type": "Proposal", 
            "created_at": "07/04/2016 16:51:40", 
            "flagged": false, 
            "hidden": false, 
            "id": 9705, 
            "moderator_id": null, 
            "permissions": {
                "hide": false, 
                "hide_author": false, 
                "vote": false
            }, 
            "total_dislikes": 0, 
            "total_likes": 0, 
            "total_votes": 0
        }, 
        {
            "administrator_id": null, 
            "alignment": 0, 
            "ancestry": null, 
            "as": null, 
            "author": {
                "avatar_image": "https://decidim.barcelona/assets/avatar-866795c99abc33a3160d1f3fa93ada46eb75e54134e777666b9ed16215b26534.png", 
                "erased": false, 
                "hidden": false, 
                "id": 9262, 
                "name": "Suport General - Decidim Barcelona", 
                "official": false, 
                "official_level": 0, 
                "role": null, 
                "verified_organization": null
            }, 
            "body": "<p><a href=\"https://decidim.barcelona/proposals/viabilitat-de-nous-operadors-autoserveis-restaurants-als-mercats-a-remodelar\">https://decidim.barcelona/proposals/viabilitat-de-nous-operadors-autoserveis-restaurants-als-mercats-a-remodelar</a></p>", 
            "commentable_id": 930, 
            "commentable_type": "Proposal", 
            "created_at": "07/04/2016 16:51:57", 
            "flagged": false, 
            "hidden": false, 
            "id": 9707, 
            "moderator_id": null, 
            "permissions": {
                "hide": false, 
                "hide_author": false, 
                "vote": false
            }, 
            "total_dislikes": 0, 
            "total_likes": 0, 
            "total_votes": 0
        }, 
        {
            "administrator_id": null, 
            "alignment": 0, 
            "ancestry": null, 
            "as": null, 
            "author": {
                "avatar_image": "https://decidim.barcelona/assets/avatar-866795c99abc33a3160d1f3fa93ada46eb75e54134e777666b9ed16215b26534.png", 
                "erased": false, 
                "hidden": false, 
                "id": 9262, 
                "name": "Suport General - Decidim Barcelona", 
                "official": false, 
                "official_level": 0, 
                "role": null, 
                "verified_organization": null
            }, 
            "body": "<p><a href=\"https://decidim.barcelona/proposals/potenciar-mercats-municipals\">https://decidim.barcelona/proposals/potenciar-mercats-municipals</a></p>", 
            "commentable_id": 930, 
            "commentable_type": "Proposal", 
            "created_at": "07/04/2016 17:13:49", 
            "flagged": false, 
            "hidden": false, 
            "id": 9766, 
            "moderator_id": null, 
            "permissions": {
                "hide": false, 
                "hide_author": false, 
                "vote": false
            }, 
            "total_dislikes": 0, 
            "total_likes": 0, 
            "total_votes": 0
        }, 
        {
            "administrator_id": null, 
            "alignment": 0, 
            "ancestry": null, 
            "as": null, 
            "author": {
                "avatar_image": "https://decidim.barcelona/assets/avatar-866795c99abc33a3160d1f3fa93ada46eb75e54134e777666b9ed16215b26534.png", 
                "erased": false, 
                "hidden": false, 
                "id": 9262, 
                "name": "Suport General - Decidim Barcelona", 
                "official": false, 
                "official_level": 0, 
                "role": null, 
                "verified_organization": null
            }, 
            "body": "<p><a href=\"https://decidim.barcelona/proposals/mercats-municipals-sense-aparcaments-ni-supermercats\">https://decidim.barcelona/proposals/mercats-municipals-sense-aparcaments-ni-supermercats</a></p>", 
            "commentable_id": 930, 
            "commentable_type": "Proposal", 
            "created_at": "07/04/2016 17:28:42", 
            "flagged": false, 
            "hidden": false, 
            "id": 9795, 
            "moderator_id": null, 
            "permissions": {
                "hide": false, 
                "hide_author": false, 
                "vote": false
            }, 
            "total_dislikes": 0, 
            "total_likes": 0, 
            "total_votes": 0
        }, 
        {
            "administrator_id": null, 
            "alignment": 0, 
            "ancestry": null, 
            "as": null, 
            "author": {
                "avatar_image": "https://decidim.barcelona/assets/avatar-866795c99abc33a3160d1f3fa93ada46eb75e54134e777666b9ed16215b26534.png", 
                "erased": false, 
                "hidden": false, 
                "id": 9262, 
                "name": "Suport General - Decidim Barcelona", 
                "official": false, 
                "official_level": 0, 
                "role": null, 
                "verified_organization": null
            }, 
            "body": "<p><a href=\"https://decidim.barcelona/proposals/pla-de-dinamitzacio-del-mercat-dels-encants\">https://decidim.barcelona/proposals/pla-de-dinamitzacio-del-mercat-dels-encants</a></p>", 
            "commentable_id": 930, 
            "commentable_type": "Proposal", 
            "created_at": "07/04/2016 18:16:53", 
            "flagged": false, 
            "hidden": false, 
            "id": 9872, 
            "moderator_id": null, 
            "permissions": {
                "hide": false, 
                "hide_author": false, 
                "vote": false
            }, 
            "total_dislikes": 0, 
            "total_likes": 0, 
            "total_votes": 0
        }, 
        {
            "administrator_id": null, 
            "alignment": 0, 
            "ancestry": null, 
            "as": null, 
            "author": {
                "avatar_image": "https://decidim.barcelona/assets/avatar-866795c99abc33a3160d1f3fa93ada46eb75e54134e777666b9ed16215b26534.png", 
                "erased": false, 
                "hidden": false, 
                "id": 9262, 
                "name": "Suport General - Decidim Barcelona", 
                "official": false, 
                "official_level": 0, 
                "role": null, 
                "verified_organization": null
            }, 
            "body": "<p><a href=\"https://decidim.barcelona/proposals/convertir-els-mercats-municipals-en-agores-del-segle-xxi\">https://decidim.barcelona/proposals/convertir-els-mercats-municipals-en-agores-del-segle-xxi</a></p>", 
            "commentable_id": 930, 
            "commentable_type": "Proposal", 
            "created_at": "08/04/2016 11:19:40", 
            "flagged": false, 
            "hidden": false, 
            "id": 10451, 
            "moderator_id": null, 
            "permissions": {
                "hide": false, 
                "hide_author": false, 
                "vote": false
            }, 
            "total_dislikes": 0, 
            "total_likes": 0, 
            "total_votes": 0
        }, 
        {
            "administrator_id": null, 
            "alignment": 0, 
            "ancestry": null, 
            "as": null, 
            "author": {
                "avatar_image": "https://decidim.barcelona/assets/avatar-866795c99abc33a3160d1f3fa93ada46eb75e54134e777666b9ed16215b26534.png", 
                "erased": false, 
                "hidden": false, 
                "id": 9262, 
                "name": "Suport General - Decidim Barcelona", 
                "official": false, 
                "official_level": 0, 
                "role": null, 
                "verified_organization": null
            }, 
            "body": "<p><a href=\"https://decidim.barcelona/proposals/repensar-el-model-de-mercats-municipals\">https://decidim.barcelona/proposals/repensar-el-model-de-mercats-municipals</a></p>", 
            "commentable_id": 930, 
            "commentable_type": "Proposal", 
            "created_at": "08/04/2016 16:17:38", 
            "flagged": false, 
            "hidden": false, 
            "id": 11109, 
            "moderator_id": null, 
            "permissions": {
                "hide": false, 
                "hide_author": false, 
                "vote": false
            }, 
            "total_dislikes": 0, 
            "total_likes": 0, 
            "total_votes": 0
        }, 
        {
            "administrator_id": null, 
            "alignment": 0, 
            "ancestry": null, 
            "as": null, 
            "author": {
                "avatar_image": "https://decidim.barcelona/assets/avatar-866795c99abc33a3160d1f3fa93ada46eb75e54134e777666b9ed16215b26534.png", 
                "erased": false, 
                "hidden": false, 
                "id": 9262, 
                "name": "Suport General - Decidim Barcelona", 
                "official": false, 
                "official_level": 0, 
                "role": null, 
                "verified_organization": null
            }, 
            "body": "<p><a href=\"https://decidim.barcelona/proposals/prohibir-que-es-venguin-aliments-processats-al-mercat-de-la-boqueria\">https://decidim.barcelona/proposals/prohibir-que-es-venguin-aliments-processats-al-mercat-de-la-boqueria</a></p>", 
            "commentable_id": 930, 
            "commentable_type": "Proposal", 
            "created_at": "11/04/2016 15:52:12", 
            "flagged": false, 
            "hidden": false, 
            "id": 12902, 
            "moderator_id": null, 
            "permissions": {
                "hide": false, 
                "hide_author": false, 
                "vote": false
            }, 
            "total_dislikes": 0, 
            "total_likes": 0, 
            "total_votes": 0
        }, 
        {
            "administrator_id": null, 
            "alignment": 0, 
            "ancestry": null, 
            "as": null, 
            "author": {
                "avatar_image": "https://decidim.barcelona/assets/avatar-866795c99abc33a3160d1f3fa93ada46eb75e54134e777666b9ed16215b26534.png", 
                "erased": false, 
                "hidden": false, 
                "id": 9262, 
                "name": "Suport General - Decidim Barcelona", 
                "official": false, 
                "official_level": 0, 
                "role": null, 
                "verified_organization": null
            }, 
            "body": "<p><a href=\"https://decidim.barcelona/proposals/crear-un-mercat-municipal-al-barri-de-poblesec\">https://decidim.barcelona/proposals/crear-un-mercat-municipal-al-barri-de-poblesec</a></p>", 
            "commentable_id": 930, 
            "commentable_type": "Proposal", 
            "created_at": "11/04/2016 16:11:56", 
            "flagged": false, 
            "hidden": false, 
            "id": 12961, 
            "moderator_id": null, 
            "permissions": {
                "hide": false, 
                "hide_author": false, 
                "vote": false
            }, 
            "total_dislikes": 0, 
            "total_likes": 0, 
            "total_votes": 0
        }, 
        {
            "administrator_id": null, 
            "alignment": 0, 
            "ancestry": null, 
            "as": null, 
            "author": {
                "avatar_image": "https://decidim.barcelona/assets/avatar-866795c99abc33a3160d1f3fa93ada46eb75e54134e777666b9ed16215b26534.png", 
                "erased": false, 
                "hidden": false, 
                "id": 9262, 
                "name": "Suport General - Decidim Barcelona", 
                "official": false, 
                "official_level": 0, 
                "role": null, 
                "verified_organization": null
            }, 
            "body": "<p><a href=\"https://decidim.barcelona/proposals/mercat\">https://decidim.barcelona/proposals/mercat</a></p>", 
            "commentable_id": 930, 
            "commentable_type": "Proposal", 
            "created_at": "11/04/2016 16:19:28", 
            "flagged": false, 
            "hidden": false, 
            "id": 12974, 
            "moderator_id": null, 
            "permissions": {
                "hide": false, 
                "hide_author": false, 
                "vote": false
            }, 
            "total_dislikes": 0, 
            "total_likes": 0, 
            "total_votes": 0
        }
    ], 
    "meta": {
        "current_page": 1, 
        "next_page": 2, 
        "prev_page": null, 
        "total_count": 31, 
        "total_pages": 2
    }
}