{
    "comments": [
        {
            "administrator_id": null, 
            "alignment": 0, 
            "ancestry": null, 
            "as": null, 
            "author": {
                "avatar_image": "https://decidim.barcelona/assets/avatar-866795c99abc33a3160d1f3fa93ada46eb75e54134e777666b9ed16215b26534.png", 
                "erased": false, 
                "hidden": false, 
                "id": 9262, 
                "name": "Suport General - Decidim Barcelona", 
                "official": false, 
                "official_level": 0, 
                "role": null, 
                "verified_organization": null
            }, 
            "body": "<p><a href=\"https://decidim.barcelona/proposals/cooperatives-de-treball-en-l-ambit-del-manteniment-de-centres-esportius\">https://decidim.barcelona/proposals/cooperatives-de-treball-en-l-ambit-del-manteniment-de-centres-esportius</a></p>", 
            "commentable_id": 931, 
            "commentable_type": "Proposal", 
            "created_at": "08/04/2016 17:24:04", 
            "flagged": false, 
            "hidden": false, 
            "id": 11217, 
            "moderator_id": null, 
            "permissions": {
                "hide": false, 
                "hide_author": false, 
                "vote": false
            }, 
            "total_dislikes": 0, 
            "total_likes": 0, 
            "total_votes": 0
        }, 
        {
            "administrator_id": null, 
            "alignment": 0, 
            "ancestry": null, 
            "as": null, 
            "author": {
                "avatar_image": "https://decidim.barcelona/assets/avatar-866795c99abc33a3160d1f3fa93ada46eb75e54134e777666b9ed16215b26534.png", 
                "erased": false, 
                "hidden": false, 
                "id": 9262, 
                "name": "Suport General - Decidim Barcelona", 
                "official": false, 
                "official_level": 0, 
                "role": null, 
                "verified_organization": null
            }, 
            "body": "<p><a href=\"https://decidim.barcelona/proposals/bonificacions-i-ajudes-per-transformar-el-model-productiu-i-les-jornades-de-menys-de-40-hores\">https://decidim.barcelona/proposals/bonificacions-i-ajudes-per-transformar-el-model-productiu-i-les-jornades-de-menys-de-40-hores</a></p>", 
            "commentable_id": 931, 
            "commentable_type": "Proposal", 
            "created_at": "08/04/2016 17:59:28", 
            "flagged": false, 
            "hidden": false, 
            "id": 11280, 
            "moderator_id": null, 
            "permissions": {
                "hide": false, 
                "hide_author": false, 
                "vote": false
            }, 
            "total_dislikes": 0, 
            "total_likes": 0, 
            "total_votes": 0
        }, 
        {
            "administrator_id": null, 
            "alignment": 0, 
            "ancestry": null, 
            "as": null, 
            "author": {
                "avatar_image": "https://decidim.barcelona/assets/avatar-866795c99abc33a3160d1f3fa93ada46eb75e54134e777666b9ed16215b26534.png", 
                "erased": false, 
                "hidden": false, 
                "id": 9262, 
                "name": "Suport General - Decidim Barcelona", 
                "official": false, 
                "official_level": 0, 
                "role": null, 
                "verified_organization": null
            }, 
            "body": "<p><a href=\"https://decidim.barcelona/proposals/impulsar-la-incubacio-de-nous-projectes-i-iniciatives-d-economia-col-laborativa-procomu-revisar-els-models-d-incubacio-de-projectes-de-base-tecnologica-innovadora-actuals\">https://decidim.barcelona/proposals/impulsar-la-incubacio-de-nous-projectes-i-iniciatives-d-economia-col-laborativa-procomu-revisar-els-models-d-incubacio-de-projectes-de-base-tecnologica-innovadora-actuals</a></p>", 
            "commentable_id": 931, 
            "commentable_type": "Proposal", 
            "created_at": "09/04/2016 10:41:03", 
            "flagged": false, 
            "hidden": false, 
            "id": 11634, 
            "moderator_id": null, 
            "permissions": {
                "hide": false, 
                "hide_author": false, 
                "vote": false
            }, 
            "total_dislikes": 0, 
            "total_likes": 0, 
            "total_votes": 0
        }, 
        {
            "administrator_id": null, 
            "alignment": 0, 
            "ancestry": null, 
            "as": null, 
            "author": {
                "avatar_image": "https://decidim.barcelona/assets/avatar-866795c99abc33a3160d1f3fa93ada46eb75e54134e777666b9ed16215b26534.png", 
                "erased": false, 
                "hidden": false, 
                "id": 9262, 
                "name": "Suport General - Decidim Barcelona", 
                "official": false, 
                "official_level": 0, 
                "role": null, 
                "verified_organization": null
            }, 
            "body": "<p><a href=\"https://decidim.barcelona/proposals/impulsar-la-incubacio-de-nous-projectes-i-iniciatives-d-economia-col-laborativa-procomu-adaptar-els-serveis-d-agents-clau-com-barcelona-activa\">https://decidim.barcelona/proposals/impulsar-la-incubacio-de-nous-projectes-i-iniciatives-d-economia-col-laborativa-procomu-adaptar-els-serveis-d-agents-clau-com-barcelona-activa</a></p>", 
            "commentable_id": 931, 
            "commentable_type": "Proposal", 
            "created_at": "09/04/2016 10:49:03", 
            "flagged": false, 
            "hidden": false, 
            "id": 11654, 
            "moderator_id": null, 
            "permissions": {
                "hide": false, 
                "hide_author": false, 
                "vote": false
            }, 
            "total_dislikes": 0, 
            "total_likes": 0, 
            "total_votes": 0
        }, 
        {
            "administrator_id": null, 
            "alignment": 0, 
            "ancestry": null, 
            "as": null, 
            "author": {
                "avatar_image": "https://decidim.barcelona/assets/avatar-866795c99abc33a3160d1f3fa93ada46eb75e54134e777666b9ed16215b26534.png", 
                "erased": false, 
                "hidden": false, 
                "id": 9262, 
                "name": "Suport General - Decidim Barcelona", 
                "official": false, 
                "official_level": 0, 
                "role": null, 
                "verified_organization": null
            }, 
            "body": "<p><a href=\"https://decidim.barcelona/proposals/mes-presencia-de-barcelona-activa-als-barris\">https://decidim.barcelona/proposals/mes-presencia-de-barcelona-activa-als-barris</a></p>", 
            "commentable_id": 931, 
            "commentable_type": "Proposal", 
            "created_at": "09/04/2016 12:43:39", 
            "flagged": false, 
            "hidden": false, 
            "id": 11970, 
            "moderator_id": null, 
            "permissions": {
                "hide": false, 
                "hide_author": false, 
                "vote": false
            }, 
            "total_dislikes": 0, 
            "total_likes": 0, 
            "total_votes": 0
        }, 
        {
            "administrator_id": null, 
            "alignment": 0, 
            "ancestry": null, 
            "as": null, 
            "author": {
                "avatar_image": "https://decidim.barcelona/assets/avatar-866795c99abc33a3160d1f3fa93ada46eb75e54134e777666b9ed16215b26534.png", 
                "erased": false, 
                "hidden": false, 
                "id": 9262, 
                "name": "Suport General - Decidim Barcelona", 
                "official": false, 
                "official_level": 0, 
                "role": null, 
                "verified_organization": null
            }, 
            "body": "<p><a href=\"https://decidim.barcelona/proposals/compatibilitat-entre-l-acces-a-ajuts-i-l-ocupacio-activa\">https://decidim.barcelona/proposals/compatibilitat-entre-l-acces-a-ajuts-i-l-ocupacio-activa</a></p>", 
            "commentable_id": 931, 
            "commentable_type": "Proposal", 
            "created_at": "09/04/2016 12:56:45", 
            "flagged": false, 
            "hidden": false, 
            "id": 12032, 
            "moderator_id": null, 
            "permissions": {
                "hide": false, 
                "hide_author": false, 
                "vote": false
            }, 
            "total_dislikes": 0, 
            "total_likes": 0, 
            "total_votes": 0
        }, 
        {
            "administrator_id": null, 
            "alignment": 0, 
            "ancestry": null, 
            "as": null, 
            "author": {
                "avatar_image": "https://decidim.barcelona/assets/avatar-866795c99abc33a3160d1f3fa93ada46eb75e54134e777666b9ed16215b26534.png", 
                "erased": false, 
                "hidden": false, 
                "id": 9262, 
                "name": "Suport General - Decidim Barcelona", 
                "official": false, 
                "official_level": 0, 
                "role": null, 
                "verified_organization": null
            }, 
            "body": "<p><a href=\"https://decidim.barcelona/proposals/oferir-suport-i-assessorament-a-les-dones-en-emprenedoria\">https://decidim.barcelona/proposals/oferir-suport-i-assessorament-a-les-dones-en-emprenedoria</a></p>", 
            "commentable_id": 931, 
            "commentable_type": "Proposal", 
            "created_at": "09/04/2016 13:04:12", 
            "flagged": false, 
            "hidden": false, 
            "id": 12043, 
            "moderator_id": null, 
            "permissions": {
                "hide": false, 
                "hide_author": false, 
                "vote": false
            }, 
            "total_dislikes": 0, 
            "total_likes": 0, 
            "total_votes": 0
        }, 
        {
            "administrator_id": null, 
            "alignment": 0, 
            "ancestry": null, 
            "as": null, 
            "author": {
                "avatar_image": "https://decidim.barcelona/assets/avatar-866795c99abc33a3160d1f3fa93ada46eb75e54134e777666b9ed16215b26534.png", 
                "erased": false, 
                "hidden": false, 
                "id": 9262, 
                "name": "Suport General - Decidim Barcelona", 
                "official": false, 
                "official_level": 0, 
                "role": null, 
                "verified_organization": null
            }, 
            "body": "<p><a href=\"https://decidim.barcelona/proposals/incidir-en-la-participacio-de-les-dones-en-pimec\">https://decidim.barcelona/proposals/incidir-en-la-participacio-de-les-dones-en-pimec</a></p>", 
            "commentable_id": 931, 
            "commentable_type": "Proposal", 
            "created_at": "09/04/2016 13:08:47", 
            "flagged": false, 
            "hidden": false, 
            "id": 12047, 
            "moderator_id": null, 
            "permissions": {
                "hide": false, 
                "hide_author": false, 
                "vote": false
            }, 
            "total_dislikes": 0, 
            "total_likes": 0, 
            "total_votes": 0
        }, 
        {
            "administrator_id": null, 
            "alignment": 0, 
            "ancestry": null, 
            "as": null, 
            "author": {
                "avatar_image": "https://decidim.barcelona/assets/avatar-866795c99abc33a3160d1f3fa93ada46eb75e54134e777666b9ed16215b26534.png", 
                "erased": false, 
                "hidden": false, 
                "id": 9262, 
                "name": "Suport General - Decidim Barcelona", 
                "official": false, 
                "official_level": 0, 
                "role": null, 
                "verified_organization": null
            }, 
            "body": "<p><a href=\"https://decidim.barcelona/proposals/reformular-el-sentit-de-les-accions-d-insercio-laboral-municipals\">https://decidim.barcelona/proposals/reformular-el-sentit-de-les-accions-d-insercio-laboral-municipals</a></p>", 
            "commentable_id": 931, 
            "commentable_type": "Proposal", 
            "created_at": "09/04/2016 13:09:05", 
            "flagged": false, 
            "hidden": false, 
            "id": 12049, 
            "moderator_id": null, 
            "permissions": {
                "hide": false, 
                "hide_author": false, 
                "vote": false
            }, 
            "total_dislikes": 0, 
            "total_likes": 0, 
            "total_votes": 0
        }, 
        {
            "administrator_id": null, 
            "alignment": 0, 
            "ancestry": null, 
            "as": null, 
            "author": {
                "avatar_image": "https://decidim.barcelona/assets/avatar-866795c99abc33a3160d1f3fa93ada46eb75e54134e777666b9ed16215b26534.png", 
                "erased": false, 
                "hidden": false, 
                "id": 9262, 
                "name": "Suport General - Decidim Barcelona", 
                "official": false, 
                "official_level": 0, 
                "role": null, 
                "verified_organization": null
            }, 
            "body": "<p><a href=\"https://decidim.barcelona/proposals/oferir-un-servei-personalitzat-i-integral-de-recerca-de-feina\">https://decidim.barcelona/proposals/oferir-un-servei-personalitzat-i-integral-de-recerca-de-feina</a></p>", 
            "commentable_id": 931, 
            "commentable_type": "Proposal", 
            "created_at": "09/04/2016 13:26:41", 
            "flagged": false, 
            "hidden": false, 
            "id": 12086, 
            "moderator_id": null, 
            "permissions": {
                "hide": false, 
                "hide_author": false, 
                "vote": false
            }, 
            "total_dislikes": 0, 
            "total_likes": 0, 
            "total_votes": 0
        }, 
        {
            "administrator_id": null, 
            "alignment": 0, 
            "ancestry": null, 
            "as": null, 
            "author": {
                "avatar_image": "https://decidim.barcelona/assets/avatar-866795c99abc33a3160d1f3fa93ada46eb75e54134e777666b9ed16215b26534.png", 
                "erased": false, 
                "hidden": false, 
                "id": 9262, 
                "name": "Suport General - Decidim Barcelona", 
                "official": false, 
                "official_level": 0, 
                "role": null, 
                "verified_organization": null
            }, 
            "body": "<p><a href=\"https://decidim.barcelona/proposals/consell-empreses-adequar-les-politiques-d-ocupacio-demanda-del-mercat\">https://decidim.barcelona/proposals/consell-empreses-adequar-les-politiques-d-ocupacio-demanda-del-mercat</a></p>", 
            "commentable_id": 931, 
            "commentable_type": "Proposal", 
            "created_at": "09/04/2016 13:35:22", 
            "flagged": false, 
            "hidden": false, 
            "id": 12108, 
            "moderator_id": null, 
            "permissions": {
                "hide": false, 
                "hide_author": false, 
                "vote": false
            }, 
            "total_dislikes": 0, 
            "total_likes": 0, 
            "total_votes": 0
        }, 
        {
            "administrator_id": null, 
            "alignment": 0, 
            "ancestry": null, 
            "as": null, 
            "author": {
                "avatar_image": "https://decidim.barcelona/assets/avatar-866795c99abc33a3160d1f3fa93ada46eb75e54134e777666b9ed16215b26534.png", 
                "erased": false, 
                "hidden": false, 
                "id": 9262, 
                "name": "Suport General - Decidim Barcelona", 
                "official": false, 
                "official_level": 0, 
                "role": null, 
                "verified_organization": null
            }, 
            "body": "<p><a href=\"https://decidim.barcelona/proposals/politiques-ocupacionals-per-qualificar-aturats-en-el-sector-turistic\">https://decidim.barcelona/proposals/politiques-ocupacionals-per-qualificar-aturats-en-el-sector-turistic</a></p>", 
            "commentable_id": 931, 
            "commentable_type": "Proposal", 
            "created_at": "09/04/2016 14:39:38", 
            "flagged": false, 
            "hidden": false, 
            "id": 12320, 
            "moderator_id": null, 
            "permissions": {
                "hide": false, 
                "hide_author": false, 
                "vote": false
            }, 
            "total_dislikes": 0, 
            "total_likes": 0, 
            "total_votes": 0
        }, 
        {
            "administrator_id": null, 
            "alignment": 0, 
            "ancestry": null, 
            "as": null, 
            "author": {
                "avatar_image": "https://decidim.barcelona/assets/avatar-866795c99abc33a3160d1f3fa93ada46eb75e54134e777666b9ed16215b26534.png", 
                "erased": false, 
                "hidden": false, 
                "id": 9262, 
                "name": "Suport General - Decidim Barcelona", 
                "official": false, 
                "official_level": 0, 
                "role": null, 
                "verified_organization": null
            }, 
            "body": "<p><a href=\"https://decidim.barcelona/proposals/promoure-espais-d-excel-lencia-d-empreses-turistiques\">https://decidim.barcelona/proposals/promoure-espais-d-excel-lencia-d-empreses-turistiques</a></p>", 
            "commentable_id": 931, 
            "commentable_type": "Proposal", 
            "created_at": "09/04/2016 14:42:00", 
            "flagged": false, 
            "hidden": false, 
            "id": 12329, 
            "moderator_id": null, 
            "permissions": {
                "hide": false, 
                "hide_author": false, 
                "vote": false
            }, 
            "total_dislikes": 0, 
            "total_likes": 0, 
            "total_votes": 0
        }, 
        {
            "administrator_id": null, 
            "alignment": 0, 
            "ancestry": null, 
            "as": null, 
            "author": {
                "avatar_image": "https://decidim.barcelona/assets/avatar-866795c99abc33a3160d1f3fa93ada46eb75e54134e777666b9ed16215b26534.png", 
                "erased": false, 
                "hidden": false, 
                "id": 9262, 
                "name": "Suport General - Decidim Barcelona", 
                "official": false, 
                "official_level": 0, 
                "role": null, 
                "verified_organization": null
            }, 
            "body": "<p><a href=\"https://decidim.barcelona/proposals/establir-crear-promocionar-una-zona-industrial-a-baix-preu\">https://decidim.barcelona/proposals/establir-crear-promocionar-una-zona-industrial-a-baix-preu</a></p>", 
            "commentable_id": 931, 
            "commentable_type": "Proposal", 
            "created_at": "11/04/2016 16:41:16", 
            "flagged": false, 
            "hidden": false, 
            "id": 13006, 
            "moderator_id": null, 
            "permissions": {
                "hide": false, 
                "hide_author": false, 
                "vote": false
            }, 
            "total_dislikes": 0, 
            "total_likes": 0, 
            "total_votes": 0
        }, 
        {
            "administrator_id": null, 
            "alignment": 0, 
            "ancestry": null, 
            "as": null, 
            "author": {
                "avatar_image": "https://decidim.barcelona/assets/avatar-866795c99abc33a3160d1f3fa93ada46eb75e54134e777666b9ed16215b26534.png", 
                "erased": false, 
                "hidden": false, 
                "id": 9262, 
                "name": "Suport General - Decidim Barcelona", 
                "official": false, 
                "official_level": 0, 
                "role": null, 
                "verified_organization": null
            }, 
            "body": "<p><a href=\"https://decidim.barcelona/proposals/impulsar-el-treball-de-barcelona-activa-als-barris\">https://decidim.barcelona/proposals/impulsar-el-treball-de-barcelona-activa-als-barris</a></p>", 
            "commentable_id": 931, 
            "commentable_type": "Proposal", 
            "created_at": "13/04/2016 10:49:07", 
            "flagged": false, 
            "hidden": false, 
            "id": 14327, 
            "moderator_id": null, 
            "permissions": {
                "hide": false, 
                "hide_author": false, 
                "vote": false
            }, 
            "total_dislikes": 0, 
            "total_likes": 0, 
            "total_votes": 0
        }, 
        {
            "administrator_id": null, 
            "alignment": 0, 
            "ancestry": null, 
            "as": null, 
            "author": {
                "avatar_image": "https://decidim.barcelona/assets/avatar-866795c99abc33a3160d1f3fa93ada46eb75e54134e777666b9ed16215b26534.png", 
                "erased": false, 
                "hidden": false, 
                "id": 9262, 
                "name": "Suport General - Decidim Barcelona", 
                "official": false, 
                "official_level": 0, 
                "role": null, 
                "verified_organization": null
            }, 
            "body": "<p><a href=\"https://decidim.barcelona/proposals/repensar-amb-barcelona-activa-la-manera-de-treballar-amb-les-empreses\">https://decidim.barcelona/proposals/repensar-amb-barcelona-activa-la-manera-de-treballar-amb-les-empreses</a></p>", 
            "commentable_id": 931, 
            "commentable_type": "Proposal", 
            "created_at": "15/04/2016 16:58:06", 
            "flagged": false, 
            "hidden": false, 
            "id": 17287, 
            "moderator_id": null, 
            "permissions": {
                "hide": false, 
                "hide_author": false, 
                "vote": false
            }, 
            "total_dislikes": 0, 
            "total_likes": 0, 
            "total_votes": 0
        }
    ], 
    "meta": {
        "current_page": 2, 
        "next_page": null, 
        "prev_page": 1, 
        "total_count": 36, 
        "total_pages": 2
    }
}