{
    "comments": [
        {
            "administrator_id": null, 
            "alignment": 0, 
            "ancestry": null, 
            "as": null, 
            "author": {
                "avatar_image": "https://decidim.barcelona/assets/avatar-866795c99abc33a3160d1f3fa93ada46eb75e54134e777666b9ed16215b26534.png", 
                "erased": false, 
                "hidden": false, 
                "id": 9262, 
                "name": "Suport General - Decidim Barcelona", 
                "official": false, 
                "official_level": 0, 
                "role": null, 
                "verified_organization": null
            }, 
            "body": "<p><a href=\"https://decidim.barcelona/proposals/objectius-i-indicadors-d-avaluacio-per-potenciar-el-creixement-productiu-local\">https://decidim.barcelona/proposals/objectius-i-indicadors-d-avaluacio-per-potenciar-el-creixement-productiu-local</a></p>", 
            "commentable_id": 932, 
            "commentable_type": "Proposal", 
            "created_at": "08/04/2016 10:47:45", 
            "flagged": false, 
            "hidden": false, 
            "id": 10365, 
            "moderator_id": null, 
            "permissions": {
                "hide": false, 
                "hide_author": false, 
                "vote": false
            }, 
            "total_dislikes": 0, 
            "total_likes": 0, 
            "total_votes": 0
        }, 
        {
            "administrator_id": null, 
            "alignment": 0, 
            "ancestry": null, 
            "as": null, 
            "author": {
                "avatar_image": "https://decidim.barcelona/assets/avatar-866795c99abc33a3160d1f3fa93ada46eb75e54134e777666b9ed16215b26534.png", 
                "erased": false, 
                "hidden": false, 
                "id": 9262, 
                "name": "Suport General - Decidim Barcelona", 
                "official": false, 
                "official_level": 0, 
                "role": null, 
                "verified_organization": null
            }, 
            "body": "<p><a href=\"https://decidim.barcelona/proposals/reconeixement-visibilitzacio-divulgacio-i-difusio-de-les-experiencies-d-economies-comunitaries-de-la-ciutat\">https://decidim.barcelona/proposals/reconeixement-visibilitzacio-divulgacio-i-difusio-de-les-experiencies-d-economies-comunitaries-de-la-ciutat</a></p>", 
            "commentable_id": 932, 
            "commentable_type": "Proposal", 
            "created_at": "08/04/2016 11:06:21", 
            "flagged": false, 
            "hidden": false, 
            "id": 10416, 
            "moderator_id": null, 
            "permissions": {
                "hide": false, 
                "hide_author": false, 
                "vote": false
            }, 
            "total_dislikes": 0, 
            "total_likes": 0, 
            "total_votes": 0
        }, 
        {
            "administrator_id": null, 
            "alignment": 0, 
            "ancestry": null, 
            "as": null, 
            "author": {
                "avatar_image": "https://decidim.barcelona/assets/avatar-866795c99abc33a3160d1f3fa93ada46eb75e54134e777666b9ed16215b26534.png", 
                "erased": false, 
                "hidden": false, 
                "id": 9262, 
                "name": "Suport General - Decidim Barcelona", 
                "official": false, 
                "official_level": 0, 
                "role": null, 
                "verified_organization": null
            }, 
            "body": "<p><a href=\"https://decidim.barcelona/proposals/suport-economic-i-en-difondre-les-iniciatives-de-l-ecss\">https://decidim.barcelona/proposals/suport-economic-i-en-difondre-les-iniciatives-de-l-ecss</a></p>", 
            "commentable_id": 932, 
            "commentable_type": "Proposal", 
            "created_at": "08/04/2016 11:09:42", 
            "flagged": false, 
            "hidden": false, 
            "id": 10429, 
            "moderator_id": null, 
            "permissions": {
                "hide": false, 
                "hide_author": false, 
                "vote": false
            }, 
            "total_dislikes": 0, 
            "total_likes": 0, 
            "total_votes": 0
        }, 
        {
            "administrator_id": null, 
            "alignment": 0, 
            "ancestry": null, 
            "as": null, 
            "author": {
                "avatar_image": "https://decidim.barcelona/assets/avatar-866795c99abc33a3160d1f3fa93ada46eb75e54134e777666b9ed16215b26534.png", 
                "erased": false, 
                "hidden": false, 
                "id": 9262, 
                "name": "Suport General - Decidim Barcelona", 
                "official": false, 
                "official_level": 0, 
                "role": null, 
                "verified_organization": null
            }, 
            "body": "<p><a href=\"https://decidim.barcelona/proposals/formar-els-les-treballadors-es-municipals-i-la-poblacio-a-tots-els-sectors-tambe-la-poblacio-infantil-en-economia-cooperativa-social-i-solidaria\">https://decidim.barcelona/proposals/formar-els-les-treballadors-es-municipals-i-la-poblacio-a-tots-els-sectors-tambe-la-poblacio-infantil-en-economia-cooperativa-social-i-solidaria</a></p>", 
            "commentable_id": 932, 
            "commentable_type": "Proposal", 
            "created_at": "08/04/2016 15:40:14", 
            "flagged": false, 
            "hidden": false, 
            "id": 11013, 
            "moderator_id": null, 
            "permissions": {
                "hide": false, 
                "hide_author": false, 
                "vote": false
            }, 
            "total_dislikes": 0, 
            "total_likes": 0, 
            "total_votes": 0
        }, 
        {
            "administrator_id": null, 
            "alignment": 0, 
            "ancestry": null, 
            "as": null, 
            "author": {
                "avatar_image": "https://decidim.barcelona/assets/avatar-866795c99abc33a3160d1f3fa93ada46eb75e54134e777666b9ed16215b26534.png", 
                "erased": false, 
                "hidden": false, 
                "id": 9262, 
                "name": "Suport General - Decidim Barcelona", 
                "official": false, 
                "official_level": 0, 
                "role": null, 
                "verified_organization": null
            }, 
            "body": "<p><a href=\"https://decidim.barcelona/proposals/dialegs-per-estendre-l-ecss\">https://decidim.barcelona/proposals/dialegs-per-estendre-l-ecss</a></p>", 
            "commentable_id": 932, 
            "commentable_type": "Proposal", 
            "created_at": "08/04/2016 15:54:19", 
            "flagged": false, 
            "hidden": false, 
            "id": 11045, 
            "moderator_id": null, 
            "permissions": {
                "hide": false, 
                "hide_author": false, 
                "vote": false
            }, 
            "total_dislikes": 0, 
            "total_likes": 0, 
            "total_votes": 0
        }, 
        {
            "administrator_id": null, 
            "alignment": 0, 
            "ancestry": null, 
            "as": null, 
            "author": {
                "avatar_image": "https://decidim.barcelona/assets/avatar-866795c99abc33a3160d1f3fa93ada46eb75e54134e777666b9ed16215b26534.png", 
                "erased": false, 
                "hidden": false, 
                "id": 9262, 
                "name": "Suport General - Decidim Barcelona", 
                "official": false, 
                "official_level": 0, 
                "role": null, 
                "verified_organization": null
            }, 
            "body": "<p><a href=\"https://decidim.barcelona/proposals/aprofitar-les-plataformes-de-participacio-per-amplificar-i-explicar-el-fenomen-de-les-noves-economies\">https://decidim.barcelona/proposals/aprofitar-les-plataformes-de-participacio-per-amplificar-i-explicar-el-fenomen-de-les-noves-economies</a></p>", 
            "commentable_id": 932, 
            "commentable_type": "Proposal", 
            "created_at": "08/04/2016 16:00:14", 
            "flagged": false, 
            "hidden": false, 
            "id": 11065, 
            "moderator_id": null, 
            "permissions": {
                "hide": false, 
                "hide_author": false, 
                "vote": false
            }, 
            "total_dislikes": 0, 
            "total_likes": 0, 
            "total_votes": 0
        }, 
        {
            "administrator_id": null, 
            "alignment": 0, 
            "ancestry": null, 
            "as": null, 
            "author": {
                "avatar_image": "https://decidim.barcelona/assets/avatar-866795c99abc33a3160d1f3fa93ada46eb75e54134e777666b9ed16215b26534.png", 
                "erased": false, 
                "hidden": false, 
                "id": 9262, 
                "name": "Suport General - Decidim Barcelona", 
                "official": false, 
                "official_level": 0, 
                "role": null, 
                "verified_organization": null
            }, 
            "body": "<p><a href=\"https://decidim.barcelona/proposals/aprofitar-els-recursos-de-l-ajuntament-per-difondre-les-iniciatives-de-l-ecss\">https://decidim.barcelona/proposals/aprofitar-els-recursos-de-l-ajuntament-per-difondre-les-iniciatives-de-l-ecss</a></p>", 
            "commentable_id": 932, 
            "commentable_type": "Proposal", 
            "created_at": "08/04/2016 16:27:37", 
            "flagged": false, 
            "hidden": false, 
            "id": 11119, 
            "moderator_id": null, 
            "permissions": {
                "hide": false, 
                "hide_author": false, 
                "vote": false
            }, 
            "total_dislikes": 0, 
            "total_likes": 0, 
            "total_votes": 0
        }, 
        {
            "administrator_id": null, 
            "alignment": 0, 
            "ancestry": null, 
            "as": null, 
            "author": {
                "avatar_image": "https://decidim.barcelona/assets/avatar-866795c99abc33a3160d1f3fa93ada46eb75e54134e777666b9ed16215b26534.png", 
                "erased": false, 
                "hidden": false, 
                "id": 9262, 
                "name": "Suport General - Decidim Barcelona", 
                "official": false, 
                "official_level": 0, 
                "role": null, 
                "verified_organization": null
            }, 
            "body": "<p><a href=\"https://decidim.barcelona/proposals/que-les-inversions-en-grans-esdeveniments-tecnologics-recaiguin-en-la-promocio-del-procomu-local-cessio-d-espais-i-temps-als-stands-municipals\">https://decidim.barcelona/proposals/que-les-inversions-en-grans-esdeveniments-tecnologics-recaiguin-en-la-promocio-del-procomu-local-cessio-d-espais-i-temps-als-stands-municipals</a></p>", 
            "commentable_id": 932, 
            "commentable_type": "Proposal", 
            "created_at": "09/04/2016 10:41:55", 
            "flagged": false, 
            "hidden": false, 
            "id": 11638, 
            "moderator_id": null, 
            "permissions": {
                "hide": false, 
                "hide_author": false, 
                "vote": false
            }, 
            "total_dislikes": 0, 
            "total_likes": 0, 
            "total_votes": 0
        }, 
        {
            "administrator_id": null, 
            "alignment": 0, 
            "ancestry": null, 
            "as": null, 
            "author": {
                "avatar_image": "https://decidim.barcelona/assets/avatar-866795c99abc33a3160d1f3fa93ada46eb75e54134e777666b9ed16215b26534.png", 
                "erased": false, 
                "hidden": false, 
                "id": 9262, 
                "name": "Suport General - Decidim Barcelona", 
                "official": false, 
                "official_level": 0, 
                "role": null, 
                "verified_organization": null
            }, 
            "body": "<p><a href=\"https://decidim.barcelona/proposals/difusio-local-per-apropar-l-economia-col-laborativa-procomu-a-altres-economies-afins-accions-per-a-trencar-l-aillament-entre-comunitats-i-practiques\">https://decidim.barcelona/proposals/difusio-local-per-apropar-l-economia-col-laborativa-procomu-a-altres-economies-afins-accions-per-a-trencar-l-aillament-entre-comunitats-i-practiques</a></p>", 
            "commentable_id": 932, 
            "commentable_type": "Proposal", 
            "created_at": "09/04/2016 10:49:40", 
            "flagged": false, 
            "hidden": false, 
            "id": 11656, 
            "moderator_id": null, 
            "permissions": {
                "hide": false, 
                "hide_author": false, 
                "vote": false
            }, 
            "total_dislikes": 0, 
            "total_likes": 0, 
            "total_votes": 0
        }, 
        {
            "administrator_id": null, 
            "alignment": 0, 
            "ancestry": null, 
            "as": null, 
            "author": {
                "avatar_image": "https://decidim.barcelona/assets/avatar-866795c99abc33a3160d1f3fa93ada46eb75e54134e777666b9ed16215b26534.png", 
                "erased": false, 
                "hidden": false, 
                "id": 9262, 
                "name": "Suport General - Decidim Barcelona", 
                "official": false, 
                "official_level": 0, 
                "role": null, 
                "verified_organization": null
            }, 
            "body": "<p><a href=\"https://decidim.barcelona/proposals/difusio-local-per-apropar-l-economia-col-laborativa-procomu-a-altres-economies-afins-promoure-bones-practiques\">https://decidim.barcelona/proposals/difusio-local-per-apropar-l-economia-col-laborativa-procomu-a-altres-economies-afins-promoure-bones-practiques</a></p>", 
            "commentable_id": 932, 
            "commentable_type": "Proposal", 
            "created_at": "09/04/2016 10:57:41", 
            "flagged": false, 
            "hidden": false, 
            "id": 11682, 
            "moderator_id": null, 
            "permissions": {
                "hide": false, 
                "hide_author": false, 
                "vote": false
            }, 
            "total_dislikes": 0, 
            "total_likes": 0, 
            "total_votes": 0
        }, 
        {
            "administrator_id": null, 
            "alignment": 0, 
            "ancestry": null, 
            "as": null, 
            "author": {
                "avatar_image": "https://decidim.barcelona/assets/avatar-866795c99abc33a3160d1f3fa93ada46eb75e54134e777666b9ed16215b26534.png", 
                "erased": false, 
                "hidden": false, 
                "id": 9262, 
                "name": "Suport General - Decidim Barcelona", 
                "official": false, 
                "official_level": 0, 
                "role": null, 
                "verified_organization": null
            }, 
            "body": "<p><a href=\"https://decidim.barcelona/proposals/difusio-local-per-apropar-l-economia-col-laborativa-procomu-a-altres-economies-afins-ampliar-l-ambit-d-actuacio-de-l-omic\">https://decidim.barcelona/proposals/difusio-local-per-apropar-l-economia-col-laborativa-procomu-a-altres-economies-afins-ampliar-l-ambit-d-actuacio-de-l-omic</a></p>", 
            "commentable_id": 932, 
            "commentable_type": "Proposal", 
            "created_at": "09/04/2016 11:09:54", 
            "flagged": false, 
            "hidden": false, 
            "id": 11722, 
            "moderator_id": null, 
            "permissions": {
                "hide": false, 
                "hide_author": false, 
                "vote": false
            }, 
            "total_dislikes": 0, 
            "total_likes": 0, 
            "total_votes": 0
        }, 
        {
            "administrator_id": null, 
            "alignment": 0, 
            "ancestry": null, 
            "as": null, 
            "author": {
                "avatar_image": "https://decidim.barcelona/assets/avatar-866795c99abc33a3160d1f3fa93ada46eb75e54134e777666b9ed16215b26534.png", 
                "erased": false, 
                "hidden": false, 
                "id": 9262, 
                "name": "Suport General - Decidim Barcelona", 
                "official": false, 
                "official_level": 0, 
                "role": null, 
                "verified_organization": null
            }, 
            "body": "<p><a href=\"https://decidim.barcelona/proposals/difusio-local-per-apropar-l-economia-col-laborativa-procomu-a-altres-economies-afins-fomentar-la-migracio-col-lectiva-en-grup-cap-a-tecnologies-lliures\">https://decidim.barcelona/proposals/difusio-local-per-apropar-l-economia-col-laborativa-procomu-a-altres-economies-afins-fomentar-la-migracio-col-lectiva-en-grup-cap-a-tecnologies-lliures</a></p>", 
            "commentable_id": 932, 
            "commentable_type": "Proposal", 
            "created_at": "09/04/2016 11:20:09", 
            "flagged": false, 
            "hidden": false, 
            "id": 11742, 
            "moderator_id": null, 
            "permissions": {
                "hide": false, 
                "hide_author": false, 
                "vote": false
            }, 
            "total_dislikes": 0, 
            "total_likes": 0, 
            "total_votes": 0
        }, 
        {
            "administrator_id": null, 
            "alignment": 0, 
            "ancestry": null, 
            "as": null, 
            "author": {
                "avatar_image": "https://decidim.barcelona/assets/avatar-866795c99abc33a3160d1f3fa93ada46eb75e54134e777666b9ed16215b26534.png", 
                "erased": false, 
                "hidden": false, 
                "id": 9262, 
                "name": "Suport General - Decidim Barcelona", 
                "official": false, 
                "official_level": 0, 
                "role": null, 
                "verified_organization": null
            }, 
            "body": "<p><a href=\"https://decidim.barcelona/proposals/que-les-inversions-en-grans-esdeveniments-tecnologics-recaiguin-en-la-promocio-del-procomu-local-esdeveniments-satel-lits-en-paral-lel\">https://decidim.barcelona/proposals/que-les-inversions-en-grans-esdeveniments-tecnologics-recaiguin-en-la-promocio-del-procomu-local-esdeveniments-satel-lits-en-paral-lel</a></p>", 
            "commentable_id": 932, 
            "commentable_type": "Proposal", 
            "created_at": "09/04/2016 11:32:12", 
            "flagged": false, 
            "hidden": false, 
            "id": 11764, 
            "moderator_id": null, 
            "permissions": {
                "hide": false, 
                "hide_author": false, 
                "vote": false
            }, 
            "total_dislikes": 0, 
            "total_likes": 0, 
            "total_votes": 0
        }, 
        {
            "administrator_id": null, 
            "alignment": 0, 
            "ancestry": null, 
            "as": null, 
            "author": {
                "avatar_image": "https://decidim.barcelona/assets/avatar-866795c99abc33a3160d1f3fa93ada46eb75e54134e777666b9ed16215b26534.png", 
                "erased": false, 
                "hidden": false, 
                "id": 9262, 
                "name": "Suport General - Decidim Barcelona", 
                "official": false, 
                "official_level": 0, 
                "role": null, 
                "verified_organization": null
            }, 
            "body": "<p><a href=\"https://decidim.barcelona/proposals/difusio-local-per-apropar-l-economia-col-laborativa-procomu-a-altres-economies-afins-reconeixer-practiques-comunals-pre-digitals-o-que-no-incorporen-tecnologia\">https://decidim.barcelona/proposals/difusio-local-per-apropar-l-economia-col-laborativa-procomu-a-altres-economies-afins-reconeixer-practiques-comunals-pre-digitals-o-que-no-incorporen-tecnologia</a></p>", 
            "commentable_id": 932, 
            "commentable_type": "Proposal", 
            "created_at": "09/04/2016 11:35:14", 
            "flagged": false, 
            "hidden": false, 
            "id": 11770, 
            "moderator_id": null, 
            "permissions": {
                "hide": false, 
                "hide_author": false, 
                "vote": false
            }, 
            "total_dislikes": 0, 
            "total_likes": 0, 
            "total_votes": 0
        }, 
        {
            "administrator_id": null, 
            "alignment": 0, 
            "ancestry": null, 
            "as": null, 
            "author": {
                "avatar_image": "https://decidim.barcelona/assets/avatar-866795c99abc33a3160d1f3fa93ada46eb75e54134e777666b9ed16215b26534.png", 
                "erased": false, 
                "hidden": false, 
                "id": 9262, 
                "name": "Suport General - Decidim Barcelona", 
                "official": false, 
                "official_level": 0, 
                "role": null, 
                "verified_organization": null
            }, 
            "body": "<p><a href=\"https://decidim.barcelona/proposals/difusio-local-per-apropar-l-economia-col-laborativa-procomu-a-altres-economies-afins-identificar-i-consolidar-practiques-comunals-pre-digitals\">https://decidim.barcelona/proposals/difusio-local-per-apropar-l-economia-col-laborativa-procomu-a-altres-economies-afins-identificar-i-consolidar-practiques-comunals-pre-digitals</a></p>", 
            "commentable_id": 932, 
            "commentable_type": "Proposal", 
            "created_at": "09/04/2016 11:42:12", 
            "flagged": false, 
            "hidden": false, 
            "id": 11792, 
            "moderator_id": null, 
            "permissions": {
                "hide": false, 
                "hide_author": false, 
                "vote": false
            }, 
            "total_dislikes": 0, 
            "total_likes": 0, 
            "total_votes": 0
        }, 
        {
            "administrator_id": null, 
            "alignment": 0, 
            "ancestry": null, 
            "as": null, 
            "author": {
                "avatar_image": "https://decidim.barcelona/assets/avatar-866795c99abc33a3160d1f3fa93ada46eb75e54134e777666b9ed16215b26534.png", 
                "erased": false, 
                "hidden": false, 
                "id": 9262, 
                "name": "Suport General - Decidim Barcelona", 
                "official": false, 
                "official_level": 0, 
                "role": null, 
                "verified_organization": null
            }, 
            "body": "<p><a href=\"https://decidim.barcelona/proposals/difusio-local-per-apropar-l-economia-col-laborativa-procomu-a-altres-economies-afins-suport-a-accions-conjuntes\">https://decidim.barcelona/proposals/difusio-local-per-apropar-l-economia-col-laborativa-procomu-a-altres-economies-afins-suport-a-accions-conjuntes</a></p>", 
            "commentable_id": 932, 
            "commentable_type": "Proposal", 
            "created_at": "09/04/2016 11:48:35", 
            "flagged": false, 
            "hidden": false, 
            "id": 11820, 
            "moderator_id": null, 
            "permissions": {
                "hide": false, 
                "hide_author": false, 
                "vote": false
            }, 
            "total_dislikes": 0, 
            "total_likes": 0, 
            "total_votes": 0
        }, 
        {
            "administrator_id": null, 
            "alignment": 0, 
            "ancestry": null, 
            "as": null, 
            "author": {
                "avatar_image": "https://decidim.barcelona/assets/avatar-866795c99abc33a3160d1f3fa93ada46eb75e54134e777666b9ed16215b26534.png", 
                "erased": false, 
                "hidden": false, 
                "id": 9262, 
                "name": "Suport General - Decidim Barcelona", 
                "official": false, 
                "official_level": 0, 
                "role": null, 
                "verified_organization": null
            }, 
            "body": "<p><a href=\"https://decidim.barcelona/proposals/difusio-local-per-apropar-l-economia-col-laborativa-procomu-a-altres-economies-afins-creacio-d-espais-i-eines-que-promoguin-la-comunicacio-entre-barris-i-districtes\">https://decidim.barcelona/proposals/difusio-local-per-apropar-l-economia-col-laborativa-procomu-a-altres-economies-afins-creacio-d-espais-i-eines-que-promoguin-la-comunicacio-entre-barris-i-districtes</a></p>", 
            "commentable_id": 932, 
            "commentable_type": "Proposal", 
            "created_at": "09/04/2016 12:00:36", 
            "flagged": false, 
            "hidden": false, 
            "id": 11845, 
            "moderator_id": null, 
            "permissions": {
                "hide": false, 
                "hide_author": false, 
                "vote": false
            }, 
            "total_dislikes": 0, 
            "total_likes": 0, 
            "total_votes": 0
        }, 
        {
            "administrator_id": null, 
            "alignment": 0, 
            "ancestry": null, 
            "as": null, 
            "author": {
                "avatar_image": "https://decidim.barcelona/assets/avatar-866795c99abc33a3160d1f3fa93ada46eb75e54134e777666b9ed16215b26534.png", 
                "erased": false, 
                "hidden": false, 
                "id": 9262, 
                "name": "Suport General - Decidim Barcelona", 
                "official": false, 
                "official_level": 0, 
                "role": null, 
                "verified_organization": null
            }, 
            "body": "<p><a href=\"https://decidim.barcelona/proposals/difusio-local-per-apropar-l-economia-col-laborativa-procomu-a-altres-economies-afins-incorporar-tallers-de-barri-a-tecnologies-lliures-col-laboracio-i-sostenibilitat\">https://decidim.barcelona/proposals/difusio-local-per-apropar-l-economia-col-laborativa-procomu-a-altres-economies-afins-incorporar-tallers-de-barri-a-tecnologies-lliures-col-laboracio-i-sostenibilitat</a></p>", 
            "commentable_id": 932, 
            "commentable_type": "Proposal", 
            "created_at": "09/04/2016 12:12:04", 
            "flagged": false, 
            "hidden": false, 
            "id": 11872, 
            "moderator_id": null, 
            "permissions": {
                "hide": false, 
                "hide_author": false, 
                "vote": false
            }, 
            "total_dislikes": 0, 
            "total_likes": 0, 
            "total_votes": 0
        }, 
        {
            "administrator_id": null, 
            "alignment": 0, 
            "ancestry": null, 
            "as": null, 
            "author": {
                "avatar_image": "https://decidim.barcelona/assets/avatar-866795c99abc33a3160d1f3fa93ada46eb75e54134e777666b9ed16215b26534.png", 
                "erased": false, 
                "hidden": false, 
                "id": 9262, 
                "name": "Suport General - Decidim Barcelona", 
                "official": false, 
                "official_level": 0, 
                "role": null, 
                "verified_organization": null
            }, 
            "body": "<p><a href=\"https://decidim.barcelona/proposals/visualitzar-informar-i-conscienciar-sobre-l-economia-social-solidaria-i-comunitaria\">https://decidim.barcelona/proposals/visualitzar-informar-i-conscienciar-sobre-l-economia-social-solidaria-i-comunitaria</a></p>", 
            "commentable_id": 932, 
            "commentable_type": "Proposal", 
            "created_at": "12/04/2016 10:44:06", 
            "flagged": false, 
            "hidden": false, 
            "id": 13403, 
            "moderator_id": null, 
            "permissions": {
                "hide": false, 
                "hide_author": false, 
                "vote": false
            }, 
            "total_dislikes": 0, 
            "total_likes": 0, 
            "total_votes": 0
        }, 
        {
            "administrator_id": null, 
            "alignment": 0, 
            "ancestry": null, 
            "as": null, 
            "author": {
                "avatar_image": "https://decidim.barcelona/assets/avatar-866795c99abc33a3160d1f3fa93ada46eb75e54134e777666b9ed16215b26534.png", 
                "erased": false, 
                "hidden": false, 
                "id": 9262, 
                "name": "Suport General - Decidim Barcelona", 
                "official": false, 
                "official_level": 0, 
                "role": null, 
                "verified_organization": null
            }, 
            "body": "<p><a href=\"https://decidim.barcelona/proposals/sensibilitzar-i-formar-en-temes-d-economia-social-a-la-universitat\">https://decidim.barcelona/proposals/sensibilitzar-i-formar-en-temes-d-economia-social-a-la-universitat</a></p>", 
            "commentable_id": 932, 
            "commentable_type": "Proposal", 
            "created_at": "12/04/2016 10:44:37", 
            "flagged": false, 
            "hidden": false, 
            "id": 13404, 
            "moderator_id": null, 
            "permissions": {
                "hide": false, 
                "hide_author": false, 
                "vote": false
            }, 
            "total_dislikes": 0, 
            "total_likes": 0, 
            "total_votes": 0
        }
    ], 
    "meta": {
        "current_page": 1, 
        "next_page": 2, 
        "prev_page": null, 
        "total_count": 21, 
        "total_pages": 2
    }
}