{
    "comments": [
        {
            "administrator_id": null, 
            "alignment": 0, 
            "ancestry": null, 
            "as": null, 
            "author": {
                "avatar_image": "https://decidim.barcelona/assets/avatar-866795c99abc33a3160d1f3fa93ada46eb75e54134e777666b9ed16215b26534.png", 
                "erased": false, 
                "hidden": false, 
                "id": 9262, 
                "name": "Suport General - Decidim Barcelona", 
                "official": false, 
                "official_level": 0, 
                "role": null, 
                "verified_organization": null
            }, 
            "body": "<p><a href=\"https://decidim.barcelona/proposals/aprofitar-la-xarxa-d-escoles-publiques-per-fer-campanyes-d-habits-de-consum-responsable\">https://decidim.barcelona/proposals/aprofitar-la-xarxa-d-escoles-publiques-per-fer-campanyes-d-habits-de-consum-responsable</a></p>", 
            "commentable_id": 935, 
            "commentable_type": "Proposal", 
            "created_at": "08/04/2016 10:34:54", 
            "flagged": false, 
            "hidden": false, 
            "id": 10332, 
            "moderator_id": null, 
            "permissions": {
                "hide": false, 
                "hide_author": false, 
                "vote": false
            }, 
            "total_dislikes": 0, 
            "total_likes": 0, 
            "total_votes": 0
        }, 
        {
            "administrator_id": null, 
            "alignment": 0, 
            "ancestry": null, 
            "as": null, 
            "author": {
                "avatar_image": "https://decidim.barcelona/assets/avatar-866795c99abc33a3160d1f3fa93ada46eb75e54134e777666b9ed16215b26534.png", 
                "erased": false, 
                "hidden": false, 
                "id": 9262, 
                "name": "Suport General - Decidim Barcelona", 
                "official": false, 
                "official_level": 0, 
                "role": null, 
                "verified_organization": null
            }, 
            "body": "<p><a href=\"https://decidim.barcelona/proposals/sensibilitzacio-en-consum-responsable-en-l-educacio\">https://decidim.barcelona/proposals/sensibilitzacio-en-consum-responsable-en-l-educacio</a></p>", 
            "commentable_id": 935, 
            "commentable_type": "Proposal", 
            "created_at": "08/04/2016 10:36:13", 
            "flagged": false, 
            "hidden": false, 
            "id": 10337, 
            "moderator_id": null, 
            "permissions": {
                "hide": false, 
                "hide_author": false, 
                "vote": false
            }, 
            "total_dislikes": 0, 
            "total_likes": 0, 
            "total_votes": 0
        }, 
        {
            "administrator_id": null, 
            "alignment": 0, 
            "ancestry": null, 
            "as": null, 
            "author": {
                "avatar_image": "https://decidim.barcelona/assets/avatar-866795c99abc33a3160d1f3fa93ada46eb75e54134e777666b9ed16215b26534.png", 
                "erased": false, 
                "hidden": false, 
                "id": 9262, 
                "name": "Suport General - Decidim Barcelona", 
                "official": false, 
                "official_level": 0, 
                "role": null, 
                "verified_organization": null
            }, 
            "body": "<p><a href=\"https://decidim.barcelona/proposals/facilitar-informacio-a-les-persones-consumidores\">https://decidim.barcelona/proposals/facilitar-informacio-a-les-persones-consumidores</a></p>", 
            "commentable_id": 935, 
            "commentable_type": "Proposal", 
            "created_at": "08/04/2016 10:45:29", 
            "flagged": false, 
            "hidden": false, 
            "id": 10363, 
            "moderator_id": null, 
            "permissions": {
                "hide": false, 
                "hide_author": false, 
                "vote": false
            }, 
            "total_dislikes": 0, 
            "total_likes": 0, 
            "total_votes": 0
        }, 
        {
            "administrator_id": null, 
            "alignment": 0, 
            "ancestry": null, 
            "as": null, 
            "author": {
                "avatar_image": "https://decidim.barcelona/assets/avatar-866795c99abc33a3160d1f3fa93ada46eb75e54134e777666b9ed16215b26534.png", 
                "erased": false, 
                "hidden": false, 
                "id": 9262, 
                "name": "Suport General - Decidim Barcelona", 
                "official": false, 
                "official_level": 0, 
                "role": null, 
                "verified_organization": null
            }, 
            "body": "<p><a href=\"https://decidim.barcelona/proposals/fomentar-la-reutilitzacio\">https://decidim.barcelona/proposals/fomentar-la-reutilitzacio</a></p>", 
            "commentable_id": 935, 
            "commentable_type": "Proposal", 
            "created_at": "08/04/2016 10:59:51", 
            "flagged": false, 
            "hidden": false, 
            "id": 10397, 
            "moderator_id": null, 
            "permissions": {
                "hide": false, 
                "hide_author": false, 
                "vote": false
            }, 
            "total_dislikes": 0, 
            "total_likes": 0, 
            "total_votes": 0
        }, 
        {
            "administrator_id": null, 
            "alignment": 0, 
            "ancestry": null, 
            "as": null, 
            "author": {
                "avatar_image": "https://decidim.barcelona/assets/avatar-866795c99abc33a3160d1f3fa93ada46eb75e54134e777666b9ed16215b26534.png", 
                "erased": false, 
                "hidden": false, 
                "id": 9262, 
                "name": "Suport General - Decidim Barcelona", 
                "official": false, 
                "official_level": 0, 
                "role": null, 
                "verified_organization": null
            }, 
            "body": "<p><a href=\"https://decidim.barcelona/proposals/facilitar-centres-de-reparacio-comuns-de-maquinaria-domestica\">https://decidim.barcelona/proposals/facilitar-centres-de-reparacio-comuns-de-maquinaria-domestica</a></p>", 
            "commentable_id": 935, 
            "commentable_type": "Proposal", 
            "created_at": "08/04/2016 11:14:35", 
            "flagged": false, 
            "hidden": false, 
            "id": 10442, 
            "moderator_id": null, 
            "permissions": {
                "hide": false, 
                "hide_author": false, 
                "vote": false
            }, 
            "total_dislikes": 0, 
            "total_likes": 0, 
            "total_votes": 0
        }, 
        {
            "administrator_id": null, 
            "alignment": 0, 
            "ancestry": null, 
            "as": null, 
            "author": {
                "avatar_image": "https://decidim.barcelona/assets/avatar-866795c99abc33a3160d1f3fa93ada46eb75e54134e777666b9ed16215b26534.png", 
                "erased": false, 
                "hidden": false, 
                "id": 9262, 
                "name": "Suport General - Decidim Barcelona", 
                "official": false, 
                "official_level": 0, 
                "role": null, 
                "verified_organization": null
            }, 
            "body": "<p><a href=\"https://decidim.barcelona/proposals/estructura-que-aposti-pel-consum-local-i-de-proximitat\">https://decidim.barcelona/proposals/estructura-que-aposti-pel-consum-local-i-de-proximitat</a></p>", 
            "commentable_id": 935, 
            "commentable_type": "Proposal", 
            "created_at": "08/04/2016 11:14:53", 
            "flagged": false, 
            "hidden": false, 
            "id": 10443, 
            "moderator_id": null, 
            "permissions": {
                "hide": false, 
                "hide_author": false, 
                "vote": false
            }, 
            "total_dislikes": 0, 
            "total_likes": 0, 
            "total_votes": 0
        }, 
        {
            "administrator_id": null, 
            "alignment": 0, 
            "ancestry": null, 
            "as": null, 
            "author": {
                "avatar_image": "https://decidim.barcelona/assets/avatar-866795c99abc33a3160d1f3fa93ada46eb75e54134e777666b9ed16215b26534.png", 
                "erased": false, 
                "hidden": false, 
                "id": 9262, 
                "name": "Suport General - Decidim Barcelona", 
                "official": false, 
                "official_level": 0, 
                "role": null, 
                "verified_organization": null
            }, 
            "body": "<p><a href=\"https://decidim.barcelona/proposals/electrodomestics-eficients\">https://decidim.barcelona/proposals/electrodomestics-eficients</a></p>", 
            "commentable_id": 935, 
            "commentable_type": "Proposal", 
            "created_at": "08/04/2016 15:39:11", 
            "flagged": false, 
            "hidden": false, 
            "id": 11007, 
            "moderator_id": null, 
            "permissions": {
                "hide": false, 
                "hide_author": false, 
                "vote": false
            }, 
            "total_dislikes": 0, 
            "total_likes": 0, 
            "total_votes": 0
        }, 
        {
            "administrator_id": null, 
            "alignment": 0, 
            "ancestry": null, 
            "as": null, 
            "author": {
                "avatar_image": "https://decidim.barcelona/assets/avatar-866795c99abc33a3160d1f3fa93ada46eb75e54134e777666b9ed16215b26534.png", 
                "erased": false, 
                "hidden": false, 
                "id": 9262, 
                "name": "Suport General - Decidim Barcelona", 
                "official": false, 
                "official_level": 0, 
                "role": null, 
                "verified_organization": null
            }, 
            "body": "<p><a href=\"https://decidim.barcelona/proposals/creacio-d-un-consell-alimentari\">https://decidim.barcelona/proposals/creacio-d-un-consell-alimentari</a></p>", 
            "commentable_id": 935, 
            "commentable_type": "Proposal", 
            "created_at": "08/04/2016 15:59:32", 
            "flagged": false, 
            "hidden": false, 
            "id": 11062, 
            "moderator_id": null, 
            "permissions": {
                "hide": false, 
                "hide_author": false, 
                "vote": false
            }, 
            "total_dislikes": 0, 
            "total_likes": 0, 
            "total_votes": 0
        }, 
        {
            "administrator_id": null, 
            "alignment": 0, 
            "ancestry": null, 
            "as": null, 
            "author": {
                "avatar_image": "https://decidim.barcelona/assets/avatar-866795c99abc33a3160d1f3fa93ada46eb75e54134e777666b9ed16215b26534.png", 
                "erased": false, 
                "hidden": false, 
                "id": 9262, 
                "name": "Suport General - Decidim Barcelona", 
                "official": false, 
                "official_level": 0, 
                "role": null, 
                "verified_organization": null
            }, 
            "body": "<p><a href=\"https://decidim.barcelona/proposals/sensibilitzacio-sobre-la-compra-de-roba\">https://decidim.barcelona/proposals/sensibilitzacio-sobre-la-compra-de-roba</a></p>", 
            "commentable_id": 935, 
            "commentable_type": "Proposal", 
            "created_at": "08/04/2016 16:03:43", 
            "flagged": false, 
            "hidden": false, 
            "id": 11074, 
            "moderator_id": null, 
            "permissions": {
                "hide": false, 
                "hide_author": false, 
                "vote": false
            }, 
            "total_dislikes": 0, 
            "total_likes": 0, 
            "total_votes": 0
        }, 
        {
            "administrator_id": null, 
            "alignment": 0, 
            "ancestry": null, 
            "as": null, 
            "author": {
                "avatar_image": "https://decidim.barcelona/assets/avatar-866795c99abc33a3160d1f3fa93ada46eb75e54134e777666b9ed16215b26534.png", 
                "erased": false, 
                "hidden": false, 
                "id": 9262, 
                "name": "Suport General - Decidim Barcelona", 
                "official": false, 
                "official_level": 0, 
                "role": null, 
                "verified_organization": null
            }, 
            "body": "<p><a href=\"https://decidim.barcelona/proposals/implicacio-d-adults-i-gent-gran-en-el-consum-responsable\">https://decidim.barcelona/proposals/implicacio-d-adults-i-gent-gran-en-el-consum-responsable</a></p>", 
            "commentable_id": 935, 
            "commentable_type": "Proposal", 
            "created_at": "08/04/2016 16:16:43", 
            "flagged": false, 
            "hidden": false, 
            "id": 11108, 
            "moderator_id": null, 
            "permissions": {
                "hide": false, 
                "hide_author": false, 
                "vote": false
            }, 
            "total_dislikes": 0, 
            "total_likes": 0, 
            "total_votes": 0
        }, 
        {
            "administrator_id": null, 
            "alignment": 0, 
            "ancestry": null, 
            "as": null, 
            "author": {
                "avatar_image": "https://decidim.barcelona/assets/avatar-866795c99abc33a3160d1f3fa93ada46eb75e54134e777666b9ed16215b26534.png", 
                "erased": false, 
                "hidden": false, 
                "id": 9262, 
                "name": "Suport General - Decidim Barcelona", 
                "official": false, 
                "official_level": 0, 
                "role": null, 
                "verified_organization": null
            }, 
            "body": "<p><a href=\"https://decidim.barcelona/proposals/campanyes-de-sensibilitzacio-sobre-el-consum-responsable\">https://decidim.barcelona/proposals/campanyes-de-sensibilitzacio-sobre-el-consum-responsable</a></p>", 
            "commentable_id": 935, 
            "commentable_type": "Proposal", 
            "created_at": "08/04/2016 16:25:36", 
            "flagged": false, 
            "hidden": false, 
            "id": 11116, 
            "moderator_id": null, 
            "permissions": {
                "hide": false, 
                "hide_author": false, 
                "vote": false
            }, 
            "total_dislikes": 0, 
            "total_likes": 0, 
            "total_votes": 0
        }, 
        {
            "administrator_id": null, 
            "alignment": 0, 
            "ancestry": null, 
            "as": null, 
            "author": {
                "avatar_image": "https://decidim.barcelona/assets/avatar-866795c99abc33a3160d1f3fa93ada46eb75e54134e777666b9ed16215b26534.png", 
                "erased": false, 
                "hidden": false, 
                "id": 9262, 
                "name": "Suport General - Decidim Barcelona", 
                "official": false, 
                "official_level": 0, 
                "role": null, 
                "verified_organization": null
            }, 
            "body": "<p><a href=\"https://decidim.barcelona/proposals/potenciar-les-botigues-de-segona-ma\">https://decidim.barcelona/proposals/potenciar-les-botigues-de-segona-ma</a></p>", 
            "commentable_id": 935, 
            "commentable_type": "Proposal", 
            "created_at": "08/04/2016 16:26:04", 
            "flagged": false, 
            "hidden": false, 
            "id": 11117, 
            "moderator_id": null, 
            "permissions": {
                "hide": false, 
                "hide_author": false, 
                "vote": false
            }, 
            "total_dislikes": 0, 
            "total_likes": 0, 
            "total_votes": 0
        }, 
        {
            "administrator_id": null, 
            "alignment": 0, 
            "ancestry": null, 
            "as": null, 
            "author": {
                "avatar_image": "https://decidim.barcelona/assets/avatar-866795c99abc33a3160d1f3fa93ada46eb75e54134e777666b9ed16215b26534.png", 
                "erased": false, 
                "hidden": false, 
                "id": 9262, 
                "name": "Suport General - Decidim Barcelona", 
                "official": false, 
                "official_level": 0, 
                "role": null, 
                "verified_organization": null
            }, 
            "body": "<p><a href=\"https://decidim.barcelona/proposals/sensibilitzacio-sobre-la-prevencio-de-residus-i-el-malbaratament-alimentari\">https://decidim.barcelona/proposals/sensibilitzacio-sobre-la-prevencio-de-residus-i-el-malbaratament-alimentari</a></p>", 
            "commentable_id": 935, 
            "commentable_type": "Proposal", 
            "created_at": "08/04/2016 16:36:37", 
            "flagged": false, 
            "hidden": false, 
            "id": 11129, 
            "moderator_id": null, 
            "permissions": {
                "hide": false, 
                "hide_author": false, 
                "vote": false
            }, 
            "total_dislikes": 0, 
            "total_likes": 0, 
            "total_votes": 0
        }, 
        {
            "administrator_id": null, 
            "alignment": 0, 
            "ancestry": null, 
            "as": null, 
            "author": {
                "avatar_image": "https://decidim.barcelona/assets/avatar-866795c99abc33a3160d1f3fa93ada46eb75e54134e777666b9ed16215b26534.png", 
                "erased": false, 
                "hidden": false, 
                "id": 9262, 
                "name": "Suport General - Decidim Barcelona", 
                "official": false, 
                "official_level": 0, 
                "role": null, 
                "verified_organization": null
            }, 
            "body": "<p><a href=\"https://decidim.barcelona/proposals/potenciar-l-economia-de-teixits-de-2a-ma\">https://decidim.barcelona/proposals/potenciar-l-economia-de-teixits-de-2a-ma</a></p>", 
            "commentable_id": 935, 
            "commentable_type": "Proposal", 
            "created_at": "08/04/2016 16:40:06", 
            "flagged": false, 
            "hidden": false, 
            "id": 11133, 
            "moderator_id": null, 
            "permissions": {
                "hide": false, 
                "hide_author": false, 
                "vote": false
            }, 
            "total_dislikes": 0, 
            "total_likes": 0, 
            "total_votes": 0
        }, 
        {
            "administrator_id": null, 
            "alignment": 0, 
            "ancestry": null, 
            "as": null, 
            "author": {
                "avatar_image": "https://decidim.barcelona/assets/avatar-866795c99abc33a3160d1f3fa93ada46eb75e54134e777666b9ed16215b26534.png", 
                "erased": false, 
                "hidden": false, 
                "id": 9262, 
                "name": "Suport General - Decidim Barcelona", 
                "official": false, 
                "official_level": 0, 
                "role": null, 
                "verified_organization": null
            }, 
            "body": "<p><a href=\"https://decidim.barcelona/proposals/fomentar-espais-d-intercanvi-de-roba-i-llibres\">https://decidim.barcelona/proposals/fomentar-espais-d-intercanvi-de-roba-i-llibres</a></p>", 
            "commentable_id": 935, 
            "commentable_type": "Proposal", 
            "created_at": "08/04/2016 16:40:49", 
            "flagged": false, 
            "hidden": false, 
            "id": 11136, 
            "moderator_id": null, 
            "permissions": {
                "hide": false, 
                "hide_author": false, 
                "vote": false
            }, 
            "total_dislikes": 0, 
            "total_likes": 0, 
            "total_votes": 0
        }, 
        {
            "administrator_id": null, 
            "alignment": 0, 
            "ancestry": null, 
            "as": null, 
            "author": {
                "avatar_image": "https://decidim.barcelona/assets/avatar-866795c99abc33a3160d1f3fa93ada46eb75e54134e777666b9ed16215b26534.png", 
                "erased": false, 
                "hidden": false, 
                "id": 9262, 
                "name": "Suport General - Decidim Barcelona", 
                "official": false, 
                "official_level": 0, 
                "role": null, 
                "verified_organization": null
            }, 
            "body": "<p><a href=\"https://decidim.barcelona/proposals/reciclatge-d-ampolles-remunerat-com-a-alemanya\">https://decidim.barcelona/proposals/reciclatge-d-ampolles-remunerat-com-a-alemanya</a></p>", 
            "commentable_id": 935, 
            "commentable_type": "Proposal", 
            "created_at": "08/04/2016 17:03:38", 
            "flagged": false, 
            "hidden": false, 
            "id": 11181, 
            "moderator_id": null, 
            "permissions": {
                "hide": false, 
                "hide_author": false, 
                "vote": false
            }, 
            "total_dislikes": 0, 
            "total_likes": 0, 
            "total_votes": 0
        }, 
        {
            "administrator_id": null, 
            "alignment": 0, 
            "ancestry": null, 
            "as": null, 
            "author": {
                "avatar_image": "https://decidim.barcelona/assets/avatar-866795c99abc33a3160d1f3fa93ada46eb75e54134e777666b9ed16215b26534.png", 
                "erased": false, 
                "hidden": false, 
                "id": 9262, 
                "name": "Suport General - Decidim Barcelona", 
                "official": false, 
                "official_level": 0, 
                "role": null, 
                "verified_organization": null
            }, 
            "body": "<p><a href=\"https://decidim.barcelona/proposals/barcelona-no-es-partidaria-de-l-obsolescencia-programada\">https://decidim.barcelona/proposals/barcelona-no-es-partidaria-de-l-obsolescencia-programada</a></p>", 
            "commentable_id": 935, 
            "commentable_type": "Proposal", 
            "created_at": "08/04/2016 17:29:05", 
            "flagged": false, 
            "hidden": false, 
            "id": 11225, 
            "moderator_id": null, 
            "permissions": {
                "hide": false, 
                "hide_author": false, 
                "vote": false
            }, 
            "total_dislikes": 0, 
            "total_likes": 0, 
            "total_votes": 0
        }, 
        {
            "administrator_id": null, 
            "alignment": 0, 
            "ancestry": null, 
            "as": null, 
            "author": {
                "avatar_image": "https://decidim.barcelona/assets/avatar-866795c99abc33a3160d1f3fa93ada46eb75e54134e777666b9ed16215b26534.png", 
                "erased": false, 
                "hidden": false, 
                "id": 9262, 
                "name": "Suport General - Decidim Barcelona", 
                "official": false, 
                "official_level": 0, 
                "role": null, 
                "verified_organization": null
            }, 
            "body": "<p><a href=\"https://decidim.barcelona/proposals/que-l-ajuntament-aposti-pel-consum-de-productes-i-serveis-locals-el-consum-responsable-i-l-ecss\">https://decidim.barcelona/proposals/que-l-ajuntament-aposti-pel-consum-de-productes-i-serveis-locals-el-consum-responsable-i-l-ecss</a></p>", 
            "commentable_id": 935, 
            "commentable_type": "Proposal", 
            "created_at": "08/04/2016 17:58:14", 
            "flagged": false, 
            "hidden": false, 
            "id": 11277, 
            "moderator_id": null, 
            "permissions": {
                "hide": false, 
                "hide_author": false, 
                "vote": false
            }, 
            "total_dislikes": 0, 
            "total_likes": 0, 
            "total_votes": 0
        }, 
        {
            "administrator_id": null, 
            "alignment": 0, 
            "ancestry": null, 
            "as": null, 
            "author": {
                "avatar_image": "https://decidim.barcelona/assets/avatar-866795c99abc33a3160d1f3fa93ada46eb75e54134e777666b9ed16215b26534.png", 
                "erased": false, 
                "hidden": false, 
                "id": 9262, 
                "name": "Suport General - Decidim Barcelona", 
                "official": false, 
                "official_level": 0, 
                "role": null, 
                "verified_organization": null
            }, 
            "body": "<p><a href=\"https://decidim.barcelona/proposals/millora-de-regulacions-per-a-l-economia-col-laborativa-procomu-promoure-lleis-que-impulsin-la-reutilitzacio-de-dispositius-tecnologics-i-contra-l-obsolescencia-programada\">https://decidim.barcelona/proposals/millora-de-regulacions-per-a-l-economia-col-laborativa-procomu-promoure-lleis-que-impulsin-la-reutilitzacio-de-dispositius-tecnologics-i-contra-l-obsolescencia-programada</a></p>", 
            "commentable_id": 935, 
            "commentable_type": "Proposal", 
            "created_at": "09/04/2016 10:50:52", 
            "flagged": false, 
            "hidden": false, 
            "id": 11659, 
            "moderator_id": null, 
            "permissions": {
                "hide": false, 
                "hide_author": false, 
                "vote": false
            }, 
            "total_dislikes": 0, 
            "total_likes": 0, 
            "total_votes": 0
        }, 
        {
            "administrator_id": null, 
            "alignment": 0, 
            "ancestry": null, 
            "as": null, 
            "author": {
                "avatar_image": "https://decidim.barcelona/assets/avatar-866795c99abc33a3160d1f3fa93ada46eb75e54134e777666b9ed16215b26534.png", 
                "erased": false, 
                "hidden": false, 
                "id": 9262, 
                "name": "Suport General - Decidim Barcelona", 
                "official": false, 
                "official_level": 0, 
                "role": null, 
                "verified_organization": null
            }, 
            "body": "<p><a href=\"https://decidim.barcelona/proposals/us-d-espais-i-altra-infraestructura-municipal-per-a-l-economia-col-laborativa-procomu-reutilitzacio-dels-equipaments-informatics\">https://decidim.barcelona/proposals/us-d-espais-i-altra-infraestructura-municipal-per-a-l-economia-col-laborativa-procomu-reutilitzacio-dels-equipaments-informatics</a></p>", 
            "commentable_id": 935, 
            "commentable_type": "Proposal", 
            "created_at": "09/04/2016 11:02:27", 
            "flagged": false, 
            "hidden": false, 
            "id": 11702, 
            "moderator_id": null, 
            "permissions": {
                "hide": false, 
                "hide_author": false, 
                "vote": false
            }, 
            "total_dislikes": 0, 
            "total_likes": 0, 
            "total_votes": 0
        }
    ], 
    "meta": {
        "current_page": 1, 
        "next_page": 2, 
        "prev_page": null, 
        "total_count": 21, 
        "total_pages": 2
    }
}