{
    "comments": [
        {
            "administrator_id": null, 
            "alignment": 0, 
            "ancestry": null, 
            "as": null, 
            "author": {
                "avatar_image": "https://decidim.barcelona/assets/avatar-866795c99abc33a3160d1f3fa93ada46eb75e54134e777666b9ed16215b26534.png", 
                "erased": false, 
                "hidden": false, 
                "id": 9262, 
                "name": "Suport General - Decidim Barcelona", 
                "official": false, 
                "official_level": 0, 
                "role": null, 
                "verified_organization": null
            }, 
            "body": "<p><a href=\"https://decidim.barcelona/proposals/implementar-una-certificacio-label-social-d-empresa\">https://decidim.barcelona/proposals/implementar-una-certificacio-label-social-d-empresa</a></p>", 
            "commentable_id": 937, 
            "commentable_type": "Proposal", 
            "created_at": "13/04/2016 10:33:05", 
            "flagged": false, 
            "hidden": false, 
            "id": 14286, 
            "moderator_id": null, 
            "permissions": {
                "hide": false, 
                "hide_author": false, 
                "vote": false
            }, 
            "total_dislikes": 0, 
            "total_likes": 0, 
            "total_votes": 0
        }, 
        {
            "administrator_id": null, 
            "alignment": 0, 
            "ancestry": null, 
            "as": null, 
            "author": {
                "avatar_image": "https://decidim.barcelona/assets/avatar-866795c99abc33a3160d1f3fa93ada46eb75e54134e777666b9ed16215b26534.png", 
                "erased": false, 
                "hidden": false, 
                "id": 9262, 
                "name": "Suport General - Decidim Barcelona", 
                "official": false, 
                "official_level": 0, 
                "role": null, 
                "verified_organization": null
            }, 
            "body": "<p><a href=\"https://decidim.barcelona/proposals/vinculacio-de-la-qualificacio-dels-establiments-amb-les-mesures-de-qualitat-laboral\">https://decidim.barcelona/proposals/vinculacio-de-la-qualificacio-dels-establiments-amb-les-mesures-de-qualitat-laboral</a></p>", 
            "commentable_id": 937, 
            "commentable_type": "Proposal", 
            "created_at": "13/04/2016 15:35:54", 
            "flagged": false, 
            "hidden": false, 
            "id": 14869, 
            "moderator_id": null, 
            "permissions": {
                "hide": false, 
                "hide_author": false, 
                "vote": false
            }, 
            "total_dislikes": 0, 
            "total_likes": 0, 
            "total_votes": 0
        }
    ], 
    "meta": {
        "current_page": 2, 
        "next_page": null, 
        "prev_page": 1, 
        "total_count": 22, 
        "total_pages": 2
    }
}