{
    "comments": [
        {
            "administrator_id": null, 
            "alignment": 0, 
            "ancestry": null, 
            "as": null, 
            "author": {
                "avatar_image": "https://decidim.barcelona/assets/avatar-866795c99abc33a3160d1f3fa93ada46eb75e54134e777666b9ed16215b26534.png", 
                "erased": false, 
                "hidden": false, 
                "id": 9262, 
                "name": "Suport General - Decidim Barcelona", 
                "official": false, 
                "official_level": 0, 
                "role": null, 
                "verified_organization": null
            }, 
            "body": "<p><a href=\"https://decidim.barcelona/proposals/responsabilitat-social-corporativa-rsc\">https://decidim.barcelona/proposals/responsabilitat-social-corporativa-rsc</a></p>", 
            "commentable_id": 931, 
            "commentable_type": "Proposal", 
            "created_at": "06/04/2016 16:43:59", 
            "flagged": false, 
            "hidden": false, 
            "id": 8703, 
            "moderator_id": null, 
            "permissions": {
                "hide": false, 
                "hide_author": false, 
                "vote": false
            }, 
            "total_dislikes": 0, 
            "total_likes": 0, 
            "total_votes": 0
        }, 
        {
            "administrator_id": null, 
            "alignment": 0, 
            "ancestry": null, 
            "as": null, 
            "author": {
                "avatar_image": "https://decidim.barcelona/assets/avatar-866795c99abc33a3160d1f3fa93ada46eb75e54134e777666b9ed16215b26534.png", 
                "erased": false, 
                "hidden": false, 
                "id": 9262, 
                "name": "Suport General - Decidim Barcelona", 
                "official": false, 
                "official_level": 0, 
                "role": null, 
                "verified_organization": null
            }, 
            "body": "<p><a href=\"https://decidim.barcelona/proposals/pla-de-promocio-de-l-economia-circular-entre-les-empreses-de-la-ciutat\">https://decidim.barcelona/proposals/pla-de-promocio-de-l-economia-circular-entre-les-empreses-de-la-ciutat</a></p>", 
            "commentable_id": 931, 
            "commentable_type": "Proposal", 
            "created_at": "08/04/2016 09:45:15", 
            "flagged": false, 
            "hidden": false, 
            "id": 10212, 
            "moderator_id": null, 
            "permissions": {
                "hide": false, 
                "hide_author": false, 
                "vote": false
            }, 
            "total_dislikes": 0, 
            "total_likes": 0, 
            "total_votes": 0
        }, 
        {
            "administrator_id": null, 
            "alignment": 0, 
            "ancestry": null, 
            "as": null, 
            "author": {
                "avatar_image": "https://decidim.barcelona/assets/avatar-866795c99abc33a3160d1f3fa93ada46eb75e54134e777666b9ed16215b26534.png", 
                "erased": false, 
                "hidden": false, 
                "id": 9262, 
                "name": "Suport General - Decidim Barcelona", 
                "official": false, 
                "official_level": 0, 
                "role": null, 
                "verified_organization": null
            }, 
            "body": "<p><a href=\"https://decidim.barcelona/proposals/accions-amb-impacte-sobre-el-desenvolupament-economic-del-territori\">https://decidim.barcelona/proposals/accions-amb-impacte-sobre-el-desenvolupament-economic-del-territori</a></p>", 
            "commentable_id": 931, 
            "commentable_type": "Proposal", 
            "created_at": "08/04/2016 09:48:08", 
            "flagged": false, 
            "hidden": false, 
            "id": 10217, 
            "moderator_id": null, 
            "permissions": {
                "hide": false, 
                "hide_author": false, 
                "vote": false
            }, 
            "total_dislikes": 0, 
            "total_likes": 0, 
            "total_votes": 0
        }, 
        {
            "administrator_id": null, 
            "alignment": 0, 
            "ancestry": null, 
            "as": null, 
            "author": {
                "avatar_image": "https://decidim.barcelona/assets/avatar-866795c99abc33a3160d1f3fa93ada46eb75e54134e777666b9ed16215b26534.png", 
                "erased": false, 
                "hidden": false, 
                "id": 9262, 
                "name": "Suport General - Decidim Barcelona", 
                "official": false, 
                "official_level": 0, 
                "role": null, 
                "verified_organization": null
            }, 
            "body": "<p><a href=\"https://decidim.barcelona/proposals/promoure-la-rsc-i-el-voluntariat-corporatiu\">https://decidim.barcelona/proposals/promoure-la-rsc-i-el-voluntariat-corporatiu</a></p>", 
            "commentable_id": 931, 
            "commentable_type": "Proposal", 
            "created_at": "08/04/2016 10:20:25", 
            "flagged": false, 
            "hidden": false, 
            "id": 10296, 
            "moderator_id": null, 
            "permissions": {
                "hide": false, 
                "hide_author": false, 
                "vote": false
            }, 
            "total_dislikes": 0, 
            "total_likes": 0, 
            "total_votes": 0
        }, 
        {
            "administrator_id": null, 
            "alignment": 0, 
            "ancestry": null, 
            "as": null, 
            "author": {
                "avatar_image": "https://decidim.barcelona/assets/avatar-866795c99abc33a3160d1f3fa93ada46eb75e54134e777666b9ed16215b26534.png", 
                "erased": false, 
                "hidden": false, 
                "id": 9262, 
                "name": "Suport General - Decidim Barcelona", 
                "official": false, 
                "official_level": 0, 
                "role": null, 
                "verified_organization": null
            }, 
            "body": "<p><a href=\"https://decidim.barcelona/proposals/integrar-plenament-l-ecss-a-les-politiques-d-orientacio-laboral-i-impuls-a-l-emprenedoria-de-barcelona-activa\">https://decidim.barcelona/proposals/integrar-plenament-l-ecss-a-les-politiques-d-orientacio-laboral-i-impuls-a-l-emprenedoria-de-barcelona-activa</a></p>", 
            "commentable_id": 931, 
            "commentable_type": "Proposal", 
            "created_at": "08/04/2016 10:56:06", 
            "flagged": false, 
            "hidden": false, 
            "id": 10385, 
            "moderator_id": null, 
            "permissions": {
                "hide": false, 
                "hide_author": false, 
                "vote": false
            }, 
            "total_dislikes": 0, 
            "total_likes": 0, 
            "total_votes": 0
        }, 
        {
            "administrator_id": null, 
            "alignment": 0, 
            "ancestry": null, 
            "as": null, 
            "author": {
                "avatar_image": "https://decidim.barcelona/assets/avatar-866795c99abc33a3160d1f3fa93ada46eb75e54134e777666b9ed16215b26534.png", 
                "erased": false, 
                "hidden": false, 
                "id": 9262, 
                "name": "Suport General - Decidim Barcelona", 
                "official": false, 
                "official_level": 0, 
                "role": null, 
                "verified_organization": null
            }, 
            "body": "<p><a href=\"https://decidim.barcelona/proposals/centralitzar-els-recursos-que-ara-estan-dispersos-ajuts-assessorament-etc-en-un-espai-de-referencia-per-donar-suport-a-l-ecss\">https://decidim.barcelona/proposals/centralitzar-els-recursos-que-ara-estan-dispersos-ajuts-assessorament-etc-en-un-espai-de-referencia-per-donar-suport-a-l-ecss</a></p>", 
            "commentable_id": 931, 
            "commentable_type": "Proposal", 
            "created_at": "08/04/2016 11:03:54", 
            "flagged": false, 
            "hidden": false, 
            "id": 10410, 
            "moderator_id": null, 
            "permissions": {
                "hide": false, 
                "hide_author": false, 
                "vote": false
            }, 
            "total_dislikes": 0, 
            "total_likes": 0, 
            "total_votes": 0
        }, 
        {
            "administrator_id": null, 
            "alignment": 0, 
            "ancestry": null, 
            "as": null, 
            "author": {
                "avatar_image": "https://decidim.barcelona/assets/avatar-866795c99abc33a3160d1f3fa93ada46eb75e54134e777666b9ed16215b26534.png", 
                "erased": false, 
                "hidden": false, 
                "id": 9262, 
                "name": "Suport General - Decidim Barcelona", 
                "official": false, 
                "official_level": 0, 
                "role": null, 
                "verified_organization": null
            }, 
            "body": "<p><a href=\"https://decidim.barcelona/proposals/impulsar-proves-pilot-de-balanc-del-be-comu-a-la-ciutat-de-barcelona\">https://decidim.barcelona/proposals/impulsar-proves-pilot-de-balanc-del-be-comu-a-la-ciutat-de-barcelona</a></p>", 
            "commentable_id": 931, 
            "commentable_type": "Proposal", 
            "created_at": "08/04/2016 11:05:41", 
            "flagged": false, 
            "hidden": false, 
            "id": 10414, 
            "moderator_id": null, 
            "permissions": {
                "hide": false, 
                "hide_author": false, 
                "vote": false
            }, 
            "total_dislikes": 0, 
            "total_likes": 0, 
            "total_votes": 0
        }, 
        {
            "administrator_id": null, 
            "alignment": 0, 
            "ancestry": null, 
            "as": null, 
            "author": {
                "avatar_image": "https://decidim.barcelona/assets/avatar-866795c99abc33a3160d1f3fa93ada46eb75e54134e777666b9ed16215b26534.png", 
                "erased": false, 
                "hidden": false, 
                "id": 9262, 
                "name": "Suport General - Decidim Barcelona", 
                "official": false, 
                "official_level": 0, 
                "role": null, 
                "verified_organization": null
            }, 
            "body": "<p><a href=\"https://decidim.barcelona/proposals/acompanyament-a-preprojectes-de-l-ecss\">https://decidim.barcelona/proposals/acompanyament-a-preprojectes-de-l-ecss</a></p>", 
            "commentable_id": 931, 
            "commentable_type": "Proposal", 
            "created_at": "08/04/2016 11:08:24", 
            "flagged": false, 
            "hidden": false, 
            "id": 10424, 
            "moderator_id": null, 
            "permissions": {
                "hide": false, 
                "hide_author": false, 
                "vote": false
            }, 
            "total_dislikes": 0, 
            "total_likes": 0, 
            "total_votes": 0
        }, 
        {
            "administrator_id": null, 
            "alignment": 0, 
            "ancestry": null, 
            "as": null, 
            "author": {
                "avatar_image": "https://decidim.barcelona/assets/avatar-866795c99abc33a3160d1f3fa93ada46eb75e54134e777666b9ed16215b26534.png", 
                "erased": false, 
                "hidden": false, 
                "id": 9262, 
                "name": "Suport General - Decidim Barcelona", 
                "official": false, 
                "official_level": 0, 
                "role": null, 
                "verified_organization": null
            }, 
            "body": "<p><a href=\"https://decidim.barcelona/proposals/espais-de-viver-amb-acompanyament-integral\">https://decidim.barcelona/proposals/espais-de-viver-amb-acompanyament-integral</a></p>", 
            "commentable_id": 931, 
            "commentable_type": "Proposal", 
            "created_at": "08/04/2016 11:12:01", 
            "flagged": false, 
            "hidden": false, 
            "id": 10436, 
            "moderator_id": null, 
            "permissions": {
                "hide": false, 
                "hide_author": false, 
                "vote": false
            }, 
            "total_dislikes": 0, 
            "total_likes": 0, 
            "total_votes": 0
        }, 
        {
            "administrator_id": null, 
            "alignment": 0, 
            "ancestry": null, 
            "as": null, 
            "author": {
                "avatar_image": "https://decidim.barcelona/assets/avatar-866795c99abc33a3160d1f3fa93ada46eb75e54134e777666b9ed16215b26534.png", 
                "erased": false, 
                "hidden": false, 
                "id": 9262, 
                "name": "Suport General - Decidim Barcelona", 
                "official": false, 
                "official_level": 0, 
                "role": null, 
                "verified_organization": null
            }, 
            "body": "<p><a href=\"https://decidim.barcelona/proposals/recolzament-financer-i-l-acompanyament-a-preprojectes\">https://decidim.barcelona/proposals/recolzament-financer-i-l-acompanyament-a-preprojectes</a></p>", 
            "commentable_id": 931, 
            "commentable_type": "Proposal", 
            "created_at": "08/04/2016 11:13:30", 
            "flagged": false, 
            "hidden": false, 
            "id": 10439, 
            "moderator_id": null, 
            "permissions": {
                "hide": false, 
                "hide_author": false, 
                "vote": false
            }, 
            "total_dislikes": 0, 
            "total_likes": 0, 
            "total_votes": 0
        }, 
        {
            "administrator_id": null, 
            "alignment": 0, 
            "ancestry": null, 
            "as": null, 
            "author": {
                "avatar_image": "https://decidim.barcelona/assets/avatar-866795c99abc33a3160d1f3fa93ada46eb75e54134e777666b9ed16215b26534.png", 
                "erased": false, 
                "hidden": false, 
                "id": 9262, 
                "name": "Suport General - Decidim Barcelona", 
                "official": false, 
                "official_level": 0, 
                "role": null, 
                "verified_organization": null
            }, 
            "body": "<p><a href=\"https://decidim.barcelona/proposals/promoure-la-contractacio-a-favor-d-empreses-d-economia-social-i-solidaria\">https://decidim.barcelona/proposals/promoure-la-contractacio-a-favor-d-empreses-d-economia-social-i-solidaria</a></p>", 
            "commentable_id": 931, 
            "commentable_type": "Proposal", 
            "created_at": "08/04/2016 15:37:25", 
            "flagged": false, 
            "hidden": false, 
            "id": 11003, 
            "moderator_id": null, 
            "permissions": {
                "hide": false, 
                "hide_author": false, 
                "vote": false
            }, 
            "total_dislikes": 0, 
            "total_likes": 0, 
            "total_votes": 0
        }, 
        {
            "administrator_id": null, 
            "alignment": 0, 
            "ancestry": null, 
            "as": null, 
            "author": {
                "avatar_image": "https://decidim.barcelona/assets/avatar-866795c99abc33a3160d1f3fa93ada46eb75e54134e777666b9ed16215b26534.png", 
                "erased": false, 
                "hidden": false, 
                "id": 9262, 
                "name": "Suport General - Decidim Barcelona", 
                "official": false, 
                "official_level": 0, 
                "role": null, 
                "verified_organization": null
            }, 
            "body": "<p><a href=\"https://decidim.barcelona/proposals/promoure-un-nou-model-d-economia-que-tingui-com-a-criteri-fonamental-el-be-comu\">https://decidim.barcelona/proposals/promoure-un-nou-model-d-economia-que-tingui-com-a-criteri-fonamental-el-be-comu</a></p>", 
            "commentable_id": 931, 
            "commentable_type": "Proposal", 
            "created_at": "08/04/2016 15:47:38", 
            "flagged": false, 
            "hidden": false, 
            "id": 11026, 
            "moderator_id": null, 
            "permissions": {
                "hide": false, 
                "hide_author": false, 
                "vote": false
            }, 
            "total_dislikes": 0, 
            "total_likes": 0, 
            "total_votes": 0
        }, 
        {
            "administrator_id": null, 
            "alignment": 0, 
            "ancestry": null, 
            "as": null, 
            "author": {
                "avatar_image": "https://decidim.barcelona/assets/avatar-866795c99abc33a3160d1f3fa93ada46eb75e54134e777666b9ed16215b26534.png", 
                "erased": false, 
                "hidden": false, 
                "id": 9262, 
                "name": "Suport General - Decidim Barcelona", 
                "official": false, 
                "official_level": 0, 
                "role": null, 
                "verified_organization": null
            }, 
            "body": "<p><a href=\"https://decidim.barcelona/proposals/estrategia-d-aposta-per-l-ecss-sostenible-en-el-temps\">https://decidim.barcelona/proposals/estrategia-d-aposta-per-l-ecss-sostenible-en-el-temps</a></p>", 
            "commentable_id": 931, 
            "commentable_type": "Proposal", 
            "created_at": "08/04/2016 15:48:11", 
            "flagged": false, 
            "hidden": false, 
            "id": 11028, 
            "moderator_id": null, 
            "permissions": {
                "hide": false, 
                "hide_author": false, 
                "vote": false
            }, 
            "total_dislikes": 0, 
            "total_likes": 0, 
            "total_votes": 0
        }, 
        {
            "administrator_id": null, 
            "alignment": 0, 
            "ancestry": null, 
            "as": null, 
            "author": {
                "avatar_image": "https://decidim.barcelona/assets/avatar-866795c99abc33a3160d1f3fa93ada46eb75e54134e777666b9ed16215b26534.png", 
                "erased": false, 
                "hidden": false, 
                "id": 9262, 
                "name": "Suport General - Decidim Barcelona", 
                "official": false, 
                "official_level": 0, 
                "role": null, 
                "verified_organization": null
            }, 
            "body": "<p><a href=\"https://decidim.barcelona/proposals/incorporar-i-reforcar-el-caracter-transversal-de-l-ecss-en-els-diferents-ambits-d-actuacio-municipal\">https://decidim.barcelona/proposals/incorporar-i-reforcar-el-caracter-transversal-de-l-ecss-en-els-diferents-ambits-d-actuacio-municipal</a></p>", 
            "commentable_id": 931, 
            "commentable_type": "Proposal", 
            "created_at": "08/04/2016 15:49:48", 
            "flagged": false, 
            "hidden": false, 
            "id": 11033, 
            "moderator_id": null, 
            "permissions": {
                "hide": false, 
                "hide_author": false, 
                "vote": false
            }, 
            "total_dislikes": 0, 
            "total_likes": 0, 
            "total_votes": 0
        }, 
        {
            "administrator_id": null, 
            "alignment": 0, 
            "ancestry": null, 
            "as": null, 
            "author": {
                "avatar_image": "https://decidim.barcelona/assets/avatar-866795c99abc33a3160d1f3fa93ada46eb75e54134e777666b9ed16215b26534.png", 
                "erased": false, 
                "hidden": false, 
                "id": 9262, 
                "name": "Suport General - Decidim Barcelona", 
                "official": false, 
                "official_level": 0, 
                "role": null, 
                "verified_organization": null
            }, 
            "body": "<p><a href=\"https://decidim.barcelona/proposals/trobar-ninxols-d-actitats-i-ser-proactius-per-introduir-l-ecss-en-diferents-ambits\">https://decidim.barcelona/proposals/trobar-ninxols-d-actitats-i-ser-proactius-per-introduir-l-ecss-en-diferents-ambits</a></p>", 
            "commentable_id": 931, 
            "commentable_type": "Proposal", 
            "created_at": "08/04/2016 16:07:59", 
            "flagged": false, 
            "hidden": false, 
            "id": 11084, 
            "moderator_id": null, 
            "permissions": {
                "hide": false, 
                "hide_author": false, 
                "vote": false
            }, 
            "total_dislikes": 0, 
            "total_likes": 0, 
            "total_votes": 0
        }, 
        {
            "administrator_id": null, 
            "alignment": 0, 
            "ancestry": null, 
            "as": null, 
            "author": {
                "avatar_image": "https://decidim.barcelona/assets/avatar-866795c99abc33a3160d1f3fa93ada46eb75e54134e777666b9ed16215b26534.png", 
                "erased": false, 
                "hidden": false, 
                "id": 9262, 
                "name": "Suport General - Decidim Barcelona", 
                "official": false, 
                "official_level": 0, 
                "role": null, 
                "verified_organization": null
            }, 
            "body": "<p><a href=\"https://decidim.barcelona/proposals/promoure-el-coneixement-dels-centres-de-treball-especial-en-els-contractes-menors\">https://decidim.barcelona/proposals/promoure-el-coneixement-dels-centres-de-treball-especial-en-els-contractes-menors</a></p>", 
            "commentable_id": 931, 
            "commentable_type": "Proposal", 
            "created_at": "08/04/2016 16:10:30", 
            "flagged": false, 
            "hidden": false, 
            "id": 11092, 
            "moderator_id": null, 
            "permissions": {
                "hide": false, 
                "hide_author": false, 
                "vote": false
            }, 
            "total_dislikes": 0, 
            "total_likes": 0, 
            "total_votes": 0
        }, 
        {
            "administrator_id": null, 
            "alignment": 0, 
            "ancestry": null, 
            "as": null, 
            "author": {
                "avatar_image": "https://decidim.barcelona/assets/avatar-866795c99abc33a3160d1f3fa93ada46eb75e54134e777666b9ed16215b26534.png", 
                "erased": false, 
                "hidden": false, 
                "id": 9262, 
                "name": "Suport General - Decidim Barcelona", 
                "official": false, 
                "official_level": 0, 
                "role": null, 
                "verified_organization": null
            }, 
            "body": "<p><a href=\"https://decidim.barcelona/proposals/generacio-d-ocupacio-a-partir-de-l-economia-social\">https://decidim.barcelona/proposals/generacio-d-ocupacio-a-partir-de-l-economia-social</a></p>", 
            "commentable_id": 931, 
            "commentable_type": "Proposal", 
            "created_at": "08/04/2016 16:42:21", 
            "flagged": false, 
            "hidden": false, 
            "id": 11137, 
            "moderator_id": null, 
            "permissions": {
                "hide": false, 
                "hide_author": false, 
                "vote": false
            }, 
            "total_dislikes": 0, 
            "total_likes": 0, 
            "total_votes": 0
        }, 
        {
            "administrator_id": null, 
            "alignment": 0, 
            "ancestry": null, 
            "as": null, 
            "author": {
                "avatar_image": "https://decidim.barcelona/assets/avatar-866795c99abc33a3160d1f3fa93ada46eb75e54134e777666b9ed16215b26534.png", 
                "erased": false, 
                "hidden": false, 
                "id": 9262, 
                "name": "Suport General - Decidim Barcelona", 
                "official": false, 
                "official_level": 0, 
                "role": null, 
                "verified_organization": null
            }, 
            "body": "<p><a href=\"https://decidim.barcelona/proposals/la-promocio-de-l-economia-cooperativa-social-i-solidaria-com-a-ambit-principal-d-actuacio-del-pam-2016-2019\">https://decidim.barcelona/proposals/la-promocio-de-l-economia-cooperativa-social-i-solidaria-com-a-ambit-principal-d-actuacio-del-pam-2016-2019</a></p>", 
            "commentable_id": 931, 
            "commentable_type": "Proposal", 
            "created_at": "08/04/2016 16:42:46", 
            "flagged": false, 
            "hidden": false, 
            "id": 11139, 
            "moderator_id": null, 
            "permissions": {
                "hide": false, 
                "hide_author": false, 
                "vote": false
            }, 
            "total_dislikes": 0, 
            "total_likes": 0, 
            "total_votes": 0
        }, 
        {
            "administrator_id": null, 
            "alignment": 0, 
            "ancestry": null, 
            "as": null, 
            "author": {
                "avatar_image": "https://decidim.barcelona/assets/avatar-866795c99abc33a3160d1f3fa93ada46eb75e54134e777666b9ed16215b26534.png", 
                "erased": false, 
                "hidden": false, 
                "id": 9262, 
                "name": "Suport General - Decidim Barcelona", 
                "official": false, 
                "official_level": 0, 
                "role": null, 
                "verified_organization": null
            }, 
            "body": "<p><a href=\"https://decidim.barcelona/proposals/incidir-en-el-proces-de-canvi-del-model-economic-actual\">https://decidim.barcelona/proposals/incidir-en-el-proces-de-canvi-del-model-economic-actual</a></p>", 
            "commentable_id": 931, 
            "commentable_type": "Proposal", 
            "created_at": "08/04/2016 17:07:24", 
            "flagged": false, 
            "hidden": false, 
            "id": 11191, 
            "moderator_id": null, 
            "permissions": {
                "hide": false, 
                "hide_author": false, 
                "vote": false
            }, 
            "total_dislikes": 0, 
            "total_likes": 0, 
            "total_votes": 0
        }, 
        {
            "administrator_id": null, 
            "alignment": 0, 
            "ancestry": null, 
            "as": null, 
            "author": {
                "avatar_image": "https://decidim.barcelona/assets/avatar-866795c99abc33a3160d1f3fa93ada46eb75e54134e777666b9ed16215b26534.png", 
                "erased": false, 
                "hidden": false, 
                "id": 9262, 
                "name": "Suport General - Decidim Barcelona", 
                "official": false, 
                "official_level": 0, 
                "role": null, 
                "verified_organization": null
            }, 
            "body": "<p><a href=\"https://decidim.barcelona/proposals/creacio-d-ocupacio\">https://decidim.barcelona/proposals/creacio-d-ocupacio</a></p>", 
            "commentable_id": 931, 
            "commentable_type": "Proposal", 
            "created_at": "08/04/2016 17:22:10", 
            "flagged": false, 
            "hidden": false, 
            "id": 11215, 
            "moderator_id": null, 
            "permissions": {
                "hide": false, 
                "hide_author": false, 
                "vote": false
            }, 
            "total_dislikes": 0, 
            "total_likes": 0, 
            "total_votes": 0
        }
    ], 
    "meta": {
        "current_page": 1, 
        "next_page": 2, 
        "prev_page": null, 
        "total_count": 36, 
        "total_pages": 2
    }
}