{
    "comments": [
        {
            "administrator_id": null, 
            "alignment": 0, 
            "ancestry": null, 
            "as": null, 
            "author": {
                "avatar_image": "https://decidim.barcelona/assets/avatar-866795c99abc33a3160d1f3fa93ada46eb75e54134e777666b9ed16215b26534.png", 
                "erased": false, 
                "hidden": false, 
                "id": 9262, 
                "name": "Suport General - Decidim Barcelona", 
                "official": false, 
                "official_level": 0, 
                "role": null, 
                "verified_organization": null
            }, 
            "body": "<p><a href=\"https://decidim.barcelona/proposals/promoure-un-segell-de-qualitat-de-responsabilitat-social\">https://decidim.barcelona/proposals/promoure-un-segell-de-qualitat-de-responsabilitat-social</a></p>", 
            "commentable_id": 937, 
            "commentable_type": "Proposal", 
            "created_at": "08/04/2016 15:38:04", 
            "flagged": false, 
            "hidden": false, 
            "id": 11004, 
            "moderator_id": null, 
            "permissions": {
                "hide": false, 
                "hide_author": false, 
                "vote": false
            }, 
            "total_dislikes": 0, 
            "total_likes": 0, 
            "total_votes": 0
        }, 
        {
            "administrator_id": null, 
            "alignment": 0, 
            "ancestry": null, 
            "as": null, 
            "author": {
                "avatar_image": "https://decidim.barcelona/assets/avatar-866795c99abc33a3160d1f3fa93ada46eb75e54134e777666b9ed16215b26534.png", 
                "erased": false, 
                "hidden": false, 
                "id": 9262, 
                "name": "Suport General - Decidim Barcelona", 
                "official": false, 
                "official_level": 0, 
                "role": null, 
                "verified_organization": null
            }, 
            "body": "<p><a href=\"https://decidim.barcelona/proposals/creacio-d-un-segell-metropolita-alimentari-participat\">https://decidim.barcelona/proposals/creacio-d-un-segell-metropolita-alimentari-participat</a></p>", 
            "commentable_id": 937, 
            "commentable_type": "Proposal", 
            "created_at": "08/04/2016 15:53:48", 
            "flagged": false, 
            "hidden": false, 
            "id": 11042, 
            "moderator_id": null, 
            "permissions": {
                "hide": false, 
                "hide_author": false, 
                "vote": false
            }, 
            "total_dislikes": 0, 
            "total_likes": 0, 
            "total_votes": 0
        }, 
        {
            "administrator_id": null, 
            "alignment": 0, 
            "ancestry": null, 
            "as": null, 
            "author": {
                "avatar_image": "https://decidim.barcelona/assets/avatar-866795c99abc33a3160d1f3fa93ada46eb75e54134e777666b9ed16215b26534.png", 
                "erased": false, 
                "hidden": false, 
                "id": 9262, 
                "name": "Suport General - Decidim Barcelona", 
                "official": false, 
                "official_level": 0, 
                "role": null, 
                "verified_organization": null
            }, 
            "body": "<p><a href=\"https://decidim.barcelona/proposals/establir-un-sistema-d-acreditacio-i-homologacio-de-les-empreses-prestadores-de-serveis\">https://decidim.barcelona/proposals/establir-un-sistema-d-acreditacio-i-homologacio-de-les-empreses-prestadores-de-serveis</a></p>", 
            "commentable_id": 937, 
            "commentable_type": "Proposal", 
            "created_at": "08/04/2016 16:13:41", 
            "flagged": false, 
            "hidden": false, 
            "id": 11100, 
            "moderator_id": null, 
            "permissions": {
                "hide": false, 
                "hide_author": false, 
                "vote": false
            }, 
            "total_dislikes": 0, 
            "total_likes": 0, 
            "total_votes": 0
        }, 
        {
            "administrator_id": null, 
            "alignment": 0, 
            "ancestry": null, 
            "as": null, 
            "author": {
                "avatar_image": "https://decidim.barcelona/assets/avatar-866795c99abc33a3160d1f3fa93ada46eb75e54134e777666b9ed16215b26534.png", 
                "erased": false, 
                "hidden": false, 
                "id": 9262, 
                "name": "Suport General - Decidim Barcelona", 
                "official": false, 
                "official_level": 0, 
                "role": null, 
                "verified_organization": null
            }, 
            "body": "<p><a href=\"https://decidim.barcelona/proposals/estudiar-la-creacio-d-una-patent-barcelona\">https://decidim.barcelona/proposals/estudiar-la-creacio-d-una-patent-barcelona</a></p>", 
            "commentable_id": 937, 
            "commentable_type": "Proposal", 
            "created_at": "08/04/2016 17:42:51", 
            "flagged": false, 
            "hidden": false, 
            "id": 11246, 
            "moderator_id": null, 
            "permissions": {
                "hide": false, 
                "hide_author": false, 
                "vote": false
            }, 
            "total_dislikes": 0, 
            "total_likes": 0, 
            "total_votes": 0
        }, 
        {
            "administrator_id": null, 
            "alignment": 0, 
            "ancestry": null, 
            "as": null, 
            "author": {
                "avatar_image": "https://decidim.barcelona/assets/avatar-866795c99abc33a3160d1f3fa93ada46eb75e54134e777666b9ed16215b26534.png", 
                "erased": false, 
                "hidden": false, 
                "id": 9262, 
                "name": "Suport General - Decidim Barcelona", 
                "official": false, 
                "official_level": 0, 
                "role": null, 
                "verified_organization": null
            }, 
            "body": "<p><a href=\"https://decidim.barcelona/proposals/autoritat-municipal-certificada\">https://decidim.barcelona/proposals/autoritat-municipal-certificada</a></p>", 
            "commentable_id": 937, 
            "commentable_type": "Proposal", 
            "created_at": "08/04/2016 18:04:34", 
            "flagged": false, 
            "hidden": false, 
            "id": 11297, 
            "moderator_id": null, 
            "permissions": {
                "hide": false, 
                "hide_author": false, 
                "vote": false
            }, 
            "total_dislikes": 0, 
            "total_likes": 0, 
            "total_votes": 0
        }, 
        {
            "administrator_id": null, 
            "alignment": 0, 
            "ancestry": null, 
            "as": null, 
            "author": {
                "avatar_image": "https://decidim.barcelona/assets/avatar-866795c99abc33a3160d1f3fa93ada46eb75e54134e777666b9ed16215b26534.png", 
                "erased": false, 
                "hidden": false, 
                "id": 9262, 
                "name": "Suport General - Decidim Barcelona", 
                "official": false, 
                "official_level": 0, 
                "role": null, 
                "verified_organization": null
            }, 
            "body": "<p><a href=\"https://decidim.barcelona/proposals/ampliar-el-segell-barcelona-en-clau-de-visibilitat-exterior-d-iniciatives-d-economia-col-laborativa-procomu-promoure-segells-de-producte\">https://decidim.barcelona/proposals/ampliar-el-segell-barcelona-en-clau-de-visibilitat-exterior-d-iniciatives-d-economia-col-laborativa-procomu-promoure-segells-de-producte</a></p>", 
            "commentable_id": 937, 
            "commentable_type": "Proposal", 
            "created_at": "09/04/2016 10:16:23", 
            "flagged": false, 
            "hidden": false, 
            "id": 11590, 
            "moderator_id": null, 
            "permissions": {
                "hide": false, 
                "hide_author": false, 
                "vote": false
            }, 
            "total_dislikes": 0, 
            "total_likes": 0, 
            "total_votes": 0
        }, 
        {
            "administrator_id": null, 
            "alignment": 0, 
            "ancestry": null, 
            "as": null, 
            "author": {
                "avatar_image": "https://decidim.barcelona/assets/avatar-866795c99abc33a3160d1f3fa93ada46eb75e54134e777666b9ed16215b26534.png", 
                "erased": false, 
                "hidden": false, 
                "id": 9262, 
                "name": "Suport General - Decidim Barcelona", 
                "official": false, 
                "official_level": 0, 
                "role": null, 
                "verified_organization": null
            }, 
            "body": "<p><a href=\"https://decidim.barcelona/proposals/ampliar-el-segell-barcelona-en-clau-de-visibilitat-exterior-d-iniciatives-d-economia-col-laborativa-procomu-fer-sinergia-amb-altres-ciutats-que-aposten-per-la-col-laboracio-i-els-procomuns\">https://decidim.barcelona/proposals/ampliar-el-segell-barcelona-en-clau-de-visibilitat-exterior-d-iniciatives-d-economia-col-laborativa-procomu-fer-sinergia-amb-altres-ciutats-que-aposten-per-la-col-laboracio-i-els-procomuns</a></p>", 
            "commentable_id": 937, 
            "commentable_type": "Proposal", 
            "created_at": "09/04/2016 10:29:30", 
            "flagged": false, 
            "hidden": false, 
            "id": 11610, 
            "moderator_id": null, 
            "permissions": {
                "hide": false, 
                "hide_author": false, 
                "vote": false
            }, 
            "total_dislikes": 0, 
            "total_likes": 0, 
            "total_votes": 0
        }, 
        {
            "administrator_id": null, 
            "alignment": 0, 
            "ancestry": null, 
            "as": null, 
            "author": {
                "avatar_image": "https://decidim.barcelona/assets/avatar-866795c99abc33a3160d1f3fa93ada46eb75e54134e777666b9ed16215b26534.png", 
                "erased": false, 
                "hidden": false, 
                "id": 9262, 
                "name": "Suport General - Decidim Barcelona", 
                "official": false, 
                "official_level": 0, 
                "role": null, 
                "verified_organization": null
            }, 
            "body": "<p><a href=\"https://decidim.barcelona/proposals/difusio-local-per-apropar-l-economia-col-laborativa-procomu-a-altres-economies-afins-fer-pedagogia-del-cost-real-de-la-produccio-no-sostenible\">https://decidim.barcelona/proposals/difusio-local-per-apropar-l-economia-col-laborativa-procomu-a-altres-economies-afins-fer-pedagogia-del-cost-real-de-la-produccio-no-sostenible</a></p>", 
            "commentable_id": 937, 
            "commentable_type": "Proposal", 
            "created_at": "09/04/2016 10:30:21", 
            "flagged": false, 
            "hidden": false, 
            "id": 11615, 
            "moderator_id": null, 
            "permissions": {
                "hide": false, 
                "hide_author": false, 
                "vote": false
            }, 
            "total_dislikes": 0, 
            "total_likes": 0, 
            "total_votes": 0
        }, 
        {
            "administrator_id": null, 
            "alignment": 0, 
            "ancestry": null, 
            "as": null, 
            "author": {
                "avatar_image": "https://decidim.barcelona/assets/avatar-866795c99abc33a3160d1f3fa93ada46eb75e54134e777666b9ed16215b26534.png", 
                "erased": false, 
                "hidden": false, 
                "id": 9262, 
                "name": "Suport General - Decidim Barcelona", 
                "official": false, 
                "official_level": 0, 
                "role": null, 
                "verified_organization": null
            }, 
            "body": "<p><a href=\"https://decidim.barcelona/proposals/ampliar-el-segell-barcelona-en-clau-de-visibilitat-exterior-d-iniciatives-d-economia-col-laborativa-procomu-impulsar-una-etiqueta-atractiva\">https://decidim.barcelona/proposals/ampliar-el-segell-barcelona-en-clau-de-visibilitat-exterior-d-iniciatives-d-economia-col-laborativa-procomu-impulsar-una-etiqueta-atractiva</a></p>", 
            "commentable_id": 937, 
            "commentable_type": "Proposal", 
            "created_at": "09/04/2016 11:30:41", 
            "flagged": false, 
            "hidden": false, 
            "id": 11759, 
            "moderator_id": null, 
            "permissions": {
                "hide": false, 
                "hide_author": false, 
                "vote": false
            }, 
            "total_dislikes": 0, 
            "total_likes": 0, 
            "total_votes": 0
        }, 
        {
            "administrator_id": null, 
            "alignment": 0, 
            "ancestry": null, 
            "as": null, 
            "author": {
                "avatar_image": "https://decidim.barcelona/assets/avatar-866795c99abc33a3160d1f3fa93ada46eb75e54134e777666b9ed16215b26534.png", 
                "erased": false, 
                "hidden": false, 
                "id": 9262, 
                "name": "Suport General - Decidim Barcelona", 
                "official": false, 
                "official_level": 0, 
                "role": null, 
                "verified_organization": null
            }, 
            "body": "<p><a href=\"https://decidim.barcelona/proposals/ampliar-el-segell-barcelona-en-clau-de-visibilitat-exterior-d-iniciatives-d-economia-col-laborativa-procomu-premis-internacionals-a-les-millors-experiencies\">https://decidim.barcelona/proposals/ampliar-el-segell-barcelona-en-clau-de-visibilitat-exterior-d-iniciatives-d-economia-col-laborativa-procomu-premis-internacionals-a-les-millors-experiencies</a></p>", 
            "commentable_id": 937, 
            "commentable_type": "Proposal", 
            "created_at": "09/04/2016 11:39:10", 
            "flagged": false, 
            "hidden": false, 
            "id": 11781, 
            "moderator_id": null, 
            "permissions": {
                "hide": false, 
                "hide_author": false, 
                "vote": false
            }, 
            "total_dislikes": 0, 
            "total_likes": 0, 
            "total_votes": 0
        }, 
        {
            "administrator_id": null, 
            "alignment": 0, 
            "ancestry": null, 
            "as": null, 
            "author": {
                "avatar_image": "https://decidim.barcelona/assets/avatar-866795c99abc33a3160d1f3fa93ada46eb75e54134e777666b9ed16215b26534.png", 
                "erased": false, 
                "hidden": false, 
                "id": 9262, 
                "name": "Suport General - Decidim Barcelona", 
                "official": false, 
                "official_level": 0, 
                "role": null, 
                "verified_organization": null
            }, 
            "body": "<p><a href=\"https://decidim.barcelona/proposals/ampliar-el-segell-barcelona-en-clau-de-visibilitat-exterior-d-iniciatives-d-economia-col-laborativa-procomu-acords-amb-comunitats-implicades-amb-la-difusio-del-coneixement-lliure\">https://decidim.barcelona/proposals/ampliar-el-segell-barcelona-en-clau-de-visibilitat-exterior-d-iniciatives-d-economia-col-laborativa-procomu-acords-amb-comunitats-implicades-amb-la-difusio-del-coneixement-lliure</a></p>", 
            "commentable_id": 937, 
            "commentable_type": "Proposal", 
            "created_at": "09/04/2016 11:40:36", 
            "flagged": false, 
            "hidden": false, 
            "id": 11786, 
            "moderator_id": null, 
            "permissions": {
                "hide": false, 
                "hide_author": false, 
                "vote": false
            }, 
            "total_dislikes": 0, 
            "total_likes": 0, 
            "total_votes": 0
        }, 
        {
            "administrator_id": null, 
            "alignment": 0, 
            "ancestry": null, 
            "as": null, 
            "author": {
                "avatar_image": "https://decidim.barcelona/assets/avatar-866795c99abc33a3160d1f3fa93ada46eb75e54134e777666b9ed16215b26534.png", 
                "erased": false, 
                "hidden": false, 
                "id": 9262, 
                "name": "Suport General - Decidim Barcelona", 
                "official": false, 
                "official_level": 0, 
                "role": null, 
                "verified_organization": null
            }, 
            "body": "<p><a href=\"https://decidim.barcelona/proposals/ampliar-el-segell-barcelona-en-clau-de-visibilitat-exterior-d-iniciatives-d-economia-col-laborativa-procomu-politica-de-cooperacio-i-aliances-internacionals-exteriors\">https://decidim.barcelona/proposals/ampliar-el-segell-barcelona-en-clau-de-visibilitat-exterior-d-iniciatives-d-economia-col-laborativa-procomu-politica-de-cooperacio-i-aliances-internacionals-exteriors</a></p>", 
            "commentable_id": 937, 
            "commentable_type": "Proposal", 
            "created_at": "09/04/2016 12:02:35", 
            "flagged": false, 
            "hidden": false, 
            "id": 11849, 
            "moderator_id": null, 
            "permissions": {
                "hide": false, 
                "hide_author": false, 
                "vote": false
            }, 
            "total_dislikes": 0, 
            "total_likes": 0, 
            "total_votes": 0
        }, 
        {
            "administrator_id": null, 
            "alignment": 0, 
            "ancestry": null, 
            "as": null, 
            "author": {
                "avatar_image": "https://decidim.barcelona/assets/avatar-866795c99abc33a3160d1f3fa93ada46eb75e54134e777666b9ed16215b26534.png", 
                "erased": false, 
                "hidden": false, 
                "id": 9262, 
                "name": "Suport General - Decidim Barcelona", 
                "official": false, 
                "official_level": 0, 
                "role": null, 
                "verified_organization": null
            }, 
            "body": "<p><a href=\"https://decidim.barcelona/proposals/creacio-de-normativa-relativa-a-la-contractacio-responsable-dirigida-a-les-empreses\">https://decidim.barcelona/proposals/creacio-de-normativa-relativa-a-la-contractacio-responsable-dirigida-a-les-empreses</a></p>", 
            "commentable_id": 937, 
            "commentable_type": "Proposal", 
            "created_at": "09/04/2016 12:54:15", 
            "flagged": false, 
            "hidden": false, 
            "id": 12025, 
            "moderator_id": null, 
            "permissions": {
                "hide": false, 
                "hide_author": false, 
                "vote": false
            }, 
            "total_dislikes": 0, 
            "total_likes": 0, 
            "total_votes": 0
        }, 
        {
            "administrator_id": null, 
            "alignment": 0, 
            "ancestry": null, 
            "as": null, 
            "author": {
                "avatar_image": "https://decidim.barcelona/assets/avatar-866795c99abc33a3160d1f3fa93ada46eb75e54134e777666b9ed16215b26534.png", 
                "erased": false, 
                "hidden": false, 
                "id": 9262, 
                "name": "Suport General - Decidim Barcelona", 
                "official": false, 
                "official_level": 0, 
                "role": null, 
                "verified_organization": null
            }, 
            "body": "<p><a href=\"https://decidim.barcelona/proposals/suport-i-reconeixement-a-les-empreses-socialment-responsables\">https://decidim.barcelona/proposals/suport-i-reconeixement-a-les-empreses-socialment-responsables</a></p>", 
            "commentable_id": 937, 
            "commentable_type": "Proposal", 
            "created_at": "09/04/2016 12:59:44", 
            "flagged": false, 
            "hidden": false, 
            "id": 12036, 
            "moderator_id": null, 
            "permissions": {
                "hide": false, 
                "hide_author": false, 
                "vote": false
            }, 
            "total_dislikes": 0, 
            "total_likes": 0, 
            "total_votes": 0
        }, 
        {
            "administrator_id": null, 
            "alignment": 0, 
            "ancestry": null, 
            "as": null, 
            "author": {
                "avatar_image": "https://decidim.barcelona/assets/avatar-866795c99abc33a3160d1f3fa93ada46eb75e54134e777666b9ed16215b26534.png", 
                "erased": false, 
                "hidden": false, 
                "id": 9262, 
                "name": "Suport General - Decidim Barcelona", 
                "official": false, 
                "official_level": 0, 
                "role": null, 
                "verified_organization": null
            }, 
            "body": "<p><a href=\"https://decidim.barcelona/proposals/segell-de-bones-practiques\">https://decidim.barcelona/proposals/segell-de-bones-practiques</a></p>", 
            "commentable_id": 937, 
            "commentable_type": "Proposal", 
            "created_at": "09/04/2016 13:05:31", 
            "flagged": false, 
            "hidden": false, 
            "id": 12044, 
            "moderator_id": null, 
            "permissions": {
                "hide": false, 
                "hide_author": false, 
                "vote": false
            }, 
            "total_dislikes": 0, 
            "total_likes": 0, 
            "total_votes": 0
        }, 
        {
            "administrator_id": null, 
            "alignment": 0, 
            "ancestry": null, 
            "as": null, 
            "author": {
                "avatar_image": "https://decidim.barcelona/assets/avatar-866795c99abc33a3160d1f3fa93ada46eb75e54134e777666b9ed16215b26534.png", 
                "erased": false, 
                "hidden": false, 
                "id": 9262, 
                "name": "Suport General - Decidim Barcelona", 
                "official": false, 
                "official_level": 0, 
                "role": null, 
                "verified_organization": null
            }, 
            "body": "<p><a href=\"https://decidim.barcelona/proposals/crear-premi-empreses-ocupacio-de-qualitat-i-segell-de-bones-practiques\">https://decidim.barcelona/proposals/crear-premi-empreses-ocupacio-de-qualitat-i-segell-de-bones-practiques</a></p>", 
            "commentable_id": 937, 
            "commentable_type": "Proposal", 
            "created_at": "09/04/2016 13:28:33", 
            "flagged": false, 
            "hidden": false, 
            "id": 12089, 
            "moderator_id": null, 
            "permissions": {
                "hide": false, 
                "hide_author": false, 
                "vote": false
            }, 
            "total_dislikes": 0, 
            "total_likes": 0, 
            "total_votes": 0
        }, 
        {
            "administrator_id": null, 
            "alignment": 0, 
            "ancestry": null, 
            "as": null, 
            "author": {
                "avatar_image": "https://decidim.barcelona/assets/avatar-866795c99abc33a3160d1f3fa93ada46eb75e54134e777666b9ed16215b26534.png", 
                "erased": false, 
                "hidden": false, 
                "id": 9262, 
                "name": "Suport General - Decidim Barcelona", 
                "official": false, 
                "official_level": 0, 
                "role": null, 
                "verified_organization": null
            }, 
            "body": "<p><a href=\"https://decidim.barcelona/proposals/implicar-empreses-en-projeccio-marca-barcelona-associada-a-talent\">https://decidim.barcelona/proposals/implicar-empreses-en-projeccio-marca-barcelona-associada-a-talent</a></p>", 
            "commentable_id": 937, 
            "commentable_type": "Proposal", 
            "created_at": "09/04/2016 13:41:34", 
            "flagged": false, 
            "hidden": false, 
            "id": 12121, 
            "moderator_id": null, 
            "permissions": {
                "hide": false, 
                "hide_author": false, 
                "vote": false
            }, 
            "total_dislikes": 0, 
            "total_likes": 0, 
            "total_votes": 0
        }, 
        {
            "administrator_id": null, 
            "alignment": 0, 
            "ancestry": null, 
            "as": null, 
            "author": {
                "avatar_image": "https://decidim.barcelona/assets/avatar-866795c99abc33a3160d1f3fa93ada46eb75e54134e777666b9ed16215b26534.png", 
                "erased": false, 
                "hidden": false, 
                "id": 9262, 
                "name": "Suport General - Decidim Barcelona", 
                "official": false, 
                "official_level": 0, 
                "role": null, 
                "verified_organization": null
            }, 
            "body": "<p><a href=\"https://decidim.barcelona/proposals/promocio-de-segells-publics-de-qualitat-turistica\">https://decidim.barcelona/proposals/promocio-de-segells-publics-de-qualitat-turistica</a></p>", 
            "commentable_id": 937, 
            "commentable_type": "Proposal", 
            "created_at": "09/04/2016 14:03:33", 
            "flagged": false, 
            "hidden": false, 
            "id": 12163, 
            "moderator_id": null, 
            "permissions": {
                "hide": false, 
                "hide_author": false, 
                "vote": false
            }, 
            "total_dislikes": 0, 
            "total_likes": 0, 
            "total_votes": 0
        }, 
        {
            "administrator_id": null, 
            "alignment": 0, 
            "ancestry": null, 
            "as": null, 
            "author": {
                "avatar_image": "https://decidim.barcelona/assets/avatar-866795c99abc33a3160d1f3fa93ada46eb75e54134e777666b9ed16215b26534.png", 
                "erased": false, 
                "hidden": false, 
                "id": 9262, 
                "name": "Suport General - Decidim Barcelona", 
                "official": false, 
                "official_level": 0, 
                "role": null, 
                "verified_organization": null
            }, 
            "body": "<p><a href=\"https://decidim.barcelona/proposals/crear-un-segell-de-qualitat-turistica\">https://decidim.barcelona/proposals/crear-un-segell-de-qualitat-turistica</a></p>", 
            "commentable_id": 937, 
            "commentable_type": "Proposal", 
            "created_at": "09/04/2016 14:30:43", 
            "flagged": false, 
            "hidden": false, 
            "id": 12285, 
            "moderator_id": null, 
            "permissions": {
                "hide": false, 
                "hide_author": false, 
                "vote": false
            }, 
            "total_dislikes": 0, 
            "total_likes": 0, 
            "total_votes": 0
        }, 
        {
            "administrator_id": null, 
            "alignment": 0, 
            "ancestry": null, 
            "as": null, 
            "author": {
                "avatar_image": "https://decidim.barcelona/assets/avatar-866795c99abc33a3160d1f3fa93ada46eb75e54134e777666b9ed16215b26534.png", 
                "erased": false, 
                "hidden": false, 
                "id": 9262, 
                "name": "Suport General - Decidim Barcelona", 
                "official": false, 
                "official_level": 0, 
                "role": null, 
                "verified_organization": null
            }, 
            "body": "<p><a href=\"https://decidim.barcelona/proposals/crear-uns-premis-municipals-al-turisme-sostenible\">https://decidim.barcelona/proposals/crear-uns-premis-municipals-al-turisme-sostenible</a></p>", 
            "commentable_id": 937, 
            "commentable_type": "Proposal", 
            "created_at": "09/04/2016 14:34:48", 
            "flagged": false, 
            "hidden": false, 
            "id": 12303, 
            "moderator_id": null, 
            "permissions": {
                "hide": false, 
                "hide_author": false, 
                "vote": false
            }, 
            "total_dislikes": 0, 
            "total_likes": 0, 
            "total_votes": 0
        }
    ], 
    "meta": {
        "current_page": 1, 
        "next_page": 2, 
        "prev_page": null, 
        "total_count": 22, 
        "total_pages": 2
    }
}