{
    "comments": [
        {
            "administrator_id": null, 
            "alignment": 0, 
            "ancestry": null, 
            "as": null, 
            "author": {
                "avatar_image": "https://decidim.barcelona/assets/avatar-866795c99abc33a3160d1f3fa93ada46eb75e54134e777666b9ed16215b26534.png", 
                "erased": false, 
                "hidden": false, 
                "id": 9262, 
                "name": "Suport General - Decidim Barcelona", 
                "official": false, 
                "official_level": 0, 
                "role": null, 
                "verified_organization": null
            }, 
            "body": "<p><a href=\"https://decidim.barcelona/proposals/horaris-dels-mercats-municipals\">https://decidim.barcelona/proposals/horaris-dels-mercats-municipals</a></p>", 
            "commentable_id": 930, 
            "commentable_type": "Proposal", 
            "created_at": "11/04/2016 16:27:27", 
            "flagged": false, 
            "hidden": false, 
            "id": 12984, 
            "moderator_id": null, 
            "permissions": {
                "hide": false, 
                "hide_author": false, 
                "vote": false
            }, 
            "total_dislikes": 0, 
            "total_likes": 0, 
            "total_votes": 0
        }, 
        {
            "administrator_id": null, 
            "alignment": 0, 
            "ancestry": null, 
            "as": null, 
            "author": {
                "avatar_image": "https://decidim.barcelona/assets/avatar-866795c99abc33a3160d1f3fa93ada46eb75e54134e777666b9ed16215b26534.png", 
                "erased": false, 
                "hidden": false, 
                "id": 9262, 
                "name": "Suport General - Decidim Barcelona", 
                "official": false, 
                "official_level": 0, 
                "role": null, 
                "verified_organization": null
            }, 
            "body": "<p><a href=\"https://decidim.barcelona/proposals/un-equipament-civico-comercial-a-l-edifici-del-mercat-de-lesseps\">https://decidim.barcelona/proposals/un-equipament-civico-comercial-a-l-edifici-del-mercat-de-lesseps</a></p>", 
            "commentable_id": 930, 
            "commentable_type": "Proposal", 
            "created_at": "11/04/2016 16:42:33", 
            "flagged": false, 
            "hidden": false, 
            "id": 13009, 
            "moderator_id": null, 
            "permissions": {
                "hide": false, 
                "hide_author": false, 
                "vote": false
            }, 
            "total_dislikes": 0, 
            "total_likes": 0, 
            "total_votes": 0
        }, 
        {
            "administrator_id": null, 
            "alignment": 0, 
            "ancestry": null, 
            "as": null, 
            "author": {
                "avatar_image": "https://decidim.barcelona/assets/avatar-866795c99abc33a3160d1f3fa93ada46eb75e54134e777666b9ed16215b26534.png", 
                "erased": false, 
                "hidden": false, 
                "id": 9262, 
                "name": "Suport General - Decidim Barcelona", 
                "official": false, 
                "official_level": 0, 
                "role": null, 
                "verified_organization": null
            }, 
            "body": "<p><a href=\"https://decidim.barcelona/proposals/creacio-de-nucli-comercial-i-de-relacio-al-voltant-del-mercat-de-lesseps\">https://decidim.barcelona/proposals/creacio-de-nucli-comercial-i-de-relacio-al-voltant-del-mercat-de-lesseps</a></p>", 
            "commentable_id": 930, 
            "commentable_type": "Proposal", 
            "created_at": "11/04/2016 16:43:12", 
            "flagged": false, 
            "hidden": false, 
            "id": 13010, 
            "moderator_id": null, 
            "permissions": {
                "hide": false, 
                "hide_author": false, 
                "vote": false
            }, 
            "total_dislikes": 0, 
            "total_likes": 0, 
            "total_votes": 0
        }, 
        {
            "administrator_id": null, 
            "alignment": 0, 
            "ancestry": null, 
            "as": null, 
            "author": {
                "avatar_image": "https://decidim.barcelona/assets/avatar-866795c99abc33a3160d1f3fa93ada46eb75e54134e777666b9ed16215b26534.png", 
                "erased": false, 
                "hidden": false, 
                "id": 9262, 
                "name": "Suport General - Decidim Barcelona", 
                "official": false, 
                "official_level": 0, 
                "role": null, 
                "verified_organization": null
            }, 
            "body": "<p><a href=\"https://decidim.barcelona/proposals/potenciar-un-mercat-verd-green-market\">https://decidim.barcelona/proposals/potenciar-un-mercat-verd-green-market</a></p>", 
            "commentable_id": 930, 
            "commentable_type": "Proposal", 
            "created_at": "11/04/2016 17:04:18", 
            "flagged": false, 
            "hidden": false, 
            "id": 13045, 
            "moderator_id": null, 
            "permissions": {
                "hide": false, 
                "hide_author": false, 
                "vote": false
            }, 
            "total_dislikes": 0, 
            "total_likes": 0, 
            "total_votes": 0
        }, 
        {
            "administrator_id": null, 
            "alignment": 0, 
            "ancestry": null, 
            "as": null, 
            "author": {
                "avatar_image": "https://decidim.barcelona/assets/avatar-866795c99abc33a3160d1f3fa93ada46eb75e54134e777666b9ed16215b26534.png", 
                "erased": false, 
                "hidden": false, 
                "id": 9262, 
                "name": "Suport General - Decidim Barcelona", 
                "official": false, 
                "official_level": 0, 
                "role": null, 
                "verified_organization": null
            }, 
            "body": "<p><a href=\"https://decidim.barcelona/proposals/mantenir-la-taula-de-comerc-i-crear-comissions-per-a-treballar-temes-especifics\">https://decidim.barcelona/proposals/mantenir-la-taula-de-comerc-i-crear-comissions-per-a-treballar-temes-especifics</a></p>", 
            "commentable_id": 930, 
            "commentable_type": "Proposal", 
            "created_at": "11/04/2016 17:07:49", 
            "flagged": false, 
            "hidden": false, 
            "id": 13053, 
            "moderator_id": null, 
            "permissions": {
                "hide": false, 
                "hide_author": false, 
                "vote": false
            }, 
            "total_dislikes": 0, 
            "total_likes": 0, 
            "total_votes": 0
        }, 
        {
            "administrator_id": null, 
            "alignment": 0, 
            "ancestry": null, 
            "as": null, 
            "author": {
                "avatar_image": "https://decidim.barcelona/assets/avatar-866795c99abc33a3160d1f3fa93ada46eb75e54134e777666b9ed16215b26534.png", 
                "erased": false, 
                "hidden": false, 
                "id": 9262, 
                "name": "Suport General - Decidim Barcelona", 
                "official": false, 
                "official_level": 0, 
                "role": null, 
                "verified_organization": null
            }, 
            "body": "<p><a href=\"https://decidim.barcelona/proposals/reclamar-als-supermercats-que-tinguin-senyalitzin-i-permetin-l-us-dels-seus-lavabos\">https://decidim.barcelona/proposals/reclamar-als-supermercats-que-tinguin-senyalitzin-i-permetin-l-us-dels-seus-lavabos</a></p>", 
            "commentable_id": 930, 
            "commentable_type": "Proposal", 
            "created_at": "11/04/2016 17:09:33", 
            "flagged": false, 
            "hidden": false, 
            "id": 13063, 
            "moderator_id": null, 
            "permissions": {
                "hide": false, 
                "hide_author": false, 
                "vote": false
            }, 
            "total_dislikes": 0, 
            "total_likes": 0, 
            "total_votes": 0
        }, 
        {
            "administrator_id": null, 
            "alignment": 0, 
            "ancestry": null, 
            "as": null, 
            "author": {
                "avatar_image": "https://decidim.barcelona/assets/avatar-866795c99abc33a3160d1f3fa93ada46eb75e54134e777666b9ed16215b26534.png", 
                "erased": false, 
                "hidden": false, 
                "id": 9262, 
                "name": "Suport General - Decidim Barcelona", 
                "official": false, 
                "official_level": 0, 
                "role": null, 
                "verified_organization": null
            }, 
            "body": "<p><a href=\"https://decidim.barcelona/proposals/revisar-el-percentatge-de-productes-de-menjar-per-emportar-que-es-permet-vendre-al-mercat-de-la-boqueria\">https://decidim.barcelona/proposals/revisar-el-percentatge-de-productes-de-menjar-per-emportar-que-es-permet-vendre-al-mercat-de-la-boqueria</a></p>", 
            "commentable_id": 930, 
            "commentable_type": "Proposal", 
            "created_at": "12/04/2016 10:04:43", 
            "flagged": false, 
            "hidden": false, 
            "id": 13354, 
            "moderator_id": null, 
            "permissions": {
                "hide": false, 
                "hide_author": false, 
                "vote": false
            }, 
            "total_dislikes": 0, 
            "total_likes": 0, 
            "total_votes": 0
        }, 
        {
            "administrator_id": null, 
            "alignment": 0, 
            "ancestry": null, 
            "as": null, 
            "author": {
                "avatar_image": "https://decidim.barcelona/assets/avatar-866795c99abc33a3160d1f3fa93ada46eb75e54134e777666b9ed16215b26534.png", 
                "erased": false, 
                "hidden": false, 
                "id": 9262, 
                "name": "Suport General - Decidim Barcelona", 
                "official": false, 
                "official_level": 0, 
                "role": null, 
                "verified_organization": null
            }, 
            "body": "<p><a href=\"https://decidim.barcelona/proposals/espais-als-mercats-per-les-cooperatives-de-consum\">https://decidim.barcelona/proposals/espais-als-mercats-per-les-cooperatives-de-consum</a></p>", 
            "commentable_id": 930, 
            "commentable_type": "Proposal", 
            "created_at": "12/04/2016 10:51:43", 
            "flagged": false, 
            "hidden": false, 
            "id": 13419, 
            "moderator_id": null, 
            "permissions": {
                "hide": false, 
                "hide_author": false, 
                "vote": false
            }, 
            "total_dislikes": 0, 
            "total_likes": 0, 
            "total_votes": 0
        }, 
        {
            "administrator_id": null, 
            "alignment": 0, 
            "ancestry": null, 
            "as": null, 
            "author": {
                "avatar_image": "https://decidim.barcelona/assets/avatar-866795c99abc33a3160d1f3fa93ada46eb75e54134e777666b9ed16215b26534.png", 
                "erased": false, 
                "hidden": false, 
                "id": 9262, 
                "name": "Suport General - Decidim Barcelona", 
                "official": false, 
                "official_level": 0, 
                "role": null, 
                "verified_organization": null
            }, 
            "body": "<p><a href=\"https://decidim.barcelona/proposals/nou-mercat-per-al-poble-nou-l-actual-es-car-i-petit\">https://decidim.barcelona/proposals/nou-mercat-per-al-poble-nou-l-actual-es-car-i-petit</a></p>", 
            "commentable_id": 930, 
            "commentable_type": "Proposal", 
            "created_at": "12/04/2016 17:30:48", 
            "flagged": false, 
            "hidden": false, 
            "id": 13986, 
            "moderator_id": null, 
            "permissions": {
                "hide": false, 
                "hide_author": false, 
                "vote": false
            }, 
            "total_dislikes": 0, 
            "total_likes": 0, 
            "total_votes": 0
        }, 
        {
            "administrator_id": null, 
            "alignment": 0, 
            "ancestry": null, 
            "as": null, 
            "author": {
                "avatar_image": "https://decidim.barcelona/assets/avatar-866795c99abc33a3160d1f3fa93ada46eb75e54134e777666b9ed16215b26534.png", 
                "erased": false, 
                "hidden": false, 
                "id": 9262, 
                "name": "Suport General - Decidim Barcelona", 
                "official": false, 
                "official_level": 0, 
                "role": null, 
                "verified_organization": null
            }, 
            "body": "<p><a href=\"https://decidim.barcelona/proposals/mercat-municipal-a-la-vila-olimpic\">https://decidim.barcelona/proposals/mercat-municipal-a-la-vila-olimpic</a></p>", 
            "commentable_id": 930, 
            "commentable_type": "Proposal", 
            "created_at": "12/04/2016 17:32:35", 
            "flagged": false, 
            "hidden": false, 
            "id": 13993, 
            "moderator_id": null, 
            "permissions": {
                "hide": false, 
                "hide_author": false, 
                "vote": false
            }, 
            "total_dislikes": 0, 
            "total_likes": 0, 
            "total_votes": 0
        }, 
        {
            "administrator_id": null, 
            "alignment": 0, 
            "ancestry": null, 
            "as": null, 
            "author": {
                "avatar_image": "https://decidim.barcelona/assets/avatar-866795c99abc33a3160d1f3fa93ada46eb75e54134e777666b9ed16215b26534.png", 
                "erased": false, 
                "hidden": false, 
                "id": 9262, 
                "name": "Suport General - Decidim Barcelona", 
                "official": false, 
                "official_level": 0, 
                "role": null, 
                "verified_organization": null
            }, 
            "body": "<p><a href=\"https://decidim.barcelona/proposals/renovar-el-mercado-de-hostafrancs\">https://decidim.barcelona/proposals/renovar-el-mercado-de-hostafrancs</a></p>", 
            "commentable_id": 930, 
            "commentable_type": "Proposal", 
            "created_at": "15/04/2016 11:13:14", 
            "flagged": false, 
            "hidden": false, 
            "id": 16617, 
            "moderator_id": null, 
            "permissions": {
                "hide": false, 
                "hide_author": false, 
                "vote": false
            }, 
            "total_dislikes": 0, 
            "total_likes": 0, 
            "total_votes": 0
        }
    ], 
    "meta": {
        "current_page": 2, 
        "next_page": null, 
        "prev_page": 1, 
        "total_count": 31, 
        "total_pages": 2
    }
}