{
    "comments": [
        {
            "administrator_id": null, 
            "alignment": 1, 
            "ancestry": null, 
            "as": null, 
            "author": {
                "avatar_image": "https://decidim.barcelona/assets/avatar-866795c99abc33a3160d1f3fa93ada46eb75e54134e777666b9ed16215b26534.png", 
                "erased": false, 
                "hidden": false, 
                "id": 15599, 
                "name": "Paseante", 
                "official": false, 
                "official_level": 0, 
                "role": null, 
                "verified_organization": null
            }, 
            "body": "<p>Sustituir, cuando sea apropiado, los pilones met\u00e1licos que impiden aparcar en las aceras, por jardineras que podrian cuidar los vecinos.</p>", 
            "commentable_id": 950, 
            "commentable_type": "Proposal", 
            "created_at": "29/03/2016 23:07:58", 
            "flagged": false, 
            "hidden": false, 
            "id": 6878, 
            "moderator_id": null, 
            "permissions": {
                "hide": false, 
                "hide_author": false, 
                "vote": false
            }, 
            "total_dislikes": 0, 
            "total_likes": 0, 
            "total_votes": 0
        }, 
        {
            "administrator_id": null, 
            "alignment": 0, 
            "ancestry": null, 
            "as": null, 
            "author": {
                "avatar_image": "https://decidim.barcelona/assets/avatar-866795c99abc33a3160d1f3fa93ada46eb75e54134e777666b9ed16215b26534.png", 
                "erased": false, 
                "hidden": false, 
                "id": 17740, 
                "name": "Suport General2 - Decidim Barcelona", 
                "official": false, 
                "official_level": 0, 
                "role": null, 
                "verified_organization": null
            }, 
            "body": "<p><a href=\"https://decidim.barcelona/proposals/plantar-el-que-es-adequat-en-el-nostre-entorn\">https://decidim.barcelona/proposals/plantar-el-que-es-adequat-en-el-nostre-entorn</a></p>", 
            "commentable_id": 950, 
            "commentable_type": "Proposal", 
            "created_at": "06/04/2016 20:58:57", 
            "flagged": false, 
            "hidden": false, 
            "id": 8944, 
            "moderator_id": null, 
            "permissions": {
                "hide": false, 
                "hide_author": false, 
                "vote": false
            }, 
            "total_dislikes": 0, 
            "total_likes": 0, 
            "total_votes": 0
        }, 
        {
            "administrator_id": null, 
            "alignment": 0, 
            "ancestry": null, 
            "as": null, 
            "author": {
                "avatar_image": "https://decidim.barcelona/assets/avatar-866795c99abc33a3160d1f3fa93ada46eb75e54134e777666b9ed16215b26534.png", 
                "erased": false, 
                "hidden": false, 
                "id": 17741, 
                "name": "Suport General3 - Decidim Barcelona", 
                "official": false, 
                "official_level": 0, 
                "role": null, 
                "verified_organization": null
            }, 
            "body": "<p><a href=\"https://decidim.barcelona/proposals/recuperar-infraestructures-del-passat-en-infraestructures-verdes\">https://decidim.barcelona/proposals/recuperar-infraestructures-del-passat-en-infraestructures-verdes</a></p>", 
            "commentable_id": 950, 
            "commentable_type": "Proposal", 
            "created_at": "07/04/2016 13:55:13", 
            "flagged": false, 
            "hidden": false, 
            "id": 9405, 
            "moderator_id": null, 
            "permissions": {
                "hide": false, 
                "hide_author": false, 
                "vote": false
            }, 
            "total_dislikes": 0, 
            "total_likes": 0, 
            "total_votes": 0
        }, 
        {
            "administrator_id": null, 
            "alignment": 0, 
            "ancestry": null, 
            "as": null, 
            "author": {
                "avatar_image": "https://decidim.barcelona/assets/avatar-866795c99abc33a3160d1f3fa93ada46eb75e54134e777666b9ed16215b26534.png", 
                "erased": false, 
                "hidden": false, 
                "id": 17741, 
                "name": "Suport General3 - Decidim Barcelona", 
                "official": false, 
                "official_level": 0, 
                "role": null, 
                "verified_organization": null
            }, 
            "body": "<p><a href=\"https://decidim.barcelona/proposals/cercar-assessorament-tecnicoeconomic-en-l-estrategia-del-verd-urba\">https://decidim.barcelona/proposals/cercar-assessorament-tecnicoeconomic-en-l-estrategia-del-verd-urba</a></p>", 
            "commentable_id": 950, 
            "commentable_type": "Proposal", 
            "created_at": "07/04/2016 14:37:03", 
            "flagged": false, 
            "hidden": false, 
            "id": 9491, 
            "moderator_id": null, 
            "permissions": {
                "hide": false, 
                "hide_author": false, 
                "vote": false
            }, 
            "total_dislikes": 0, 
            "total_likes": 0, 
            "total_votes": 0
        }, 
        {
            "administrator_id": null, 
            "alignment": 0, 
            "ancestry": null, 
            "as": null, 
            "author": {
                "avatar_image": "https://decidim.barcelona/assets/avatar-866795c99abc33a3160d1f3fa93ada46eb75e54134e777666b9ed16215b26534.png", 
                "erased": false, 
                "hidden": false, 
                "id": 17741, 
                "name": "Suport General3 - Decidim Barcelona", 
                "official": false, 
                "official_level": 0, 
                "role": null, 
                "verified_organization": null
            }, 
            "body": "<p><a href=\"https://decidim.barcelona/proposals/creacio-i-apertura-de-patis-d-illa\">https://decidim.barcelona/proposals/creacio-i-apertura-de-patis-d-illa</a></p>", 
            "commentable_id": 950, 
            "commentable_type": "Proposal", 
            "created_at": "07/04/2016 16:44:55", 
            "flagged": false, 
            "hidden": false, 
            "id": 9679, 
            "moderator_id": null, 
            "permissions": {
                "hide": false, 
                "hide_author": false, 
                "vote": false
            }, 
            "total_dislikes": 0, 
            "total_likes": 0, 
            "total_votes": 0
        }, 
        {
            "administrator_id": null, 
            "alignment": 0, 
            "ancestry": null, 
            "as": null, 
            "author": {
                "avatar_image": "https://decidim.barcelona/assets/avatar-866795c99abc33a3160d1f3fa93ada46eb75e54134e777666b9ed16215b26534.png", 
                "erased": false, 
                "hidden": false, 
                "id": 17741, 
                "name": "Suport General3 - Decidim Barcelona", 
                "official": false, 
                "official_level": 0, 
                "role": null, 
                "verified_organization": null
            }, 
            "body": "<p><a href=\"https://decidim.barcelona/proposals/barcelona-anella-verda\">https://decidim.barcelona/proposals/barcelona-anella-verda</a></p>", 
            "commentable_id": 950, 
            "commentable_type": "Proposal", 
            "created_at": "07/04/2016 16:48:18", 
            "flagged": false, 
            "hidden": false, 
            "id": 9691, 
            "moderator_id": null, 
            "permissions": {
                "hide": false, 
                "hide_author": false, 
                "vote": false
            }, 
            "total_dislikes": 0, 
            "total_likes": 0, 
            "total_votes": 0
        }, 
        {
            "administrator_id": null, 
            "alignment": 0, 
            "ancestry": null, 
            "as": null, 
            "author": {
                "avatar_image": "https://decidim.barcelona/assets/avatar-866795c99abc33a3160d1f3fa93ada46eb75e54134e777666b9ed16215b26534.png", 
                "erased": false, 
                "hidden": false, 
                "id": 17741, 
                "name": "Suport General3 - Decidim Barcelona", 
                "official": false, 
                "official_level": 0, 
                "role": null, 
                "verified_organization": null
            }, 
            "body": "<p><a href=\"https://decidim.barcelona/proposals/fer-jardins-o-horts-verticals-a-parets-mitgeres\">https://decidim.barcelona/proposals/fer-jardins-o-horts-verticals-a-parets-mitgeres</a></p>", 
            "commentable_id": 950, 
            "commentable_type": "Proposal", 
            "created_at": "07/04/2016 17:00:51", 
            "flagged": false, 
            "hidden": false, 
            "id": 9734, 
            "moderator_id": null, 
            "permissions": {
                "hide": false, 
                "hide_author": false, 
                "vote": false
            }, 
            "total_dislikes": 0, 
            "total_likes": 0, 
            "total_votes": 0
        }, 
        {
            "administrator_id": null, 
            "alignment": 0, 
            "ancestry": null, 
            "as": null, 
            "author": {
                "avatar_image": "https://decidim.barcelona/assets/avatar-866795c99abc33a3160d1f3fa93ada46eb75e54134e777666b9ed16215b26534.png", 
                "erased": false, 
                "hidden": false, 
                "id": 17741, 
                "name": "Suport General3 - Decidim Barcelona", 
                "official": false, 
                "official_level": 0, 
                "role": null, 
                "verified_organization": null
            }, 
            "body": "<p><a href=\"https://decidim.barcelona/proposals/parterres-enlloc-de-granit-mes-verd-i-menys-skaters\">https://decidim.barcelona/proposals/parterres-enlloc-de-granit-mes-verd-i-menys-skaters</a></p>", 
            "commentable_id": 950, 
            "commentable_type": "Proposal", 
            "created_at": "07/04/2016 17:01:20", 
            "flagged": false, 
            "hidden": false, 
            "id": 9736, 
            "moderator_id": null, 
            "permissions": {
                "hide": false, 
                "hide_author": false, 
                "vote": false
            }, 
            "total_dislikes": 0, 
            "total_likes": 0, 
            "total_votes": 0
        }, 
        {
            "administrator_id": null, 
            "alignment": 0, 
            "ancestry": null, 
            "as": null, 
            "author": {
                "avatar_image": "https://decidim.barcelona/assets/avatar-866795c99abc33a3160d1f3fa93ada46eb75e54134e777666b9ed16215b26534.png", 
                "erased": false, 
                "hidden": false, 
                "id": 17741, 
                "name": "Suport General3 - Decidim Barcelona", 
                "official": false, 
                "official_level": 0, 
                "role": null, 
                "verified_organization": null
            }, 
            "body": "<p><a href=\"https://decidim.barcelona/proposals/mes-parc-als-barris-i-mes-verd-als-parcs\">https://decidim.barcelona/proposals/mes-parc-als-barris-i-mes-verd-als-parcs</a></p>", 
            "commentable_id": 950, 
            "commentable_type": "Proposal", 
            "created_at": "07/04/2016 17:05:23", 
            "flagged": false, 
            "hidden": false, 
            "id": 9752, 
            "moderator_id": null, 
            "permissions": {
                "hide": false, 
                "hide_author": false, 
                "vote": false
            }, 
            "total_dislikes": 0, 
            "total_likes": 0, 
            "total_votes": 0
        }, 
        {
            "administrator_id": null, 
            "alignment": 0, 
            "ancestry": null, 
            "as": null, 
            "author": {
                "avatar_image": "https://decidim.barcelona/assets/avatar-866795c99abc33a3160d1f3fa93ada46eb75e54134e777666b9ed16215b26534.png", 
                "erased": false, 
                "hidden": false, 
                "id": 17741, 
                "name": "Suport General3 - Decidim Barcelona", 
                "official": false, 
                "official_level": 0, 
                "role": null, 
                "verified_organization": null
            }, 
            "body": "<p><a href=\"https://decidim.barcelona/proposals/plaza-de-las-glorias-verde\">https://decidim.barcelona/proposals/plaza-de-las-glorias-verde</a></p>", 
            "commentable_id": 950, 
            "commentable_type": "Proposal", 
            "created_at": "08/04/2016 14:34:57", 
            "flagged": false, 
            "hidden": false, 
            "id": 10948, 
            "moderator_id": null, 
            "permissions": {
                "hide": false, 
                "hide_author": false, 
                "vote": false
            }, 
            "total_dislikes": 0, 
            "total_likes": 0, 
            "total_votes": 0
        }, 
        {
            "administrator_id": null, 
            "alignment": 0, 
            "ancestry": null, 
            "as": null, 
            "author": {
                "avatar_image": "https://decidim.barcelona/assets/avatar-866795c99abc33a3160d1f3fa93ada46eb75e54134e777666b9ed16215b26534.png", 
                "erased": false, 
                "hidden": false, 
                "id": 17741, 
                "name": "Suport General3 - Decidim Barcelona", 
                "official": false, 
                "official_level": 0, 
                "role": null, 
                "verified_organization": null
            }, 
            "body": "<p><a href=\"https://decidim.barcelona/proposals/reforestacio-de-la-vessant-barcelonina-de-collserola-per-sota-i-per-sobre-de-la-carretera-de-les-aigues-horta-guinardo-i-nou-barris-preferentment\">https://decidim.barcelona/proposals/reforestacio-de-la-vessant-barcelonina-de-collserola-per-sota-i-per-sobre-de-la-carretera-de-les-aigues-horta-guinardo-i-nou-barris-preferentment</a></p>", 
            "commentable_id": 950, 
            "commentable_type": "Proposal", 
            "created_at": "09/04/2016 14:07:32", 
            "flagged": false, 
            "hidden": false, 
            "id": 12182, 
            "moderator_id": null, 
            "permissions": {
                "hide": false, 
                "hide_author": false, 
                "vote": false
            }, 
            "total_dislikes": 0, 
            "total_likes": 0, 
            "total_votes": 0
        }, 
        {
            "administrator_id": null, 
            "alignment": 0, 
            "ancestry": null, 
            "as": null, 
            "author": {
                "avatar_image": "https://decidim.barcelona/assets/avatar-866795c99abc33a3160d1f3fa93ada46eb75e54134e777666b9ed16215b26534.png", 
                "erased": false, 
                "hidden": false, 
                "id": 17741, 
                "name": "Suport General3 - Decidim Barcelona", 
                "official": false, 
                "official_level": 0, 
                "role": null, 
                "verified_organization": null
            }, 
            "body": "<p><a href=\"https://decidim.barcelona/proposals/barcelona-verda\">https://decidim.barcelona/proposals/barcelona-verda</a></p>", 
            "commentable_id": 950, 
            "commentable_type": "Proposal", 
            "created_at": "09/04/2016 14:11:03", 
            "flagged": false, 
            "hidden": false, 
            "id": 12197, 
            "moderator_id": null, 
            "permissions": {
                "hide": false, 
                "hide_author": false, 
                "vote": false
            }, 
            "total_dislikes": 0, 
            "total_likes": 0, 
            "total_votes": 0
        }, 
        {
            "administrator_id": null, 
            "alignment": 0, 
            "ancestry": null, 
            "as": null, 
            "author": {
                "avatar_image": "https://decidim.barcelona/assets/avatar-866795c99abc33a3160d1f3fa93ada46eb75e54134e777666b9ed16215b26534.png", 
                "erased": false, 
                "hidden": false, 
                "id": 17741, 
                "name": "Suport General3 - Decidim Barcelona", 
                "official": false, 
                "official_level": 0, 
                "role": null, 
                "verified_organization": null
            }, 
            "body": "<p><a href=\"https://decidim.barcelona/proposals/crear-mes-zones-verdes\">https://decidim.barcelona/proposals/crear-mes-zones-verdes</a></p>", 
            "commentable_id": 950, 
            "commentable_type": "Proposal", 
            "created_at": "09/04/2016 14:11:14", 
            "flagged": false, 
            "hidden": false, 
            "id": 12201, 
            "moderator_id": null, 
            "permissions": {
                "hide": false, 
                "hide_author": false, 
                "vote": false
            }, 
            "total_dislikes": 0, 
            "total_likes": 0, 
            "total_votes": 0
        }, 
        {
            "administrator_id": null, 
            "alignment": 0, 
            "ancestry": null, 
            "as": null, 
            "author": {
                "avatar_image": "https://decidim.barcelona/assets/avatar-866795c99abc33a3160d1f3fa93ada46eb75e54134e777666b9ed16215b26534.png", 
                "erased": false, 
                "hidden": false, 
                "id": 17741, 
                "name": "Suport General3 - Decidim Barcelona", 
                "official": false, 
                "official_level": 0, 
                "role": null, 
                "verified_organization": null
            }, 
            "body": "<p><a href=\"https://decidim.barcelona/proposals/transformar-els-terrats-en-espais-comuns-verds-i-d-autoconsum-energetic\">https://decidim.barcelona/proposals/transformar-els-terrats-en-espais-comuns-verds-i-d-autoconsum-energetic</a></p>", 
            "commentable_id": 950, 
            "commentable_type": "Proposal", 
            "created_at": "09/04/2016 14:11:36", 
            "flagged": false, 
            "hidden": false, 
            "id": 12203, 
            "moderator_id": null, 
            "permissions": {
                "hide": false, 
                "hide_author": false, 
                "vote": false
            }, 
            "total_dislikes": 0, 
            "total_likes": 0, 
            "total_votes": 0
        }, 
        {
            "administrator_id": null, 
            "alignment": 0, 
            "ancestry": null, 
            "as": null, 
            "author": {
                "avatar_image": "https://decidim.barcelona/assets/avatar-866795c99abc33a3160d1f3fa93ada46eb75e54134e777666b9ed16215b26534.png", 
                "erased": false, 
                "hidden": false, 
                "id": 17741, 
                "name": "Suport General3 - Decidim Barcelona", 
                "official": false, 
                "official_level": 0, 
                "role": null, 
                "verified_organization": null
            }, 
            "body": "<p><a href=\"https://decidim.barcelona/proposals/crear-espais-verds-dins-de-les-illes-dels-edificis\">https://decidim.barcelona/proposals/crear-espais-verds-dins-de-les-illes-dels-edificis</a></p>", 
            "commentable_id": 950, 
            "commentable_type": "Proposal", 
            "created_at": "09/04/2016 14:12:05", 
            "flagged": false, 
            "hidden": false, 
            "id": 12206, 
            "moderator_id": null, 
            "permissions": {
                "hide": false, 
                "hide_author": false, 
                "vote": false
            }, 
            "total_dislikes": 0, 
            "total_likes": 0, 
            "total_votes": 0
        }, 
        {
            "administrator_id": null, 
            "alignment": 0, 
            "ancestry": null, 
            "as": null, 
            "author": {
                "avatar_image": "https://decidim.barcelona/assets/avatar-866795c99abc33a3160d1f3fa93ada46eb75e54134e777666b9ed16215b26534.png", 
                "erased": false, 
                "hidden": false, 
                "id": 17741, 
                "name": "Suport General3 - Decidim Barcelona", 
                "official": false, 
                "official_level": 0, 
                "role": null, 
                "verified_organization": null
            }, 
            "body": "<p><a href=\"https://decidim.barcelona/proposals/proteccio-i-creacio-de-parcs-agraris\">https://decidim.barcelona/proposals/proteccio-i-creacio-de-parcs-agraris</a></p>", 
            "commentable_id": 950, 
            "commentable_type": "Proposal", 
            "created_at": "09/04/2016 14:17:04", 
            "flagged": false, 
            "hidden": false, 
            "id": 12230, 
            "moderator_id": null, 
            "permissions": {
                "hide": false, 
                "hide_author": false, 
                "vote": false
            }, 
            "total_dislikes": 0, 
            "total_likes": 0, 
            "total_votes": 0
        }, 
        {
            "administrator_id": null, 
            "alignment": 0, 
            "ancestry": null, 
            "as": null, 
            "author": {
                "avatar_image": "https://decidim.barcelona/assets/avatar-866795c99abc33a3160d1f3fa93ada46eb75e54134e777666b9ed16215b26534.png", 
                "erased": false, 
                "hidden": false, 
                "id": 17741, 
                "name": "Suport General3 - Decidim Barcelona", 
                "official": false, 
                "official_level": 0, 
                "role": null, 
                "verified_organization": null
            }, 
            "body": "<p><a href=\"https://decidim.barcelona/proposals/augmentar-recuperar-i-promoure-l-us-de-l-espai-public-i-els-espais-verds-en-l-ambit-de-la-promocio-i-proteccio-de-la-salut\">https://decidim.barcelona/proposals/augmentar-recuperar-i-promoure-l-us-de-l-espai-public-i-els-espais-verds-en-l-ambit-de-la-promocio-i-proteccio-de-la-salut</a></p>", 
            "commentable_id": 950, 
            "commentable_type": "Proposal", 
            "created_at": "09/04/2016 14:18:29", 
            "flagged": false, 
            "hidden": false, 
            "id": 12238, 
            "moderator_id": null, 
            "permissions": {
                "hide": false, 
                "hide_author": false, 
                "vote": false
            }, 
            "total_dislikes": 0, 
            "total_likes": 0, 
            "total_votes": 0
        }, 
        {
            "administrator_id": null, 
            "alignment": 0, 
            "ancestry": null, 
            "as": null, 
            "author": {
                "avatar_image": "https://decidim.barcelona/assets/avatar-866795c99abc33a3160d1f3fa93ada46eb75e54134e777666b9ed16215b26534.png", 
                "erased": false, 
                "hidden": false, 
                "id": 17741, 
                "name": "Suport General3 - Decidim Barcelona", 
                "official": false, 
                "official_level": 0, 
                "role": null, 
                "verified_organization": null
            }, 
            "body": "<p><a href=\"https://decidim.barcelona/proposals/estudis-per-coneixer-els-espais-verds-de-cada-districte-i-poder-establir-comparacions\">https://decidim.barcelona/proposals/estudis-per-coneixer-els-espais-verds-de-cada-districte-i-poder-establir-comparacions</a></p>", 
            "commentable_id": 950, 
            "commentable_type": "Proposal", 
            "created_at": "09/04/2016 14:21:32", 
            "flagged": false, 
            "hidden": false, 
            "id": 12251, 
            "moderator_id": null, 
            "permissions": {
                "hide": false, 
                "hide_author": false, 
                "vote": false
            }, 
            "total_dislikes": 0, 
            "total_likes": 0, 
            "total_votes": 0
        }, 
        {
            "administrator_id": null, 
            "alignment": 0, 
            "ancestry": null, 
            "as": null, 
            "author": {
                "avatar_image": "https://decidim.barcelona/assets/avatar-866795c99abc33a3160d1f3fa93ada46eb75e54134e777666b9ed16215b26534.png", 
                "erased": false, 
                "hidden": false, 
                "id": 17741, 
                "name": "Suport General3 - Decidim Barcelona", 
                "official": false, 
                "official_level": 0, 
                "role": null, 
                "verified_organization": null
            }, 
            "body": "<p><a href=\"https://decidim.barcelona/proposals/terrats-verds\">https://decidim.barcelona/proposals/terrats-verds</a></p>", 
            "commentable_id": 950, 
            "commentable_type": "Proposal", 
            "created_at": "09/04/2016 14:24:03", 
            "flagged": false, 
            "hidden": false, 
            "id": 12256, 
            "moderator_id": null, 
            "permissions": {
                "hide": false, 
                "hide_author": false, 
                "vote": false
            }, 
            "total_dislikes": 0, 
            "total_likes": 0, 
            "total_votes": 0
        }, 
        {
            "administrator_id": null, 
            "alignment": 0, 
            "ancestry": null, 
            "as": null, 
            "author": {
                "avatar_image": "https://decidim.barcelona/assets/avatar-866795c99abc33a3160d1f3fa93ada46eb75e54134e777666b9ed16215b26534.png", 
                "erased": false, 
                "hidden": false, 
                "id": 17741, 
                "name": "Suport General3 - Decidim Barcelona", 
                "official": false, 
                "official_level": 0, 
                "role": null, 
                "verified_organization": null
            }, 
            "body": "<p><a href=\"https://decidim.barcelona/proposals/menos-asfalto-y-mas-verde-en-los-espacios-publicos\">https://decidim.barcelona/proposals/menos-asfalto-y-mas-verde-en-los-espacios-publicos</a></p>", 
            "commentable_id": 950, 
            "commentable_type": "Proposal", 
            "created_at": "09/04/2016 14:26:24", 
            "flagged": false, 
            "hidden": false, 
            "id": 12266, 
            "moderator_id": null, 
            "permissions": {
                "hide": false, 
                "hide_author": false, 
                "vote": false
            }, 
            "total_dislikes": 0, 
            "total_likes": 0, 
            "total_votes": 0
        }
    ], 
    "meta": {
        "current_page": 1, 
        "next_page": 2, 
        "prev_page": null, 
        "total_count": 22, 
        "total_pages": 2
    }
}