{
    "comments": [
        {
            "administrator_id": null, 
            "alignment": 0, 
            "ancestry": null, 
            "as": null, 
            "author": {
                "avatar_image": "https://decidim.barcelona/assets/avatar-866795c99abc33a3160d1f3fa93ada46eb75e54134e777666b9ed16215b26534.png", 
                "erased": false, 
                "hidden": false, 
                "id": 17741, 
                "name": "Suport General3 - Decidim Barcelona", 
                "official": false, 
                "official_level": 0, 
                "role": null, 
                "verified_organization": null
            }, 
            "body": "<p><a href=\"https://decidim.barcelona/proposals/barcelona-ciutat-neta-eliminem-els-pipis-i-les-caques-dels-gossos-del-carrer\">https://decidim.barcelona/proposals/barcelona-ciutat-neta-eliminem-els-pipis-i-les-caques-dels-gossos-del-carrer</a></p>", 
            "commentable_id": 957, 
            "commentable_type": "Proposal", 
            "created_at": "09/04/2016 14:43:14", 
            "flagged": false, 
            "hidden": false, 
            "id": 12332, 
            "moderator_id": null, 
            "permissions": {
                "hide": false, 
                "hide_author": false, 
                "vote": false
            }, 
            "total_dislikes": 0, 
            "total_likes": 0, 
            "total_votes": 0
        }, 
        {
            "administrator_id": null, 
            "alignment": 0, 
            "ancestry": null, 
            "as": null, 
            "author": {
                "avatar_image": "https://decidim.barcelona/assets/avatar-866795c99abc33a3160d1f3fa93ada46eb75e54134e777666b9ed16215b26534.png", 
                "erased": false, 
                "hidden": false, 
                "id": 17741, 
                "name": "Suport General3 - Decidim Barcelona", 
                "official": false, 
                "official_level": 0, 
                "role": null, 
                "verified_organization": null
            }, 
            "body": "<p><a href=\"https://decidim.barcelona/proposals/playa-para-perros-en-cualquier-temporada-estacional\">https://decidim.barcelona/proposals/playa-para-perros-en-cualquier-temporada-estacional</a></p>", 
            "commentable_id": 957, 
            "commentable_type": "Proposal", 
            "created_at": "09/04/2016 15:00:34", 
            "flagged": false, 
            "hidden": false, 
            "id": 12368, 
            "moderator_id": null, 
            "permissions": {
                "hide": false, 
                "hide_author": false, 
                "vote": false
            }, 
            "total_dislikes": 0, 
            "total_likes": 0, 
            "total_votes": 0
        }, 
        {
            "administrator_id": null, 
            "alignment": 0, 
            "ancestry": null, 
            "as": null, 
            "author": {
                "avatar_image": "https://decidim.barcelona/assets/avatar-866795c99abc33a3160d1f3fa93ada46eb75e54134e777666b9ed16215b26534.png", 
                "erased": false, 
                "hidden": false, 
                "id": 17741, 
                "name": "Suport General3 - Decidim Barcelona", 
                "official": false, 
                "official_level": 0, 
                "role": null, 
                "verified_organization": null
            }, 
            "body": "<p><a href=\"https://decidim.barcelona/proposals/ampliacion-creacion-y-adecuacion-de-zonas-para-perros\">https://decidim.barcelona/proposals/ampliacion-creacion-y-adecuacion-de-zonas-para-perros</a></p>", 
            "commentable_id": 957, 
            "commentable_type": "Proposal", 
            "created_at": "09/04/2016 15:00:58", 
            "flagged": false, 
            "hidden": false, 
            "id": 12370, 
            "moderator_id": null, 
            "permissions": {
                "hide": false, 
                "hide_author": false, 
                "vote": false
            }, 
            "total_dislikes": 0, 
            "total_likes": 0, 
            "total_votes": 0
        }, 
        {
            "administrator_id": null, 
            "alignment": 0, 
            "ancestry": null, 
            "as": null, 
            "author": {
                "avatar_image": "https://decidim.barcelona/assets/avatar-866795c99abc33a3160d1f3fa93ada46eb75e54134e777666b9ed16215b26534.png", 
                "erased": false, 
                "hidden": false, 
                "id": 17741, 
                "name": "Suport General3 - Decidim Barcelona", 
                "official": false, 
                "official_level": 0, 
                "role": null, 
                "verified_organization": null
            }, 
            "body": "<p><a href=\"https://decidim.barcelona/proposals/contra-la-playa-de-uso-exclusivo-para-perros\">https://decidim.barcelona/proposals/contra-la-playa-de-uso-exclusivo-para-perros</a></p>", 
            "commentable_id": 957, 
            "commentable_type": "Proposal", 
            "created_at": "09/04/2016 15:01:12", 
            "flagged": false, 
            "hidden": false, 
            "id": 12371, 
            "moderator_id": null, 
            "permissions": {
                "hide": false, 
                "hide_author": false, 
                "vote": false
            }, 
            "total_dislikes": 0, 
            "total_likes": 0, 
            "total_votes": 0
        }, 
        {
            "administrator_id": null, 
            "alignment": 0, 
            "ancestry": null, 
            "as": null, 
            "author": {
                "avatar_image": "https://decidim.barcelona/assets/avatar-866795c99abc33a3160d1f3fa93ada46eb75e54134e777666b9ed16215b26534.png", 
                "erased": false, 
                "hidden": false, 
                "id": 17741, 
                "name": "Suport General3 - Decidim Barcelona", 
                "official": false, 
                "official_level": 0, 
                "role": null, 
                "verified_organization": null
            }, 
            "body": "<p><a href=\"https://decidim.barcelona/proposals/mas-zonas-para-perros\">https://decidim.barcelona/proposals/mas-zonas-para-perros</a></p>", 
            "commentable_id": 957, 
            "commentable_type": "Proposal", 
            "created_at": "09/04/2016 15:01:26", 
            "flagged": false, 
            "hidden": false, 
            "id": 12373, 
            "moderator_id": null, 
            "permissions": {
                "hide": false, 
                "hide_author": false, 
                "vote": false
            }, 
            "total_dislikes": 0, 
            "total_likes": 0, 
            "total_votes": 0
        }, 
        {
            "administrator_id": null, 
            "alignment": 0, 
            "ancestry": null, 
            "as": null, 
            "author": {
                "avatar_image": "https://decidim.barcelona/assets/avatar-866795c99abc33a3160d1f3fa93ada46eb75e54134e777666b9ed16215b26534.png", 
                "erased": false, 
                "hidden": false, 
                "id": 17741, 
                "name": "Suport General3 - Decidim Barcelona", 
                "official": false, 
                "official_level": 0, 
                "role": null, 
                "verified_organization": null
            }, 
            "body": "<p><a href=\"https://decidim.barcelona/proposals/proteccio-i-convivencia-amb-els-animals\">https://decidim.barcelona/proposals/proteccio-i-convivencia-amb-els-animals</a></p>", 
            "commentable_id": 957, 
            "commentable_type": "Proposal", 
            "created_at": "09/04/2016 15:03:32", 
            "flagged": false, 
            "hidden": false, 
            "id": 12381, 
            "moderator_id": null, 
            "permissions": {
                "hide": false, 
                "hide_author": false, 
                "vote": false
            }, 
            "total_dislikes": 0, 
            "total_likes": 0, 
            "total_votes": 0
        }, 
        {
            "administrator_id": null, 
            "alignment": 0, 
            "ancestry": null, 
            "as": null, 
            "author": {
                "avatar_image": "https://decidim.barcelona/assets/avatar-866795c99abc33a3160d1f3fa93ada46eb75e54134e777666b9ed16215b26534.png", 
                "erased": false, 
                "hidden": false, 
                "id": 17741, 
                "name": "Suport General3 - Decidim Barcelona", 
                "official": false, 
                "official_level": 0, 
                "role": null, 
                "verified_organization": null
            }, 
            "body": "<p><a href=\"https://decidim.barcelona/proposals/noves-arees-d-esbarjo-d-animals-de-companyia\">https://decidim.barcelona/proposals/noves-arees-d-esbarjo-d-animals-de-companyia</a></p>", 
            "commentable_id": 957, 
            "commentable_type": "Proposal", 
            "created_at": "09/04/2016 15:06:14", 
            "flagged": false, 
            "hidden": false, 
            "id": 12389, 
            "moderator_id": null, 
            "permissions": {
                "hide": false, 
                "hide_author": false, 
                "vote": false
            }, 
            "total_dislikes": 0, 
            "total_likes": 0, 
            "total_votes": 0
        }, 
        {
            "administrator_id": null, 
            "alignment": 1, 
            "ancestry": null, 
            "as": null, 
            "author": {
                "avatar_image": "https://decidim.barcelona/assets/avatar-866795c99abc33a3160d1f3fa93ada46eb75e54134e777666b9ed16215b26534.png", 
                "erased": false, 
                "hidden": false, 
                "id": 9161, 
                "name": "TERESA MU\u00d1OZ", 
                "official": false, 
                "official_level": 0, 
                "role": null, 
                "verified_organization": null
            }, 
            "body": "<p>Campanyes de sensibilitzaci\u00f3 per a les persones que tenen gossos, perque no utilitzin els espais verds per ells, sino que vagin aqls espais destinats per ells, Ex, Parc Joan Mir\u00f3 </p>", 
            "commentable_id": 957, 
            "commentable_type": "Proposal", 
            "created_at": "09/04/2016 20:39:06", 
            "flagged": false, 
            "hidden": false, 
            "id": 12661, 
            "moderator_id": null, 
            "permissions": {
                "hide": false, 
                "hide_author": false, 
                "vote": false
            }, 
            "total_dislikes": 0, 
            "total_likes": 0, 
            "total_votes": 0
        }
    ], 
    "meta": {
        "current_page": 2, 
        "next_page": null, 
        "prev_page": 1, 
        "total_count": 28, 
        "total_pages": 2
    }
}