{
    "comments": [
        {
            "administrator_id": null, 
            "alignment": 1, 
            "ancestry": null, 
            "as": null, 
            "author": {
                "avatar_image": "https://decidim.barcelona/assets/avatar-866795c99abc33a3160d1f3fa93ada46eb75e54134e777666b9ed16215b26534.png", 
                "erased": false, 
                "hidden": false, 
                "id": 581, 
                "name": "CarmeG", 
                "official": false, 
                "official_level": 0, 
                "role": null, 
                "verified_organization": null
            }, 
            "body": "<p>Jo he fet una proposta similar perqu\u00e8 facin zones verdes en condicions pels gossos (i no pipicans petits de sorra que quan plu s\u00b4enfanga) i una part de la platja on puguin anar els gossos estiu/ hivern. Voteu-la tamb\u00e9 si us agrada. Quants m\u00e9s siguem millor.</p>", 
            "commentable_id": 957, 
            "commentable_type": "Proposal", 
            "created_at": "04/02/2016 11:46:00", 
            "flagged": false, 
            "hidden": false, 
            "id": 592, 
            "moderator_id": null, 
            "permissions": {
                "hide": false, 
                "hide_author": false, 
                "vote": false
            }, 
            "total_dislikes": 0, 
            "total_likes": 0, 
            "total_votes": 0
        }, 
        {
            "administrator_id": null, 
            "alignment": 1, 
            "ancestry": null, 
            "as": null, 
            "author": {
                "avatar_image": "https://decidim.barcelona/assets/avatar-866795c99abc33a3160d1f3fa93ada46eb75e54134e777666b9ed16215b26534.png", 
                "erased": false, 
                "hidden": false, 
                "id": 10493, 
                "name": "Urkiux", 
                "official": false, 
                "official_level": 0, 
                "role": null, 
                "verified_organization": null
            }, 
            "body": "<p>I obligar els amos del gossos a que els utilitzin. Els cas del Turo Parc \u00e9s escandal\u00f2s. Els gossos campen per tot arrreu sense control!!</p>", 
            "commentable_id": 957, 
            "commentable_type": "Proposal", 
            "created_at": "05/03/2016 22:20:03", 
            "flagged": false, 
            "hidden": false, 
            "id": 3698, 
            "moderator_id": null, 
            "permissions": {
                "hide": false, 
                "hide_author": false, 
                "vote": false
            }, 
            "total_dislikes": 0, 
            "total_likes": 0, 
            "total_votes": 0
        }, 
        {
            "administrator_id": null, 
            "alignment": 1, 
            "ancestry": null, 
            "as": null, 
            "author": {
                "avatar_image": "https://decidim.barcelona/assets/avatar-866795c99abc33a3160d1f3fa93ada46eb75e54134e777666b9ed16215b26534.png", 
                "erased": false, 
                "hidden": false, 
                "id": 3827, 
                "name": "suport decidim.barcelona", 
                "official": false, 
                "official_level": 0, 
                "role": "moderator", 
                "verified_organization": null
            }, 
            "body": "<p>Proposta debatuda en la cita presencial: El joc a la ciutat, Ciutat Vella: \"Que hi hagi m\u00e9s pipi-cans i espais perqu\u00e8 els gossos corrin distribu\u00efts per diferents places del barri perqu\u00e8 no es concentrin tots a la pla\u00e7a Joan Coromines i prenguin espai a altres usuaris.\"</p>", 
            "commentable_id": 957, 
            "commentable_type": "Proposal", 
            "created_at": "10/03/2016 18:18:00", 
            "flagged": false, 
            "hidden": false, 
            "id": 4412, 
            "moderator_id": null, 
            "permissions": {
                "hide": false, 
                "hide_author": false, 
                "vote": false
            }, 
            "total_dislikes": 0, 
            "total_likes": 0, 
            "total_votes": 0
        }, 
        {
            "administrator_id": null, 
            "alignment": 1, 
            "ancestry": null, 
            "as": null, 
            "author": {
                "avatar_image": "https://decidim.barcelona/assets/avatar-866795c99abc33a3160d1f3fa93ada46eb75e54134e777666b9ed16215b26534.png", 
                "erased": false, 
                "hidden": false, 
                "id": 12179, 
                "name": "suport.decidim1", 
                "official": false, 
                "official_level": 0, 
                "role": null, 
                "verified_organization": null
            }, 
            "body": "<p>Proposta debatuda en la cita presencial: Consell de conviv\u00e8ncia, defensa i Protecci\u00f3 dels animals. \"Crear noves \u00e0rres d\u2019esbarjo de gossos i millorar les ja existents.\"</p>", 
            "commentable_id": 957, 
            "commentable_type": "Proposal", 
            "created_at": "05/04/2016 17:49:53", 
            "flagged": false, 
            "hidden": false, 
            "id": 8096, 
            "moderator_id": null, 
            "permissions": {
                "hide": false, 
                "hide_author": false, 
                "vote": false
            }, 
            "total_dislikes": 0, 
            "total_likes": 0, 
            "total_votes": 0
        }, 
        {
            "administrator_id": null, 
            "alignment": 0, 
            "ancestry": null, 
            "as": null, 
            "author": {
                "avatar_image": "https://decidim.barcelona/assets/avatar-866795c99abc33a3160d1f3fa93ada46eb75e54134e777666b9ed16215b26534.png", 
                "erased": false, 
                "hidden": false, 
                "id": 9262, 
                "name": "Suport General - Decidim Barcelona", 
                "official": false, 
                "official_level": 0, 
                "role": null, 
                "verified_organization": null
            }, 
            "body": "<p><a href=\"https://decidim.barcelona/proposals/conscienciar-a-la-ciutadania-amb-el-tema-de-la-neteja-i-higiene-al-carrer-i-millorar-la-neteja-de-la-via-publica-especial-emfasi-en-la-bruticia-dels-gossos\">https://decidim.barcelona/proposals/conscienciar-a-la-ciutadania-amb-el-tema-de-la-neteja-i-higiene-al-carrer-i-millorar-la-neteja-de-la-via-publica-especial-emfasi-en-la-bruticia-dels-gossos</a></p>", 
            "commentable_id": 957, 
            "commentable_type": "Proposal", 
            "created_at": "06/04/2016 16:09:49", 
            "flagged": false, 
            "hidden": false, 
            "id": 8689, 
            "moderator_id": null, 
            "permissions": {
                "hide": false, 
                "hide_author": false, 
                "vote": false
            }, 
            "total_dislikes": 0, 
            "total_likes": 0, 
            "total_votes": 0
        }, 
        {
            "administrator_id": null, 
            "alignment": 0, 
            "ancestry": null, 
            "as": null, 
            "author": {
                "avatar_image": "https://decidim.barcelona/assets/avatar-866795c99abc33a3160d1f3fa93ada46eb75e54134e777666b9ed16215b26534.png", 
                "erased": false, 
                "hidden": false, 
                "id": 9262, 
                "name": "Suport General - Decidim Barcelona", 
                "official": false, 
                "official_level": 0, 
                "role": null, 
                "verified_organization": null
            }, 
            "body": "<p><a href=\"https://decidim.barcelona/proposals/crear-espacios-para-perros-en-el-eixample-esquerra\">https://decidim.barcelona/proposals/crear-espacios-para-perros-en-el-eixample-esquerra</a></p>", 
            "commentable_id": 957, 
            "commentable_type": "Proposal", 
            "created_at": "07/04/2016 09:46:18", 
            "flagged": false, 
            "hidden": false, 
            "id": 9057, 
            "moderator_id": null, 
            "permissions": {
                "hide": false, 
                "hide_author": false, 
                "vote": false
            }, 
            "total_dislikes": 0, 
            "total_likes": 0, 
            "total_votes": 0
        }, 
        {
            "administrator_id": null, 
            "alignment": 0, 
            "ancestry": null, 
            "as": null, 
            "author": {
                "avatar_image": "https://decidim.barcelona/assets/avatar-866795c99abc33a3160d1f3fa93ada46eb75e54134e777666b9ed16215b26534.png", 
                "erased": false, 
                "hidden": false, 
                "id": 17741, 
                "name": "Suport General3 - Decidim Barcelona", 
                "official": false, 
                "official_level": 0, 
                "role": null, 
                "verified_organization": null
            }, 
            "body": "<p><a href=\"https://decidim.barcelona/proposals/zones-d-usos-comuns-amb-franges-horaries-en-que-els-gossos-poden-correr-lliurement-sense-lligar-segons-horaris\">https://decidim.barcelona/proposals/zones-d-usos-comuns-amb-franges-horaries-en-que-els-gossos-poden-correr-lliurement-sense-lligar-segons-horaris</a></p>", 
            "commentable_id": 957, 
            "commentable_type": "Proposal", 
            "created_at": "07/04/2016 13:25:41", 
            "flagged": false, 
            "hidden": false, 
            "id": 9305, 
            "moderator_id": null, 
            "permissions": {
                "hide": false, 
                "hide_author": false, 
                "vote": false
            }, 
            "total_dislikes": 0, 
            "total_likes": 0, 
            "total_votes": 0
        }, 
        {
            "administrator_id": null, 
            "alignment": 0, 
            "ancestry": null, 
            "as": null, 
            "author": {
                "avatar_image": "https://decidim.barcelona/assets/avatar-866795c99abc33a3160d1f3fa93ada46eb75e54134e777666b9ed16215b26534.png", 
                "erased": false, 
                "hidden": false, 
                "id": 17741, 
                "name": "Suport General3 - Decidim Barcelona", 
                "official": false, 
                "official_level": 0, 
                "role": null, 
                "verified_organization": null
            }, 
            "body": "<p><a href=\"https://decidim.barcelona/proposals/senyalitzacio-d-arees-per-a-gossos-i-zones-mixtes-i-d-interseccio\">https://decidim.barcelona/proposals/senyalitzacio-d-arees-per-a-gossos-i-zones-mixtes-i-d-interseccio</a></p>", 
            "commentable_id": 957, 
            "commentable_type": "Proposal", 
            "created_at": "07/04/2016 13:30:50", 
            "flagged": false, 
            "hidden": false, 
            "id": 9326, 
            "moderator_id": null, 
            "permissions": {
                "hide": false, 
                "hide_author": false, 
                "vote": false
            }, 
            "total_dislikes": 0, 
            "total_likes": 0, 
            "total_votes": 0
        }, 
        {
            "administrator_id": null, 
            "alignment": 0, 
            "ancestry": null, 
            "as": null, 
            "author": {
                "avatar_image": "https://decidim.barcelona/assets/avatar-866795c99abc33a3160d1f3fa93ada46eb75e54134e777666b9ed16215b26534.png", 
                "erased": false, 
                "hidden": false, 
                "id": 17741, 
                "name": "Suport General3 - Decidim Barcelona", 
                "official": false, 
                "official_level": 0, 
                "role": null, 
                "verified_organization": null
            }, 
            "body": "<p><a href=\"https://decidim.barcelona/proposals/habilitar-mes-espais-per-gossos-a-la-ciutat\">https://decidim.barcelona/proposals/habilitar-mes-espais-per-gossos-a-la-ciutat</a></p>", 
            "commentable_id": 957, 
            "commentable_type": "Proposal", 
            "created_at": "07/04/2016 16:46:01", 
            "flagged": false, 
            "hidden": false, 
            "id": 9683, 
            "moderator_id": null, 
            "permissions": {
                "hide": false, 
                "hide_author": false, 
                "vote": false
            }, 
            "total_dislikes": 0, 
            "total_likes": 0, 
            "total_votes": 0
        }, 
        {
            "administrator_id": null, 
            "alignment": 0, 
            "ancestry": null, 
            "as": null, 
            "author": {
                "avatar_image": "https://decidim.barcelona/assets/avatar-866795c99abc33a3160d1f3fa93ada46eb75e54134e777666b9ed16215b26534.png", 
                "erased": false, 
                "hidden": false, 
                "id": 17741, 
                "name": "Suport General3 - Decidim Barcelona", 
                "official": false, 
                "official_level": 0, 
                "role": null, 
                "verified_organization": null
            }, 
            "body": "<p><a href=\"https://decidim.barcelona/proposals/ampliacion-creacion-y-adecuacion-de-zonas-para-perros\">https://decidim.barcelona/proposals/ampliacion-creacion-y-adecuacion-de-zonas-para-perros</a></p>", 
            "commentable_id": 957, 
            "commentable_type": "Proposal", 
            "created_at": "08/04/2016 13:58:31", 
            "flagged": false, 
            "hidden": false, 
            "id": 10869, 
            "moderator_id": null, 
            "permissions": {
                "hide": false, 
                "hide_author": false, 
                "vote": false
            }, 
            "total_dislikes": 0, 
            "total_likes": 0, 
            "total_votes": 0
        }, 
        {
            "administrator_id": null, 
            "alignment": 0, 
            "ancestry": null, 
            "as": null, 
            "author": {
                "avatar_image": "https://decidim.barcelona/assets/avatar-866795c99abc33a3160d1f3fa93ada46eb75e54134e777666b9ed16215b26534.png", 
                "erased": false, 
                "hidden": false, 
                "id": 17741, 
                "name": "Suport General3 - Decidim Barcelona", 
                "official": false, 
                "official_level": 0, 
                "role": null, 
                "verified_organization": null
            }, 
            "body": "<p><a href=\"https://decidim.barcelona/proposals/acotar-la-invassio-de-gossos-en-espais-publics\">https://decidim.barcelona/proposals/acotar-la-invassio-de-gossos-en-espais-publics</a></p>", 
            "commentable_id": 957, 
            "commentable_type": "Proposal", 
            "created_at": "09/04/2016 14:26:49", 
            "flagged": false, 
            "hidden": false, 
            "id": 12269, 
            "moderator_id": null, 
            "permissions": {
                "hide": false, 
                "hide_author": false, 
                "vote": false
            }, 
            "total_dislikes": 0, 
            "total_likes": 0, 
            "total_votes": 0
        }, 
        {
            "administrator_id": null, 
            "alignment": 0, 
            "ancestry": null, 
            "as": null, 
            "author": {
                "avatar_image": "https://decidim.barcelona/assets/avatar-866795c99abc33a3160d1f3fa93ada46eb75e54134e777666b9ed16215b26534.png", 
                "erased": false, 
                "hidden": false, 
                "id": 17741, 
                "name": "Suport General3 - Decidim Barcelona", 
                "official": false, 
                "official_level": 0, 
                "role": null, 
                "verified_organization": null
            }, 
            "body": "<p><a href=\"https://decidim.barcelona/proposals/primer-les-persones-despres-els-gossos\">https://decidim.barcelona/proposals/primer-les-persones-despres-els-gossos</a></p>", 
            "commentable_id": 957, 
            "commentable_type": "Proposal", 
            "created_at": "09/04/2016 14:27:36", 
            "flagged": false, 
            "hidden": false, 
            "id": 12274, 
            "moderator_id": null, 
            "permissions": {
                "hide": false, 
                "hide_author": false, 
                "vote": false
            }, 
            "total_dislikes": 0, 
            "total_likes": 0, 
            "total_votes": 0
        }, 
        {
            "administrator_id": null, 
            "alignment": 0, 
            "ancestry": null, 
            "as": null, 
            "author": {
                "avatar_image": "https://decidim.barcelona/assets/avatar-866795c99abc33a3160d1f3fa93ada46eb75e54134e777666b9ed16215b26534.png", 
                "erased": false, 
                "hidden": false, 
                "id": 17741, 
                "name": "Suport General3 - Decidim Barcelona", 
                "official": false, 
                "official_level": 0, 
                "role": null, 
                "verified_organization": null
            }, 
            "body": "<p><a href=\"https://decidim.barcelona/proposals/gossos-pipis-i-caques-a-casa\">https://decidim.barcelona/proposals/gossos-pipis-i-caques-a-casa</a></p>", 
            "commentable_id": 957, 
            "commentable_type": "Proposal", 
            "created_at": "09/04/2016 14:28:07", 
            "flagged": false, 
            "hidden": false, 
            "id": 12276, 
            "moderator_id": null, 
            "permissions": {
                "hide": false, 
                "hide_author": false, 
                "vote": false
            }, 
            "total_dislikes": 0, 
            "total_likes": 0, 
            "total_votes": 0
        }, 
        {
            "administrator_id": null, 
            "alignment": 0, 
            "ancestry": null, 
            "as": null, 
            "author": {
                "avatar_image": "https://decidim.barcelona/assets/avatar-866795c99abc33a3160d1f3fa93ada46eb75e54134e777666b9ed16215b26534.png", 
                "erased": false, 
                "hidden": false, 
                "id": 17741, 
                "name": "Suport General3 - Decidim Barcelona", 
                "official": false, 
                "official_level": 0, 
                "role": null, 
                "verified_organization": null
            }, 
            "body": "<p><a href=\"https://decidim.barcelona/proposals/barcelona-ciutat-amiga-dels-gossos\">https://decidim.barcelona/proposals/barcelona-ciutat-amiga-dels-gossos</a></p>", 
            "commentable_id": 957, 
            "commentable_type": "Proposal", 
            "created_at": "09/04/2016 14:28:28", 
            "flagged": false, 
            "hidden": false, 
            "id": 12278, 
            "moderator_id": null, 
            "permissions": {
                "hide": false, 
                "hide_author": false, 
                "vote": false
            }, 
            "total_dislikes": 0, 
            "total_likes": 0, 
            "total_votes": 0
        }, 
        {
            "administrator_id": null, 
            "alignment": 0, 
            "ancestry": null, 
            "as": null, 
            "author": {
                "avatar_image": "https://decidim.barcelona/assets/avatar-866795c99abc33a3160d1f3fa93ada46eb75e54134e777666b9ed16215b26534.png", 
                "erased": false, 
                "hidden": false, 
                "id": 17741, 
                "name": "Suport General3 - Decidim Barcelona", 
                "official": false, 
                "official_level": 0, 
                "role": null, 
                "verified_organization": null
            }, 
            "body": "<p><a href=\"https://decidim.barcelona/proposals/delimitar-l-entrada-de-gossos-a-les-arees-verdes\">https://decidim.barcelona/proposals/delimitar-l-entrada-de-gossos-a-les-arees-verdes</a></p>", 
            "commentable_id": 957, 
            "commentable_type": "Proposal", 
            "created_at": "09/04/2016 14:28:47", 
            "flagged": false, 
            "hidden": false, 
            "id": 12280, 
            "moderator_id": null, 
            "permissions": {
                "hide": false, 
                "hide_author": false, 
                "vote": false
            }, 
            "total_dislikes": 0, 
            "total_likes": 0, 
            "total_votes": 0
        }, 
        {
            "administrator_id": null, 
            "alignment": 0, 
            "ancestry": null, 
            "as": null, 
            "author": {
                "avatar_image": "https://decidim.barcelona/assets/avatar-866795c99abc33a3160d1f3fa93ada46eb75e54134e777666b9ed16215b26534.png", 
                "erased": false, 
                "hidden": false, 
                "id": 17741, 
                "name": "Suport General3 - Decidim Barcelona", 
                "official": false, 
                "official_level": 0, 
                "role": null, 
                "verified_organization": null
            }, 
            "body": "<p><a href=\"https://decidim.barcelona/proposals/separacio-jardins-i-zones-d-oci-de-nens-de-les-zones-per-a-gossos\">https://decidim.barcelona/proposals/separacio-jardins-i-zones-d-oci-de-nens-de-les-zones-per-a-gossos</a></p>", 
            "commentable_id": 957, 
            "commentable_type": "Proposal", 
            "created_at": "09/04/2016 14:38:41", 
            "flagged": false, 
            "hidden": false, 
            "id": 12316, 
            "moderator_id": null, 
            "permissions": {
                "hide": false, 
                "hide_author": false, 
                "vote": false
            }, 
            "total_dislikes": 0, 
            "total_likes": 0, 
            "total_votes": 0
        }, 
        {
            "administrator_id": null, 
            "alignment": 0, 
            "ancestry": null, 
            "as": null, 
            "author": {
                "avatar_image": "https://decidim.barcelona/assets/avatar-866795c99abc33a3160d1f3fa93ada46eb75e54134e777666b9ed16215b26534.png", 
                "erased": false, 
                "hidden": false, 
                "id": 17741, 
                "name": "Suport General3 - Decidim Barcelona", 
                "official": false, 
                "official_level": 0, 
                "role": null, 
                "verified_organization": null
            }, 
            "body": "<p><a href=\"https://decidim.barcelona/proposals/delimitar-clarament-zones-inodores-per-gossos-en-totes-les-voreres-o-carrers\">https://decidim.barcelona/proposals/delimitar-clarament-zones-inodores-per-gossos-en-totes-les-voreres-o-carrers</a></p>", 
            "commentable_id": 957, 
            "commentable_type": "Proposal", 
            "created_at": "09/04/2016 14:39:46", 
            "flagged": false, 
            "hidden": false, 
            "id": 12322, 
            "moderator_id": null, 
            "permissions": {
                "hide": false, 
                "hide_author": false, 
                "vote": false
            }, 
            "total_dislikes": 0, 
            "total_likes": 0, 
            "total_votes": 0
        }, 
        {
            "administrator_id": null, 
            "alignment": 0, 
            "ancestry": null, 
            "as": null, 
            "author": {
                "avatar_image": "https://decidim.barcelona/assets/avatar-866795c99abc33a3160d1f3fa93ada46eb75e54134e777666b9ed16215b26534.png", 
                "erased": false, 
                "hidden": false, 
                "id": 17741, 
                "name": "Suport General3 - Decidim Barcelona", 
                "official": false, 
                "official_level": 0, 
                "role": null, 
                "verified_organization": null
            }, 
            "body": "<p><a href=\"https://decidim.barcelona/proposals/zones-d-esbarjo-per-a-gossos-i-els-seus-acompanyants\">https://decidim.barcelona/proposals/zones-d-esbarjo-per-a-gossos-i-els-seus-acompanyants</a></p>", 
            "commentable_id": 957, 
            "commentable_type": "Proposal", 
            "created_at": "09/04/2016 14:40:52", 
            "flagged": false, 
            "hidden": false, 
            "id": 12326, 
            "moderator_id": null, 
            "permissions": {
                "hide": false, 
                "hide_author": false, 
                "vote": false
            }, 
            "total_dislikes": 0, 
            "total_likes": 0, 
            "total_votes": 0
        }, 
        {
            "administrator_id": null, 
            "alignment": 0, 
            "ancestry": null, 
            "as": null, 
            "author": {
                "avatar_image": "https://decidim.barcelona/assets/avatar-866795c99abc33a3160d1f3fa93ada46eb75e54134e777666b9ed16215b26534.png", 
                "erased": false, 
                "hidden": false, 
                "id": 17741, 
                "name": "Suport General3 - Decidim Barcelona", 
                "official": false, 
                "official_level": 0, 
                "role": null, 
                "verified_organization": null
            }, 
            "body": "<p><a href=\"https://decidim.barcelona/proposals/parcs-o-zones-per-a-la-gent-que-tenim-gossos\">https://decidim.barcelona/proposals/parcs-o-zones-per-a-la-gent-que-tenim-gossos</a></p>", 
            "commentable_id": 957, 
            "commentable_type": "Proposal", 
            "created_at": "09/04/2016 14:40:55", 
            "flagged": false, 
            "hidden": false, 
            "id": 12327, 
            "moderator_id": null, 
            "permissions": {
                "hide": false, 
                "hide_author": false, 
                "vote": false
            }, 
            "total_dislikes": 0, 
            "total_likes": 0, 
            "total_votes": 0
        }, 
        {
            "administrator_id": null, 
            "alignment": 0, 
            "ancestry": null, 
            "as": null, 
            "author": {
                "avatar_image": "https://decidim.barcelona/assets/avatar-866795c99abc33a3160d1f3fa93ada46eb75e54134e777666b9ed16215b26534.png", 
                "erased": false, 
                "hidden": false, 
                "id": 17741, 
                "name": "Suport General3 - Decidim Barcelona", 
                "official": false, 
                "official_level": 0, 
                "role": null, 
                "verified_organization": null
            }, 
            "body": "<p><a href=\"https://decidim.barcelona/proposals/el-mon-cani-2\">https://decidim.barcelona/proposals/el-mon-cani-2</a></p>", 
            "commentable_id": 957, 
            "commentable_type": "Proposal", 
            "created_at": "09/04/2016 14:42:55", 
            "flagged": false, 
            "hidden": false, 
            "id": 12331, 
            "moderator_id": null, 
            "permissions": {
                "hide": false, 
                "hide_author": false, 
                "vote": false
            }, 
            "total_dislikes": 0, 
            "total_likes": 0, 
            "total_votes": 0
        }
    ], 
    "meta": {
        "current_page": 1, 
        "next_page": 2, 
        "prev_page": null, 
        "total_count": 28, 
        "total_pages": 2
    }
}