{
    "comments": [
        {
            "administrator_id": null, 
            "alignment": 0, 
            "ancestry": null, 
            "as": null, 
            "author": {
                "avatar_image": "https://decidim.barcelona/assets/avatar-866795c99abc33a3160d1f3fa93ada46eb75e54134e777666b9ed16215b26534.png", 
                "erased": false, 
                "hidden": false, 
                "id": 9262, 
                "name": "Suport General - Decidim Barcelona", 
                "official": false, 
                "official_level": 0, 
                "role": null, 
                "verified_organization": null
            }, 
            "body": "<p><a href=\"https://decidim.barcelona/proposals/l9-por-el-centro-de-la-ciudad\">https://decidim.barcelona/proposals/l9-por-el-centro-de-la-ciudad</a></p>", 
            "commentable_id": 978, 
            "commentable_type": "Proposal", 
            "created_at": "07/04/2016 17:44:25", 
            "flagged": false, 
            "hidden": false, 
            "id": 9822, 
            "moderator_id": null, 
            "permissions": {
                "hide": false, 
                "hide_author": false, 
                "vote": false
            }, 
            "total_dislikes": 0, 
            "total_likes": 0, 
            "total_votes": 0
        }, 
        {
            "administrator_id": null, 
            "alignment": 0, 
            "ancestry": null, 
            "as": null, 
            "author": {
                "avatar_image": "https://decidim.barcelona/assets/avatar-866795c99abc33a3160d1f3fa93ada46eb75e54134e777666b9ed16215b26534.png", 
                "erased": false, 
                "hidden": false, 
                "id": 9262, 
                "name": "Suport General - Decidim Barcelona", 
                "official": false, 
                "official_level": 0, 
                "role": null, 
                "verified_organization": null
            }, 
            "body": "<p><a href=\"https://decidim.barcelona/proposals/horaris-dels-transports-publics\">https://decidim.barcelona/proposals/horaris-dels-transports-publics</a></p>", 
            "commentable_id": 978, 
            "commentable_type": "Proposal", 
            "created_at": "07/04/2016 18:07:22", 
            "flagged": false, 
            "hidden": false, 
            "id": 9861, 
            "moderator_id": null, 
            "permissions": {
                "hide": false, 
                "hide_author": false, 
                "vote": false
            }, 
            "total_dislikes": 0, 
            "total_likes": 0, 
            "total_votes": 0
        }, 
        {
            "administrator_id": null, 
            "alignment": 0, 
            "ancestry": null, 
            "as": null, 
            "author": {
                "avatar_image": "https://decidim.barcelona/assets/avatar-866795c99abc33a3160d1f3fa93ada46eb75e54134e777666b9ed16215b26534.png", 
                "erased": false, 
                "hidden": false, 
                "id": 9262, 
                "name": "Suport General - Decidim Barcelona", 
                "official": false, 
                "official_level": 0, 
                "role": null, 
                "verified_organization": null
            }, 
            "body": "<p><a href=\"https://decidim.barcelona/proposals/fora-zona-verda-de-pagament\">https://decidim.barcelona/proposals/fora-zona-verda-de-pagament</a></p>", 
            "commentable_id": 978, 
            "commentable_type": "Proposal", 
            "created_at": "07/04/2016 18:10:17", 
            "flagged": false, 
            "hidden": false, 
            "id": 9866, 
            "moderator_id": null, 
            "permissions": {
                "hide": false, 
                "hide_author": false, 
                "vote": false
            }, 
            "total_dislikes": 0, 
            "total_likes": 0, 
            "total_votes": 0
        }, 
        {
            "administrator_id": null, 
            "alignment": 0, 
            "ancestry": null, 
            "as": null, 
            "author": {
                "avatar_image": "https://decidim.barcelona/assets/avatar-866795c99abc33a3160d1f3fa93ada46eb75e54134e777666b9ed16215b26534.png", 
                "erased": false, 
                "hidden": false, 
                "id": 9262, 
                "name": "Suport General - Decidim Barcelona", 
                "official": false, 
                "official_level": 0, 
                "role": null, 
                "verified_organization": null
            }, 
            "body": "<p><a href=\"https://decidim.barcelona/proposals/fem-passar-el-tramvia-per-la-gran-via\">https://decidim.barcelona/proposals/fem-passar-el-tramvia-per-la-gran-via</a></p>", 
            "commentable_id": 978, 
            "commentable_type": "Proposal", 
            "created_at": "08/04/2016 10:11:26", 
            "flagged": false, 
            "hidden": false, 
            "id": 10272, 
            "moderator_id": null, 
            "permissions": {
                "hide": false, 
                "hide_author": false, 
                "vote": false
            }, 
            "total_dislikes": 0, 
            "total_likes": 0, 
            "total_votes": 0
        }, 
        {
            "administrator_id": null, 
            "alignment": 0, 
            "ancestry": null, 
            "as": null, 
            "author": {
                "avatar_image": "https://decidim.barcelona/assets/avatar-866795c99abc33a3160d1f3fa93ada46eb75e54134e777666b9ed16215b26534.png", 
                "erased": false, 
                "hidden": false, 
                "id": 17741, 
                "name": "Suport General3 - Decidim Barcelona", 
                "official": false, 
                "official_level": 0, 
                "role": null, 
                "verified_organization": null
            }, 
            "body": "<p><a href=\"https://decidim.barcelona/proposals/reduir-les-arees-d-aparcament-en-espai-public-per-recuperar-les-per-a-persones\">https://decidim.barcelona/proposals/reduir-les-arees-d-aparcament-en-espai-public-per-recuperar-les-per-a-persones</a></p>", 
            "commentable_id": 978, 
            "commentable_type": "Proposal", 
            "created_at": "08/04/2016 13:34:59", 
            "flagged": false, 
            "hidden": false, 
            "id": 10798, 
            "moderator_id": null, 
            "permissions": {
                "hide": false, 
                "hide_author": false, 
                "vote": false
            }, 
            "total_dislikes": 0, 
            "total_likes": 0, 
            "total_votes": 0
        }, 
        {
            "administrator_id": null, 
            "alignment": 0, 
            "ancestry": null, 
            "as": null, 
            "author": {
                "avatar_image": "https://decidim.barcelona/assets/avatar-866795c99abc33a3160d1f3fa93ada46eb75e54134e777666b9ed16215b26534.png", 
                "erased": false, 
                "hidden": false, 
                "id": 9262, 
                "name": "Suport General - Decidim Barcelona", 
                "official": false, 
                "official_level": 0, 
                "role": null, 
                "verified_organization": null
            }, 
            "body": "<p><a href=\"https://decidim.barcelona/proposals/reduir-el-trafic-rodat-a-tota-la-ciutat\">https://decidim.barcelona/proposals/reduir-el-trafic-rodat-a-tota-la-ciutat</a></p>", 
            "commentable_id": 978, 
            "commentable_type": "Proposal", 
            "created_at": "13/04/2016 16:24:32", 
            "flagged": false, 
            "hidden": false, 
            "id": 14908, 
            "moderator_id": null, 
            "permissions": {
                "hide": false, 
                "hide_author": false, 
                "vote": false
            }, 
            "total_dislikes": 0, 
            "total_likes": 0, 
            "total_votes": 0
        }, 
        {
            "administrator_id": null, 
            "alignment": 0, 
            "ancestry": null, 
            "as": null, 
            "author": {
                "avatar_image": "https://decidim.barcelona/assets/avatar-866795c99abc33a3160d1f3fa93ada46eb75e54134e777666b9ed16215b26534.png", 
                "erased": false, 
                "hidden": false, 
                "id": 9262, 
                "name": "Suport General - Decidim Barcelona", 
                "official": false, 
                "official_level": 0, 
                "role": null, 
                "verified_organization": null
            }, 
            "body": "<p><a href=\"https://decidim.barcelona/proposals/regular-la-mobilitat-amb-vehicle-privat\">https://decidim.barcelona/proposals/regular-la-mobilitat-amb-vehicle-privat</a></p>", 
            "commentable_id": 978, 
            "commentable_type": "Proposal", 
            "created_at": "13/04/2016 16:30:39", 
            "flagged": false, 
            "hidden": false, 
            "id": 14917, 
            "moderator_id": null, 
            "permissions": {
                "hide": false, 
                "hide_author": false, 
                "vote": false
            }, 
            "total_dislikes": 0, 
            "total_likes": 0, 
            "total_votes": 0
        }, 
        {
            "administrator_id": null, 
            "alignment": 0, 
            "ancestry": null, 
            "as": null, 
            "author": {
                "avatar_image": "https://decidim.barcelona/assets/avatar-866795c99abc33a3160d1f3fa93ada46eb75e54134e777666b9ed16215b26534.png", 
                "erased": false, 
                "hidden": false, 
                "id": 9262, 
                "name": "Suport General - Decidim Barcelona", 
                "official": false, 
                "official_level": 0, 
                "role": null, 
                "verified_organization": null
            }, 
            "body": "<p><a href=\"https://decidim.barcelona/proposals/peatge-urba-com-a-estrategia-d-eficiencia-del-sistema-de-mobilitat\">https://decidim.barcelona/proposals/peatge-urba-com-a-estrategia-d-eficiencia-del-sistema-de-mobilitat</a></p>", 
            "commentable_id": 978, 
            "commentable_type": "Proposal", 
            "created_at": "13/04/2016 16:34:07", 
            "flagged": false, 
            "hidden": false, 
            "id": 14921, 
            "moderator_id": null, 
            "permissions": {
                "hide": false, 
                "hide_author": false, 
                "vote": false
            }, 
            "total_dislikes": 0, 
            "total_likes": 0, 
            "total_votes": 0
        }, 
        {
            "administrator_id": null, 
            "alignment": 0, 
            "ancestry": null, 
            "as": null, 
            "author": {
                "avatar_image": "https://decidim.barcelona/assets/avatar-866795c99abc33a3160d1f3fa93ada46eb75e54134e777666b9ed16215b26534.png", 
                "erased": false, 
                "hidden": false, 
                "id": 9262, 
                "name": "Suport General - Decidim Barcelona", 
                "official": false, 
                "official_level": 0, 
                "role": null, 
                "verified_organization": null
            }, 
            "body": "<p><a href=\"https://decidim.barcelona/proposals/facilitar-la-incorporacio-a-la-xarxa-als-nous-modes-de-transport-sostenible\">https://decidim.barcelona/proposals/facilitar-la-incorporacio-a-la-xarxa-als-nous-modes-de-transport-sostenible</a></p>", 
            "commentable_id": 978, 
            "commentable_type": "Proposal", 
            "created_at": "13/04/2016 16:45:24", 
            "flagged": false, 
            "hidden": false, 
            "id": 14936, 
            "moderator_id": null, 
            "permissions": {
                "hide": false, 
                "hide_author": false, 
                "vote": false
            }, 
            "total_dislikes": 0, 
            "total_likes": 0, 
            "total_votes": 0
        }, 
        {
            "administrator_id": null, 
            "alignment": 0, 
            "ancestry": null, 
            "as": null, 
            "author": {
                "avatar_image": "https://decidim.barcelona/assets/avatar-866795c99abc33a3160d1f3fa93ada46eb75e54134e777666b9ed16215b26534.png", 
                "erased": false, 
                "hidden": false, 
                "id": 9262, 
                "name": "Suport General - Decidim Barcelona", 
                "official": false, 
                "official_level": 0, 
                "role": null, 
                "verified_organization": null
            }, 
            "body": "<p><a href=\"https://decidim.barcelona/proposals/incentivar-l-us-del-transport-public-amb-alternatives-de-transport-eficient\">https://decidim.barcelona/proposals/incentivar-l-us-del-transport-public-amb-alternatives-de-transport-eficient</a></p>", 
            "commentable_id": 978, 
            "commentable_type": "Proposal", 
            "created_at": "13/04/2016 16:49:54", 
            "flagged": false, 
            "hidden": false, 
            "id": 14942, 
            "moderator_id": null, 
            "permissions": {
                "hide": false, 
                "hide_author": false, 
                "vote": false
            }, 
            "total_dislikes": 0, 
            "total_likes": 0, 
            "total_votes": 0
        }, 
        {
            "administrator_id": null, 
            "alignment": 0, 
            "ancestry": null, 
            "as": null, 
            "author": {
                "avatar_image": "https://decidim.barcelona/assets/avatar-866795c99abc33a3160d1f3fa93ada46eb75e54134e777666b9ed16215b26534.png", 
                "erased": false, 
                "hidden": false, 
                "id": 9262, 
                "name": "Suport General - Decidim Barcelona", 
                "official": false, 
                "official_level": 0, 
                "role": null, 
                "verified_organization": null
            }, 
            "body": "<p><a href=\"https://decidim.barcelona/proposals/connectar-els-equipaments-mitjancant-recorreguts-segurs\">https://decidim.barcelona/proposals/connectar-els-equipaments-mitjancant-recorreguts-segurs</a></p>", 
            "commentable_id": 978, 
            "commentable_type": "Proposal", 
            "created_at": "13/04/2016 17:03:41", 
            "flagged": false, 
            "hidden": false, 
            "id": 14954, 
            "moderator_id": null, 
            "permissions": {
                "hide": false, 
                "hide_author": false, 
                "vote": false
            }, 
            "total_dislikes": 0, 
            "total_likes": 0, 
            "total_votes": 0
        }, 
        {
            "administrator_id": null, 
            "alignment": 0, 
            "ancestry": null, 
            "as": null, 
            "author": {
                "avatar_image": "https://decidim.barcelona/assets/avatar-866795c99abc33a3160d1f3fa93ada46eb75e54134e777666b9ed16215b26534.png", 
                "erased": false, 
                "hidden": false, 
                "id": 9262, 
                "name": "Suport General - Decidim Barcelona", 
                "official": false, 
                "official_level": 0, 
                "role": null, 
                "verified_organization": null
            }, 
            "body": "<p><a href=\"https://decidim.barcelona/proposals/fiscalitzar-multar-els-vehicles-que-es-mantenen-encesos-mes-de-x-minuts\">https://decidim.barcelona/proposals/fiscalitzar-multar-els-vehicles-que-es-mantenen-encesos-mes-de-x-minuts</a></p>", 
            "commentable_id": 978, 
            "commentable_type": "Proposal", 
            "created_at": "13/04/2016 17:23:42", 
            "flagged": false, 
            "hidden": false, 
            "id": 14969, 
            "moderator_id": null, 
            "permissions": {
                "hide": false, 
                "hide_author": false, 
                "vote": false
            }, 
            "total_dislikes": 0, 
            "total_likes": 0, 
            "total_votes": 0
        }, 
        {
            "administrator_id": null, 
            "alignment": 0, 
            "ancestry": null, 
            "as": null, 
            "author": {
                "avatar_image": "https://decidim.barcelona/assets/avatar-866795c99abc33a3160d1f3fa93ada46eb75e54134e777666b9ed16215b26534.png", 
                "erased": false, 
                "hidden": false, 
                "id": 9262, 
                "name": "Suport General - Decidim Barcelona", 
                "official": false, 
                "official_level": 0, 
                "role": null, 
                "verified_organization": null
            }, 
            "body": "<p><a href=\"https://decidim.barcelona/proposals/limitar-la-circulacio-per-una-mobilitat-sostenible\">https://decidim.barcelona/proposals/limitar-la-circulacio-per-una-mobilitat-sostenible</a></p>", 
            "commentable_id": 978, 
            "commentable_type": "Proposal", 
            "created_at": "13/04/2016 17:37:05", 
            "flagged": false, 
            "hidden": false, 
            "id": 14986, 
            "moderator_id": null, 
            "permissions": {
                "hide": false, 
                "hide_author": false, 
                "vote": false
            }, 
            "total_dislikes": 0, 
            "total_likes": 0, 
            "total_votes": 0
        }, 
        {
            "administrator_id": null, 
            "alignment": 0, 
            "ancestry": null, 
            "as": null, 
            "author": {
                "avatar_image": "https://decidim.barcelona/assets/avatar-866795c99abc33a3160d1f3fa93ada46eb75e54134e777666b9ed16215b26534.png", 
                "erased": false, 
                "hidden": false, 
                "id": 9262, 
                "name": "Suport General - Decidim Barcelona", 
                "official": false, 
                "official_level": 0, 
                "role": null, 
                "verified_organization": null
            }, 
            "body": "<p><a href=\"https://decidim.barcelona/proposals/respectar-els-ritmes-biologics-i-de-mobilitat-de-les-persones-grans-infants-discapacitat-funcional\">https://decidim.barcelona/proposals/respectar-els-ritmes-biologics-i-de-mobilitat-de-les-persones-grans-infants-discapacitat-funcional</a></p>", 
            "commentable_id": 978, 
            "commentable_type": "Proposal", 
            "created_at": "13/04/2016 17:47:51", 
            "flagged": false, 
            "hidden": false, 
            "id": 14997, 
            "moderator_id": null, 
            "permissions": {
                "hide": false, 
                "hide_author": false, 
                "vote": false
            }, 
            "total_dislikes": 0, 
            "total_likes": 0, 
            "total_votes": 0
        }, 
        {
            "administrator_id": null, 
            "alignment": 0, 
            "ancestry": null, 
            "as": null, 
            "author": {
                "avatar_image": "https://decidim.barcelona/assets/avatar-866795c99abc33a3160d1f3fa93ada46eb75e54134e777666b9ed16215b26534.png", 
                "erased": false, 
                "hidden": false, 
                "id": 9262, 
                "name": "Suport General - Decidim Barcelona", 
                "official": false, 
                "official_level": 0, 
                "role": null, 
                "verified_organization": null
            }, 
            "body": "<p><a href=\"https://decidim.barcelona/proposals/plataforma-kangoo-els-infants-van-en-autobus-a-l-escola\">https://decidim.barcelona/proposals/plataforma-kangoo-els-infants-van-en-autobus-a-l-escola</a></p>", 
            "commentable_id": 978, 
            "commentable_type": "Proposal", 
            "created_at": "13/04/2016 17:56:28", 
            "flagged": false, 
            "hidden": false, 
            "id": 15013, 
            "moderator_id": null, 
            "permissions": {
                "hide": false, 
                "hide_author": false, 
                "vote": false
            }, 
            "total_dislikes": 0, 
            "total_likes": 0, 
            "total_votes": 0
        }, 
        {
            "administrator_id": null, 
            "alignment": 0, 
            "ancestry": null, 
            "as": null, 
            "author": {
                "avatar_image": "https://decidim.barcelona/assets/avatar-866795c99abc33a3160d1f3fa93ada46eb75e54134e777666b9ed16215b26534.png", 
                "erased": false, 
                "hidden": false, 
                "id": 9262, 
                "name": "Suport General - Decidim Barcelona", 
                "official": false, 
                "official_level": 0, 
                "role": null, 
                "verified_organization": null
            }, 
            "body": "<p><a href=\"https://decidim.barcelona/proposals/assolir-un-repartiment-modal-de-les-visites-mes-sostenible\">https://decidim.barcelona/proposals/assolir-un-repartiment-modal-de-les-visites-mes-sostenible</a></p>", 
            "commentable_id": 978, 
            "commentable_type": "Proposal", 
            "created_at": "13/04/2016 18:03:49", 
            "flagged": false, 
            "hidden": false, 
            "id": 15020, 
            "moderator_id": null, 
            "permissions": {
                "hide": false, 
                "hide_author": false, 
                "vote": false
            }, 
            "total_dislikes": 0, 
            "total_likes": 0, 
            "total_votes": 0
        }, 
        {
            "administrator_id": null, 
            "alignment": 0, 
            "ancestry": null, 
            "as": null, 
            "author": {
                "avatar_image": "https://decidim.barcelona/assets/avatar-866795c99abc33a3160d1f3fa93ada46eb75e54134e777666b9ed16215b26534.png", 
                "erased": false, 
                "hidden": false, 
                "id": 9262, 
                "name": "Suport General - Decidim Barcelona", 
                "official": false, 
                "official_level": 0, 
                "role": null, 
                "verified_organization": null
            }, 
            "body": "<p><a href=\"https://decidim.barcelona/proposals/afavorir-transport-public-coordinant-semafors-i-aumentar-frequencia\">https://decidim.barcelona/proposals/afavorir-transport-public-coordinant-semafors-i-aumentar-frequencia</a></p>", 
            "commentable_id": 978, 
            "commentable_type": "Proposal", 
            "created_at": "14/04/2016 10:36:53", 
            "flagged": false, 
            "hidden": false, 
            "id": 15213, 
            "moderator_id": null, 
            "permissions": {
                "hide": false, 
                "hide_author": false, 
                "vote": false
            }, 
            "total_dislikes": 0, 
            "total_likes": 0, 
            "total_votes": 0
        }, 
        {
            "administrator_id": null, 
            "alignment": 0, 
            "ancestry": null, 
            "as": null, 
            "author": {
                "avatar_image": "https://decidim.barcelona/assets/avatar-866795c99abc33a3160d1f3fa93ada46eb75e54134e777666b9ed16215b26534.png", 
                "erased": false, 
                "hidden": false, 
                "id": 9262, 
                "name": "Suport General - Decidim Barcelona", 
                "official": false, 
                "official_level": 0, 
                "role": null, 
                "verified_organization": null
            }, 
            "body": "<p><a href=\"https://decidim.barcelona/proposals/canviar-concepte-de-mobilitat-a-la-ciutat\">https://decidim.barcelona/proposals/canviar-concepte-de-mobilitat-a-la-ciutat</a></p>", 
            "commentable_id": 978, 
            "commentable_type": "Proposal", 
            "created_at": "14/04/2016 11:00:50", 
            "flagged": false, 
            "hidden": false, 
            "id": 15272, 
            "moderator_id": null, 
            "permissions": {
                "hide": false, 
                "hide_author": false, 
                "vote": false
            }, 
            "total_dislikes": 0, 
            "total_likes": 0, 
            "total_votes": 0
        }, 
        {
            "administrator_id": null, 
            "alignment": 0, 
            "ancestry": null, 
            "as": null, 
            "author": {
                "avatar_image": "https://decidim.barcelona/assets/avatar-866795c99abc33a3160d1f3fa93ada46eb75e54134e777666b9ed16215b26534.png", 
                "erased": false, 
                "hidden": false, 
                "id": 9262, 
                "name": "Suport General - Decidim Barcelona", 
                "official": false, 
                "official_level": 0, 
                "role": null, 
                "verified_organization": null
            }, 
            "body": "<p><a href=\"https://decidim.barcelona/proposals/fomentar-un-mode-de-visita-responsable\">https://decidim.barcelona/proposals/fomentar-un-mode-de-visita-responsable</a></p>", 
            "commentable_id": 978, 
            "commentable_type": "Proposal", 
            "created_at": "14/04/2016 16:25:56", 
            "flagged": false, 
            "hidden": false, 
            "id": 15923, 
            "moderator_id": null, 
            "permissions": {
                "hide": false, 
                "hide_author": false, 
                "vote": false
            }, 
            "total_dislikes": 0, 
            "total_likes": 0, 
            "total_votes": 0
        }, 
        {
            "administrator_id": null, 
            "alignment": 0, 
            "ancestry": null, 
            "as": null, 
            "author": {
                "avatar_image": "https://decidim.barcelona/assets/avatar-866795c99abc33a3160d1f3fa93ada46eb75e54134e777666b9ed16215b26534.png", 
                "erased": false, 
                "hidden": false, 
                "id": 9262, 
                "name": "Suport General - Decidim Barcelona", 
                "official": false, 
                "official_level": 0, 
                "role": null, 
                "verified_organization": null
            }, 
            "body": "<p><a href=\"https://decidim.barcelona/proposals/fomentar-i-promoure-l-us-de-tricicles-bicitaxis-com-a-mode-alternatiu-de-transport\">https://decidim.barcelona/proposals/fomentar-i-promoure-l-us-de-tricicles-bicitaxis-com-a-mode-alternatiu-de-transport</a></p>", 
            "commentable_id": 978, 
            "commentable_type": "Proposal", 
            "created_at": "14/04/2016 16:27:42", 
            "flagged": false, 
            "hidden": false, 
            "id": 15928, 
            "moderator_id": null, 
            "permissions": {
                "hide": false, 
                "hide_author": false, 
                "vote": false
            }, 
            "total_dislikes": 0, 
            "total_likes": 0, 
            "total_votes": 0
        }
    ], 
    "meta": {
        "current_page": 1, 
        "next_page": 2, 
        "prev_page": null, 
        "total_count": 27, 
        "total_pages": 2
    }
}