{
    "comments": [
        {
            "administrator_id": null, 
            "alignment": 0, 
            "ancestry": null, 
            "as": null, 
            "author": {
                "avatar_image": "https://decidim.barcelona/assets/avatar-866795c99abc33a3160d1f3fa93ada46eb75e54134e777666b9ed16215b26534.png", 
                "erased": false, 
                "hidden": false, 
                "id": 9262, 
                "name": "Suport General - Decidim Barcelona", 
                "official": false, 
                "official_level": 0, 
                "role": null, 
                "verified_organization": null
            }, 
            "body": "<p><a href=\"https://decidim.barcelona/proposals/contra-el-tramvia-per-la-diagonal\">https://decidim.barcelona/proposals/contra-el-tramvia-per-la-diagonal</a></p>", 
            "commentable_id": 979, 
            "commentable_type": "Proposal", 
            "created_at": "14/04/2016 13:53:12", 
            "flagged": false, 
            "hidden": false, 
            "id": 15675, 
            "moderator_id": null, 
            "permissions": {
                "hide": false, 
                "hide_author": false, 
                "vote": false
            }, 
            "total_dislikes": 0, 
            "total_likes": 0, 
            "total_votes": 0
        }, 
        {
            "administrator_id": null, 
            "alignment": 0, 
            "ancestry": null, 
            "as": null, 
            "author": {
                "avatar_image": "https://decidim.barcelona/assets/avatar-866795c99abc33a3160d1f3fa93ada46eb75e54134e777666b9ed16215b26534.png", 
                "erased": false, 
                "hidden": false, 
                "id": 9262, 
                "name": "Suport General - Decidim Barcelona", 
                "official": false, 
                "official_level": 0, 
                "role": null, 
                "verified_organization": null
            }, 
            "body": "<p><a href=\"https://decidim.barcelona/proposals/tramvia-a-la-diagonanl\">https://decidim.barcelona/proposals/tramvia-a-la-diagonanl</a></p>", 
            "commentable_id": 979, 
            "commentable_type": "Proposal", 
            "created_at": "14/04/2016 13:53:33", 
            "flagged": false, 
            "hidden": false, 
            "id": 15676, 
            "moderator_id": null, 
            "permissions": {
                "hide": false, 
                "hide_author": false, 
                "vote": false
            }, 
            "total_dislikes": 0, 
            "total_likes": 0, 
            "total_votes": 0
        }, 
        {
            "administrator_id": null, 
            "alignment": 0, 
            "ancestry": null, 
            "as": null, 
            "author": {
                "avatar_image": "https://decidim.barcelona/assets/avatar-866795c99abc33a3160d1f3fa93ada46eb75e54134e777666b9ed16215b26534.png", 
                "erased": false, 
                "hidden": false, 
                "id": 9262, 
                "name": "Suport General - Decidim Barcelona", 
                "official": false, 
                "official_level": 0, 
                "role": null, 
                "verified_organization": null
            }, 
            "body": "<p><a href=\"https://decidim.barcelona/proposals/aturar-la-unio-dels-dos-tramvies-de-la-diagonal\">https://decidim.barcelona/proposals/aturar-la-unio-dels-dos-tramvies-de-la-diagonal</a></p>", 
            "commentable_id": 979, 
            "commentable_type": "Proposal", 
            "created_at": "14/04/2016 13:53:53", 
            "flagged": false, 
            "hidden": false, 
            "id": 15677, 
            "moderator_id": null, 
            "permissions": {
                "hide": false, 
                "hide_author": false, 
                "vote": false
            }, 
            "total_dislikes": 0, 
            "total_likes": 0, 
            "total_votes": 0
        }, 
        {
            "administrator_id": null, 
            "alignment": 0, 
            "ancestry": null, 
            "as": null, 
            "author": {
                "avatar_image": "https://decidim.barcelona/assets/avatar-866795c99abc33a3160d1f3fa93ada46eb75e54134e777666b9ed16215b26534.png", 
                "erased": false, 
                "hidden": false, 
                "id": 9262, 
                "name": "Suport General - Decidim Barcelona", 
                "official": false, 
                "official_level": 0, 
                "role": null, 
                "verified_organization": null
            }, 
            "body": "<p><a href=\"https://decidim.barcelona/proposals/convocar-un-referendum-sobre-el-tramvia-de-la-diagonal\">https://decidim.barcelona/proposals/convocar-un-referendum-sobre-el-tramvia-de-la-diagonal</a></p>", 
            "commentable_id": 979, 
            "commentable_type": "Proposal", 
            "created_at": "14/04/2016 13:54:34", 
            "flagged": false, 
            "hidden": false, 
            "id": 15679, 
            "moderator_id": null, 
            "permissions": {
                "hide": false, 
                "hide_author": false, 
                "vote": false
            }, 
            "total_dislikes": 0, 
            "total_likes": 0, 
            "total_votes": 0
        }, 
        {
            "administrator_id": null, 
            "alignment": 0, 
            "ancestry": null, 
            "as": null, 
            "author": {
                "avatar_image": "https://decidim.barcelona/assets/avatar-866795c99abc33a3160d1f3fa93ada46eb75e54134e777666b9ed16215b26534.png", 
                "erased": false, 
                "hidden": false, 
                "id": 9262, 
                "name": "Suport General - Decidim Barcelona", 
                "official": false, 
                "official_level": 0, 
                "role": null, 
                "verified_organization": null
            }, 
            "body": "<p><a href=\"https://decidim.barcelona/proposals/no-connectar-les-linies-de-tram-per-la-diagonal-no-seguir-afavorint-la-privatitzacio-del-transport-public\">https://decidim.barcelona/proposals/no-connectar-les-linies-de-tram-per-la-diagonal-no-seguir-afavorint-la-privatitzacio-del-transport-public</a></p>", 
            "commentable_id": 979, 
            "commentable_type": "Proposal", 
            "created_at": "14/04/2016 13:56:27", 
            "flagged": false, 
            "hidden": false, 
            "id": 15684, 
            "moderator_id": null, 
            "permissions": {
                "hide": false, 
                "hide_author": false, 
                "vote": false
            }, 
            "total_dislikes": 0, 
            "total_likes": 0, 
            "total_votes": 0
        }, 
        {
            "administrator_id": null, 
            "alignment": 0, 
            "ancestry": null, 
            "as": null, 
            "author": {
                "avatar_image": "https://decidim.barcelona/assets/avatar-866795c99abc33a3160d1f3fa93ada46eb75e54134e777666b9ed16215b26534.png", 
                "erased": false, 
                "hidden": false, 
                "id": 9262, 
                "name": "Suport General - Decidim Barcelona", 
                "official": false, 
                "official_level": 0, 
                "role": null, 
                "verified_organization": null
            }, 
            "body": "<p><a href=\"https://decidim.barcelona/proposals/tram-a-montjuic\">https://decidim.barcelona/proposals/tram-a-montjuic</a></p>", 
            "commentable_id": 979, 
            "commentable_type": "Proposal", 
            "created_at": "14/04/2016 13:59:47", 
            "flagged": false, 
            "hidden": false, 
            "id": 15696, 
            "moderator_id": null, 
            "permissions": {
                "hide": false, 
                "hide_author": false, 
                "vote": false
            }, 
            "total_dislikes": 0, 
            "total_likes": 0, 
            "total_votes": 0
        }, 
        {
            "administrator_id": null, 
            "alignment": 0, 
            "ancestry": null, 
            "as": null, 
            "author": {
                "avatar_image": "https://decidim.barcelona/assets/avatar-866795c99abc33a3160d1f3fa93ada46eb75e54134e777666b9ed16215b26534.png", 
                "erased": false, 
                "hidden": false, 
                "id": 9262, 
                "name": "Suport General - Decidim Barcelona", 
                "official": false, 
                "official_level": 0, 
                "role": null, 
                "verified_organization": null
            }, 
            "body": "<p><a href=\"https://decidim.barcelona/proposals/no-connectar-les-linies-de-tram-per-la-diagonal-no-seguir-afavorint-la-privatitzacio-del-transport-public\">https://decidim.barcelona/proposals/no-connectar-les-linies-de-tram-per-la-diagonal-no-seguir-afavorint-la-privatitzacio-del-transport-public</a></p>", 
            "commentable_id": 979, 
            "commentable_type": "Proposal", 
            "created_at": "14/04/2016 14:00:23", 
            "flagged": false, 
            "hidden": false, 
            "id": 15698, 
            "moderator_id": null, 
            "permissions": {
                "hide": false, 
                "hide_author": false, 
                "vote": false
            }, 
            "total_dislikes": 0, 
            "total_likes": 0, 
            "total_votes": 0
        }, 
        {
            "administrator_id": null, 
            "alignment": 0, 
            "ancestry": null, 
            "as": null, 
            "author": {
                "avatar_image": "https://decidim.barcelona/assets/avatar-866795c99abc33a3160d1f3fa93ada46eb75e54134e777666b9ed16215b26534.png", 
                "erased": false, 
                "hidden": false, 
                "id": 9262, 
                "name": "Suport General - Decidim Barcelona", 
                "official": false, 
                "official_level": 0, 
                "role": null, 
                "verified_organization": null
            }, 
            "body": "<p><a href=\"https://decidim.barcelona/proposals/no-al-tranvia-per-la-diagonal\">https://decidim.barcelona/proposals/no-al-tranvia-per-la-diagonal</a></p>", 
            "commentable_id": 979, 
            "commentable_type": "Proposal", 
            "created_at": "14/04/2016 14:42:09", 
            "flagged": false, 
            "hidden": false, 
            "id": 15757, 
            "moderator_id": null, 
            "permissions": {
                "hide": false, 
                "hide_author": false, 
                "vote": false
            }, 
            "total_dislikes": 0, 
            "total_likes": 0, 
            "total_votes": 0
        }, 
        {
            "administrator_id": null, 
            "alignment": 0, 
            "ancestry": null, 
            "as": null, 
            "author": {
                "avatar_image": "https://decidim.barcelona/assets/avatar-866795c99abc33a3160d1f3fa93ada46eb75e54134e777666b9ed16215b26534.png", 
                "erased": false, 
                "hidden": false, 
                "id": 9262, 
                "name": "Suport General - Decidim Barcelona", 
                "official": false, 
                "official_level": 0, 
                "role": null, 
                "verified_organization": null
            }, 
            "body": "<p><a href=\"https://decidim.barcelona/proposals/estudio-de-una-red-de-brt-nxb-para-la-diagonal-como-opcion-mas-economica-viable-y-con-mayor-volumen-de-pasaje-ante-la-propuesta-de-union-de-tranvias\">https://decidim.barcelona/proposals/estudio-de-una-red-de-brt-nxb-para-la-diagonal-como-opcion-mas-economica-viable-y-con-mayor-volumen-de-pasaje-ante-la-propuesta-de-union-de-tranvias</a></p>", 
            "commentable_id": 979, 
            "commentable_type": "Proposal", 
            "created_at": "14/04/2016 14:44:55", 
            "flagged": false, 
            "hidden": false, 
            "id": 15760, 
            "moderator_id": null, 
            "permissions": {
                "hide": false, 
                "hide_author": false, 
                "vote": false
            }, 
            "total_dislikes": 0, 
            "total_likes": 0, 
            "total_votes": 0
        }, 
        {
            "administrator_id": null, 
            "alignment": 0, 
            "ancestry": null, 
            "as": null, 
            "author": {
                "avatar_image": "https://decidim.barcelona/assets/avatar-866795c99abc33a3160d1f3fa93ada46eb75e54134e777666b9ed16215b26534.png", 
                "erased": false, 
                "hidden": false, 
                "id": 9262, 
                "name": "Suport General - Decidim Barcelona", 
                "official": false, 
                "official_level": 0, 
                "role": null, 
                "verified_organization": null
            }, 
            "body": "<p><a href=\"https://decidim.barcelona/proposals/no-al-tranvia-en-la-diagonal\">https://decidim.barcelona/proposals/no-al-tranvia-en-la-diagonal</a></p>", 
            "commentable_id": 979, 
            "commentable_type": "Proposal", 
            "created_at": "14/04/2016 16:03:52", 
            "flagged": false, 
            "hidden": false, 
            "id": 15859, 
            "moderator_id": null, 
            "permissions": {
                "hide": false, 
                "hide_author": false, 
                "vote": false
            }, 
            "total_dislikes": 0, 
            "total_likes": 0, 
            "total_votes": 0
        }, 
        {
            "administrator_id": null, 
            "alignment": 0, 
            "ancestry": null, 
            "as": null, 
            "author": {
                "avatar_image": "https://decidim.barcelona/assets/avatar-866795c99abc33a3160d1f3fa93ada46eb75e54134e777666b9ed16215b26534.png", 
                "erased": false, 
                "hidden": false, 
                "id": 9262, 
                "name": "Suport General - Decidim Barcelona", 
                "official": false, 
                "official_level": 0, 
                "role": null, 
                "verified_organization": null
            }, 
            "body": "<p><a href=\"https://decidim.barcelona/proposals/union-de-las-dos-lineas-de-los-tranvias-por-la-avenida-diagonal\">https://decidim.barcelona/proposals/union-de-las-dos-lineas-de-los-tranvias-por-la-avenida-diagonal</a></p>", 
            "commentable_id": 979, 
            "commentable_type": "Proposal", 
            "created_at": "14/04/2016 16:31:13", 
            "flagged": false, 
            "hidden": false, 
            "id": 15938, 
            "moderator_id": null, 
            "permissions": {
                "hide": false, 
                "hide_author": false, 
                "vote": false
            }, 
            "total_dislikes": 0, 
            "total_likes": 0, 
            "total_votes": 0
        }, 
        {
            "administrator_id": null, 
            "alignment": 0, 
            "ancestry": null, 
            "as": null, 
            "author": {
                "avatar_image": "https://decidim.barcelona/assets/avatar-866795c99abc33a3160d1f3fa93ada46eb75e54134e777666b9ed16215b26534.png", 
                "erased": false, 
                "hidden": false, 
                "id": 9262, 
                "name": "Suport General - Decidim Barcelona", 
                "official": false, 
                "official_level": 0, 
                "role": null, 
                "verified_organization": null
            }, 
            "body": "<p><a href=\"https://decidim.barcelona/proposals/augmentar-la-frequencia-de-la-t3-trambaix\">https://decidim.barcelona/proposals/augmentar-la-frequencia-de-la-t3-trambaix</a></p>", 
            "commentable_id": 979, 
            "commentable_type": "Proposal", 
            "created_at": "14/04/2016 17:52:05", 
            "flagged": false, 
            "hidden": false, 
            "id": 16140, 
            "moderator_id": null, 
            "permissions": {
                "hide": false, 
                "hide_author": false, 
                "vote": false
            }, 
            "total_dislikes": 0, 
            "total_likes": 0, 
            "total_votes": 0
        }, 
        {
            "administrator_id": null, 
            "alignment": 0, 
            "ancestry": null, 
            "as": null, 
            "author": {
                "avatar_image": "https://decidim.barcelona/assets/avatar-866795c99abc33a3160d1f3fa93ada46eb75e54134e777666b9ed16215b26534.png", 
                "erased": false, 
                "hidden": false, 
                "id": 9262, 
                "name": "Suport General - Decidim Barcelona", 
                "official": false, 
                "official_level": 0, 
                "role": null, 
                "verified_organization": null
            }, 
            "body": "<p><a href=\"https://decidim.barcelona/proposals/bus-de-punta-a-punta-de-la-diagonal-mentre-no-es-fa-el-tram\">https://decidim.barcelona/proposals/bus-de-punta-a-punta-de-la-diagonal-mentre-no-es-fa-el-tram</a></p>", 
            "commentable_id": 979, 
            "commentable_type": "Proposal", 
            "created_at": "14/04/2016 17:57:22", 
            "flagged": false, 
            "hidden": false, 
            "id": 16165, 
            "moderator_id": null, 
            "permissions": {
                "hide": false, 
                "hide_author": false, 
                "vote": false
            }, 
            "total_dislikes": 0, 
            "total_likes": 0, 
            "total_votes": 0
        }, 
        {
            "administrator_id": null, 
            "alignment": 0, 
            "ancestry": null, 
            "as": null, 
            "author": {
                "avatar_image": "https://decidim.barcelona/assets/avatar-866795c99abc33a3160d1f3fa93ada46eb75e54134e777666b9ed16215b26534.png", 
                "erased": false, 
                "hidden": false, 
                "id": 9262, 
                "name": "Suport General - Decidim Barcelona", 
                "official": false, 
                "official_level": 0, 
                "role": null, 
                "verified_organization": null
            }, 
            "body": "<p><a href=\"https://decidim.barcelona/proposals/busos-hibrids-per-la-diagonal\">https://decidim.barcelona/proposals/busos-hibrids-per-la-diagonal</a></p>", 
            "commentable_id": 979, 
            "commentable_type": "Proposal", 
            "created_at": "14/04/2016 18:00:36", 
            "flagged": false, 
            "hidden": false, 
            "id": 16178, 
            "moderator_id": null, 
            "permissions": {
                "hide": false, 
                "hide_author": false, 
                "vote": false
            }, 
            "total_dislikes": 0, 
            "total_likes": 0, 
            "total_votes": 0
        }, 
        {
            "administrator_id": null, 
            "alignment": 0, 
            "ancestry": null, 
            "as": null, 
            "author": {
                "avatar_image": "https://decidim.barcelona/assets/avatar-866795c99abc33a3160d1f3fa93ada46eb75e54134e777666b9ed16215b26534.png", 
                "erased": false, 
                "hidden": false, 
                "id": 9262, 
                "name": "Suport General - Decidim Barcelona", 
                "official": false, 
                "official_level": 0, 
                "role": null, 
                "verified_organization": null
            }, 
            "body": "<p><a href=\"https://decidim.barcelona/proposals/tramvia-diagonal\">https://decidim.barcelona/proposals/tramvia-diagonal</a></p>", 
            "commentable_id": 979, 
            "commentable_type": "Proposal", 
            "created_at": "15/04/2016 09:37:25", 
            "flagged": false, 
            "hidden": false, 
            "id": 16377, 
            "moderator_id": null, 
            "permissions": {
                "hide": false, 
                "hide_author": false, 
                "vote": false
            }, 
            "total_dislikes": 0, 
            "total_likes": 0, 
            "total_votes": 0
        }, 
        {
            "administrator_id": null, 
            "alignment": 0, 
            "ancestry": null, 
            "as": null, 
            "author": {
                "avatar_image": "https://decidim.barcelona/assets/avatar-866795c99abc33a3160d1f3fa93ada46eb75e54134e777666b9ed16215b26534.png", 
                "erased": false, 
                "hidden": false, 
                "id": 9262, 
                "name": "Suport General - Decidim Barcelona", 
                "official": false, 
                "official_level": 0, 
                "role": null, 
                "verified_organization": null
            }, 
            "body": "<p><a href=\"https://decidim.barcelona/proposals/trolebus-de-gran-capacitat-per-la-diagonal\">https://decidim.barcelona/proposals/trolebus-de-gran-capacitat-per-la-diagonal</a></p>", 
            "commentable_id": 979, 
            "commentable_type": "Proposal", 
            "created_at": "15/04/2016 09:44:51", 
            "flagged": false, 
            "hidden": false, 
            "id": 16398, 
            "moderator_id": null, 
            "permissions": {
                "hide": false, 
                "hide_author": false, 
                "vote": false
            }, 
            "total_dislikes": 0, 
            "total_likes": 0, 
            "total_votes": 0
        }, 
        {
            "administrator_id": null, 
            "alignment": 0, 
            "ancestry": null, 
            "as": null, 
            "author": {
                "avatar_image": "https://decidim.barcelona/assets/avatar-866795c99abc33a3160d1f3fa93ada46eb75e54134e777666b9ed16215b26534.png", 
                "erased": false, 
                "hidden": false, 
                "id": 9262, 
                "name": "Suport General - Decidim Barcelona", 
                "official": false, 
                "official_level": 0, 
                "role": null, 
                "verified_organization": null
            }, 
            "body": "<p><a href=\"https://decidim.barcelona/proposals/reestructuracio-diagonal\">https://decidim.barcelona/proposals/reestructuracio-diagonal</a></p>", 
            "commentable_id": 979, 
            "commentable_type": "Proposal", 
            "created_at": "15/04/2016 09:55:25", 
            "flagged": false, 
            "hidden": false, 
            "id": 16433, 
            "moderator_id": null, 
            "permissions": {
                "hide": false, 
                "hide_author": false, 
                "vote": false
            }, 
            "total_dislikes": 0, 
            "total_likes": 0, 
            "total_votes": 0
        }, 
        {
            "administrator_id": null, 
            "alignment": 0, 
            "ancestry": null, 
            "as": null, 
            "author": {
                "avatar_image": "https://decidim.barcelona/assets/avatar-866795c99abc33a3160d1f3fa93ada46eb75e54134e777666b9ed16215b26534.png", 
                "erased": false, 
                "hidden": false, 
                "id": 17741, 
                "name": "Suport General3 - Decidim Barcelona", 
                "official": false, 
                "official_level": 0, 
                "role": null, 
                "verified_organization": null
            }, 
            "body": "<p><a href=\"https://decidim.barcelona/proposals/tramvia-a-la-diagonal\">https://decidim.barcelona/proposals/tramvia-a-la-diagonal</a></p>", 
            "commentable_id": 979, 
            "commentable_type": "Proposal", 
            "created_at": "16/04/2016 14:52:52", 
            "flagged": false, 
            "hidden": false, 
            "id": 18246, 
            "moderator_id": null, 
            "permissions": {
                "hide": false, 
                "hide_author": false, 
                "vote": false
            }, 
            "total_dislikes": 0, 
            "total_likes": 0, 
            "total_votes": 0
        }, 
        {
            "administrator_id": null, 
            "alignment": 0, 
            "ancestry": null, 
            "as": null, 
            "author": {
                "avatar_image": "https://decidim.barcelona/assets/avatar-866795c99abc33a3160d1f3fa93ada46eb75e54134e777666b9ed16215b26534.png", 
                "erased": false, 
                "hidden": false, 
                "id": 9262, 
                "name": "Suport General - Decidim Barcelona", 
                "official": false, 
                "official_level": 0, 
                "role": null, 
                "verified_organization": null
            }, 
            "body": "<p><a href=\"https://decidim.barcelona/proposals/analitzar-la-connexio-dels-dos-trams-del-tramvia-per-la-diagonal-un-tramvia-flotant\">https://decidim.barcelona/proposals/analitzar-la-connexio-dels-dos-trams-del-tramvia-per-la-diagonal-un-tramvia-flotant</a></p>", 
            "commentable_id": 979, 
            "commentable_type": "Proposal", 
            "created_at": "16/04/2016 15:09:30", 
            "flagged": false, 
            "hidden": false, 
            "id": 18267, 
            "moderator_id": null, 
            "permissions": {
                "hide": false, 
                "hide_author": false, 
                "vote": false
            }, 
            "total_dislikes": 0, 
            "total_likes": 0, 
            "total_votes": 0
        }
    ], 
    "meta": {
        "current_page": 2, 
        "next_page": null, 
        "prev_page": 1, 
        "total_count": 39, 
        "total_pages": 2
    }
}