{
    "comments": [
        {
            "administrator_id": null, 
            "alignment": 0, 
            "ancestry": null, 
            "as": null, 
            "author": {
                "avatar_image": "https://decidim.barcelona/assets/avatar-866795c99abc33a3160d1f3fa93ada46eb75e54134e777666b9ed16215b26534.png", 
                "erased": false, 
                "hidden": false, 
                "id": 9262, 
                "name": "Suport General - Decidim Barcelona", 
                "official": false, 
                "official_level": 0, 
                "role": null, 
                "verified_organization": null
            }, 
            "body": "<p><a href=\"https://decidim.barcelona/proposals/impedir-la-circulacio-dels-busos-turistics-en-hores-punta-o-en-dies-de-vaga-manifestacio\">https://decidim.barcelona/proposals/impedir-la-circulacio-dels-busos-turistics-en-hores-punta-o-en-dies-de-vaga-manifestacio</a></p>", 
            "commentable_id": 978, 
            "commentable_type": "Proposal", 
            "created_at": "14/04/2016 16:40:56", 
            "flagged": false, 
            "hidden": false, 
            "id": 15961, 
            "moderator_id": null, 
            "permissions": {
                "hide": false, 
                "hide_author": false, 
                "vote": false
            }, 
            "total_dislikes": 0, 
            "total_likes": 0, 
            "total_votes": 0
        }, 
        {
            "administrator_id": null, 
            "alignment": 0, 
            "ancestry": null, 
            "as": null, 
            "author": {
                "avatar_image": "https://decidim.barcelona/assets/avatar-866795c99abc33a3160d1f3fa93ada46eb75e54134e777666b9ed16215b26534.png", 
                "erased": false, 
                "hidden": false, 
                "id": 9262, 
                "name": "Suport General - Decidim Barcelona", 
                "official": false, 
                "official_level": 0, 
                "role": null, 
                "verified_organization": null
            }, 
            "body": "<p><a href=\"https://decidim.barcelona/proposals/proteccio-de-les-voreres\">https://decidim.barcelona/proposals/proteccio-de-les-voreres</a></p>", 
            "commentable_id": 978, 
            "commentable_type": "Proposal", 
            "created_at": "14/04/2016 16:43:05", 
            "flagged": false, 
            "hidden": false, 
            "id": 15967, 
            "moderator_id": null, 
            "permissions": {
                "hide": false, 
                "hide_author": false, 
                "vote": false
            }, 
            "total_dislikes": 0, 
            "total_likes": 0, 
            "total_votes": 0
        }, 
        {
            "administrator_id": null, 
            "alignment": 0, 
            "ancestry": null, 
            "as": null, 
            "author": {
                "avatar_image": "https://decidim.barcelona/assets/avatar-866795c99abc33a3160d1f3fa93ada46eb75e54134e777666b9ed16215b26534.png", 
                "erased": false, 
                "hidden": false, 
                "id": 9262, 
                "name": "Suport General - Decidim Barcelona", 
                "official": false, 
                "official_level": 0, 
                "role": null, 
                "verified_organization": null
            }, 
            "body": "<p><a href=\"https://decidim.barcelona/proposals/prioritzacio-transport-public\">https://decidim.barcelona/proposals/prioritzacio-transport-public</a></p>", 
            "commentable_id": 978, 
            "commentable_type": "Proposal", 
            "created_at": "14/04/2016 17:02:28", 
            "flagged": false, 
            "hidden": false, 
            "id": 16011, 
            "moderator_id": null, 
            "permissions": {
                "hide": false, 
                "hide_author": false, 
                "vote": false
            }, 
            "total_dislikes": 0, 
            "total_likes": 0, 
            "total_votes": 0
        }, 
        {
            "administrator_id": null, 
            "alignment": 0, 
            "ancestry": null, 
            "as": null, 
            "author": {
                "avatar_image": "https://decidim.barcelona/assets/avatar-866795c99abc33a3160d1f3fa93ada46eb75e54134e777666b9ed16215b26534.png", 
                "erased": false, 
                "hidden": false, 
                "id": 9262, 
                "name": "Suport General - Decidim Barcelona", 
                "official": false, 
                "official_level": 0, 
                "role": null, 
                "verified_organization": null
            }, 
            "body": "<p><a href=\"https://decidim.barcelona/proposals/el-vianants-es-sagrat\">https://decidim.barcelona/proposals/el-vianants-es-sagrat</a></p>", 
            "commentable_id": 978, 
            "commentable_type": "Proposal", 
            "created_at": "14/04/2016 17:56:32", 
            "flagged": false, 
            "hidden": false, 
            "id": 16162, 
            "moderator_id": null, 
            "permissions": {
                "hide": false, 
                "hide_author": false, 
                "vote": false
            }, 
            "total_dislikes": 0, 
            "total_likes": 0, 
            "total_votes": 0
        }, 
        {
            "administrator_id": null, 
            "alignment": 0, 
            "ancestry": null, 
            "as": null, 
            "author": {
                "avatar_image": "https://decidim.barcelona/assets/avatar-866795c99abc33a3160d1f3fa93ada46eb75e54134e777666b9ed16215b26534.png", 
                "erased": false, 
                "hidden": false, 
                "id": 9262, 
                "name": "Suport General - Decidim Barcelona", 
                "official": false, 
                "official_level": 0, 
                "role": null, 
                "verified_organization": null
            }, 
            "body": "<p><a href=\"https://decidim.barcelona/proposals/ampliacio-de-les-arees-de-circulacio-per-a-vmp-a-tota-la-ciutat\">https://decidim.barcelona/proposals/ampliacio-de-les-arees-de-circulacio-per-a-vmp-a-tota-la-ciutat</a></p>", 
            "commentable_id": 978, 
            "commentable_type": "Proposal", 
            "created_at": "14/04/2016 18:06:17", 
            "flagged": false, 
            "hidden": false, 
            "id": 16196, 
            "moderator_id": null, 
            "permissions": {
                "hide": false, 
                "hide_author": false, 
                "vote": false
            }, 
            "total_dislikes": 0, 
            "total_likes": 0, 
            "total_votes": 0
        }, 
        {
            "administrator_id": null, 
            "alignment": 0, 
            "ancestry": null, 
            "as": null, 
            "author": {
                "avatar_image": "https://decidim.barcelona/assets/avatar-866795c99abc33a3160d1f3fa93ada46eb75e54134e777666b9ed16215b26534.png", 
                "erased": false, 
                "hidden": false, 
                "id": 9262, 
                "name": "Suport General - Decidim Barcelona", 
                "official": false, 
                "official_level": 0, 
                "role": null, 
                "verified_organization": null
            }, 
            "body": "<p><a href=\"https://decidim.barcelona/proposals/recuperar-les-vies-historiques-metropolitanes-com-a-vies-civiques\">https://decidim.barcelona/proposals/recuperar-les-vies-historiques-metropolitanes-com-a-vies-civiques</a></p>", 
            "commentable_id": 978, 
            "commentable_type": "Proposal", 
            "created_at": "14/04/2016 18:14:46", 
            "flagged": false, 
            "hidden": false, 
            "id": 16212, 
            "moderator_id": null, 
            "permissions": {
                "hide": false, 
                "hide_author": false, 
                "vote": false
            }, 
            "total_dislikes": 0, 
            "total_likes": 0, 
            "total_votes": 0
        }, 
        {
            "administrator_id": null, 
            "alignment": 0, 
            "ancestry": null, 
            "as": null, 
            "author": {
                "avatar_image": "https://decidim.barcelona/assets/avatar-866795c99abc33a3160d1f3fa93ada46eb75e54134e777666b9ed16215b26534.png", 
                "erased": false, 
                "hidden": false, 
                "id": 9262, 
                "name": "Suport General - Decidim Barcelona", 
                "official": false, 
                "official_level": 0, 
                "role": null, 
                "verified_organization": null
            }, 
            "body": "<p><a href=\"https://decidim.barcelona/proposals/pacificar-els-camins-escolars-de-barcelona\">https://decidim.barcelona/proposals/pacificar-els-camins-escolars-de-barcelona</a></p>", 
            "commentable_id": 978, 
            "commentable_type": "Proposal", 
            "created_at": "15/04/2016 10:15:30", 
            "flagged": false, 
            "hidden": false, 
            "id": 16489, 
            "moderator_id": null, 
            "permissions": {
                "hide": false, 
                "hide_author": false, 
                "vote": false
            }, 
            "total_dislikes": 0, 
            "total_likes": 0, 
            "total_votes": 0
        }
    ], 
    "meta": {
        "current_page": 2, 
        "next_page": null, 
        "prev_page": 1, 
        "total_count": 27, 
        "total_pages": 2
    }
}