{
    "comments": [
        {
            "administrator_id": null, 
            "alignment": 0, 
            "ancestry": null, 
            "as": null, 
            "author": {
                "avatar_image": "https://decidim.barcelona/assets/avatar-866795c99abc33a3160d1f3fa93ada46eb75e54134e777666b9ed16215b26534.png", 
                "erased": false, 
                "hidden": false, 
                "id": 17741, 
                "name": "Suport General3 - Decidim Barcelona", 
                "official": false, 
                "official_level": 0, 
                "role": null, 
                "verified_organization": null
            }, 
            "body": "<p><a href=\"https://decidim.barcelona/proposals/millorar-la-comunicacio-ambiental-a-l-administracio-municipal\">https://decidim.barcelona/proposals/millorar-la-comunicacio-ambiental-a-l-administracio-municipal</a></p>", 
            "commentable_id": 986, 
            "commentable_type": "Proposal", 
            "created_at": "07/04/2016 14:03:59", 
            "flagged": false, 
            "hidden": false, 
            "id": 9437, 
            "moderator_id": null, 
            "permissions": {
                "hide": false, 
                "hide_author": false, 
                "vote": false
            }, 
            "total_dislikes": 0, 
            "total_likes": 0, 
            "total_votes": 0
        }, 
        {
            "administrator_id": null, 
            "alignment": 0, 
            "ancestry": null, 
            "as": null, 
            "author": {
                "avatar_image": "https://decidim.barcelona/assets/avatar-866795c99abc33a3160d1f3fa93ada46eb75e54134e777666b9ed16215b26534.png", 
                "erased": false, 
                "hidden": false, 
                "id": 17741, 
                "name": "Suport General3 - Decidim Barcelona", 
                "official": false, 
                "official_level": 0, 
                "role": null, 
                "verified_organization": null
            }, 
            "body": "<p><a href=\"https://decidim.barcelona/proposals/reforcar-l-educacio-ambiental-a-la-ciutat-de-barcelona\">https://decidim.barcelona/proposals/reforcar-l-educacio-ambiental-a-la-ciutat-de-barcelona</a></p>", 
            "commentable_id": 986, 
            "commentable_type": "Proposal", 
            "created_at": "08/04/2016 14:28:29", 
            "flagged": false, 
            "hidden": false, 
            "id": 10929, 
            "moderator_id": null, 
            "permissions": {
                "hide": false, 
                "hide_author": false, 
                "vote": false
            }, 
            "total_dislikes": 0, 
            "total_likes": 0, 
            "total_votes": 0
        }, 
        {
            "administrator_id": null, 
            "alignment": 0, 
            "ancestry": null, 
            "as": null, 
            "author": {
                "avatar_image": "https://decidim.barcelona/assets/avatar-866795c99abc33a3160d1f3fa93ada46eb75e54134e777666b9ed16215b26534.png", 
                "erased": false, 
                "hidden": false, 
                "id": 9262, 
                "name": "Suport General - Decidim Barcelona", 
                "official": false, 
                "official_level": 0, 
                "role": null, 
                "verified_organization": null
            }, 
            "body": "<p><a href=\"https://decidim.barcelona/proposals/realitzar-campanyes-de-sensibilitzacio-i-educacio-ambiental\">https://decidim.barcelona/proposals/realitzar-campanyes-de-sensibilitzacio-i-educacio-ambiental</a></p>", 
            "commentable_id": 986, 
            "commentable_type": "Proposal", 
            "created_at": "09/04/2016 10:40:27", 
            "flagged": false, 
            "hidden": false, 
            "id": 11632, 
            "moderator_id": null, 
            "permissions": {
                "hide": false, 
                "hide_author": false, 
                "vote": false
            }, 
            "total_dislikes": 0, 
            "total_likes": 0, 
            "total_votes": 0
        }, 
        {
            "administrator_id": null, 
            "alignment": 1, 
            "ancestry": null, 
            "as": null, 
            "author": {
                "avatar_image": "https://decidim.barcelona/assets/avatar-866795c99abc33a3160d1f3fa93ada46eb75e54134e777666b9ed16215b26534.png", 
                "erased": false, 
                "hidden": false, 
                "id": 23853, 
                "name": "Josep Busquets Vidal", 
                "official": false, 
                "official_level": 0, 
                "role": null, 
                "verified_organization": null
            }, 
            "body": "<p><a href=\"https://decidim.barcelona/proposals/promoure-accions-de-sensibilitzacio-sobre-l-estalvi-energetic\">https://decidim.barcelona/proposals/promoure-accions-de-sensibilitzacio-sobre-l-estalvi-energetic</a></p>", 
            "commentable_id": 986, 
            "commentable_type": "Proposal", 
            "created_at": "15/04/2016 13:14:19", 
            "flagged": false, 
            "hidden": false, 
            "id": 16999, 
            "moderator_id": null, 
            "permissions": {
                "hide": false, 
                "hide_author": false, 
                "vote": false
            }, 
            "total_dislikes": 0, 
            "total_likes": 0, 
            "total_votes": 0
        }, 
        {
            "administrator_id": null, 
            "alignment": 1, 
            "ancestry": null, 
            "as": null, 
            "author": {
                "avatar_image": "https://decidim.barcelona/assets/avatar-866795c99abc33a3160d1f3fa93ada46eb75e54134e777666b9ed16215b26534.png", 
                "erased": false, 
                "hidden": false, 
                "id": 23853, 
                "name": "Josep Busquets Vidal", 
                "official": false, 
                "official_level": 0, 
                "role": null, 
                "verified_organization": null
            }, 
            "body": "<p><a href=\"https://decidim.barcelona/proposals/fer-un-programa-de-conscienciacio-i-sensibilitzacio-en-eficiencia-energetica\">https://decidim.barcelona/proposals/fer-un-programa-de-conscienciacio-i-sensibilitzacio-en-eficiencia-energetica</a></p>", 
            "commentable_id": 986, 
            "commentable_type": "Proposal", 
            "created_at": "15/04/2016 13:33:46", 
            "flagged": false, 
            "hidden": false, 
            "id": 17045, 
            "moderator_id": null, 
            "permissions": {
                "hide": false, 
                "hide_author": false, 
                "vote": false
            }, 
            "total_dislikes": 0, 
            "total_likes": 0, 
            "total_votes": 0
        }, 
        {
            "administrator_id": null, 
            "alignment": 1, 
            "ancestry": null, 
            "as": null, 
            "author": {
                "avatar_image": "https://decidim.barcelona/assets/avatar-866795c99abc33a3160d1f3fa93ada46eb75e54134e777666b9ed16215b26534.png", 
                "erased": false, 
                "hidden": false, 
                "id": 23853, 
                "name": "Josep Busquets Vidal", 
                "official": false, 
                "official_level": 0, 
                "role": null, 
                "verified_organization": null
            }, 
            "body": "<p><a href=\"https://decidim.barcelona/proposals/assessorar-i-empoderar-en-aspectes-energetics-als-veins-i-veines\">https://decidim.barcelona/proposals/assessorar-i-empoderar-en-aspectes-energetics-als-veins-i-veines</a></p>", 
            "commentable_id": 986, 
            "commentable_type": "Proposal", 
            "created_at": "15/04/2016 13:38:45", 
            "flagged": false, 
            "hidden": false, 
            "id": 17056, 
            "moderator_id": null, 
            "permissions": {
                "hide": false, 
                "hide_author": false, 
                "vote": false
            }, 
            "total_dislikes": 0, 
            "total_likes": 0, 
            "total_votes": 0
        }, 
        {
            "administrator_id": null, 
            "alignment": 1, 
            "ancestry": null, 
            "as": null, 
            "author": {
                "avatar_image": "https://decidim.barcelona/assets/avatar-866795c99abc33a3160d1f3fa93ada46eb75e54134e777666b9ed16215b26534.png", 
                "erased": false, 
                "hidden": false, 
                "id": 23853, 
                "name": "Josep Busquets Vidal", 
                "official": false, 
                "official_level": 0, 
                "role": null, 
                "verified_organization": null
            }, 
            "body": "<p><a href=\"https://decidim.barcelona/proposals/promoure-projectes-educatius-sobre-l-eficiencia-i-la-transicio-energetica\">https://decidim.barcelona/proposals/promoure-projectes-educatius-sobre-l-eficiencia-i-la-transicio-energetica</a></p>", 
            "commentable_id": 986, 
            "commentable_type": "Proposal", 
            "created_at": "15/04/2016 14:03:28", 
            "flagged": false, 
            "hidden": false, 
            "id": 17079, 
            "moderator_id": null, 
            "permissions": {
                "hide": false, 
                "hide_author": false, 
                "vote": false
            }, 
            "total_dislikes": 0, 
            "total_likes": 0, 
            "total_votes": 0
        }, 
        {
            "administrator_id": null, 
            "alignment": 1, 
            "ancestry": null, 
            "as": null, 
            "author": {
                "avatar_image": "https://decidim.barcelona/assets/avatar-866795c99abc33a3160d1f3fa93ada46eb75e54134e777666b9ed16215b26534.png", 
                "erased": false, 
                "hidden": false, 
                "id": 23853, 
                "name": "Josep Busquets Vidal", 
                "official": false, 
                "official_level": 0, 
                "role": null, 
                "verified_organization": null
            }, 
            "body": "<p><a href=\"https://decidim.barcelona/proposals/promoure-l-energia-renovable\">https://decidim.barcelona/proposals/promoure-l-energia-renovable</a></p>", 
            "commentable_id": 986, 
            "commentable_type": "Proposal", 
            "created_at": "15/04/2016 14:25:23", 
            "flagged": false, 
            "hidden": false, 
            "id": 17119, 
            "moderator_id": null, 
            "permissions": {
                "hide": false, 
                "hide_author": false, 
                "vote": false
            }, 
            "total_dislikes": 0, 
            "total_likes": 0, 
            "total_votes": 0
        }, 
        {
            "administrator_id": null, 
            "alignment": 1, 
            "ancestry": null, 
            "as": null, 
            "author": {
                "avatar_image": "https://decidim.barcelona/assets/avatar-866795c99abc33a3160d1f3fa93ada46eb75e54134e777666b9ed16215b26534.png", 
                "erased": false, 
                "hidden": false, 
                "id": 23853, 
                "name": "Josep Busquets Vidal", 
                "official": false, 
                "official_level": 0, 
                "role": null, 
                "verified_organization": null
            }, 
            "body": "<p><a href=\"https://decidim.barcelona/proposals/formacio-en-cultura-energetica-als-formadors\">https://decidim.barcelona/proposals/formacio-en-cultura-energetica-als-formadors</a></p>", 
            "commentable_id": 986, 
            "commentable_type": "Proposal", 
            "created_at": "15/04/2016 14:41:11", 
            "flagged": false, 
            "hidden": false, 
            "id": 17145, 
            "moderator_id": null, 
            "permissions": {
                "hide": false, 
                "hide_author": false, 
                "vote": false
            }, 
            "total_dislikes": 0, 
            "total_likes": 0, 
            "total_votes": 0
        }, 
        {
            "administrator_id": null, 
            "alignment": 1, 
            "ancestry": null, 
            "as": null, 
            "author": {
                "avatar_image": "https://decidim.barcelona/assets/avatar-866795c99abc33a3160d1f3fa93ada46eb75e54134e777666b9ed16215b26534.png", 
                "erased": false, 
                "hidden": false, 
                "id": 23853, 
                "name": "Josep Busquets Vidal", 
                "official": false, 
                "official_level": 0, 
                "role": null, 
                "verified_organization": null
            }, 
            "body": "<p><a href=\"https://decidim.barcelona/proposals/comunicar-mes-els-missatges-claus-sobre-transicio-energetica\">https://decidim.barcelona/proposals/comunicar-mes-els-missatges-claus-sobre-transicio-energetica</a></p>", 
            "commentable_id": 986, 
            "commentable_type": "Proposal", 
            "created_at": "15/04/2016 14:49:16", 
            "flagged": false, 
            "hidden": false, 
            "id": 17153, 
            "moderator_id": null, 
            "permissions": {
                "hide": false, 
                "hide_author": false, 
                "vote": false
            }, 
            "total_dislikes": 0, 
            "total_likes": 0, 
            "total_votes": 0
        }, 
        {
            "administrator_id": null, 
            "alignment": 0, 
            "ancestry": null, 
            "as": null, 
            "author": {
                "avatar_image": "https://decidim.barcelona/assets/avatar-866795c99abc33a3160d1f3fa93ada46eb75e54134e777666b9ed16215b26534.png", 
                "erased": false, 
                "hidden": false, 
                "id": 9262, 
                "name": "Suport General - Decidim Barcelona", 
                "official": false, 
                "official_level": 0, 
                "role": null, 
                "verified_organization": null
            }, 
            "body": "<p><a href=\"https://decidim.barcelona/proposals/promoure-l-autosuficiencia-i-autoconsum-energetics\">https://decidim.barcelona/proposals/promoure-l-autosuficiencia-i-autoconsum-energetics</a></p>", 
            "commentable_id": 986, 
            "commentable_type": "Proposal", 
            "created_at": "15/04/2016 14:49:19", 
            "flagged": false, 
            "hidden": false, 
            "id": 17154, 
            "moderator_id": null, 
            "permissions": {
                "hide": false, 
                "hide_author": false, 
                "vote": false
            }, 
            "total_dislikes": 0, 
            "total_likes": 0, 
            "total_votes": 0
        }, 
        {
            "administrator_id": null, 
            "alignment": 0, 
            "ancestry": null, 
            "as": null, 
            "author": {
                "avatar_image": "https://decidim.barcelona/assets/avatar-866795c99abc33a3160d1f3fa93ada46eb75e54134e777666b9ed16215b26534.png", 
                "erased": false, 
                "hidden": false, 
                "id": 23853, 
                "name": "Josep Busquets Vidal", 
                "official": false, 
                "official_level": 0, 
                "role": null, 
                "verified_organization": null
            }, 
            "body": "<p><a href=\"https://decidim.barcelona/proposals/incentivar-comportament-desitjables-per-l-eficiencia-energetica\">https://decidim.barcelona/proposals/incentivar-comportament-desitjables-per-l-eficiencia-energetica</a></p>", 
            "commentable_id": 986, 
            "commentable_type": "Proposal", 
            "created_at": "15/04/2016 14:52:17", 
            "flagged": false, 
            "hidden": false, 
            "id": 17155, 
            "moderator_id": null, 
            "permissions": {
                "hide": false, 
                "hide_author": false, 
                "vote": false
            }, 
            "total_dislikes": 0, 
            "total_likes": 0, 
            "total_votes": 0
        }, 
        {
            "administrator_id": null, 
            "alignment": 1, 
            "ancestry": null, 
            "as": null, 
            "author": {
                "avatar_image": "https://decidim.barcelona/assets/avatar-866795c99abc33a3160d1f3fa93ada46eb75e54134e777666b9ed16215b26534.png", 
                "erased": false, 
                "hidden": false, 
                "id": 23853, 
                "name": "Josep Busquets Vidal", 
                "official": false, 
                "official_level": 0, 
                "role": null, 
                "verified_organization": null
            }, 
            "body": "<p><a href=\"https://decidim.barcelona/proposals/aplicacio-de-descomptes-per-la-compra-d-electrodomestics-eficients-energeticament\">https://decidim.barcelona/proposals/aplicacio-de-descomptes-per-la-compra-d-electrodomestics-eficients-energeticament</a></p>", 
            "commentable_id": 986, 
            "commentable_type": "Proposal", 
            "created_at": "15/04/2016 14:56:02", 
            "flagged": false, 
            "hidden": false, 
            "id": 17160, 
            "moderator_id": null, 
            "permissions": {
                "hide": false, 
                "hide_author": false, 
                "vote": false
            }, 
            "total_dislikes": 0, 
            "total_likes": 0, 
            "total_votes": 0
        }, 
        {
            "administrator_id": null, 
            "alignment": 0, 
            "ancestry": null, 
            "as": null, 
            "author": {
                "avatar_image": "https://decidim.barcelona/assets/avatar-866795c99abc33a3160d1f3fa93ada46eb75e54134e777666b9ed16215b26534.png", 
                "erased": false, 
                "hidden": false, 
                "id": 9262, 
                "name": "Suport General - Decidim Barcelona", 
                "official": false, 
                "official_level": 0, 
                "role": null, 
                "verified_organization": null
            }, 
            "body": "<p><a href=\"https://decidim.barcelona/proposals/promoure-l-us-de-vehicles-sostenibles\">https://decidim.barcelona/proposals/promoure-l-us-de-vehicles-sostenibles</a></p>", 
            "commentable_id": 986, 
            "commentable_type": "Proposal", 
            "created_at": "15/04/2016 14:58:09", 
            "flagged": false, 
            "hidden": false, 
            "id": 17162, 
            "moderator_id": null, 
            "permissions": {
                "hide": false, 
                "hide_author": false, 
                "vote": false
            }, 
            "total_dislikes": 0, 
            "total_likes": 0, 
            "total_votes": 0
        }, 
        {
            "administrator_id": null, 
            "alignment": 0, 
            "ancestry": null, 
            "as": null, 
            "author": {
                "avatar_image": "https://decidim.barcelona/assets/avatar-866795c99abc33a3160d1f3fa93ada46eb75e54134e777666b9ed16215b26534.png", 
                "erased": false, 
                "hidden": false, 
                "id": 9262, 
                "name": "Suport General - Decidim Barcelona", 
                "official": false, 
                "official_level": 0, 
                "role": null, 
                "verified_organization": null
            }, 
            "body": "<p><a href=\"https://decidim.barcelona/proposals/foment-del-vehicle-electric\">https://decidim.barcelona/proposals/foment-del-vehicle-electric</a></p>", 
            "commentable_id": 986, 
            "commentable_type": "Proposal", 
            "created_at": "15/04/2016 14:58:21", 
            "flagged": false, 
            "hidden": false, 
            "id": 17163, 
            "moderator_id": null, 
            "permissions": {
                "hide": false, 
                "hide_author": false, 
                "vote": false
            }, 
            "total_dislikes": 0, 
            "total_likes": 0, 
            "total_votes": 0
        }, 
        {
            "administrator_id": null, 
            "alignment": 0, 
            "ancestry": null, 
            "as": null, 
            "author": {
                "avatar_image": "https://decidim.barcelona/assets/avatar-866795c99abc33a3160d1f3fa93ada46eb75e54134e777666b9ed16215b26534.png", 
                "erased": false, 
                "hidden": false, 
                "id": 9262, 
                "name": "Suport General - Decidim Barcelona", 
                "official": false, 
                "official_level": 0, 
                "role": null, 
                "verified_organization": null
            }, 
            "body": "<p><a href=\"https://decidim.barcelona/proposals/canvi-de-mirada-sobre-el-tractament-de-la-pobresa-energetica\">https://decidim.barcelona/proposals/canvi-de-mirada-sobre-el-tractament-de-la-pobresa-energetica</a></p>", 
            "commentable_id": 986, 
            "commentable_type": "Proposal", 
            "created_at": "15/04/2016 14:58:31", 
            "flagged": false, 
            "hidden": false, 
            "id": 17164, 
            "moderator_id": null, 
            "permissions": {
                "hide": false, 
                "hide_author": false, 
                "vote": false
            }, 
            "total_dislikes": 0, 
            "total_likes": 0, 
            "total_votes": 0
        }, 
        {
            "administrator_id": null, 
            "alignment": 0, 
            "ancestry": null, 
            "as": null, 
            "author": {
                "avatar_image": "https://decidim.barcelona/assets/avatar-866795c99abc33a3160d1f3fa93ada46eb75e54134e777666b9ed16215b26534.png", 
                "erased": false, 
                "hidden": false, 
                "id": 9262, 
                "name": "Suport General - Decidim Barcelona", 
                "official": false, 
                "official_level": 0, 
                "role": null, 
                "verified_organization": null
            }, 
            "body": "<p><a href=\"https://decidim.barcelona/proposals/comunitat-energetica\">https://decidim.barcelona/proposals/comunitat-energetica</a></p>", 
            "commentable_id": 986, 
            "commentable_type": "Proposal", 
            "created_at": "15/04/2016 14:58:47", 
            "flagged": false, 
            "hidden": false, 
            "id": 17165, 
            "moderator_id": null, 
            "permissions": {
                "hide": false, 
                "hide_author": false, 
                "vote": false
            }, 
            "total_dislikes": 0, 
            "total_likes": 0, 
            "total_votes": 0
        }, 
        {
            "administrator_id": null, 
            "alignment": 0, 
            "ancestry": null, 
            "as": null, 
            "author": {
                "avatar_image": "https://decidim.barcelona/assets/avatar-866795c99abc33a3160d1f3fa93ada46eb75e54134e777666b9ed16215b26534.png", 
                "erased": false, 
                "hidden": false, 
                "id": 9262, 
                "name": "Suport General - Decidim Barcelona", 
                "official": false, 
                "official_level": 0, 
                "role": null, 
                "verified_organization": null
            }, 
            "body": "<p><a href=\"https://decidim.barcelona/proposals/l-energia-es-un-dret\">https://decidim.barcelona/proposals/l-energia-es-un-dret</a></p>", 
            "commentable_id": 986, 
            "commentable_type": "Proposal", 
            "created_at": "15/04/2016 14:59:00", 
            "flagged": false, 
            "hidden": false, 
            "id": 17166, 
            "moderator_id": null, 
            "permissions": {
                "hide": false, 
                "hide_author": false, 
                "vote": false
            }, 
            "total_dislikes": 0, 
            "total_likes": 0, 
            "total_votes": 0
        }, 
        {
            "administrator_id": null, 
            "alignment": 0, 
            "ancestry": null, 
            "as": null, 
            "author": {
                "avatar_image": "https://decidim.barcelona/assets/avatar-866795c99abc33a3160d1f3fa93ada46eb75e54134e777666b9ed16215b26534.png", 
                "erased": false, 
                "hidden": false, 
                "id": 9262, 
                "name": "Suport General - Decidim Barcelona", 
                "official": false, 
                "official_level": 0, 
                "role": null, 
                "verified_organization": null
            }, 
            "body": "<p><a href=\"https://decidim.barcelona/proposals/mesures-contra-la-pobresa-energetica\">https://decidim.barcelona/proposals/mesures-contra-la-pobresa-energetica</a></p>", 
            "commentable_id": 986, 
            "commentable_type": "Proposal", 
            "created_at": "15/04/2016 14:59:14", 
            "flagged": false, 
            "hidden": false, 
            "id": 17167, 
            "moderator_id": null, 
            "permissions": {
                "hide": false, 
                "hide_author": false, 
                "vote": false
            }, 
            "total_dislikes": 0, 
            "total_likes": 0, 
            "total_votes": 0
        }, 
        {
            "administrator_id": null, 
            "alignment": 0, 
            "ancestry": null, 
            "as": null, 
            "author": {
                "avatar_image": "https://decidim.barcelona/assets/avatar-866795c99abc33a3160d1f3fa93ada46eb75e54134e777666b9ed16215b26534.png", 
                "erased": false, 
                "hidden": false, 
                "id": 9262, 
                "name": "Suport General - Decidim Barcelona", 
                "official": false, 
                "official_level": 0, 
                "role": null, 
                "verified_organization": null
            }, 
            "body": "<p><a href=\"https://decidim.barcelona/proposals/formacio-sobre-l-estalvi-d-energia-a-casa\">https://decidim.barcelona/proposals/formacio-sobre-l-estalvi-d-energia-a-casa</a></p>", 
            "commentable_id": 986, 
            "commentable_type": "Proposal", 
            "created_at": "15/04/2016 14:59:26", 
            "flagged": false, 
            "hidden": false, 
            "id": 17168, 
            "moderator_id": null, 
            "permissions": {
                "hide": false, 
                "hide_author": false, 
                "vote": false
            }, 
            "total_dislikes": 0, 
            "total_likes": 0, 
            "total_votes": 0
        }
    ], 
    "meta": {
        "current_page": 1, 
        "next_page": 2, 
        "prev_page": null, 
        "total_count": 21, 
        "total_pages": 2
    }
}