{
    "comments": [
        {
            "administrator_id": null, 
            "alignment": 0, 
            "ancestry": null, 
            "as": null, 
            "author": {
                "avatar_image": "https://decidim.barcelona/assets/avatar-866795c99abc33a3160d1f3fa93ada46eb75e54134e777666b9ed16215b26534.png", 
                "erased": false, 
                "hidden": false, 
                "id": 9262, 
                "name": "Suport General - Decidim Barcelona", 
                "official": false, 
                "official_level": 0, 
                "role": null, 
                "verified_organization": null
            }, 
            "body": "<p><a href=\"https://decidim.barcelona/proposals/bus-19\">https://decidim.barcelona/proposals/bus-19</a></p>", 
            "commentable_id": 980, 
            "commentable_type": "Proposal", 
            "created_at": "14/04/2016 16:04:16", 
            "flagged": false, 
            "hidden": false, 
            "id": 15860, 
            "moderator_id": null, 
            "permissions": {
                "hide": false, 
                "hide_author": false, 
                "vote": false
            }, 
            "total_dislikes": 0, 
            "total_likes": 0, 
            "total_votes": 0
        }, 
        {
            "administrator_id": null, 
            "alignment": 0, 
            "ancestry": null, 
            "as": null, 
            "author": {
                "avatar_image": "https://decidim.barcelona/assets/avatar-866795c99abc33a3160d1f3fa93ada46eb75e54134e777666b9ed16215b26534.png", 
                "erased": false, 
                "hidden": false, 
                "id": 9262, 
                "name": "Suport General - Decidim Barcelona", 
                "official": false, 
                "official_level": 0, 
                "role": null, 
                "verified_organization": null
            }, 
            "body": "<p><a href=\"https://decidim.barcelona/proposals/fer-l-autobus-d20-articulat\">https://decidim.barcelona/proposals/fer-l-autobus-d20-articulat</a></p>", 
            "commentable_id": 980, 
            "commentable_type": "Proposal", 
            "created_at": "14/04/2016 16:23:56", 
            "flagged": false, 
            "hidden": false, 
            "id": 15916, 
            "moderator_id": null, 
            "permissions": {
                "hide": false, 
                "hide_author": false, 
                "vote": false
            }, 
            "total_dislikes": 0, 
            "total_likes": 0, 
            "total_votes": 0
        }, 
        {
            "administrator_id": null, 
            "alignment": 0, 
            "ancestry": null, 
            "as": null, 
            "author": {
                "avatar_image": "https://decidim.barcelona/assets/avatar-866795c99abc33a3160d1f3fa93ada46eb75e54134e777666b9ed16215b26534.png", 
                "erased": false, 
                "hidden": false, 
                "id": 9262, 
                "name": "Suport General - Decidim Barcelona", 
                "official": false, 
                "official_level": 0, 
                "role": null, 
                "verified_organization": null
            }, 
            "body": "<p><a href=\"https://decidim.barcelona/proposals/nueva-linea-h4-no-es-horizontal\">https://decidim.barcelona/proposals/nueva-linea-h4-no-es-horizontal</a></p>", 
            "commentable_id": 980, 
            "commentable_type": "Proposal", 
            "created_at": "14/04/2016 16:26:29", 
            "flagged": false, 
            "hidden": false, 
            "id": 15925, 
            "moderator_id": null, 
            "permissions": {
                "hide": false, 
                "hide_author": false, 
                "vote": false
            }, 
            "total_dislikes": 0, 
            "total_likes": 0, 
            "total_votes": 0
        }, 
        {
            "administrator_id": null, 
            "alignment": 0, 
            "ancestry": null, 
            "as": null, 
            "author": {
                "avatar_image": "https://decidim.barcelona/assets/avatar-866795c99abc33a3160d1f3fa93ada46eb75e54134e777666b9ed16215b26534.png", 
                "erased": false, 
                "hidden": false, 
                "id": 9262, 
                "name": "Suport General - Decidim Barcelona", 
                "official": false, 
                "official_level": 0, 
                "role": null, 
                "verified_organization": null
            }, 
            "body": "<p><a href=\"https://decidim.barcelona/proposals/ampliar-la-frequencia-de-pas-de-bus-i-metro\">https://decidim.barcelona/proposals/ampliar-la-frequencia-de-pas-de-bus-i-metro</a></p>", 
            "commentable_id": 980, 
            "commentable_type": "Proposal", 
            "created_at": "14/04/2016 16:34:33", 
            "flagged": false, 
            "hidden": false, 
            "id": 15943, 
            "moderator_id": null, 
            "permissions": {
                "hide": false, 
                "hide_author": false, 
                "vote": false
            }, 
            "total_dislikes": 0, 
            "total_likes": 0, 
            "total_votes": 0
        }, 
        {
            "administrator_id": null, 
            "alignment": 0, 
            "ancestry": null, 
            "as": null, 
            "author": {
                "avatar_image": "https://decidim.barcelona/assets/avatar-866795c99abc33a3160d1f3fa93ada46eb75e54134e777666b9ed16215b26534.png", 
                "erased": false, 
                "hidden": false, 
                "id": 9262, 
                "name": "Suport General - Decidim Barcelona", 
                "official": false, 
                "official_level": 0, 
                "role": null, 
                "verified_organization": null
            }, 
            "body": "<p><a href=\"https://decidim.barcelona/proposals/no-arees-d-intercanvi-de-tmb\">https://decidim.barcelona/proposals/no-arees-d-intercanvi-de-tmb</a></p>", 
            "commentable_id": 980, 
            "commentable_type": "Proposal", 
            "created_at": "14/04/2016 16:58:55", 
            "flagged": false, 
            "hidden": false, 
            "id": 16007, 
            "moderator_id": null, 
            "permissions": {
                "hide": false, 
                "hide_author": false, 
                "vote": false
            }, 
            "total_dislikes": 0, 
            "total_likes": 0, 
            "total_votes": 0
        }, 
        {
            "administrator_id": null, 
            "alignment": 0, 
            "ancestry": null, 
            "as": null, 
            "author": {
                "avatar_image": "https://decidim.barcelona/assets/avatar-866795c99abc33a3160d1f3fa93ada46eb75e54134e777666b9ed16215b26534.png", 
                "erased": false, 
                "hidden": false, 
                "id": 9262, 
                "name": "Suport General - Decidim Barcelona", 
                "official": false, 
                "official_level": 0, 
                "role": null, 
                "verified_organization": null
            }, 
            "body": "<p><a href=\"https://decidim.barcelona/proposals/red-sensata-de-bus-nocturno\">https://decidim.barcelona/proposals/red-sensata-de-bus-nocturno</a></p>", 
            "commentable_id": 980, 
            "commentable_type": "Proposal", 
            "created_at": "14/04/2016 17:23:12", 
            "flagged": false, 
            "hidden": false, 
            "id": 16086, 
            "moderator_id": null, 
            "permissions": {
                "hide": false, 
                "hide_author": false, 
                "vote": false
            }, 
            "total_dislikes": 0, 
            "total_likes": 0, 
            "total_votes": 0
        }, 
        {
            "administrator_id": null, 
            "alignment": 0, 
            "ancestry": null, 
            "as": null, 
            "author": {
                "avatar_image": "https://decidim.barcelona/assets/avatar-866795c99abc33a3160d1f3fa93ada46eb75e54134e777666b9ed16215b26534.png", 
                "erased": false, 
                "hidden": false, 
                "id": 9262, 
                "name": "Suport General - Decidim Barcelona", 
                "official": false, 
                "official_level": 0, 
                "role": null, 
                "verified_organization": null
            }, 
            "body": "<p><a href=\"https://decidim.barcelona/proposals/unificacion-de-horarios-y-frecuencias-en-las-red-de-autobuses-nxb-convencional\">https://decidim.barcelona/proposals/unificacion-de-horarios-y-frecuencias-en-las-red-de-autobuses-nxb-convencional</a></p>", 
            "commentable_id": 980, 
            "commentable_type": "Proposal", 
            "created_at": "14/04/2016 17:55:34", 
            "flagged": false, 
            "hidden": false, 
            "id": 16158, 
            "moderator_id": null, 
            "permissions": {
                "hide": false, 
                "hide_author": false, 
                "vote": false
            }, 
            "total_dislikes": 0, 
            "total_likes": 0, 
            "total_votes": 0
        }, 
        {
            "administrator_id": null, 
            "alignment": 0, 
            "ancestry": null, 
            "as": null, 
            "author": {
                "avatar_image": "https://decidim.barcelona/assets/avatar-866795c99abc33a3160d1f3fa93ada46eb75e54134e777666b9ed16215b26534.png", 
                "erased": false, 
                "hidden": false, 
                "id": 9262, 
                "name": "Suport General - Decidim Barcelona", 
                "official": false, 
                "official_level": 0, 
                "role": null, 
                "verified_organization": null
            }, 
            "body": "<p><a href=\"https://decidim.barcelona/proposals/reconsiderar-la-eliminacio-de-la-lnia-de-bus-64\">https://decidim.barcelona/proposals/reconsiderar-la-eliminacio-de-la-lnia-de-bus-64</a></p>", 
            "commentable_id": 980, 
            "commentable_type": "Proposal", 
            "created_at": "14/04/2016 17:59:15", 
            "flagged": false, 
            "hidden": false, 
            "id": 16172, 
            "moderator_id": null, 
            "permissions": {
                "hide": false, 
                "hide_author": false, 
                "vote": false
            }, 
            "total_dislikes": 0, 
            "total_likes": 0, 
            "total_votes": 0
        }, 
        {
            "administrator_id": null, 
            "alignment": 0, 
            "ancestry": null, 
            "as": null, 
            "author": {
                "avatar_image": "https://decidim.barcelona/assets/avatar-866795c99abc33a3160d1f3fa93ada46eb75e54134e777666b9ed16215b26534.png", 
                "erased": false, 
                "hidden": false, 
                "id": 9262, 
                "name": "Suport General - Decidim Barcelona", 
                "official": false, 
                "official_level": 0, 
                "role": null, 
                "verified_organization": null
            }, 
            "body": "<p><a href=\"https://decidim.barcelona/proposals/restaurar-el-recorregut-de-la-linia-22-d-autobus\">https://decidim.barcelona/proposals/restaurar-el-recorregut-de-la-linia-22-d-autobus</a></p>", 
            "commentable_id": 980, 
            "commentable_type": "Proposal", 
            "created_at": "14/04/2016 18:04:02", 
            "flagged": false, 
            "hidden": false, 
            "id": 16189, 
            "moderator_id": null, 
            "permissions": {
                "hide": false, 
                "hide_author": false, 
                "vote": false
            }, 
            "total_dislikes": 0, 
            "total_likes": 0, 
            "total_votes": 0
        }, 
        {
            "administrator_id": null, 
            "alignment": 0, 
            "ancestry": null, 
            "as": null, 
            "author": {
                "avatar_image": "https://decidim.barcelona/assets/avatar-866795c99abc33a3160d1f3fa93ada46eb75e54134e777666b9ed16215b26534.png", 
                "erased": false, 
                "hidden": false, 
                "id": 9262, 
                "name": "Suport General - Decidim Barcelona", 
                "official": false, 
                "official_level": 0, 
                "role": null, 
                "verified_organization": null
            }, 
            "body": "<p><a href=\"https://decidim.barcelona/proposals/autobus-utils-mes-rapids\">https://decidim.barcelona/proposals/autobus-utils-mes-rapids</a></p>", 
            "commentable_id": 980, 
            "commentable_type": "Proposal", 
            "created_at": "14/04/2016 18:10:14", 
            "flagged": false, 
            "hidden": false, 
            "id": 16203, 
            "moderator_id": null, 
            "permissions": {
                "hide": false, 
                "hide_author": false, 
                "vote": false
            }, 
            "total_dislikes": 0, 
            "total_likes": 0, 
            "total_votes": 0
        }, 
        {
            "administrator_id": null, 
            "alignment": 0, 
            "ancestry": null, 
            "as": null, 
            "author": {
                "avatar_image": "https://decidim.barcelona/assets/avatar-866795c99abc33a3160d1f3fa93ada46eb75e54134e777666b9ed16215b26534.png", 
                "erased": false, 
                "hidden": false, 
                "id": 9262, 
                "name": "Suport General - Decidim Barcelona", 
                "official": false, 
                "official_level": 0, 
                "role": null, 
                "verified_organization": null
            }, 
            "body": "<p><a href=\"https://decidim.barcelona/proposals/reducir-la-distancia-entre-paradas-de-las-nuevas-lineas-de-autobus-v-y-h\">https://decidim.barcelona/proposals/reducir-la-distancia-entre-paradas-de-las-nuevas-lineas-de-autobus-v-y-h</a></p>", 
            "commentable_id": 980, 
            "commentable_type": "Proposal", 
            "created_at": "14/04/2016 18:13:55", 
            "flagged": false, 
            "hidden": false, 
            "id": 16208, 
            "moderator_id": null, 
            "permissions": {
                "hide": false, 
                "hide_author": false, 
                "vote": false
            }, 
            "total_dislikes": 0, 
            "total_likes": 0, 
            "total_votes": 0
        }, 
        {
            "administrator_id": null, 
            "alignment": 0, 
            "ancestry": null, 
            "as": null, 
            "author": {
                "avatar_image": "https://decidim.barcelona/assets/avatar-866795c99abc33a3160d1f3fa93ada46eb75e54134e777666b9ed16215b26534.png", 
                "erased": false, 
                "hidden": false, 
                "id": 9262, 
                "name": "Suport General - Decidim Barcelona", 
                "official": false, 
                "official_level": 0, 
                "role": null, 
                "verified_organization": null
            }, 
            "body": "<p><a href=\"https://decidim.barcelona/proposals/recuperem-les-antigues-linies-d-autobus\">https://decidim.barcelona/proposals/recuperem-les-antigues-linies-d-autobus</a></p>", 
            "commentable_id": 980, 
            "commentable_type": "Proposal", 
            "created_at": "15/04/2016 09:50:03", 
            "flagged": false, 
            "hidden": false, 
            "id": 16414, 
            "moderator_id": null, 
            "permissions": {
                "hide": false, 
                "hide_author": false, 
                "vote": false
            }, 
            "total_dislikes": 0, 
            "total_likes": 0, 
            "total_votes": 0
        }, 
        {
            "administrator_id": null, 
            "alignment": 0, 
            "ancestry": null, 
            "as": null, 
            "author": {
                "avatar_image": "https://decidim.barcelona/assets/avatar-866795c99abc33a3160d1f3fa93ada46eb75e54134e777666b9ed16215b26534.png", 
                "erased": false, 
                "hidden": false, 
                "id": 9262, 
                "name": "Suport General - Decidim Barcelona", 
                "official": false, 
                "official_level": 0, 
                "role": null, 
                "verified_organization": null
            }, 
            "body": "<p><a href=\"https://decidim.barcelona/proposals/millorar-la-mobilitat-48830de8-355a-4023-80f2-40f8c2e2699e\">https://decidim.barcelona/proposals/millorar-la-mobilitat-48830de8-355a-4023-80f2-40f8c2e2699e</a></p>", 
            "commentable_id": 980, 
            "commentable_type": "Proposal", 
            "created_at": "15/04/2016 09:57:03", 
            "flagged": false, 
            "hidden": false, 
            "id": 16439, 
            "moderator_id": null, 
            "permissions": {
                "hide": false, 
                "hide_author": false, 
                "vote": false
            }, 
            "total_dislikes": 0, 
            "total_likes": 0, 
            "total_votes": 0
        }, 
        {
            "administrator_id": null, 
            "alignment": 0, 
            "ancestry": null, 
            "as": null, 
            "author": {
                "avatar_image": "https://decidim.barcelona/assets/avatar-866795c99abc33a3160d1f3fa93ada46eb75e54134e777666b9ed16215b26534.png", 
                "erased": false, 
                "hidden": false, 
                "id": 9262, 
                "name": "Suport General - Decidim Barcelona", 
                "official": false, 
                "official_level": 0, 
                "role": null, 
                "verified_organization": null
            }, 
            "body": "<p><a href=\"https://decidim.barcelona/proposals/penjar-un-planol-de-la-ruta-a-l-interior-dels-autobusos-i-el-numero-de-bus\">https://decidim.barcelona/proposals/penjar-un-planol-de-la-ruta-a-l-interior-dels-autobusos-i-el-numero-de-bus</a></p>", 
            "commentable_id": 980, 
            "commentable_type": "Proposal", 
            "created_at": "15/04/2016 10:02:09", 
            "flagged": false, 
            "hidden": false, 
            "id": 16453, 
            "moderator_id": null, 
            "permissions": {
                "hide": false, 
                "hide_author": false, 
                "vote": false
            }, 
            "total_dislikes": 0, 
            "total_likes": 0, 
            "total_votes": 0
        }, 
        {
            "administrator_id": null, 
            "alignment": 0, 
            "ancestry": null, 
            "as": null, 
            "author": {
                "avatar_image": "https://decidim.barcelona/assets/avatar-866795c99abc33a3160d1f3fa93ada46eb75e54134e777666b9ed16215b26534.png", 
                "erased": false, 
                "hidden": false, 
                "id": 9262, 
                "name": "Suport General - Decidim Barcelona", 
                "official": false, 
                "official_level": 0, 
                "role": null, 
                "verified_organization": null
            }, 
            "body": "<p><a href=\"https://decidim.barcelona/proposals/recuperar-el-bus-64\">https://decidim.barcelona/proposals/recuperar-el-bus-64</a></p>", 
            "commentable_id": 980, 
            "commentable_type": "Proposal", 
            "created_at": "15/04/2016 10:08:13", 
            "flagged": false, 
            "hidden": false, 
            "id": 16468, 
            "moderator_id": null, 
            "permissions": {
                "hide": false, 
                "hide_author": false, 
                "vote": false
            }, 
            "total_dislikes": 0, 
            "total_likes": 0, 
            "total_votes": 0
        }, 
        {
            "administrator_id": null, 
            "alignment": 0, 
            "ancestry": null, 
            "as": null, 
            "author": {
                "avatar_image": "https://decidim.barcelona/assets/avatar-866795c99abc33a3160d1f3fa93ada46eb75e54134e777666b9ed16215b26534.png", 
                "erased": false, 
                "hidden": false, 
                "id": 9262, 
                "name": "Suport General - Decidim Barcelona", 
                "official": false, 
                "official_level": 0, 
                "role": null, 
                "verified_organization": null
            }, 
            "body": "<p><a href=\"https://decidim.barcelona/proposals/no-al-nuevo-sistema-tmb-de-bus-verticales-y-horizontales\">https://decidim.barcelona/proposals/no-al-nuevo-sistema-tmb-de-bus-verticales-y-horizontales</a></p>", 
            "commentable_id": 980, 
            "commentable_type": "Proposal", 
            "created_at": "15/04/2016 10:17:28", 
            "flagged": false, 
            "hidden": false, 
            "id": 16494, 
            "moderator_id": null, 
            "permissions": {
                "hide": false, 
                "hide_author": false, 
                "vote": false
            }, 
            "total_dislikes": 0, 
            "total_likes": 0, 
            "total_votes": 0
        }, 
        {
            "administrator_id": null, 
            "alignment": 0, 
            "ancestry": null, 
            "as": null, 
            "author": {
                "avatar_image": "https://decidim.barcelona/assets/avatar-866795c99abc33a3160d1f3fa93ada46eb75e54134e777666b9ed16215b26534.png", 
                "erased": false, 
                "hidden": false, 
                "id": 9262, 
                "name": "Suport General - Decidim Barcelona", 
                "official": false, 
                "official_level": 0, 
                "role": null, 
                "verified_organization": null
            }, 
            "body": "<p><a href=\"https://decidim.barcelona/proposals/mes-frequencia-v13-en-te-menys-que-abans\">https://decidim.barcelona/proposals/mes-frequencia-v13-en-te-menys-que-abans</a></p>", 
            "commentable_id": 980, 
            "commentable_type": "Proposal", 
            "created_at": "15/04/2016 10:28:41", 
            "flagged": false, 
            "hidden": false, 
            "id": 16512, 
            "moderator_id": null, 
            "permissions": {
                "hide": false, 
                "hide_author": false, 
                "vote": false
            }, 
            "total_dislikes": 0, 
            "total_likes": 0, 
            "total_votes": 0
        }, 
        {
            "administrator_id": null, 
            "alignment": 0, 
            "ancestry": null, 
            "as": null, 
            "author": {
                "avatar_image": "https://decidim.barcelona/assets/avatar-866795c99abc33a3160d1f3fa93ada46eb75e54134e777666b9ed16215b26534.png", 
                "erased": false, 
                "hidden": false, 
                "id": 9262, 
                "name": "Suport General - Decidim Barcelona", 
                "official": false, 
                "official_level": 0, 
                "role": null, 
                "verified_organization": null
            }, 
            "body": "<p><a href=\"https://decidim.barcelona/proposals/marquesinas-en-las-paradas-de-autobuses\">https://decidim.barcelona/proposals/marquesinas-en-las-paradas-de-autobuses</a></p>", 
            "commentable_id": 980, 
            "commentable_type": "Proposal", 
            "created_at": "16/04/2016 16:42:03", 
            "flagged": false, 
            "hidden": false, 
            "id": 18295, 
            "moderator_id": null, 
            "permissions": {
                "hide": false, 
                "hide_author": false, 
                "vote": false
            }, 
            "total_dislikes": 0, 
            "total_likes": 0, 
            "total_votes": 0
        }
    ], 
    "meta": {
        "current_page": 2, 
        "next_page": null, 
        "prev_page": 1, 
        "total_count": 38, 
        "total_pages": 2
    }
}