{
    "comments": [
        {
            "administrator_id": null, 
            "alignment": 1, 
            "ancestry": null, 
            "as": null, 
            "author": {
                "avatar_image": "https://decidim.barcelona/assets/avatar-866795c99abc33a3160d1f3fa93ada46eb75e54134e777666b9ed16215b26534.png", 
                "erased": false, 
                "hidden": false, 
                "id": 12666, 
                "name": "Llu\u00eds Rogent", 
                "official": false, 
                "official_level": 0, 
                "role": null, 
                "verified_organization": null
            }, 
            "body": "<p>La ciutat de Barcelona podria ser una ciutat mes sostenible per\u00f2 va tard. Massa tard. \u00c9s hora de canviar radicalment les fonts energ\u00e8tics de les entitats i transport p\u00fablics de la ciutat amb determinaci\u00f3.</p>", 
            "commentable_id": 987, 
            "commentable_type": "Proposal", 
            "created_at": "15/03/2016 18:39:32", 
            "flagged": false, 
            "hidden": false, 
            "id": 5099, 
            "moderator_id": null, 
            "permissions": {
                "hide": false, 
                "hide_author": false, 
                "vote": false
            }, 
            "total_dislikes": 0, 
            "total_likes": 0, 
            "total_votes": 0
        }, 
        {
            "administrator_id": null, 
            "alignment": 0, 
            "ancestry": null, 
            "as": null, 
            "author": {
                "avatar_image": "https://decidim.barcelona/assets/avatar-866795c99abc33a3160d1f3fa93ada46eb75e54134e777666b9ed16215b26534.png", 
                "erased": false, 
                "hidden": false, 
                "id": 17741, 
                "name": "Suport General3 - Decidim Barcelona", 
                "official": false, 
                "official_level": 0, 
                "role": null, 
                "verified_organization": null
            }, 
            "body": "<p><a href=\"https://decidim.barcelona/proposals/apostar-por-las-energias-renovables-y-por-las-soluciones-de-eficiencia-energetica-integral\">https://decidim.barcelona/proposals/apostar-por-las-energias-renovables-y-por-las-soluciones-de-eficiencia-energetica-integral</a></p>", 
            "commentable_id": 987, 
            "commentable_type": "Proposal", 
            "created_at": "07/04/2016 17:23:19", 
            "flagged": false, 
            "hidden": false, 
            "id": 9782, 
            "moderator_id": null, 
            "permissions": {
                "hide": false, 
                "hide_author": false, 
                "vote": false
            }, 
            "total_dislikes": 0, 
            "total_likes": 0, 
            "total_votes": 0
        }, 
        {
            "administrator_id": null, 
            "alignment": 0, 
            "ancestry": null, 
            "as": null, 
            "author": {
                "avatar_image": "https://decidim.barcelona/assets/avatar-866795c99abc33a3160d1f3fa93ada46eb75e54134e777666b9ed16215b26534.png", 
                "erased": false, 
                "hidden": false, 
                "id": 17741, 
                "name": "Suport General3 - Decidim Barcelona", 
                "official": false, 
                "official_level": 0, 
                "role": null, 
                "verified_organization": null
            }, 
            "body": "<p><a href=\"https://decidim.barcelona/proposals/barcelona-exemple-en-us-d-energies-renovables\">https://decidim.barcelona/proposals/barcelona-exemple-en-us-d-energies-renovables</a></p>", 
            "commentable_id": 987, 
            "commentable_type": "Proposal", 
            "created_at": "08/04/2016 14:31:51", 
            "flagged": false, 
            "hidden": false, 
            "id": 10938, 
            "moderator_id": null, 
            "permissions": {
                "hide": false, 
                "hide_author": false, 
                "vote": false
            }, 
            "total_dislikes": 0, 
            "total_likes": 0, 
            "total_votes": 0
        }, 
        {
            "administrator_id": null, 
            "alignment": 1, 
            "ancestry": null, 
            "as": null, 
            "author": {
                "avatar_image": "https://decidim.barcelona/assets/avatar-866795c99abc33a3160d1f3fa93ada46eb75e54134e777666b9ed16215b26534.png", 
                "erased": false, 
                "hidden": false, 
                "id": 23853, 
                "name": "Josep Busquets Vidal", 
                "official": false, 
                "official_level": 0, 
                "role": null, 
                "verified_organization": null
            }, 
            "body": "<p><a href=\"https://decidim.barcelona/proposals/donar-suport-a-projectes-de-telefonia-i-energia-renovable-i-sostenible\">https://decidim.barcelona/proposals/donar-suport-a-projectes-de-telefonia-i-energia-renovable-i-sostenible</a></p>", 
            "commentable_id": 987, 
            "commentable_type": "Proposal", 
            "created_at": "15/04/2016 11:25:35", 
            "flagged": false, 
            "hidden": false, 
            "id": 16644, 
            "moderator_id": null, 
            "permissions": {
                "hide": false, 
                "hide_author": false, 
                "vote": false
            }, 
            "total_dislikes": 0, 
            "total_likes": 0, 
            "total_votes": 0
        }, 
        {
            "administrator_id": null, 
            "alignment": 1, 
            "ancestry": null, 
            "as": null, 
            "author": {
                "avatar_image": "https://decidim.barcelona/assets/avatar-866795c99abc33a3160d1f3fa93ada46eb75e54134e777666b9ed16215b26534.png", 
                "erased": false, 
                "hidden": false, 
                "id": 23853, 
                "name": "Josep Busquets Vidal", 
                "official": false, 
                "official_level": 0, 
                "role": null, 
                "verified_organization": null
            }, 
            "body": "<p><a href=\"https://decidim.barcelona/proposals/modificar-la-llei-del-sector-energetic\">https://decidim.barcelona/proposals/modificar-la-llei-del-sector-energetic</a></p>", 
            "commentable_id": 987, 
            "commentable_type": "Proposal", 
            "created_at": "15/04/2016 11:27:53", 
            "flagged": false, 
            "hidden": false, 
            "id": 16647, 
            "moderator_id": null, 
            "permissions": {
                "hide": false, 
                "hide_author": false, 
                "vote": false
            }, 
            "total_dislikes": 0, 
            "total_likes": 0, 
            "total_votes": 0
        }, 
        {
            "administrator_id": null, 
            "alignment": 1, 
            "ancestry": null, 
            "as": null, 
            "author": {
                "avatar_image": "https://decidim.barcelona/assets/avatar-866795c99abc33a3160d1f3fa93ada46eb75e54134e777666b9ed16215b26534.png", 
                "erased": false, 
                "hidden": false, 
                "id": 23853, 
                "name": "Josep Busquets Vidal", 
                "official": false, 
                "official_level": 0, 
                "role": null, 
                "verified_organization": null
            }, 
            "body": "<p><a href=\"https://decidim.barcelona/proposals/facilitar-l-acces-a-les-energies-renovables\">https://decidim.barcelona/proposals/facilitar-l-acces-a-les-energies-renovables</a></p>", 
            "commentable_id": 987, 
            "commentable_type": "Proposal", 
            "created_at": "15/04/2016 12:37:12", 
            "flagged": false, 
            "hidden": false, 
            "id": 16841, 
            "moderator_id": null, 
            "permissions": {
                "hide": false, 
                "hide_author": false, 
                "vote": false
            }, 
            "total_dislikes": 0, 
            "total_likes": 0, 
            "total_votes": 0
        }, 
        {
            "administrator_id": null, 
            "alignment": 1, 
            "ancestry": null, 
            "as": null, 
            "author": {
                "avatar_image": "https://decidim.barcelona/assets/avatar-866795c99abc33a3160d1f3fa93ada46eb75e54134e777666b9ed16215b26534.png", 
                "erased": false, 
                "hidden": false, 
                "id": 23853, 
                "name": "Josep Busquets Vidal", 
                "official": false, 
                "official_level": 0, 
                "role": null, 
                "verified_organization": null
            }, 
            "body": "<p><a href=\"https://decidim.barcelona/proposals/facilitar-l-acces-a-les-energies-renovables\">https://decidim.barcelona/proposals/facilitar-l-acces-a-les-energies-renovables</a></p>", 
            "commentable_id": 987, 
            "commentable_type": "Proposal", 
            "created_at": "15/04/2016 12:37:24", 
            "flagged": false, 
            "hidden": false, 
            "id": 16844, 
            "moderator_id": null, 
            "permissions": {
                "hide": false, 
                "hide_author": false, 
                "vote": false
            }, 
            "total_dislikes": 0, 
            "total_likes": 0, 
            "total_votes": 0
        }, 
        {
            "administrator_id": null, 
            "alignment": 1, 
            "ancestry": null, 
            "as": null, 
            "author": {
                "avatar_image": "https://decidim.barcelona/assets/avatar-866795c99abc33a3160d1f3fa93ada46eb75e54134e777666b9ed16215b26534.png", 
                "erased": false, 
                "hidden": false, 
                "id": 23853, 
                "name": "Josep Busquets Vidal", 
                "official": false, 
                "official_level": 0, 
                "role": null, 
                "verified_organization": null
            }, 
            "body": "<p><a href=\"https://decidim.barcelona/proposals/contaminacio-luminica\">https://decidim.barcelona/proposals/contaminacio-luminica</a></p>", 
            "commentable_id": 987, 
            "commentable_type": "Proposal", 
            "created_at": "15/04/2016 12:41:20", 
            "flagged": false, 
            "hidden": false, 
            "id": 16851, 
            "moderator_id": null, 
            "permissions": {
                "hide": false, 
                "hide_author": false, 
                "vote": false
            }, 
            "total_dislikes": 0, 
            "total_likes": 0, 
            "total_votes": 0
        }, 
        {
            "administrator_id": null, 
            "alignment": 1, 
            "ancestry": null, 
            "as": null, 
            "author": {
                "avatar_image": "https://decidim.barcelona/assets/avatar-866795c99abc33a3160d1f3fa93ada46eb75e54134e777666b9ed16215b26534.png", 
                "erased": false, 
                "hidden": false, 
                "id": 23853, 
                "name": "Josep Busquets Vidal", 
                "official": false, 
                "official_level": 0, 
                "role": null, 
                "verified_organization": null
            }, 
            "body": "<p><a href=\"https://decidim.barcelona/proposals/promoure-l-energia-solar-a-la-ciutat\">https://decidim.barcelona/proposals/promoure-l-energia-solar-a-la-ciutat</a></p>", 
            "commentable_id": 987, 
            "commentable_type": "Proposal", 
            "created_at": "15/04/2016 12:50:52", 
            "flagged": false, 
            "hidden": false, 
            "id": 16888, 
            "moderator_id": null, 
            "permissions": {
                "hide": false, 
                "hide_author": false, 
                "vote": false
            }, 
            "total_dislikes": 0, 
            "total_likes": 0, 
            "total_votes": 0
        }, 
        {
            "administrator_id": null, 
            "alignment": 1, 
            "ancestry": null, 
            "as": null, 
            "author": {
                "avatar_image": "https://decidim.barcelona/assets/avatar-866795c99abc33a3160d1f3fa93ada46eb75e54134e777666b9ed16215b26534.png", 
                "erased": false, 
                "hidden": false, 
                "id": 23853, 
                "name": "Josep Busquets Vidal", 
                "official": false, 
                "official_level": 0, 
                "role": null, 
                "verified_organization": null
            }, 
            "body": "<p><a href=\"https://decidim.barcelona/proposals/fanals-i-semafors-publics-sense-obsolescencia-programada-i-de-molt-baix-consum\">https://decidim.barcelona/proposals/fanals-i-semafors-publics-sense-obsolescencia-programada-i-de-molt-baix-consum</a></p>", 
            "commentable_id": 987, 
            "commentable_type": "Proposal", 
            "created_at": "15/04/2016 13:13:10", 
            "flagged": false, 
            "hidden": false, 
            "id": 16995, 
            "moderator_id": null, 
            "permissions": {
                "hide": false, 
                "hide_author": false, 
                "vote": false
            }, 
            "total_dislikes": 0, 
            "total_likes": 0, 
            "total_votes": 0
        }, 
        {
            "administrator_id": null, 
            "alignment": 1, 
            "ancestry": null, 
            "as": null, 
            "author": {
                "avatar_image": "https://decidim.barcelona/assets/avatar-866795c99abc33a3160d1f3fa93ada46eb75e54134e777666b9ed16215b26534.png", 
                "erased": false, 
                "hidden": false, 
                "id": 23853, 
                "name": "Josep Busquets Vidal", 
                "official": false, 
                "official_level": 0, 
                "role": null, 
                "verified_organization": null
            }, 
            "body": "<p><a href=\"https://decidim.barcelona/proposals/uso-racional-del-aire-acondicionado-en-metro-y-bus\">https://decidim.barcelona/proposals/uso-racional-del-aire-acondicionado-en-metro-y-bus</a></p>", 
            "commentable_id": 987, 
            "commentable_type": "Proposal", 
            "created_at": "15/04/2016 13:23:31", 
            "flagged": false, 
            "hidden": false, 
            "id": 17024, 
            "moderator_id": null, 
            "permissions": {
                "hide": false, 
                "hide_author": false, 
                "vote": false
            }, 
            "total_dislikes": 0, 
            "total_likes": 0, 
            "total_votes": 0
        }, 
        {
            "administrator_id": null, 
            "alignment": 1, 
            "ancestry": null, 
            "as": null, 
            "author": {
                "avatar_image": "https://decidim.barcelona/assets/avatar-866795c99abc33a3160d1f3fa93ada46eb75e54134e777666b9ed16215b26534.png", 
                "erased": false, 
                "hidden": false, 
                "id": 23853, 
                "name": "Josep Busquets Vidal", 
                "official": false, 
                "official_level": 0, 
                "role": null, 
                "verified_organization": null
            }, 
            "body": "<p><a href=\"https://decidim.barcelona/proposals/plaques-solars-a-les-escoles\">https://decidim.barcelona/proposals/plaques-solars-a-les-escoles</a></p>", 
            "commentable_id": 987, 
            "commentable_type": "Proposal", 
            "created_at": "15/04/2016 13:30:23", 
            "flagged": false, 
            "hidden": false, 
            "id": 17039, 
            "moderator_id": null, 
            "permissions": {
                "hide": false, 
                "hide_author": false, 
                "vote": false
            }, 
            "total_dislikes": 0, 
            "total_likes": 0, 
            "total_votes": 0
        }, 
        {
            "administrator_id": null, 
            "alignment": 1, 
            "ancestry": null, 
            "as": null, 
            "author": {
                "avatar_image": "https://decidim.barcelona/assets/avatar-866795c99abc33a3160d1f3fa93ada46eb75e54134e777666b9ed16215b26534.png", 
                "erased": false, 
                "hidden": false, 
                "id": 23853, 
                "name": "Josep Busquets Vidal", 
                "official": false, 
                "official_level": 0, 
                "role": null, 
                "verified_organization": null
            }, 
            "body": "<p><a href=\"https://decidim.barcelona/proposals/aprofitar-calor-residual-per-la-injeccio-a-les-xarxes-de-calor-existents\">https://decidim.barcelona/proposals/aprofitar-calor-residual-per-la-injeccio-a-les-xarxes-de-calor-existents</a></p>", 
            "commentable_id": 987, 
            "commentable_type": "Proposal", 
            "created_at": "15/04/2016 13:32:08", 
            "flagged": false, 
            "hidden": false, 
            "id": 17041, 
            "moderator_id": null, 
            "permissions": {
                "hide": false, 
                "hide_author": false, 
                "vote": false
            }, 
            "total_dislikes": 0, 
            "total_likes": 0, 
            "total_votes": 0
        }, 
        {
            "administrator_id": null, 
            "alignment": 1, 
            "ancestry": null, 
            "as": null, 
            "author": {
                "avatar_image": "https://decidim.barcelona/assets/avatar-866795c99abc33a3160d1f3fa93ada46eb75e54134e777666b9ed16215b26534.png", 
                "erased": false, 
                "hidden": false, 
                "id": 23853, 
                "name": "Josep Busquets Vidal", 
                "official": false, 
                "official_level": 0, 
                "role": null, 
                "verified_organization": null
            }, 
            "body": "<p><a href=\"https://decidim.barcelona/proposals/standards-i-auditories-energetiques\">https://decidim.barcelona/proposals/standards-i-auditories-energetiques</a></p>", 
            "commentable_id": 987, 
            "commentable_type": "Proposal", 
            "created_at": "15/04/2016 14:05:28", 
            "flagged": false, 
            "hidden": false, 
            "id": 17089, 
            "moderator_id": null, 
            "permissions": {
                "hide": false, 
                "hide_author": false, 
                "vote": false
            }, 
            "total_dislikes": 0, 
            "total_likes": 0, 
            "total_votes": 0
        }, 
        {
            "administrator_id": null, 
            "alignment": 1, 
            "ancestry": null, 
            "as": null, 
            "author": {
                "avatar_image": "https://decidim.barcelona/assets/avatar-866795c99abc33a3160d1f3fa93ada46eb75e54134e777666b9ed16215b26534.png", 
                "erased": false, 
                "hidden": false, 
                "id": 23853, 
                "name": "Josep Busquets Vidal", 
                "official": false, 
                "official_level": 0, 
                "role": null, 
                "verified_organization": null
            }, 
            "body": "<p><a href=\"https://decidim.barcelona/proposals/renovar-i-rehabilitar-el-teixit-urba-d-acord-a-criteris-energetics\">https://decidim.barcelona/proposals/renovar-i-rehabilitar-el-teixit-urba-d-acord-a-criteris-energetics</a></p>", 
            "commentable_id": 987, 
            "commentable_type": "Proposal", 
            "created_at": "15/04/2016 14:06:44", 
            "flagged": false, 
            "hidden": false, 
            "id": 17092, 
            "moderator_id": null, 
            "permissions": {
                "hide": false, 
                "hide_author": false, 
                "vote": false
            }, 
            "total_dislikes": 0, 
            "total_likes": 0, 
            "total_votes": 0
        }, 
        {
            "administrator_id": null, 
            "alignment": 1, 
            "ancestry": null, 
            "as": null, 
            "author": {
                "avatar_image": "https://decidim.barcelona/assets/avatar-866795c99abc33a3160d1f3fa93ada46eb75e54134e777666b9ed16215b26534.png", 
                "erased": false, 
                "hidden": false, 
                "id": 23853, 
                "name": "Josep Busquets Vidal", 
                "official": false, 
                "official_level": 0, 
                "role": null, 
                "verified_organization": null
            }, 
            "body": "<p><a href=\"https://decidim.barcelona/proposals/tendir-al-estalvi-i-l-autosuficiencia-energetica-dels-edificis-publics\">https://decidim.barcelona/proposals/tendir-al-estalvi-i-l-autosuficiencia-energetica-dels-edificis-publics</a></p>", 
            "commentable_id": 987, 
            "commentable_type": "Proposal", 
            "created_at": "15/04/2016 14:19:35", 
            "flagged": false, 
            "hidden": false, 
            "id": 17112, 
            "moderator_id": null, 
            "permissions": {
                "hide": false, 
                "hide_author": false, 
                "vote": false
            }, 
            "total_dislikes": 0, 
            "total_likes": 0, 
            "total_votes": 0
        }, 
        {
            "administrator_id": null, 
            "alignment": 1, 
            "ancestry": null, 
            "as": null, 
            "author": {
                "avatar_image": "https://decidim.barcelona/assets/avatar-866795c99abc33a3160d1f3fa93ada46eb75e54134e777666b9ed16215b26534.png", 
                "erased": false, 
                "hidden": false, 
                "id": 23853, 
                "name": "Josep Busquets Vidal", 
                "official": false, 
                "official_level": 0, 
                "role": null, 
                "verified_organization": null
            }, 
            "body": "<p><a href=\"https://decidim.barcelona/proposals/subvencions-a-particulars-en-renovables\">https://decidim.barcelona/proposals/subvencions-a-particulars-en-renovables</a></p>", 
            "commentable_id": 987, 
            "commentable_type": "Proposal", 
            "created_at": "15/04/2016 14:28:14", 
            "flagged": false, 
            "hidden": false, 
            "id": 17127, 
            "moderator_id": null, 
            "permissions": {
                "hide": false, 
                "hide_author": false, 
                "vote": false
            }, 
            "total_dislikes": 0, 
            "total_likes": 0, 
            "total_votes": 0
        }, 
        {
            "administrator_id": null, 
            "alignment": 0, 
            "ancestry": null, 
            "as": null, 
            "author": {
                "avatar_image": "https://decidim.barcelona/assets/avatar-866795c99abc33a3160d1f3fa93ada46eb75e54134e777666b9ed16215b26534.png", 
                "erased": false, 
                "hidden": false, 
                "id": 9262, 
                "name": "Suport General - Decidim Barcelona", 
                "official": false, 
                "official_level": 0, 
                "role": null, 
                "verified_organization": null
            }, 
            "body": "<p><a href=\"https://decidim.barcelona/proposals/fanals-que-funcionin-amb-energia-solar\">https://decidim.barcelona/proposals/fanals-que-funcionin-amb-energia-solar</a></p>", 
            "commentable_id": 987, 
            "commentable_type": "Proposal", 
            "created_at": "15/04/2016 14:34:10", 
            "flagged": false, 
            "hidden": false, 
            "id": 17130, 
            "moderator_id": null, 
            "permissions": {
                "hide": false, 
                "hide_author": false, 
                "vote": false
            }, 
            "total_dislikes": 0, 
            "total_likes": 0, 
            "total_votes": 0
        }, 
        {
            "administrator_id": null, 
            "alignment": 0, 
            "ancestry": null, 
            "as": null, 
            "author": {
                "avatar_image": "https://decidim.barcelona/assets/avatar-866795c99abc33a3160d1f3fa93ada46eb75e54134e777666b9ed16215b26534.png", 
                "erased": false, 
                "hidden": false, 
                "id": 9262, 
                "name": "Suport General - Decidim Barcelona", 
                "official": false, 
                "official_level": 0, 
                "role": null, 
                "verified_organization": null
            }, 
            "body": "<p><a href=\"https://decidim.barcelona/proposals/bcn-solar-photovoltaic-city\">https://decidim.barcelona/proposals/bcn-solar-photovoltaic-city</a></p>", 
            "commentable_id": 987, 
            "commentable_type": "Proposal", 
            "created_at": "15/04/2016 14:34:53", 
            "flagged": false, 
            "hidden": false, 
            "id": 17131, 
            "moderator_id": null, 
            "permissions": {
                "hide": false, 
                "hide_author": false, 
                "vote": false
            }, 
            "total_dislikes": 0, 
            "total_likes": 0, 
            "total_votes": 0
        }, 
        {
            "administrator_id": null, 
            "alignment": 0, 
            "ancestry": null, 
            "as": null, 
            "author": {
                "avatar_image": "https://decidim.barcelona/assets/avatar-866795c99abc33a3160d1f3fa93ada46eb75e54134e777666b9ed16215b26534.png", 
                "erased": false, 
                "hidden": false, 
                "id": 9262, 
                "name": "Suport General - Decidim Barcelona", 
                "official": false, 
                "official_level": 0, 
                "role": null, 
                "verified_organization": null
            }, 
            "body": "<p><a href=\"https://decidim.barcelona/proposals/xarxa-de-punts-de-recarrega-per-a-vehicles-electrics-i-foment-del-seu-us\">https://decidim.barcelona/proposals/xarxa-de-punts-de-recarrega-per-a-vehicles-electrics-i-foment-del-seu-us</a></p>", 
            "commentable_id": 987, 
            "commentable_type": "Proposal", 
            "created_at": "15/04/2016 14:36:26", 
            "flagged": false, 
            "hidden": false, 
            "id": 17134, 
            "moderator_id": null, 
            "permissions": {
                "hide": false, 
                "hide_author": false, 
                "vote": false
            }, 
            "total_dislikes": 0, 
            "total_likes": 0, 
            "total_votes": 0
        }
    ], 
    "meta": {
        "current_page": 1, 
        "next_page": 2, 
        "prev_page": null, 
        "total_count": 30, 
        "total_pages": 2
    }
}