{
    "comments": [
        {
            "administrator_id": null, 
            "alignment": 1, 
            "ancestry": null, 
            "as": null, 
            "author": {
                "avatar_image": "https://decidim.barcelona/assets/avatar-866795c99abc33a3160d1f3fa93ada46eb75e54134e777666b9ed16215b26534.png", 
                "erased": false, 
                "hidden": false, 
                "id": 23853, 
                "name": "Josep Busquets Vidal", 
                "official": false, 
                "official_level": 0, 
                "role": null, 
                "verified_organization": null
            }, 
            "body": "<p><a href=\"https://decidim.barcelona/proposals/operador-energetic-municipal-d491c273-4ca3-4751-b431-2f260794630e\">https://decidim.barcelona/proposals/operador-energetic-municipal-d491c273-4ca3-4751-b431-2f260794630e</a></p>", 
            "commentable_id": 985, 
            "commentable_type": "Proposal", 
            "created_at": "15/04/2016 13:40:02", 
            "flagged": false, 
            "hidden": false, 
            "id": 17060, 
            "moderator_id": null, 
            "permissions": {
                "hide": false, 
                "hide_author": false, 
                "vote": false
            }, 
            "total_dislikes": 0, 
            "total_likes": 0, 
            "total_votes": 0
        }, 
        {
            "administrator_id": null, 
            "alignment": 1, 
            "ancestry": null, 
            "as": null, 
            "author": {
                "avatar_image": "https://decidim.barcelona/assets/avatar-866795c99abc33a3160d1f3fa93ada46eb75e54134e777666b9ed16215b26534.png", 
                "erased": false, 
                "hidden": false, 
                "id": 23853, 
                "name": "Josep Busquets Vidal", 
                "official": false, 
                "official_level": 0, 
                "role": null, 
                "verified_organization": null
            }, 
            "body": "<p><a href=\"https://decidim.barcelona/proposals/foment-de-llocs-de-treball-des-de-l-operador-energetic\">https://decidim.barcelona/proposals/foment-de-llocs-de-treball-des-de-l-operador-energetic</a></p>", 
            "commentable_id": 985, 
            "commentable_type": "Proposal", 
            "created_at": "15/04/2016 14:43:10", 
            "flagged": false, 
            "hidden": false, 
            "id": 17146, 
            "moderator_id": null, 
            "permissions": {
                "hide": false, 
                "hide_author": false, 
                "vote": false
            }, 
            "total_dislikes": 0, 
            "total_likes": 0, 
            "total_votes": 0
        }, 
        {
            "administrator_id": null, 
            "alignment": 1, 
            "ancestry": null, 
            "as": null, 
            "author": {
                "avatar_image": "https://decidim.barcelona/assets/avatar-866795c99abc33a3160d1f3fa93ada46eb75e54134e777666b9ed16215b26534.png", 
                "erased": false, 
                "hidden": false, 
                "id": 23853, 
                "name": "Josep Busquets Vidal", 
                "official": false, 
                "official_level": 0, 
                "role": null, 
                "verified_organization": null
            }, 
            "body": "<p><a href=\"https://decidim.barcelona/proposals/que-l-administracio-publica-trenqui-amb-l-actual-estatus-empresarial-existent-energetic\">https://decidim.barcelona/proposals/que-l-administracio-publica-trenqui-amb-l-actual-estatus-empresarial-existent-energetic</a></p>", 
            "commentable_id": 985, 
            "commentable_type": "Proposal", 
            "created_at": "15/04/2016 14:57:18", 
            "flagged": false, 
            "hidden": false, 
            "id": 17161, 
            "moderator_id": null, 
            "permissions": {
                "hide": false, 
                "hide_author": false, 
                "vote": false
            }, 
            "total_dislikes": 0, 
            "total_likes": 0, 
            "total_votes": 0
        }, 
        {
            "administrator_id": null, 
            "alignment": 0, 
            "ancestry": null, 
            "as": null, 
            "author": {
                "avatar_image": "https://decidim.barcelona/assets/avatar-866795c99abc33a3160d1f3fa93ada46eb75e54134e777666b9ed16215b26534.png", 
                "erased": false, 
                "hidden": false, 
                "id": 9262, 
                "name": "Suport General - Decidim Barcelona", 
                "official": false, 
                "official_level": 0, 
                "role": null, 
                "verified_organization": null
            }, 
            "body": "<p><a href=\"https://decidim.barcelona/proposals/millora-de-regulacions-per-a-l-economia-col-laborativa-procomu-en-materia-d-infraestructura-tecnologica\">https://decidim.barcelona/proposals/millora-de-regulacions-per-a-l-economia-col-laborativa-procomu-en-materia-d-infraestructura-tecnologica</a></p>", 
            "commentable_id": 985, 
            "commentable_type": "Proposal", 
            "created_at": "15/04/2016 15:32:12", 
            "flagged": false, 
            "hidden": false, 
            "id": 17190, 
            "moderator_id": null, 
            "permissions": {
                "hide": false, 
                "hide_author": false, 
                "vote": false
            }, 
            "total_dislikes": 0, 
            "total_likes": 0, 
            "total_votes": 0
        }
    ], 
    "meta": {
        "current_page": 2, 
        "next_page": null, 
        "prev_page": 1, 
        "total_count": 24, 
        "total_pages": 2
    }
}