{
    "comments": [
        {
            "administrator_id": null, 
            "alignment": 0, 
            "ancestry": null, 
            "as": null, 
            "author": {
                "avatar_image": "https://decidim.barcelona/assets/avatar-866795c99abc33a3160d1f3fa93ada46eb75e54134e777666b9ed16215b26534.png", 
                "erased": false, 
                "hidden": false, 
                "id": 9262, 
                "name": "Suport General - Decidim Barcelona", 
                "official": false, 
                "official_level": 0, 
                "role": null, 
                "verified_organization": null
            }, 
            "body": "<p><a href=\"https://decidim.barcelona/proposals/crear-llocs-de-feina-per-fer-un-triatge-de-les-escombraries-que-la-gent-no-separa-als-contenidors-grisos-r\">https://decidim.barcelona/proposals/crear-llocs-de-feina-per-fer-un-triatge-de-les-escombraries-que-la-gent-no-separa-als-contenidors-grisos-r</a></p>", 
            "commentable_id": 990, 
            "commentable_type": "Proposal", 
            "created_at": "15/04/2016 14:40:56", 
            "flagged": false, 
            "hidden": false, 
            "id": 17143, 
            "moderator_id": null, 
            "permissions": {
                "hide": false, 
                "hide_author": false, 
                "vote": false
            }, 
            "total_dislikes": 0, 
            "total_likes": 0, 
            "total_votes": 0
        }, 
        {
            "administrator_id": null, 
            "alignment": 0, 
            "ancestry": null, 
            "as": null, 
            "author": {
                "avatar_image": "https://decidim.barcelona/assets/avatar-866795c99abc33a3160d1f3fa93ada46eb75e54134e777666b9ed16215b26534.png", 
                "erased": false, 
                "hidden": false, 
                "id": 9262, 
                "name": "Suport General - Decidim Barcelona", 
                "official": false, 
                "official_level": 0, 
                "role": null, 
                "verified_organization": null
            }, 
            "body": "<p><a href=\"https://decidim.barcelona/proposals/millorar-la-capacitat-comunicativa-dels-contenidors-de-reciclatge-per-a-que-la-gent-entengui-que-va-a-cadascun-d-ells\">https://decidim.barcelona/proposals/millorar-la-capacitat-comunicativa-dels-contenidors-de-reciclatge-per-a-que-la-gent-entengui-que-va-a-cadascun-d-ells</a></p>", 
            "commentable_id": 990, 
            "commentable_type": "Proposal", 
            "created_at": "15/04/2016 14:41:05", 
            "flagged": false, 
            "hidden": false, 
            "id": 17144, 
            "moderator_id": null, 
            "permissions": {
                "hide": false, 
                "hide_author": false, 
                "vote": false
            }, 
            "total_dislikes": 0, 
            "total_likes": 0, 
            "total_votes": 0
        }, 
        {
            "administrator_id": null, 
            "alignment": 0, 
            "ancestry": null, 
            "as": null, 
            "author": {
                "avatar_image": "https://decidim.barcelona/assets/avatar-866795c99abc33a3160d1f3fa93ada46eb75e54134e777666b9ed16215b26534.png", 
                "erased": false, 
                "hidden": false, 
                "id": 9262, 
                "name": "Suport General - Decidim Barcelona", 
                "official": false, 
                "official_level": 0, 
                "role": null, 
                "verified_organization": null
            }, 
            "body": "<p><a href=\"https://decidim.barcelona/proposals/limitar-fins-la-mitjanit-el-pas-de-camions-d-escombraries\">https://decidim.barcelona/proposals/limitar-fins-la-mitjanit-el-pas-de-camions-d-escombraries</a></p>", 
            "commentable_id": 990, 
            "commentable_type": "Proposal", 
            "created_at": "16/04/2016 12:44:43", 
            "flagged": false, 
            "hidden": false, 
            "id": 18125, 
            "moderator_id": null, 
            "permissions": {
                "hide": false, 
                "hide_author": false, 
                "vote": false
            }, 
            "total_dislikes": 0, 
            "total_likes": 0, 
            "total_votes": 0
        }, 
        {
            "administrator_id": null, 
            "alignment": 0, 
            "ancestry": null, 
            "as": null, 
            "author": {
                "avatar_image": "https://decidim.barcelona/assets/avatar-866795c99abc33a3160d1f3fa93ada46eb75e54134e777666b9ed16215b26534.png", 
                "erased": false, 
                "hidden": false, 
                "id": 9262, 
                "name": "Suport General - Decidim Barcelona", 
                "official": false, 
                "official_level": 0, 
                "role": null, 
                "verified_organization": null
            }, 
            "body": "<p><a href=\"https://decidim.barcelona/proposals/prou-escombraries-al-carrer-per-una-recollida-de-brossa-digna-a-ciutat-vella\">https://decidim.barcelona/proposals/prou-escombraries-al-carrer-per-una-recollida-de-brossa-digna-a-ciutat-vella</a></p>", 
            "commentable_id": 990, 
            "commentable_type": "Proposal", 
            "created_at": "16/04/2016 12:44:52", 
            "flagged": false, 
            "hidden": false, 
            "id": 18126, 
            "moderator_id": null, 
            "permissions": {
                "hide": false, 
                "hide_author": false, 
                "vote": false
            }, 
            "total_dislikes": 0, 
            "total_likes": 0, 
            "total_votes": 0
        }, 
        {
            "administrator_id": null, 
            "alignment": 0, 
            "ancestry": null, 
            "as": null, 
            "author": {
                "avatar_image": "https://decidim.barcelona/assets/avatar-866795c99abc33a3160d1f3fa93ada46eb75e54134e777666b9ed16215b26534.png", 
                "erased": false, 
                "hidden": false, 
                "id": 9262, 
                "name": "Suport General - Decidim Barcelona", 
                "official": false, 
                "official_level": 0, 
                "role": null, 
                "verified_organization": null
            }, 
            "body": "<p><a href=\"https://decidim.barcelona/proposals/canvi-horaris-camio-de-la-brossa\">https://decidim.barcelona/proposals/canvi-horaris-camio-de-la-brossa</a></p>", 
            "commentable_id": 990, 
            "commentable_type": "Proposal", 
            "created_at": "16/04/2016 12:45:01", 
            "flagged": false, 
            "hidden": false, 
            "id": 18127, 
            "moderator_id": null, 
            "permissions": {
                "hide": false, 
                "hide_author": false, 
                "vote": false
            }, 
            "total_dislikes": 1, 
            "total_likes": 0, 
            "total_votes": 1
        }
    ], 
    "meta": {
        "current_page": 3, 
        "next_page": null, 
        "prev_page": 2, 
        "total_count": 45, 
        "total_pages": 3
    }
}