{
    "comments": [
        {
            "administrator_id": null, 
            "alignment": 0, 
            "ancestry": null, 
            "as": null, 
            "author": {
                "avatar_image": "https://decidim.barcelona/assets/avatar-866795c99abc33a3160d1f3fa93ada46eb75e54134e777666b9ed16215b26534.png", 
                "erased": false, 
                "hidden": false, 
                "id": 6915, 
                "name": "Elisenda Realp", 
                "official": false, 
                "official_level": 0, 
                "role": null, 
                "verified_organization": null
            }, 
            "body": "<p>Imprescindible per avan\u00e7ar cap a l'estrat\u00e8gia d'economia circular  que la Uni\u00f3 Europea defineix per als Estats</p>", 
            "commentable_id": 990, 
            "commentable_type": "Proposal", 
            "created_at": "20/02/2016 09:48:20", 
            "flagged": false, 
            "hidden": false, 
            "id": 2203, 
            "moderator_id": null, 
            "permissions": {
                "hide": false, 
                "hide_author": false, 
                "vote": false
            }, 
            "total_dislikes": 0, 
            "total_likes": 2, 
            "total_votes": 2
        }, 
        {
            "administrator_id": null, 
            "alignment": 0, 
            "ancestry": null, 
            "as": null, 
            "author": {
                "avatar_image": "https://decidim.barcelona/assets/avatar-866795c99abc33a3160d1f3fa93ada46eb75e54134e777666b9ed16215b26534.png", 
                "erased": false, 
                "hidden": false, 
                "id": 6915, 
                "name": "Elisenda Realp", 
                "official": false, 
                "official_level": 0, 
                "role": null, 
                "verified_organization": null
            }, 
            "body": "<p>Imprescindible per fer una ciutadania m\u00e9s corresponsable amb el medi ambient</p>", 
            "commentable_id": 990, 
            "commentable_type": "Proposal", 
            "created_at": "20/02/2016 09:49:11", 
            "flagged": false, 
            "hidden": false, 
            "id": 2204, 
            "moderator_id": null, 
            "permissions": {
                "hide": false, 
                "hide_author": false, 
                "vote": false
            }, 
            "total_dislikes": 0, 
            "total_likes": 2, 
            "total_votes": 2
        }, 
        {
            "administrator_id": null, 
            "alignment": 0, 
            "ancestry": null, 
            "as": null, 
            "author": {
                "avatar_image": "https://decidim.barcelona/assets/avatar-866795c99abc33a3160d1f3fa93ada46eb75e54134e777666b9ed16215b26534.png", 
                "erased": false, 
                "hidden": false, 
                "id": 6915, 
                "name": "Elisenda Realp", 
                "official": false, 
                "official_level": 0, 
                "role": null, 
                "verified_organization": null
            }, 
            "body": "<p>Imprescindible per avan\u00e7ar cap a la lluita en contra del canvi clim\u00e0tic</p>", 
            "commentable_id": 990, 
            "commentable_type": "Proposal", 
            "created_at": "20/02/2016 09:49:50", 
            "flagged": false, 
            "hidden": false, 
            "id": 2205, 
            "moderator_id": null, 
            "permissions": {
                "hide": false, 
                "hide_author": false, 
                "vote": false
            }, 
            "total_dislikes": 0, 
            "total_likes": 2, 
            "total_votes": 2
        }, 
        {
            "administrator_id": null, 
            "alignment": 1, 
            "ancestry": null, 
            "as": null, 
            "author": {
                "avatar_image": "https://decidim.barcelona/assets/avatar-866795c99abc33a3160d1f3fa93ada46eb75e54134e777666b9ed16215b26534.png", 
                "erased": false, 
                "hidden": false, 
                "id": 7329, 
                "name": "Alejandro Gonzalez Domingo", 
                "official": false, 
                "official_level": 0, 
                "role": null, 
                "verified_organization": null
            }, 
            "body": "<p>Compl\u00e8tament d'acord amb Elisenda. \u00c9s totalment necessari per el model econ\u00f2mic de barcelona i seva qualitat  de vida</p>", 
            "commentable_id": 990, 
            "commentable_type": "Proposal", 
            "created_at": "22/02/2016 19:28:33", 
            "flagged": false, 
            "hidden": false, 
            "id": 2410, 
            "moderator_id": null, 
            "permissions": {
                "hide": false, 
                "hide_author": false, 
                "vote": false
            }, 
            "total_dislikes": 0, 
            "total_likes": 1, 
            "total_votes": 1
        }, 
        {
            "administrator_id": null, 
            "alignment": 1, 
            "ancestry": null, 
            "as": null, 
            "author": {
                "avatar_image": "https://decidim.barcelona/assets/avatar-866795c99abc33a3160d1f3fa93ada46eb75e54134e777666b9ed16215b26534.png", 
                "erased": false, 
                "hidden": false, 
                "id": 9510, 
                "name": "Pol Rojas Sanchez", 
                "official": false, 
                "official_level": 0, 
                "role": null, 
                "verified_organization": null
            }, 
            "body": "<p>Caldria fer una revisi\u00f3 dels processos de gesti\u00f3 de residus. \u00c9s a dir quin sistema es fa servir, i com impliquem a la ciutadania. \u00c9s un desprop\u00f2sit energ\u00e8tic i de recursos que fem l'esfor\u00e7 de separar el vidre a casa i que al llen\u00e7ar-lo al contenidor de vidre es trenqui i es barregin les diferents tipologies de vidres i colors. Per altra banda tamb\u00e9 s'hauria de revisar la idone\u00eftat de la gesti\u00f3 privada dels sistemes de tractament de residus, estudiant la possibilitat de remunicipalitzar-los. Aix\u00ed com definir millor quins s\u00f3n els criteris o objectius a tenir en compte a l'hora de donar tractaments finalistes, com l'abocament i la valoritzaci\u00f3 energ\u00e8tica. Segurament cal fer un gir en la destinaci\u00f3 d'esfor\u00e7os (que es tradueix en pressupostos) per caminar m\u00e9s cap a la prevenci\u00f3 i reducci\u00f3, i aix\u00ed baixar la c\u00e0rrega de la gesti\u00f3 de residus i fer \u00fatils els tractaments de reciclatge.</p>", 
            "commentable_id": 990, 
            "commentable_type": "Proposal", 
            "created_at": "02/03/2016 12:48:17", 
            "flagged": false, 
            "hidden": false, 
            "id": 3317, 
            "moderator_id": null, 
            "permissions": {
                "hide": false, 
                "hide_author": false, 
                "vote": false
            }, 
            "total_dislikes": 0, 
            "total_likes": 2, 
            "total_votes": 2
        }, 
        {
            "administrator_id": null, 
            "alignment": 1, 
            "ancestry": null, 
            "as": null, 
            "author": {
                "avatar_image": "https://decidim.barcelona/assets/avatar-866795c99abc33a3160d1f3fa93ada46eb75e54134e777666b9ed16215b26534.png", 
                "erased": false, 
                "hidden": false, 
                "id": 9921, 
                "name": "Angel Docampo", 
                "official": false, 
                "official_level": 0, 
                "role": null, 
                "verified_organization": null
            }, 
            "body": "<p>Com diu el company Pol, aix\u00f2 es podria englobar dins un marc d'actuaci\u00f3 conjunt de propostes, us poso el link a una proposta adient: reciclatge remunerat al estil alemany: <a href=\"https://decidim.barcelona/proposals/reciclatge-d-ampolles-remunerat-com-a-alemanya\">https://decidim.barcelona/proposals/reciclatge-d-ampolles-remunerat-com-a-alemanya</a> </p>", 
            "commentable_id": 990, 
            "commentable_type": "Proposal", 
            "created_at": "07/03/2016 09:31:11", 
            "flagged": false, 
            "hidden": false, 
            "id": 3810, 
            "moderator_id": null, 
            "permissions": {
                "hide": false, 
                "hide_author": false, 
                "vote": false
            }, 
            "total_dislikes": 0, 
            "total_likes": 1, 
            "total_votes": 1
        }, 
        {
            "administrator_id": null, 
            "alignment": 0, 
            "ancestry": null, 
            "as": null, 
            "author": {
                "avatar_image": "https://decidim.barcelona/assets/avatar-866795c99abc33a3160d1f3fa93ada46eb75e54134e777666b9ed16215b26534.png", 
                "erased": false, 
                "hidden": false, 
                "id": 3827, 
                "name": "suport decidim.barcelona", 
                "official": false, 
                "official_level": 0, 
                "role": "moderator", 
                "verified_organization": null
            }, 
            "body": "<p><a href=\"https://decidim.barcelona/proposals/fomentar-el-residu-zero\">https://decidim.barcelona/proposals/fomentar-el-residu-zero</a></p>", 
            "commentable_id": 990, 
            "commentable_type": "Proposal", 
            "created_at": "01/04/2016 10:56:19", 
            "flagged": false, 
            "hidden": false, 
            "id": 7343, 
            "moderator_id": null, 
            "permissions": {
                "hide": false, 
                "hide_author": false, 
                "vote": false
            }, 
            "total_dislikes": 0, 
            "total_likes": 0, 
            "total_votes": 0
        }, 
        {
            "administrator_id": null, 
            "alignment": 0, 
            "ancestry": null, 
            "as": null, 
            "author": {
                "avatar_image": "https://decidim.barcelona/assets/avatar-866795c99abc33a3160d1f3fa93ada46eb75e54134e777666b9ed16215b26534.png", 
                "erased": false, 
                "hidden": false, 
                "id": 9262, 
                "name": "Suport General - Decidim Barcelona", 
                "official": false, 
                "official_level": 0, 
                "role": null, 
                "verified_organization": null
            }, 
            "body": "<p><a href=\"https://decidim.barcelona/proposals/contenedors-del-vidre-als-supermercats\">https://decidim.barcelona/proposals/contenedors-del-vidre-als-supermercats</a></p>", 
            "commentable_id": 990, 
            "commentable_type": "Proposal", 
            "created_at": "06/04/2016 16:29:54", 
            "flagged": false, 
            "hidden": false, 
            "id": 8697, 
            "moderator_id": null, 
            "permissions": {
                "hide": false, 
                "hide_author": false, 
                "vote": false
            }, 
            "total_dislikes": 0, 
            "total_likes": 0, 
            "total_votes": 0
        }, 
        {
            "administrator_id": null, 
            "alignment": 0, 
            "ancestry": null, 
            "as": null, 
            "author": {
                "avatar_image": "https://decidim.barcelona/assets/avatar-866795c99abc33a3160d1f3fa93ada46eb75e54134e777666b9ed16215b26534.png", 
                "erased": false, 
                "hidden": false, 
                "id": 17741, 
                "name": "Suport General3 - Decidim Barcelona", 
                "official": false, 
                "official_level": 0, 
                "role": null, 
                "verified_organization": null
            }, 
            "body": "<p><a href=\"https://decidim.barcelona/proposals/utilitzar-menys-paper-i-mes-ordinadors-a-l-escola\">https://decidim.barcelona/proposals/utilitzar-menys-paper-i-mes-ordinadors-a-l-escola</a></p>", 
            "commentable_id": 990, 
            "commentable_type": "Proposal", 
            "created_at": "07/04/2016 13:23:51", 
            "flagged": false, 
            "hidden": false, 
            "id": 9300, 
            "moderator_id": null, 
            "permissions": {
                "hide": false, 
                "hide_author": false, 
                "vote": false
            }, 
            "total_dislikes": 0, 
            "total_likes": 0, 
            "total_votes": 0
        }, 
        {
            "administrator_id": null, 
            "alignment": 0, 
            "ancestry": null, 
            "as": null, 
            "author": {
                "avatar_image": "https://decidim.barcelona/assets/avatar-866795c99abc33a3160d1f3fa93ada46eb75e54134e777666b9ed16215b26534.png", 
                "erased": false, 
                "hidden": false, 
                "id": 17741, 
                "name": "Suport General3 - Decidim Barcelona", 
                "official": false, 
                "official_level": 0, 
                "role": null, 
                "verified_organization": null
            }, 
            "body": "<p><a href=\"https://decidim.barcelona/proposals/reciclatge-a-les-escoles\">https://decidim.barcelona/proposals/reciclatge-a-les-escoles</a></p>", 
            "commentable_id": 990, 
            "commentable_type": "Proposal", 
            "created_at": "07/04/2016 13:27:49", 
            "flagged": false, 
            "hidden": false, 
            "id": 9313, 
            "moderator_id": null, 
            "permissions": {
                "hide": false, 
                "hide_author": false, 
                "vote": false
            }, 
            "total_dislikes": 0, 
            "total_likes": 0, 
            "total_votes": 0
        }, 
        {
            "administrator_id": null, 
            "alignment": 0, 
            "ancestry": null, 
            "as": null, 
            "author": {
                "avatar_image": "https://decidim.barcelona/assets/avatar-866795c99abc33a3160d1f3fa93ada46eb75e54134e777666b9ed16215b26534.png", 
                "erased": false, 
                "hidden": false, 
                "id": 17741, 
                "name": "Suport General3 - Decidim Barcelona", 
                "official": false, 
                "official_level": 0, 
                "role": null, 
                "verified_organization": null
            }, 
            "body": "<p><a href=\"https://decidim.barcelona/proposals/millorar-la-comunicacio-ambiental-a-l-administracio-municipal\">https://decidim.barcelona/proposals/millorar-la-comunicacio-ambiental-a-l-administracio-municipal</a></p>", 
            "commentable_id": 990, 
            "commentable_type": "Proposal", 
            "created_at": "07/04/2016 13:35:28", 
            "flagged": false, 
            "hidden": false, 
            "id": 9339, 
            "moderator_id": null, 
            "permissions": {
                "hide": false, 
                "hide_author": false, 
                "vote": false
            }, 
            "total_dislikes": 0, 
            "total_likes": 0, 
            "total_votes": 0
        }, 
        {
            "administrator_id": null, 
            "alignment": 0, 
            "ancestry": null, 
            "as": null, 
            "author": {
                "avatar_image": "https://decidim.barcelona/assets/avatar-866795c99abc33a3160d1f3fa93ada46eb75e54134e777666b9ed16215b26534.png", 
                "erased": false, 
                "hidden": false, 
                "id": 17741, 
                "name": "Suport General3 - Decidim Barcelona", 
                "official": false, 
                "official_level": 0, 
                "role": null, 
                "verified_organization": null
            }, 
            "body": "<p><a href=\"https://decidim.barcelona/proposals/innovar-en-les-estrategies-de-reciclatge-selectiu\">https://decidim.barcelona/proposals/innovar-en-les-estrategies-de-reciclatge-selectiu</a></p>", 
            "commentable_id": 990, 
            "commentable_type": "Proposal", 
            "created_at": "07/04/2016 13:41:15", 
            "flagged": false, 
            "hidden": false, 
            "id": 9364, 
            "moderator_id": null, 
            "permissions": {
                "hide": false, 
                "hide_author": false, 
                "vote": false
            }, 
            "total_dislikes": 0, 
            "total_likes": 0, 
            "total_votes": 0
        }, 
        {
            "administrator_id": null, 
            "alignment": 0, 
            "ancestry": null, 
            "as": null, 
            "author": {
                "avatar_image": "https://decidim.barcelona/assets/avatar-866795c99abc33a3160d1f3fa93ada46eb75e54134e777666b9ed16215b26534.png", 
                "erased": false, 
                "hidden": false, 
                "id": 17741, 
                "name": "Suport General3 - Decidim Barcelona", 
                "official": false, 
                "official_level": 0, 
                "role": null, 
                "verified_organization": null
            }, 
            "body": "<p><a href=\"https://decidim.barcelona/proposals/crear-punts-verds-a-les-escoles\">https://decidim.barcelona/proposals/crear-punts-verds-a-les-escoles</a></p>", 
            "commentable_id": 990, 
            "commentable_type": "Proposal", 
            "created_at": "07/04/2016 14:02:53", 
            "flagged": false, 
            "hidden": false, 
            "id": 9432, 
            "moderator_id": null, 
            "permissions": {
                "hide": false, 
                "hide_author": false, 
                "vote": false
            }, 
            "total_dislikes": 0, 
            "total_likes": 0, 
            "total_votes": 0
        }, 
        {
            "administrator_id": null, 
            "alignment": 0, 
            "ancestry": null, 
            "as": null, 
            "author": {
                "avatar_image": "https://decidim.barcelona/assets/avatar-866795c99abc33a3160d1f3fa93ada46eb75e54134e777666b9ed16215b26534.png", 
                "erased": false, 
                "hidden": false, 
                "id": 17741, 
                "name": "Suport General3 - Decidim Barcelona", 
                "official": false, 
                "official_level": 0, 
                "role": null, 
                "verified_organization": null
            }, 
            "body": "<p><a href=\"https://decidim.barcelona/proposals/posar-mes-papereres-a-la-ciutat-i-habilitades-per-reciclar\">https://decidim.barcelona/proposals/posar-mes-papereres-a-la-ciutat-i-habilitades-per-reciclar</a></p>", 
            "commentable_id": 990, 
            "commentable_type": "Proposal", 
            "created_at": "07/04/2016 14:34:25", 
            "flagged": false, 
            "hidden": false, 
            "id": 9486, 
            "moderator_id": null, 
            "permissions": {
                "hide": false, 
                "hide_author": false, 
                "vote": false
            }, 
            "total_dislikes": 0, 
            "total_likes": 0, 
            "total_votes": 0
        }, 
        {
            "administrator_id": null, 
            "alignment": 0, 
            "ancestry": null, 
            "as": null, 
            "author": {
                "avatar_image": "https://decidim.barcelona/assets/avatar-866795c99abc33a3160d1f3fa93ada46eb75e54134e777666b9ed16215b26534.png", 
                "erased": false, 
                "hidden": false, 
                "id": 17741, 
                "name": "Suport General3 - Decidim Barcelona", 
                "official": false, 
                "official_level": 0, 
                "role": null, 
                "verified_organization": null
            }, 
            "body": "<p><a href=\"https://decidim.barcelona/proposals/revisar-la-fiscalitat-municipal\">https://decidim.barcelona/proposals/revisar-la-fiscalitat-municipal</a></p>", 
            "commentable_id": 990, 
            "commentable_type": "Proposal", 
            "created_at": "07/04/2016 14:36:18", 
            "flagged": false, 
            "hidden": false, 
            "id": 9489, 
            "moderator_id": null, 
            "permissions": {
                "hide": false, 
                "hide_author": false, 
                "vote": false
            }, 
            "total_dislikes": 0, 
            "total_likes": 0, 
            "total_votes": 0
        }, 
        {
            "administrator_id": null, 
            "alignment": 0, 
            "ancestry": null, 
            "as": null, 
            "author": {
                "avatar_image": "https://decidim.barcelona/assets/avatar-866795c99abc33a3160d1f3fa93ada46eb75e54134e777666b9ed16215b26534.png", 
                "erased": false, 
                "hidden": false, 
                "id": 17741, 
                "name": "Suport General3 - Decidim Barcelona", 
                "official": false, 
                "official_level": 0, 
                "role": null, 
                "verified_organization": null
            }, 
            "body": "<p><a href=\"https://decidim.barcelona/proposals/estrategia-municipal-residu-zero\">https://decidim.barcelona/proposals/estrategia-municipal-residu-zero</a></p>", 
            "commentable_id": 990, 
            "commentable_type": "Proposal", 
            "created_at": "07/04/2016 16:40:01", 
            "flagged": false, 
            "hidden": false, 
            "id": 9660, 
            "moderator_id": null, 
            "permissions": {
                "hide": false, 
                "hide_author": false, 
                "vote": false
            }, 
            "total_dislikes": 0, 
            "total_likes": 0, 
            "total_votes": 0
        }, 
        {
            "administrator_id": null, 
            "alignment": 0, 
            "ancestry": null, 
            "as": null, 
            "author": {
                "avatar_image": "https://decidim.barcelona/assets/avatar-866795c99abc33a3160d1f3fa93ada46eb75e54134e777666b9ed16215b26534.png", 
                "erased": false, 
                "hidden": false, 
                "id": 17741, 
                "name": "Suport General3 - Decidim Barcelona", 
                "official": false, 
                "official_level": 0, 
                "role": null, 
                "verified_organization": null
            }, 
            "body": "<p><a href=\"https://decidim.barcelona/proposals/gots-reutilitzables\">https://decidim.barcelona/proposals/gots-reutilitzables</a></p>", 
            "commentable_id": 990, 
            "commentable_type": "Proposal", 
            "created_at": "07/04/2016 17:18:50", 
            "flagged": false, 
            "hidden": false, 
            "id": 9776, 
            "moderator_id": null, 
            "permissions": {
                "hide": false, 
                "hide_author": false, 
                "vote": false
            }, 
            "total_dislikes": 0, 
            "total_likes": 0, 
            "total_votes": 0
        }, 
        {
            "administrator_id": null, 
            "alignment": 0, 
            "ancestry": null, 
            "as": null, 
            "author": {
                "avatar_image": "https://decidim.barcelona/assets/avatar-866795c99abc33a3160d1f3fa93ada46eb75e54134e777666b9ed16215b26534.png", 
                "erased": false, 
                "hidden": false, 
                "id": 17741, 
                "name": "Suport General3 - Decidim Barcelona", 
                "official": false, 
                "official_level": 0, 
                "role": null, 
                "verified_organization": null
            }, 
            "body": "<p><a href=\"https://decidim.barcelona/proposals/puntos-recogida-aceite\">https://decidim.barcelona/proposals/puntos-recogida-aceite</a></p>", 
            "commentable_id": 990, 
            "commentable_type": "Proposal", 
            "created_at": "08/04/2016 14:01:49", 
            "flagged": false, 
            "hidden": false, 
            "id": 10880, 
            "moderator_id": null, 
            "permissions": {
                "hide": false, 
                "hide_author": false, 
                "vote": false
            }, 
            "total_dislikes": 0, 
            "total_likes": 0, 
            "total_votes": 0
        }, 
        {
            "administrator_id": null, 
            "alignment": 0, 
            "ancestry": null, 
            "as": null, 
            "author": {
                "avatar_image": "https://decidim.barcelona/assets/avatar-866795c99abc33a3160d1f3fa93ada46eb75e54134e777666b9ed16215b26534.png", 
                "erased": false, 
                "hidden": false, 
                "id": 17741, 
                "name": "Suport General3 - Decidim Barcelona", 
                "official": false, 
                "official_level": 0, 
                "role": null, 
                "verified_organization": null
            }, 
            "body": "<p><a href=\"https://decidim.barcelona/proposals/millorar-reciclatge-escombreries\">https://decidim.barcelona/proposals/millorar-reciclatge-escombreries</a></p>", 
            "commentable_id": 990, 
            "commentable_type": "Proposal", 
            "created_at": "08/04/2016 14:18:27", 
            "flagged": false, 
            "hidden": false, 
            "id": 10905, 
            "moderator_id": null, 
            "permissions": {
                "hide": false, 
                "hide_author": false, 
                "vote": false
            }, 
            "total_dislikes": 0, 
            "total_likes": 0, 
            "total_votes": 0
        }, 
        {
            "administrator_id": null, 
            "alignment": 0, 
            "ancestry": null, 
            "as": null, 
            "author": {
                "avatar_image": "https://decidim.barcelona/assets/avatar-866795c99abc33a3160d1f3fa93ada46eb75e54134e777666b9ed16215b26534.png", 
                "erased": false, 
                "hidden": false, 
                "id": 17741, 
                "name": "Suport General3 - Decidim Barcelona", 
                "official": false, 
                "official_level": 0, 
                "role": null, 
                "verified_organization": null
            }, 
            "body": "<p><a href=\"https://decidim.barcelona/proposals/contenidor-groc-i-cosnciencia\">https://decidim.barcelona/proposals/contenidor-groc-i-cosnciencia</a></p>", 
            "commentable_id": 990, 
            "commentable_type": "Proposal", 
            "created_at": "08/04/2016 14:19:49", 
            "flagged": false, 
            "hidden": false, 
            "id": 10907, 
            "moderator_id": null, 
            "permissions": {
                "hide": false, 
                "hide_author": false, 
                "vote": false
            }, 
            "total_dislikes": 0, 
            "total_likes": 0, 
            "total_votes": 0
        }
    ], 
    "meta": {
        "current_page": 1, 
        "next_page": 2, 
        "prev_page": null, 
        "total_count": 45, 
        "total_pages": 3
    }
}