{
    "comments": [
        {
            "administrator_id": null, 
            "alignment": 0, 
            "ancestry": null, 
            "as": null, 
            "author": {
                "avatar_image": "https://decidim.barcelona/assets/avatar-866795c99abc33a3160d1f3fa93ada46eb75e54134e777666b9ed16215b26534.png", 
                "erased": false, 
                "hidden": false, 
                "id": 9262, 
                "name": "Suport General - Decidim Barcelona", 
                "official": false, 
                "official_level": 0, 
                "role": null, 
                "verified_organization": null
            }, 
            "body": "<p><a href=\"https://decidim.barcelona/proposals/afegir-un-contenidor-mes-als-ja-existents-en-cada-carrer-anomenat-punt-verd-generic\">https://decidim.barcelona/proposals/afegir-un-contenidor-mes-als-ja-existents-en-cada-carrer-anomenat-punt-verd-generic</a></p>", 
            "commentable_id": 990, 
            "commentable_type": "Proposal", 
            "created_at": "09/04/2016 10:46:42", 
            "flagged": false, 
            "hidden": false, 
            "id": 11647, 
            "moderator_id": null, 
            "permissions": {
                "hide": false, 
                "hide_author": false, 
                "vote": false
            }, 
            "total_dislikes": 0, 
            "total_likes": 0, 
            "total_votes": 0
        }, 
        {
            "administrator_id": null, 
            "alignment": 0, 
            "ancestry": null, 
            "as": null, 
            "author": {
                "avatar_image": "https://decidim.barcelona/assets/avatar-866795c99abc33a3160d1f3fa93ada46eb75e54134e777666b9ed16215b26534.png", 
                "erased": false, 
                "hidden": false, 
                "id": 9262, 
                "name": "Suport General - Decidim Barcelona", 
                "official": false, 
                "official_level": 0, 
                "role": null, 
                "verified_organization": null
            }, 
            "body": "<p><a href=\"https://decidim.barcelona/proposals/reciclatge-208aded9-7f9d-46b9-a1d2-a02b1855e35a\">https://decidim.barcelona/proposals/reciclatge-208aded9-7f9d-46b9-a1d2-a02b1855e35a</a></p>", 
            "commentable_id": 990, 
            "commentable_type": "Proposal", 
            "created_at": "09/04/2016 10:51:22", 
            "flagged": false, 
            "hidden": false, 
            "id": 11661, 
            "moderator_id": null, 
            "permissions": {
                "hide": false, 
                "hide_author": false, 
                "vote": false
            }, 
            "total_dislikes": 0, 
            "total_likes": 0, 
            "total_votes": 0
        }, 
        {
            "administrator_id": null, 
            "alignment": 0, 
            "ancestry": null, 
            "as": null, 
            "author": {
                "avatar_image": "https://decidim.barcelona/assets/avatar-866795c99abc33a3160d1f3fa93ada46eb75e54134e777666b9ed16215b26534.png", 
                "erased": false, 
                "hidden": false, 
                "id": 9262, 
                "name": "Suport General - Decidim Barcelona", 
                "official": false, 
                "official_level": 0, 
                "role": null, 
                "verified_organization": null
            }, 
            "body": "<p><a href=\"https://decidim.barcelona/proposals/establir-com-a-obligacio-ciutadana-la-separacio-selectiva-de-residus\">https://decidim.barcelona/proposals/establir-com-a-obligacio-ciutadana-la-separacio-selectiva-de-residus</a></p>", 
            "commentable_id": 990, 
            "commentable_type": "Proposal", 
            "created_at": "09/04/2016 11:22:16", 
            "flagged": false, 
            "hidden": false, 
            "id": 11746, 
            "moderator_id": null, 
            "permissions": {
                "hide": false, 
                "hide_author": false, 
                "vote": false
            }, 
            "total_dislikes": 0, 
            "total_likes": 0, 
            "total_votes": 0
        }, 
        {
            "administrator_id": null, 
            "alignment": 0, 
            "ancestry": null, 
            "as": null, 
            "author": {
                "avatar_image": "https://decidim.barcelona/assets/avatar-866795c99abc33a3160d1f3fa93ada46eb75e54134e777666b9ed16215b26534.png", 
                "erased": false, 
                "hidden": false, 
                "id": 17741, 
                "name": "Suport General3 - Decidim Barcelona", 
                "official": false, 
                "official_level": 0, 
                "role": null, 
                "verified_organization": null
            }, 
            "body": "<p><a href=\"https://decidim.barcelona/proposals/banc-municipal-de-dades-de-residus-per-reciclatge\">https://decidim.barcelona/proposals/banc-municipal-de-dades-de-residus-per-reciclatge</a></p>", 
            "commentable_id": 990, 
            "commentable_type": "Proposal", 
            "created_at": "09/04/2016 11:44:20", 
            "flagged": false, 
            "hidden": false, 
            "id": 11798, 
            "moderator_id": null, 
            "permissions": {
                "hide": false, 
                "hide_author": false, 
                "vote": false
            }, 
            "total_dislikes": 0, 
            "total_likes": 0, 
            "total_votes": 0
        }, 
        {
            "administrator_id": null, 
            "alignment": 0, 
            "ancestry": null, 
            "as": null, 
            "author": {
                "avatar_image": "https://decidim.barcelona/assets/avatar-866795c99abc33a3160d1f3fa93ada46eb75e54134e777666b9ed16215b26534.png", 
                "erased": false, 
                "hidden": false, 
                "id": 17741, 
                "name": "Suport General3 - Decidim Barcelona", 
                "official": false, 
                "official_level": 0, 
                "role": null, 
                "verified_organization": null
            }, 
            "body": "<p><a href=\"https://decidim.barcelona/proposals/reducir-el-numero-de-papeleras-y-rebuix-cercanos-a-los-contenedores-reciclaje\">https://decidim.barcelona/proposals/reducir-el-numero-de-papeleras-y-rebuix-cercanos-a-los-contenedores-reciclaje</a></p>", 
            "commentable_id": 990, 
            "commentable_type": "Proposal", 
            "created_at": "09/04/2016 11:50:42", 
            "flagged": false, 
            "hidden": false, 
            "id": 11821, 
            "moderator_id": null, 
            "permissions": {
                "hide": false, 
                "hide_author": false, 
                "vote": false
            }, 
            "total_dislikes": 0, 
            "total_likes": 0, 
            "total_votes": 0
        }, 
        {
            "administrator_id": null, 
            "alignment": 0, 
            "ancestry": null, 
            "as": null, 
            "author": {
                "avatar_image": "https://decidim.barcelona/assets/avatar-866795c99abc33a3160d1f3fa93ada46eb75e54134e777666b9ed16215b26534.png", 
                "erased": false, 
                "hidden": false, 
                "id": 17741, 
                "name": "Suport General3 - Decidim Barcelona", 
                "official": false, 
                "official_level": 0, 
                "role": null, 
                "verified_organization": null
            }, 
            "body": "<p><a href=\"https://decidim.barcelona/proposals/destacar-mas-las-basuras-de-residuos-organicos\">https://decidim.barcelona/proposals/destacar-mas-las-basuras-de-residuos-organicos</a></p>", 
            "commentable_id": 990, 
            "commentable_type": "Proposal", 
            "created_at": "09/04/2016 11:51:01", 
            "flagged": false, 
            "hidden": false, 
            "id": 11823, 
            "moderator_id": null, 
            "permissions": {
                "hide": false, 
                "hide_author": false, 
                "vote": false
            }, 
            "total_dislikes": 0, 
            "total_likes": 0, 
            "total_votes": 0
        }, 
        {
            "administrator_id": null, 
            "alignment": 0, 
            "ancestry": null, 
            "as": null, 
            "author": {
                "avatar_image": "https://decidim.barcelona/assets/avatar-866795c99abc33a3160d1f3fa93ada46eb75e54134e777666b9ed16215b26534.png", 
                "erased": false, 
                "hidden": false, 
                "id": 17741, 
                "name": "Suport General3 - Decidim Barcelona", 
                "official": false, 
                "official_level": 0, 
                "role": null, 
                "verified_organization": null
            }, 
            "body": "<p><a href=\"https://decidim.barcelona/proposals/neveras-solidarias\">https://decidim.barcelona/proposals/neveras-solidarias</a></p>", 
            "commentable_id": 990, 
            "commentable_type": "Proposal", 
            "created_at": "09/04/2016 11:57:38", 
            "flagged": false, 
            "hidden": false, 
            "id": 11838, 
            "moderator_id": null, 
            "permissions": {
                "hide": false, 
                "hide_author": false, 
                "vote": false
            }, 
            "total_dislikes": 0, 
            "total_likes": 0, 
            "total_votes": 0
        }, 
        {
            "administrator_id": null, 
            "alignment": 0, 
            "ancestry": null, 
            "as": null, 
            "author": {
                "avatar_image": "https://decidim.barcelona/assets/avatar-866795c99abc33a3160d1f3fa93ada46eb75e54134e777666b9ed16215b26534.png", 
                "erased": false, 
                "hidden": false, 
                "id": 17741, 
                "name": "Suport General3 - Decidim Barcelona", 
                "official": false, 
                "official_level": 0, 
                "role": null, 
                "verified_organization": null
            }, 
            "body": "<p><a href=\"https://decidim.barcelona/proposals/facilitem-el-reciclatge\">https://decidim.barcelona/proposals/facilitem-el-reciclatge</a></p>", 
            "commentable_id": 990, 
            "commentable_type": "Proposal", 
            "created_at": "09/04/2016 11:58:01", 
            "flagged": false, 
            "hidden": false, 
            "id": 11840, 
            "moderator_id": null, 
            "permissions": {
                "hide": false, 
                "hide_author": false, 
                "vote": false
            }, 
            "total_dislikes": 0, 
            "total_likes": 0, 
            "total_votes": 0
        }, 
        {
            "administrator_id": null, 
            "alignment": 0, 
            "ancestry": null, 
            "as": null, 
            "author": {
                "avatar_image": "https://decidim.barcelona/assets/avatar-866795c99abc33a3160d1f3fa93ada46eb75e54134e777666b9ed16215b26534.png", 
                "erased": false, 
                "hidden": false, 
                "id": 17741, 
                "name": "Suport General3 - Decidim Barcelona", 
                "official": false, 
                "official_level": 0, 
                "role": null, 
                "verified_organization": null
            }, 
            "body": "<p><a href=\"https://decidim.barcelona/proposals/millora-de-la-recollida-selectiva\">https://decidim.barcelona/proposals/millora-de-la-recollida-selectiva</a></p>", 
            "commentable_id": 990, 
            "commentable_type": "Proposal", 
            "created_at": "09/04/2016 15:16:06", 
            "flagged": false, 
            "hidden": false, 
            "id": 12394, 
            "moderator_id": null, 
            "permissions": {
                "hide": false, 
                "hide_author": false, 
                "vote": false
            }, 
            "total_dislikes": 0, 
            "total_likes": 0, 
            "total_votes": 0
        }, 
        {
            "administrator_id": null, 
            "alignment": 1, 
            "ancestry": null, 
            "as": null, 
            "author": {
                "avatar_image": "https://decidim.barcelona/assets/avatar-866795c99abc33a3160d1f3fa93ada46eb75e54134e777666b9ed16215b26534.png", 
                "erased": false, 
                "hidden": false, 
                "id": 23853, 
                "name": "Josep Busquets Vidal", 
                "official": false, 
                "official_level": 0, 
                "role": null, 
                "verified_organization": null
            }, 
            "body": "<p><a href=\"https://decidim.barcelona/proposals/fomentar-l-us-d-envasos-i-ampolles-reutilitzables-per-reduir-el-plastic\">https://decidim.barcelona/proposals/fomentar-l-us-d-envasos-i-ampolles-reutilitzables-per-reduir-el-plastic</a></p>", 
            "commentable_id": 990, 
            "commentable_type": "Proposal", 
            "created_at": "15/04/2016 14:08:05", 
            "flagged": false, 
            "hidden": false, 
            "id": 17093, 
            "moderator_id": null, 
            "permissions": {
                "hide": false, 
                "hide_author": false, 
                "vote": false
            }, 
            "total_dislikes": 0, 
            "total_likes": 0, 
            "total_votes": 0
        }, 
        {
            "administrator_id": null, 
            "alignment": 1, 
            "ancestry": null, 
            "as": null, 
            "author": {
                "avatar_image": "https://decidim.barcelona/assets/avatar-866795c99abc33a3160d1f3fa93ada46eb75e54134e777666b9ed16215b26534.png", 
                "erased": false, 
                "hidden": false, 
                "id": 23853, 
                "name": "Josep Busquets Vidal", 
                "official": false, 
                "official_level": 0, 
                "role": null, 
                "verified_organization": null
            }, 
            "body": "<p><a href=\"https://decidim.barcelona/proposals/eliminacio-total-de-la-bossa-de-plastic\">https://decidim.barcelona/proposals/eliminacio-total-de-la-bossa-de-plastic</a></p>", 
            "commentable_id": 990, 
            "commentable_type": "Proposal", 
            "created_at": "15/04/2016 14:09:18", 
            "flagged": false, 
            "hidden": false, 
            "id": 17095, 
            "moderator_id": null, 
            "permissions": {
                "hide": false, 
                "hide_author": false, 
                "vote": false
            }, 
            "total_dislikes": 0, 
            "total_likes": 0, 
            "total_votes": 0
        }, 
        {
            "administrator_id": null, 
            "alignment": 1, 
            "ancestry": null, 
            "as": null, 
            "author": {
                "avatar_image": "https://decidim.barcelona/assets/avatar-866795c99abc33a3160d1f3fa93ada46eb75e54134e777666b9ed16215b26534.png", 
                "erased": false, 
                "hidden": false, 
                "id": 23853, 
                "name": "Josep Busquets Vidal", 
                "official": false, 
                "official_level": 0, 
                "role": null, 
                "verified_organization": null
            }, 
            "body": "<p><a href=\"https://decidim.barcelona/proposals/fomentar-el-residu-zero\">https://decidim.barcelona/proposals/fomentar-el-residu-zero</a></p>", 
            "commentable_id": 990, 
            "commentable_type": "Proposal", 
            "created_at": "15/04/2016 14:10:55", 
            "flagged": false, 
            "hidden": false, 
            "id": 17097, 
            "moderator_id": null, 
            "permissions": {
                "hide": false, 
                "hide_author": false, 
                "vote": false
            }, 
            "total_dislikes": 0, 
            "total_likes": 0, 
            "total_votes": 0
        }, 
        {
            "administrator_id": null, 
            "alignment": 0, 
            "ancestry": null, 
            "as": null, 
            "author": {
                "avatar_image": "https://decidim.barcelona/assets/avatar-866795c99abc33a3160d1f3fa93ada46eb75e54134e777666b9ed16215b26534.png", 
                "erased": false, 
                "hidden": false, 
                "id": 9262, 
                "name": "Suport General - Decidim Barcelona", 
                "official": false, 
                "official_level": 0, 
                "role": null, 
                "verified_organization": null
            }, 
            "body": "<p><a href=\"https://decidim.barcelona/proposals/envassos-de-vidre-retornable\">https://decidim.barcelona/proposals/envassos-de-vidre-retornable</a></p>", 
            "commentable_id": 990, 
            "commentable_type": "Proposal", 
            "created_at": "15/04/2016 14:27:35", 
            "flagged": false, 
            "hidden": false, 
            "id": 17125, 
            "moderator_id": null, 
            "permissions": {
                "hide": false, 
                "hide_author": false, 
                "vote": false
            }, 
            "total_dislikes": 0, 
            "total_likes": 0, 
            "total_votes": 0
        }, 
        {
            "administrator_id": null, 
            "alignment": 0, 
            "ancestry": null, 
            "as": null, 
            "author": {
                "avatar_image": "https://decidim.barcelona/assets/avatar-866795c99abc33a3160d1f3fa93ada46eb75e54134e777666b9ed16215b26534.png", 
                "erased": false, 
                "hidden": false, 
                "id": 9262, 
                "name": "Suport General - Decidim Barcelona", 
                "official": false, 
                "official_level": 0, 
                "role": null, 
                "verified_organization": null
            }, 
            "body": "<p><a href=\"https://decidim.barcelona/proposals/limitar-drasticament-us-de-bosses-de-plastic\">https://decidim.barcelona/proposals/limitar-drasticament-us-de-bosses-de-plastic</a></p>", 
            "commentable_id": 990, 
            "commentable_type": "Proposal", 
            "created_at": "15/04/2016 14:27:59", 
            "flagged": false, 
            "hidden": false, 
            "id": 17126, 
            "moderator_id": null, 
            "permissions": {
                "hide": false, 
                "hide_author": false, 
                "vote": false
            }, 
            "total_dislikes": 0, 
            "total_likes": 0, 
            "total_votes": 0
        }, 
        {
            "administrator_id": null, 
            "alignment": 0, 
            "ancestry": null, 
            "as": null, 
            "author": {
                "avatar_image": "https://decidim.barcelona/assets/avatar-866795c99abc33a3160d1f3fa93ada46eb75e54134e777666b9ed16215b26534.png", 
                "erased": false, 
                "hidden": false, 
                "id": 9262, 
                "name": "Suport General - Decidim Barcelona", 
                "official": false, 
                "official_level": 0, 
                "role": null, 
                "verified_organization": null
            }, 
            "body": "<p><a href=\"https://decidim.barcelona/proposals/fomento-del-reciclaje-selectivo-a-traves-de-incentivos-economicos-o-fiscales\">https://decidim.barcelona/proposals/fomento-del-reciclaje-selectivo-a-traves-de-incentivos-economicos-o-fiscales</a></p>", 
            "commentable_id": 990, 
            "commentable_type": "Proposal", 
            "created_at": "15/04/2016 14:37:18", 
            "flagged": false, 
            "hidden": false, 
            "id": 17135, 
            "moderator_id": null, 
            "permissions": {
                "hide": false, 
                "hide_author": false, 
                "vote": false
            }, 
            "total_dislikes": 0, 
            "total_likes": 0, 
            "total_votes": 0
        }, 
        {
            "administrator_id": null, 
            "alignment": 0, 
            "ancestry": null, 
            "as": null, 
            "author": {
                "avatar_image": "https://decidim.barcelona/assets/avatar-866795c99abc33a3160d1f3fa93ada46eb75e54134e777666b9ed16215b26534.png", 
                "erased": false, 
                "hidden": false, 
                "id": 9262, 
                "name": "Suport General - Decidim Barcelona", 
                "official": false, 
                "official_level": 0, 
                "role": null, 
                "verified_organization": null
            }, 
            "body": "<p><a href=\"https://decidim.barcelona/proposals/brossa-organica\">https://decidim.barcelona/proposals/brossa-organica</a></p>", 
            "commentable_id": 990, 
            "commentable_type": "Proposal", 
            "created_at": "15/04/2016 14:39:54", 
            "flagged": false, 
            "hidden": false, 
            "id": 17138, 
            "moderator_id": null, 
            "permissions": {
                "hide": false, 
                "hide_author": false, 
                "vote": false
            }, 
            "total_dislikes": 0, 
            "total_likes": 0, 
            "total_votes": 0
        }, 
        {
            "administrator_id": null, 
            "alignment": 0, 
            "ancestry": null, 
            "as": null, 
            "author": {
                "avatar_image": "https://decidim.barcelona/assets/avatar-866795c99abc33a3160d1f3fa93ada46eb75e54134e777666b9ed16215b26534.png", 
                "erased": false, 
                "hidden": false, 
                "id": 9262, 
                "name": "Suport General - Decidim Barcelona", 
                "official": false, 
                "official_level": 0, 
                "role": null, 
                "verified_organization": null
            }, 
            "body": "<p><a href=\"https://decidim.barcelona/proposals/cicle-integre-dels-processos-de-reciclatge\">https://decidim.barcelona/proposals/cicle-integre-dels-processos-de-reciclatge</a></p>", 
            "commentable_id": 990, 
            "commentable_type": "Proposal", 
            "created_at": "15/04/2016 14:40:05", 
            "flagged": false, 
            "hidden": false, 
            "id": 17139, 
            "moderator_id": null, 
            "permissions": {
                "hide": false, 
                "hide_author": false, 
                "vote": false
            }, 
            "total_dislikes": 0, 
            "total_likes": 0, 
            "total_votes": 0
        }, 
        {
            "administrator_id": null, 
            "alignment": 0, 
            "ancestry": null, 
            "as": null, 
            "author": {
                "avatar_image": "https://decidim.barcelona/assets/avatar-866795c99abc33a3160d1f3fa93ada46eb75e54134e777666b9ed16215b26534.png", 
                "erased": false, 
                "hidden": false, 
                "id": 9262, 
                "name": "Suport General - Decidim Barcelona", 
                "official": false, 
                "official_level": 0, 
                "role": null, 
                "verified_organization": null
            }, 
            "body": "<p><a href=\"https://decidim.barcelona/proposals/crear-punts-verds-a-les-escoles\">https://decidim.barcelona/proposals/crear-punts-verds-a-les-escoles</a></p>", 
            "commentable_id": 990, 
            "commentable_type": "Proposal", 
            "created_at": "15/04/2016 14:40:16", 
            "flagged": false, 
            "hidden": false, 
            "id": 17140, 
            "moderator_id": null, 
            "permissions": {
                "hide": false, 
                "hide_author": false, 
                "vote": false
            }, 
            "total_dislikes": 0, 
            "total_likes": 0, 
            "total_votes": 0
        }, 
        {
            "administrator_id": null, 
            "alignment": 0, 
            "ancestry": null, 
            "as": null, 
            "author": {
                "avatar_image": "https://decidim.barcelona/assets/avatar-866795c99abc33a3160d1f3fa93ada46eb75e54134e777666b9ed16215b26534.png", 
                "erased": false, 
                "hidden": false, 
                "id": 9262, 
                "name": "Suport General - Decidim Barcelona", 
                "official": false, 
                "official_level": 0, 
                "role": null, 
                "verified_organization": null
            }, 
            "body": "<p><a href=\"https://decidim.barcelona/proposals/implementacio-del-sistema-de-gestio-de-residus-pfand-per-a-barcelona\">https://decidim.barcelona/proposals/implementacio-del-sistema-de-gestio-de-residus-pfand-per-a-barcelona</a></p>", 
            "commentable_id": 990, 
            "commentable_type": "Proposal", 
            "created_at": "15/04/2016 14:40:26", 
            "flagged": false, 
            "hidden": false, 
            "id": 17141, 
            "moderator_id": null, 
            "permissions": {
                "hide": false, 
                "hide_author": false, 
                "vote": false
            }, 
            "total_dislikes": 0, 
            "total_likes": 0, 
            "total_votes": 0
        }, 
        {
            "administrator_id": null, 
            "alignment": 0, 
            "ancestry": null, 
            "as": null, 
            "author": {
                "avatar_image": "https://decidim.barcelona/assets/avatar-866795c99abc33a3160d1f3fa93ada46eb75e54134e777666b9ed16215b26534.png", 
                "erased": false, 
                "hidden": false, 
                "id": 9262, 
                "name": "Suport General - Decidim Barcelona", 
                "official": false, 
                "official_level": 0, 
                "role": null, 
                "verified_organization": null
            }, 
            "body": "<p><a href=\"https://decidim.barcelona/proposals/augmentar-el-tamanys-dels-cartells-d-informacio-dels-containers-de-reciclatge\">https://decidim.barcelona/proposals/augmentar-el-tamanys-dels-cartells-d-informacio-dels-containers-de-reciclatge</a></p>", 
            "commentable_id": 990, 
            "commentable_type": "Proposal", 
            "created_at": "15/04/2016 14:40:37", 
            "flagged": false, 
            "hidden": false, 
            "id": 17142, 
            "moderator_id": null, 
            "permissions": {
                "hide": false, 
                "hide_author": false, 
                "vote": false
            }, 
            "total_dislikes": 0, 
            "total_likes": 0, 
            "total_votes": 0
        }
    ], 
    "meta": {
        "current_page": 2, 
        "next_page": 3, 
        "prev_page": 1, 
        "total_count": 45, 
        "total_pages": 3
    }
}