{
    "comments": [
        {
            "administrator_id": null, 
            "alignment": 1, 
            "ancestry": null, 
            "as": null, 
            "author": {
                "avatar_image": "https://decidim.barcelona/assets/avatar-866795c99abc33a3160d1f3fa93ada46eb75e54134e777666b9ed16215b26534.png", 
                "erased": false, 
                "hidden": false, 
                "id": 16085, 
                "name": "ciudadanoe", 
                "official": false, 
                "official_level": 0, 
                "role": null, 
                "verified_organization": null
            }, 
            "body": "<p>Falta un carril bici adaptat al Passeig Maragall</p>", 
            "commentable_id": 1123, 
            "commentable_type": "Proposal", 
            "created_at": "30/03/2016 12:55:37", 
            "flagged": false, 
            "hidden": false, 
            "id": 6967, 
            "moderator_id": null, 
            "permissions": {
                "hide": false, 
                "hide_author": false, 
                "vote": false
            }, 
            "total_dislikes": 0, 
            "total_likes": 0, 
            "total_votes": 0
        }, 
        {
            "administrator_id": null, 
            "alignment": 1, 
            "ancestry": null, 
            "as": null, 
            "author": {
                "avatar_image": "https://decidim.barcelona/assets/avatar-866795c99abc33a3160d1f3fa93ada46eb75e54134e777666b9ed16215b26534.png", 
                "erased": false, 
                "hidden": false, 
                "id": 7482, 
                "name": "mar", 
                "official": false, 
                "official_level": 0, 
                "role": null, 
                "verified_organization": null
            }, 
            "body": "<p>Ajudeu-nos a aquest canvi de model. L'Ajuntament es nega a posar un carril bici a Travessera de Dalt!\n<br /><a href=\"https://decidim.barcelona/proposals/carrils-bici-a-tavessera-de-dalt\">https://decidim.barcelona/proposals/carrils-bici-a-tavessera-de-dalt</a>\n</p>", 
            "commentable_id": 1123, 
            "commentable_type": "Proposal", 
            "created_at": "01/04/2016 13:47:58", 
            "flagged": false, 
            "hidden": false, 
            "id": 7395, 
            "moderator_id": null, 
            "permissions": {
                "hide": false, 
                "hide_author": false, 
                "vote": false
            }, 
            "total_dislikes": 0, 
            "total_likes": 0, 
            "total_votes": 0
        }, 
        {
            "administrator_id": null, 
            "alignment": -1, 
            "ancestry": null, 
            "as": null, 
            "author": {
                "avatar_image": "https://decidim.barcelona/assets/avatar-866795c99abc33a3160d1f3fa93ada46eb75e54134e777666b9ed16215b26534.png", 
                "erased": false, 
                "hidden": false, 
                "id": 846, 
                "name": "Pablo_Montoya", 
                "official": false, 
                "official_level": 0, 
                "role": null, 
                "verified_organization": null
            }, 
            "body": "<p>Yo en general estoy a favor de impulsar el uso de la bici y el transporte ecol\u00f3gico, pero de forma cuidadosamente estudiada y no metiendo carriles bici a bocajarro. El carril bici que se acaba de crear en la calle Joan G\u00fcell, suprimiendo uno de los carriles de ciculaci\u00f3n de autom\u00f3viles, va a crear m\u00e1s problemas de los que resuelva. Va a dar lugar a embotellamientos, y no va a fomentar que m\u00e1s gente use la bici, porque los usuarios de la misma ya tienen desde hace tiempo un carril bici bien ancho y c\u00f3modo en la Gran V\u00eda de Carlos III, que es paralela a Joan G\u00fcell. \u00c9sta ha sido una intervenci\u00f3n totalmente innecesaria y m\u00e1s perjudicial que beneficiosa, y si es de esta manera como se encara este proyecto, no puedo apoyarlo </p>", 
            "commentable_id": 1123, 
            "commentable_type": "Proposal", 
            "created_at": "04/04/2016 09:52:03", 
            "flagged": false, 
            "hidden": false, 
            "id": 7662, 
            "moderator_id": null, 
            "permissions": {
                "hide": false, 
                "hide_author": false, 
                "vote": false
            }, 
            "total_dislikes": 0, 
            "total_likes": 0, 
            "total_votes": 0
        }, 
        {
            "administrator_id": null, 
            "alignment": -1, 
            "ancestry": null, 
            "as": null, 
            "author": {
                "avatar_image": "https://decidim.barcelona/assets/avatar-866795c99abc33a3160d1f3fa93ada46eb75e54134e777666b9ed16215b26534.png", 
                "erased": false, 
                "hidden": false, 
                "id": 846, 
                "name": "Pablo_Montoya", 
                "official": false, 
                "official_level": 0, 
                "role": null, 
                "verified_organization": null
            }, 
            "body": "<p>Yo en general estoy a favor de impulsar el uso de la bici y el transporte ecol\u00f3gico, pero de forma cuidadosamente estudiada y no metiendo carriles bici a bocajarro. El carril bici que se acaba de crear en la calle Joan G\u00fcell, suprimiendo uno de los carriles de ciculaci\u00f3n de autom\u00f3viles, va a crear m\u00e1s problemas de los que resuelva. Va a dar lugar a embotellamientos, y no va a fomentar que m\u00e1s gente use la bici, porque los usuarios de la misma ya tienen desde hace tiempo un carril bici bien ancho y c\u00f3modo en la Gran V\u00eda de Carlos III, que es paralela a Joan G\u00fcell. \u00c9sta ha sido una intervenci\u00f3n totalmente innecesaria y m\u00e1s perjudicial que beneficiosa, y si es de esta manera como se encara este proyecto, no puedo apoyarlo </p>", 
            "commentable_id": 1123, 
            "commentable_type": "Proposal", 
            "created_at": "04/04/2016 09:52:49", 
            "flagged": false, 
            "hidden": false, 
            "id": 7665, 
            "moderator_id": null, 
            "permissions": {
                "hide": false, 
                "hide_author": false, 
                "vote": false
            }, 
            "total_dislikes": 0, 
            "total_likes": 0, 
            "total_votes": 0
        }, 
        {
            "administrator_id": null, 
            "alignment": 1, 
            "ancestry": null, 
            "as": null, 
            "author": {
                "avatar_image": "https://decidim.barcelona/assets/avatar-866795c99abc33a3160d1f3fa93ada46eb75e54134e777666b9ed16215b26534.png", 
                "erased": false, 
                "hidden": false, 
                "id": 13405, 
                "name": "Dsoriano ", 
                "official": false, 
                "official_level": 0, 
                "role": null, 
                "verified_organization": null
            }, 
            "body": "<p>A la cita presencial que va tenir lloc a l\u2019Escola Sant Ram\u00f3n Nonat, els estudiants de 4rt d\u2019ESO B van estar debatent diverses propostes per millorar el medi ambient de la ciutat, entre aquestes van proposar l\u2019augment de m\u00e9s carrils bici ja que i evitar que es tallin. A m\u00e9s, denuncien que encara a molts barris no n\u2019hi ha, com \u00e9s el cas dels barris de Barcelona propers a l\u2019Hospitalet de Llobregat. </p>", 
            "commentable_id": 1123, 
            "commentable_type": "Proposal", 
            "created_at": "04/04/2016 16:57:53", 
            "flagged": false, 
            "hidden": false, 
            "id": 7799, 
            "moderator_id": null, 
            "permissions": {
                "hide": false, 
                "hide_author": false, 
                "vote": false
            }, 
            "total_dislikes": 0, 
            "total_likes": 0, 
            "total_votes": 0
        }, 
        {
            "administrator_id": null, 
            "alignment": 1, 
            "ancestry": null, 
            "as": null, 
            "author": {
                "avatar_image": "https://decidim.barcelona/assets/avatar-866795c99abc33a3160d1f3fa93ada46eb75e54134e777666b9ed16215b26534.png", 
                "erased": false, 
                "hidden": false, 
                "id": 13405, 
                "name": "Dsoriano ", 
                "official": false, 
                "official_level": 0, 
                "role": null, 
                "verified_organization": null
            }, 
            "body": "<p>Al debat que va tenir lloc a l\u2019Escola Sant Ram\u00f3n Nonat, els estudiants de 4rt ESO A van proposar ampliar i millorar els carrils bici i crear a cada escola un p\u00e0rquing tancat per guardar les bicicletes\n</p>", 
            "commentable_id": 1123, 
            "commentable_type": "Proposal", 
            "created_at": "05/04/2016 10:56:32", 
            "flagged": false, 
            "hidden": false, 
            "id": 7947, 
            "moderator_id": null, 
            "permissions": {
                "hide": false, 
                "hide_author": false, 
                "vote": false
            }, 
            "total_dislikes": 0, 
            "total_likes": 0, 
            "total_votes": 0
        }, 
        {
            "administrator_id": null, 
            "alignment": 1, 
            "ancestry": null, 
            "as": null, 
            "author": {
                "avatar_image": "https://decidim.barcelona/assets/avatar-866795c99abc33a3160d1f3fa93ada46eb75e54134e777666b9ed16215b26534.png", 
                "erased": false, 
                "hidden": false, 
                "id": 13405, 
                "name": "Dsoriano ", 
                "official": false, 
                "official_level": 0, 
                "role": null, 
                "verified_organization": null
            }, 
            "body": "<p>A la cita presencial que va tenir lloc a l\u2019Escola Sant Ram\u00f3n Nonat, els estudiants de 3r d\u2019ESO B van estar debatent diverses propostes per millorar el medi ambient de la ciutat, entre aquestes van proposar promoure l\u2019exist\u00e8ncia de m\u00e9s carrils bici a la ciutat. </p>", 
            "commentable_id": 1123, 
            "commentable_type": "Proposal", 
            "created_at": "05/04/2016 12:37:33", 
            "flagged": false, 
            "hidden": false, 
            "id": 7976, 
            "moderator_id": null, 
            "permissions": {
                "hide": false, 
                "hide_author": false, 
                "vote": false
            }, 
            "total_dislikes": 0, 
            "total_likes": 0, 
            "total_votes": 0
        }, 
        {
            "administrator_id": null, 
            "alignment": 1, 
            "ancestry": null, 
            "as": null, 
            "author": {
                "avatar_image": "https://decidim.barcelona/assets/avatar-866795c99abc33a3160d1f3fa93ada46eb75e54134e777666b9ed16215b26534.png", 
                "erased": false, 
                "hidden": false, 
                "id": 13405, 
                "name": "Dsoriano ", 
                "official": false, 
                "official_level": 0, 
                "role": null, 
                "verified_organization": null
            }, 
            "body": "<p>Els nens i nenes de l\u2019esplai Sant Jordi van debatre diferents propostes per millorar el medi ambient de la ciutat, entre aquestes van proposar crear m\u00e9s carrils bici a la ciutat de Barcelona, sobretot al barri de Vallcarca, i tamb\u00e9 que es facin m\u00e9s grans els carrils bici que hi ha actualment. </p>", 
            "commentable_id": 1123, 
            "commentable_type": "Proposal", 
            "created_at": "06/04/2016 09:43:24", 
            "flagged": false, 
            "hidden": false, 
            "id": 8206, 
            "moderator_id": null, 
            "permissions": {
                "hide": false, 
                "hide_author": false, 
                "vote": false
            }, 
            "total_dislikes": 0, 
            "total_likes": 0, 
            "total_votes": 0
        }, 
        {
            "administrator_id": null, 
            "alignment": 1, 
            "ancestry": null, 
            "as": null, 
            "author": {
                "avatar_image": "https://decidim.barcelona/assets/avatar-866795c99abc33a3160d1f3fa93ada46eb75e54134e777666b9ed16215b26534.png", 
                "erased": false, 
                "hidden": false, 
                "id": 13405, 
                "name": "Dsoriano ", 
                "official": false, 
                "official_level": 0, 
                "role": null, 
                "verified_organization": null
            }, 
            "body": "<p>Els infants de l\u2019esplai El Bon Recer van estar debatent diferents propostes per millorar el medi ambient de la ciutat. Van proposar construir molts m\u00e9s carrils bici per tota la ciutat perqu\u00e8 aix\u00ed la gent ja no haur\u00e0 de fer servir tant el cotxe. </p>", 
            "commentable_id": 1123, 
            "commentable_type": "Proposal", 
            "created_at": "07/04/2016 12:52:46", 
            "flagged": false, 
            "hidden": false, 
            "id": 9216, 
            "moderator_id": null, 
            "permissions": {
                "hide": false, 
                "hide_author": false, 
                "vote": false
            }, 
            "total_dislikes": 0, 
            "total_likes": 0, 
            "total_votes": 0
        }, 
        {
            "administrator_id": null, 
            "alignment": 1, 
            "ancestry": null, 
            "as": null, 
            "author": {
                "avatar_image": "https://decidim.barcelona/assets/avatar-866795c99abc33a3160d1f3fa93ada46eb75e54134e777666b9ed16215b26534.png", 
                "erased": false, 
                "hidden": false, 
                "id": 14982, 
                "name": "xavi2525", 
                "official": false, 
                "official_level": 0, 
                "role": null, 
                "verified_organization": null
            }, 
            "body": "<p>Al Carrer M\u00farcia, al barri del Clot, ens han fet un carril bici que no utilitza gaire gent perqu\u00e8 no hi ha estacions de bicing aprop. Ajudeu-nos a rendibilitzar-lo amb una nova estaci\u00f3 de bicing, podeu votar la proposta a aqu\u00ed: <a href=\"https://decidim.barcelona/proposals/nova-estacio-de-bicing-al-sud-de-camp-de-l-arpa\">https://decidim.barcelona/proposals/nova-estacio-de-bicing-al-sud-de-camp-de-l-arpa</a> Moltes gr\u00e0cies!!</p>", 
            "commentable_id": 1123, 
            "commentable_type": "Proposal", 
            "created_at": "07/04/2016 16:08:22", 
            "flagged": false, 
            "hidden": false, 
            "id": 9586, 
            "moderator_id": null, 
            "permissions": {
                "hide": false, 
                "hide_author": false, 
                "vote": false
            }, 
            "total_dislikes": 0, 
            "total_likes": 0, 
            "total_votes": 0
        }, 
        {
            "administrator_id": null, 
            "alignment": 0, 
            "ancestry": null, 
            "as": null, 
            "author": {
                "avatar_image": "https://decidim.barcelona/assets/avatar-866795c99abc33a3160d1f3fa93ada46eb75e54134e777666b9ed16215b26534.png", 
                "erased": false, 
                "hidden": false, 
                "id": 21054, 
                "name": "Lizete ", 
                "official": false, 
                "official_level": 0, 
                "role": null, 
                "verified_organization": null
            }, 
            "body": "<p>Limitar el alquiler de bicicletas a 5 personas x grupo de turistas. Es imposible avanzar en la ciudad con tantos grupos numerosos en bicicletas!! </p>", 
            "commentable_id": 1123, 
            "commentable_type": "Proposal", 
            "created_at": "08/04/2016 16:48:16", 
            "flagged": false, 
            "hidden": false, 
            "id": 11150, 
            "moderator_id": null, 
            "permissions": {
                "hide": false, 
                "hide_author": false, 
                "vote": false
            }, 
            "total_dislikes": 0, 
            "total_likes": 0, 
            "total_votes": 0
        }, 
        {
            "administrator_id": null, 
            "alignment": 0, 
            "ancestry": null, 
            "as": null, 
            "author": {
                "avatar_image": "https://decidim.barcelona/assets/avatar-866795c99abc33a3160d1f3fa93ada46eb75e54134e777666b9ed16215b26534.png", 
                "erased": false, 
                "hidden": false, 
                "id": 17741, 
                "name": "Suport General3 - Decidim Barcelona", 
                "official": false, 
                "official_level": 0, 
                "role": null, 
                "verified_organization": null
            }, 
            "body": "<p><a href=\"https://decidim.barcelona/proposals/carrils-bici-de-qualitat\">https://decidim.barcelona/proposals/carrils-bici-de-qualitat</a></p>", 
            "commentable_id": 1123, 
            "commentable_type": "Proposal", 
            "created_at": "09/04/2016 16:30:40", 
            "flagged": false, 
            "hidden": false, 
            "id": 12525, 
            "moderator_id": null, 
            "permissions": {
                "hide": false, 
                "hide_author": false, 
                "vote": false
            }, 
            "total_dislikes": 0, 
            "total_likes": 0, 
            "total_votes": 0
        }, 
        {
            "administrator_id": null, 
            "alignment": 0, 
            "ancestry": null, 
            "as": null, 
            "author": {
                "avatar_image": "https://decidim.barcelona/assets/avatar-866795c99abc33a3160d1f3fa93ada46eb75e54134e777666b9ed16215b26534.png", 
                "erased": false, 
                "hidden": false, 
                "id": 17741, 
                "name": "Suport General3 - Decidim Barcelona", 
                "official": false, 
                "official_level": 0, 
                "role": null, 
                "verified_organization": null
            }, 
            "body": "<p><a href=\"https://decidim.barcelona/proposals/red-interurbana-carril-bici\">https://decidim.barcelona/proposals/red-interurbana-carril-bici</a></p>", 
            "commentable_id": 1123, 
            "commentable_type": "Proposal", 
            "created_at": "09/04/2016 16:30:52", 
            "flagged": false, 
            "hidden": false, 
            "id": 12526, 
            "moderator_id": null, 
            "permissions": {
                "hide": false, 
                "hide_author": false, 
                "vote": false
            }, 
            "total_dislikes": 0, 
            "total_likes": 0, 
            "total_votes": 0
        }, 
        {
            "administrator_id": null, 
            "alignment": 0, 
            "ancestry": null, 
            "as": null, 
            "author": {
                "avatar_image": "https://decidim.barcelona/assets/avatar-866795c99abc33a3160d1f3fa93ada46eb75e54134e777666b9ed16215b26534.png", 
                "erased": false, 
                "hidden": false, 
                "id": 17741, 
                "name": "Suport General3 - Decidim Barcelona", 
                "official": false, 
                "official_level": 0, 
                "role": null, 
                "verified_organization": null
            }, 
            "body": "<p><a href=\"https://decidim.barcelona/proposals/carrils-bici-de-qualitat\">https://decidim.barcelona/proposals/carrils-bici-de-qualitat</a></p>", 
            "commentable_id": 1123, 
            "commentable_type": "Proposal", 
            "created_at": "09/04/2016 16:31:44", 
            "flagged": false, 
            "hidden": false, 
            "id": 12527, 
            "moderator_id": null, 
            "permissions": {
                "hide": false, 
                "hide_author": false, 
                "vote": false
            }, 
            "total_dislikes": 0, 
            "total_likes": 0, 
            "total_votes": 0
        }, 
        {
            "administrator_id": null, 
            "alignment": 0, 
            "ancestry": null, 
            "as": null, 
            "author": {
                "avatar_image": "https://decidim.barcelona/assets/avatar-866795c99abc33a3160d1f3fa93ada46eb75e54134e777666b9ed16215b26534.png", 
                "erased": false, 
                "hidden": false, 
                "id": 17741, 
                "name": "Suport General3 - Decidim Barcelona", 
                "official": false, 
                "official_level": 0, 
                "role": null, 
                "verified_organization": null
            }, 
            "body": "<p><a href=\"https://decidim.barcelona/proposals/fomentar-la-xarxa-carril-bicicletes\">https://decidim.barcelona/proposals/fomentar-la-xarxa-carril-bicicletes</a></p>", 
            "commentable_id": 1123, 
            "commentable_type": "Proposal", 
            "created_at": "09/04/2016 16:32:09", 
            "flagged": false, 
            "hidden": false, 
            "id": 12528, 
            "moderator_id": null, 
            "permissions": {
                "hide": false, 
                "hide_author": false, 
                "vote": false
            }, 
            "total_dislikes": 0, 
            "total_likes": 0, 
            "total_votes": 0
        }, 
        {
            "administrator_id": null, 
            "alignment": 0, 
            "ancestry": null, 
            "as": null, 
            "author": {
                "avatar_image": "https://decidim.barcelona/assets/avatar-866795c99abc33a3160d1f3fa93ada46eb75e54134e777666b9ed16215b26534.png", 
                "erased": false, 
                "hidden": false, 
                "id": 17741, 
                "name": "Suport General3 - Decidim Barcelona", 
                "official": false, 
                "official_level": 0, 
                "role": null, 
                "verified_organization": null
            }, 
            "body": "<p><a href=\"https://decidim.barcelona/proposals/continuidad-del-caril-bici\">https://decidim.barcelona/proposals/continuidad-del-caril-bici</a></p>", 
            "commentable_id": 1123, 
            "commentable_type": "Proposal", 
            "created_at": "09/04/2016 16:32:32", 
            "flagged": false, 
            "hidden": false, 
            "id": 12529, 
            "moderator_id": null, 
            "permissions": {
                "hide": false, 
                "hide_author": false, 
                "vote": false
            }, 
            "total_dislikes": 0, 
            "total_likes": 0, 
            "total_votes": 0
        }, 
        {
            "administrator_id": null, 
            "alignment": 0, 
            "ancestry": null, 
            "as": null, 
            "author": {
                "avatar_image": "https://decidim.barcelona/assets/avatar-866795c99abc33a3160d1f3fa93ada46eb75e54134e777666b9ed16215b26534.png", 
                "erased": false, 
                "hidden": false, 
                "id": 17741, 
                "name": "Suport General3 - Decidim Barcelona", 
                "official": false, 
                "official_level": 0, 
                "role": null, 
                "verified_organization": null
            }, 
            "body": "<p><a href=\"https://decidim.barcelona/proposals/refer-el-carril-bici-a-diagonal-desde-glories-a-passeig-de-gracia\">https://decidim.barcelona/proposals/refer-el-carril-bici-a-diagonal-desde-glories-a-passeig-de-gracia</a></p>", 
            "commentable_id": 1123, 
            "commentable_type": "Proposal", 
            "created_at": "09/04/2016 16:32:50", 
            "flagged": false, 
            "hidden": false, 
            "id": 12530, 
            "moderator_id": null, 
            "permissions": {
                "hide": false, 
                "hide_author": false, 
                "vote": false
            }, 
            "total_dislikes": 0, 
            "total_likes": 0, 
            "total_votes": 0
        }, 
        {
            "administrator_id": null, 
            "alignment": 0, 
            "ancestry": null, 
            "as": null, 
            "author": {
                "avatar_image": "https://decidim.barcelona/assets/avatar-866795c99abc33a3160d1f3fa93ada46eb75e54134e777666b9ed16215b26534.png", 
                "erased": false, 
                "hidden": false, 
                "id": 17741, 
                "name": "Suport General3 - Decidim Barcelona", 
                "official": false, 
                "official_level": 0, 
                "role": null, 
                "verified_organization": null
            }, 
            "body": "<p><a href=\"https://decidim.barcelona/proposals/pintar-a-l-asfalt-advertencia-prioritat-bicis-al-carril-bici-al-girar\">https://decidim.barcelona/proposals/pintar-a-l-asfalt-advertencia-prioritat-bicis-al-carril-bici-al-girar</a></p>", 
            "commentable_id": 1123, 
            "commentable_type": "Proposal", 
            "created_at": "09/04/2016 16:33:08", 
            "flagged": false, 
            "hidden": false, 
            "id": 12531, 
            "moderator_id": null, 
            "permissions": {
                "hide": false, 
                "hide_author": false, 
                "vote": false
            }, 
            "total_dislikes": 0, 
            "total_likes": 0, 
            "total_votes": 0
        }, 
        {
            "administrator_id": null, 
            "alignment": 0, 
            "ancestry": null, 
            "as": null, 
            "author": {
                "avatar_image": "https://decidim.barcelona/assets/avatar-866795c99abc33a3160d1f3fa93ada46eb75e54134e777666b9ed16215b26534.png", 
                "erased": false, 
                "hidden": false, 
                "id": 17741, 
                "name": "Suport General3 - Decidim Barcelona", 
                "official": false, 
                "official_level": 0, 
                "role": null, 
                "verified_organization": null
            }, 
            "body": "<p><a href=\"https://decidim.barcelona/proposals/crear-carril-bici-paral-lels-a-les-carreters-d-horta-i-vallvidrera-i-altres\">https://decidim.barcelona/proposals/crear-carril-bici-paral-lels-a-les-carreters-d-horta-i-vallvidrera-i-altres</a></p>", 
            "commentable_id": 1123, 
            "commentable_type": "Proposal", 
            "created_at": "09/04/2016 16:33:20", 
            "flagged": false, 
            "hidden": false, 
            "id": 12532, 
            "moderator_id": null, 
            "permissions": {
                "hide": false, 
                "hide_author": false, 
                "vote": false
            }, 
            "total_dislikes": 0, 
            "total_likes": 0, 
            "total_votes": 0
        }, 
        {
            "administrator_id": null, 
            "alignment": 0, 
            "ancestry": null, 
            "as": null, 
            "author": {
                "avatar_image": "https://decidim.barcelona/assets/avatar-866795c99abc33a3160d1f3fa93ada46eb75e54134e777666b9ed16215b26534.png", 
                "erased": false, 
                "hidden": false, 
                "id": 17741, 
                "name": "Suport General3 - Decidim Barcelona", 
                "official": false, 
                "official_level": 0, 
                "role": null, 
                "verified_organization": null
            }, 
            "body": "<p><a href=\"https://decidim.barcelona/proposals/carril-bici-de-pujada-en-la-carretera-de-vallvidrera-i-de-l-arrabassada\">https://decidim.barcelona/proposals/carril-bici-de-pujada-en-la-carretera-de-vallvidrera-i-de-l-arrabassada</a></p>", 
            "commentable_id": 1123, 
            "commentable_type": "Proposal", 
            "created_at": "09/04/2016 16:33:32", 
            "flagged": false, 
            "hidden": false, 
            "id": 12533, 
            "moderator_id": null, 
            "permissions": {
                "hide": false, 
                "hide_author": false, 
                "vote": false
            }, 
            "total_dislikes": 0, 
            "total_likes": 0, 
            "total_votes": 0
        }
    ], 
    "meta": {
        "current_page": 2, 
        "next_page": 3, 
        "prev_page": 1, 
        "total_count": 53, 
        "total_pages": 3
    }
}