{
    "comments": [
        {
            "administrator_id": null, 
            "alignment": 0, 
            "ancestry": null, 
            "as": null, 
            "author": {
                "avatar_image": "https://decidim.barcelona/assets/avatar-866795c99abc33a3160d1f3fa93ada46eb75e54134e777666b9ed16215b26534.png", 
                "erased": false, 
                "hidden": false, 
                "id": 17741, 
                "name": "Suport General3 - Decidim Barcelona", 
                "official": false, 
                "official_level": 0, 
                "role": null, 
                "verified_organization": null
            }, 
            "body": "<p><a href=\"https://decidim.barcelona/proposals/carril-bici-per-sobre-de-la-diagonal\">https://decidim.barcelona/proposals/carril-bici-per-sobre-de-la-diagonal</a></p>", 
            "commentable_id": 1123, 
            "commentable_type": "Proposal", 
            "created_at": "09/04/2016 16:33:55", 
            "flagged": false, 
            "hidden": false, 
            "id": 12534, 
            "moderator_id": null, 
            "permissions": {
                "hide": false, 
                "hide_author": false, 
                "vote": false
            }, 
            "total_dislikes": 0, 
            "total_likes": 0, 
            "total_votes": 0
        }, 
        {
            "administrator_id": null, 
            "alignment": 0, 
            "ancestry": null, 
            "as": null, 
            "author": {
                "avatar_image": "https://decidim.barcelona/assets/avatar-866795c99abc33a3160d1f3fa93ada46eb75e54134e777666b9ed16215b26534.png", 
                "erased": false, 
                "hidden": false, 
                "id": 17741, 
                "name": "Suport General3 - Decidim Barcelona", 
                "official": false, 
                "official_level": 0, 
                "role": null, 
                "verified_organization": null
            }, 
            "body": "<p><a href=\"https://decidim.barcelona/proposals/carrers-30-bidireccionals-per-les-bicicletes\">https://decidim.barcelona/proposals/carrers-30-bidireccionals-per-les-bicicletes</a></p>", 
            "commentable_id": 1123, 
            "commentable_type": "Proposal", 
            "created_at": "09/04/2016 16:34:33", 
            "flagged": false, 
            "hidden": false, 
            "id": 12536, 
            "moderator_id": null, 
            "permissions": {
                "hide": false, 
                "hide_author": false, 
                "vote": false
            }, 
            "total_dislikes": 0, 
            "total_likes": 0, 
            "total_votes": 0
        }, 
        {
            "administrator_id": null, 
            "alignment": 0, 
            "ancestry": null, 
            "as": null, 
            "author": {
                "avatar_image": "https://decidim.barcelona/assets/avatar-866795c99abc33a3160d1f3fa93ada46eb75e54134e777666b9ed16215b26534.png", 
                "erased": false, 
                "hidden": false, 
                "id": 17741, 
                "name": "Suport General3 - Decidim Barcelona", 
                "official": false, 
                "official_level": 0, 
                "role": null, 
                "verified_organization": null
            }, 
            "body": "<p><a href=\"https://decidim.barcelona/proposals/senyalitzacio-de-sentit-contrari-permes-per-a-bicicletes-als-carrers-de-prioritat-invertida\">https://decidim.barcelona/proposals/senyalitzacio-de-sentit-contrari-permes-per-a-bicicletes-als-carrers-de-prioritat-invertida</a></p>", 
            "commentable_id": 1123, 
            "commentable_type": "Proposal", 
            "created_at": "09/04/2016 16:34:51", 
            "flagged": false, 
            "hidden": false, 
            "id": 12537, 
            "moderator_id": null, 
            "permissions": {
                "hide": false, 
                "hide_author": false, 
                "vote": false
            }, 
            "total_dislikes": 0, 
            "total_likes": 0, 
            "total_votes": 0
        }, 
        {
            "administrator_id": null, 
            "alignment": 0, 
            "ancestry": null, 
            "as": null, 
            "author": {
                "avatar_image": "https://decidim.barcelona/assets/avatar-866795c99abc33a3160d1f3fa93ada46eb75e54134e777666b9ed16215b26534.png", 
                "erased": false, 
                "hidden": false, 
                "id": 17741, 
                "name": "Suport General3 - Decidim Barcelona", 
                "official": false, 
                "official_level": 0, 
                "role": null, 
                "verified_organization": null
            }, 
            "body": "<p><a href=\"https://decidim.barcelona/proposals/indicar-al-suelo-las-doa-dirreciones-de-las-bicis\">https://decidim.barcelona/proposals/indicar-al-suelo-las-doa-dirreciones-de-las-bicis</a></p>", 
            "commentable_id": 1123, 
            "commentable_type": "Proposal", 
            "created_at": "09/04/2016 16:35:13", 
            "flagged": false, 
            "hidden": false, 
            "id": 12538, 
            "moderator_id": null, 
            "permissions": {
                "hide": false, 
                "hide_author": false, 
                "vote": false
            }, 
            "total_dislikes": 0, 
            "total_likes": 0, 
            "total_votes": 0
        }, 
        {
            "administrator_id": null, 
            "alignment": 0, 
            "ancestry": null, 
            "as": null, 
            "author": {
                "avatar_image": "https://decidim.barcelona/assets/avatar-866795c99abc33a3160d1f3fa93ada46eb75e54134e777666b9ed16215b26534.png", 
                "erased": false, 
                "hidden": false, 
                "id": 17741, 
                "name": "Suport General3 - Decidim Barcelona", 
                "official": false, 
                "official_level": 0, 
                "role": null, 
                "verified_organization": null
            }, 
            "body": "<p><a href=\"https://decidim.barcelona/proposals/eliminacio-dels-carrils-bici-de-doble-sentit\">https://decidim.barcelona/proposals/eliminacio-dels-carrils-bici-de-doble-sentit</a></p>", 
            "commentable_id": 1123, 
            "commentable_type": "Proposal", 
            "created_at": "09/04/2016 16:35:34", 
            "flagged": false, 
            "hidden": false, 
            "id": 12539, 
            "moderator_id": null, 
            "permissions": {
                "hide": false, 
                "hide_author": false, 
                "vote": false
            }, 
            "total_dislikes": 0, 
            "total_likes": 0, 
            "total_votes": 0
        }, 
        {
            "administrator_id": null, 
            "alignment": 0, 
            "ancestry": null, 
            "as": null, 
            "author": {
                "avatar_image": "https://decidim.barcelona/assets/avatar-866795c99abc33a3160d1f3fa93ada46eb75e54134e777666b9ed16215b26534.png", 
                "erased": false, 
                "hidden": false, 
                "id": 17741, 
                "name": "Suport General3 - Decidim Barcelona", 
                "official": false, 
                "official_level": 0, 
                "role": null, 
                "verified_organization": null
            }, 
            "body": "<p><a href=\"https://decidim.barcelona/proposals/replantegament-dels-carrils-bici-de-doble-sentit-en-carrers-de-sentit-unic-de-circulacio\">https://decidim.barcelona/proposals/replantegament-dels-carrils-bici-de-doble-sentit-en-carrers-de-sentit-unic-de-circulacio</a></p>", 
            "commentable_id": 1123, 
            "commentable_type": "Proposal", 
            "created_at": "09/04/2016 16:38:27", 
            "flagged": false, 
            "hidden": false, 
            "id": 12541, 
            "moderator_id": null, 
            "permissions": {
                "hide": false, 
                "hide_author": false, 
                "vote": false
            }, 
            "total_dislikes": 0, 
            "total_likes": 0, 
            "total_votes": 0
        }, 
        {
            "administrator_id": null, 
            "alignment": 0, 
            "ancestry": null, 
            "as": null, 
            "author": {
                "avatar_image": "https://decidim.barcelona/assets/avatar-866795c99abc33a3160d1f3fa93ada46eb75e54134e777666b9ed16215b26534.png", 
                "erased": false, 
                "hidden": false, 
                "id": 17741, 
                "name": "Suport General3 - Decidim Barcelona", 
                "official": false, 
                "official_level": 0, 
                "role": null, 
                "verified_organization": null
            }, 
            "body": "<p><a href=\"https://decidim.barcelona/proposals/carril-bus-vao-de-la-meridiana-en-un-carril-bici\">https://decidim.barcelona/proposals/carril-bus-vao-de-la-meridiana-en-un-carril-bici</a></p>", 
            "commentable_id": 1123, 
            "commentable_type": "Proposal", 
            "created_at": "09/04/2016 16:38:57", 
            "flagged": false, 
            "hidden": false, 
            "id": 12542, 
            "moderator_id": null, 
            "permissions": {
                "hide": false, 
                "hide_author": false, 
                "vote": false
            }, 
            "total_dislikes": 0, 
            "total_likes": 0, 
            "total_votes": 0
        }, 
        {
            "administrator_id": null, 
            "alignment": 0, 
            "ancestry": null, 
            "as": null, 
            "author": {
                "avatar_image": "https://decidim.barcelona/assets/avatar-866795c99abc33a3160d1f3fa93ada46eb75e54134e777666b9ed16215b26534.png", 
                "erased": false, 
                "hidden": false, 
                "id": 17741, 
                "name": "Suport General3 - Decidim Barcelona", 
                "official": false, 
                "official_level": 0, 
                "role": null, 
                "verified_organization": null
            }, 
            "body": "<p><a href=\"https://decidim.barcelona/proposals/retirar-les-barres-de-pa-i-d-altres-proteccions-dels-carrils-bicis\">https://decidim.barcelona/proposals/retirar-les-barres-de-pa-i-d-altres-proteccions-dels-carrils-bicis</a></p>", 
            "commentable_id": 1123, 
            "commentable_type": "Proposal", 
            "created_at": "09/04/2016 16:39:38", 
            "flagged": false, 
            "hidden": false, 
            "id": 12544, 
            "moderator_id": null, 
            "permissions": {
                "hide": false, 
                "hide_author": false, 
                "vote": false
            }, 
            "total_dislikes": 0, 
            "total_likes": 0, 
            "total_votes": 0
        }, 
        {
            "administrator_id": null, 
            "alignment": 0, 
            "ancestry": null, 
            "as": null, 
            "author": {
                "avatar_image": "https://decidim.barcelona/assets/avatar-866795c99abc33a3160d1f3fa93ada46eb75e54134e777666b9ed16215b26534.png", 
                "erased": false, 
                "hidden": false, 
                "id": 17741, 
                "name": "Suport General3 - Decidim Barcelona", 
                "official": false, 
                "official_level": 0, 
                "role": null, 
                "verified_organization": null
            }, 
            "body": "<p><a href=\"https://decidim.barcelona/proposals/substituir-el-senyal-r-407-via-reservada-para-ciclos-o-via-ciclista\">https://decidim.barcelona/proposals/substituir-el-senyal-r-407-via-reservada-para-ciclos-o-via-ciclista</a></p>", 
            "commentable_id": 1123, 
            "commentable_type": "Proposal", 
            "created_at": "09/04/2016 16:40:11", 
            "flagged": false, 
            "hidden": false, 
            "id": 12545, 
            "moderator_id": null, 
            "permissions": {
                "hide": false, 
                "hide_author": false, 
                "vote": false
            }, 
            "total_dislikes": 0, 
            "total_likes": 0, 
            "total_votes": 0
        }, 
        {
            "administrator_id": null, 
            "alignment": 0, 
            "ancestry": null, 
            "as": null, 
            "author": {
                "avatar_image": "https://decidim.barcelona/assets/avatar-866795c99abc33a3160d1f3fa93ada46eb75e54134e777666b9ed16215b26534.png", 
                "erased": false, 
                "hidden": false, 
                "id": 9262, 
                "name": "Suport General - Decidim Barcelona", 
                "official": false, 
                "official_level": 0, 
                "role": null, 
                "verified_organization": null
            }, 
            "body": "<p><a href=\"https://decidim.barcelona/proposals/pensar-els-carrils-bici-des-del-punt-de-vista-dels-usuaris-de-la-bicicleta\">https://decidim.barcelona/proposals/pensar-els-carrils-bici-des-del-punt-de-vista-dels-usuaris-de-la-bicicleta</a></p>", 
            "commentable_id": 1123, 
            "commentable_type": "Proposal", 
            "created_at": "13/04/2016 17:50:32", 
            "flagged": false, 
            "hidden": false, 
            "id": 15003, 
            "moderator_id": null, 
            "permissions": {
                "hide": false, 
                "hide_author": false, 
                "vote": false
            }, 
            "total_dislikes": 0, 
            "total_likes": 0, 
            "total_votes": 0
        }, 
        {
            "administrator_id": null, 
            "alignment": 0, 
            "ancestry": null, 
            "as": null, 
            "author": {
                "avatar_image": "https://decidim.barcelona/assets/avatar-866795c99abc33a3160d1f3fa93ada46eb75e54134e777666b9ed16215b26534.png", 
                "erased": false, 
                "hidden": false, 
                "id": 9262, 
                "name": "Suport General - Decidim Barcelona", 
                "official": false, 
                "official_level": 0, 
                "role": null, 
                "verified_organization": null
            }, 
            "body": "<p><a href=\"https://decidim.barcelona/proposals/tener-en-cuenta-la-seguridad-de-ciclistas-a-la-hora-de-crear-mejorar-los-carriles-bici\">https://decidim.barcelona/proposals/tener-en-cuenta-la-seguridad-de-ciclistas-a-la-hora-de-crear-mejorar-los-carriles-bici</a></p>", 
            "commentable_id": 1123, 
            "commentable_type": "Proposal", 
            "created_at": "14/04/2016 13:31:32", 
            "flagged": false, 
            "hidden": false, 
            "id": 15601, 
            "moderator_id": null, 
            "permissions": {
                "hide": false, 
                "hide_author": false, 
                "vote": false
            }, 
            "total_dislikes": 0, 
            "total_likes": 0, 
            "total_votes": 0
        }, 
        {
            "administrator_id": null, 
            "alignment": 0, 
            "ancestry": null, 
            "as": null, 
            "author": {
                "avatar_image": "https://decidim.barcelona/assets/avatar-866795c99abc33a3160d1f3fa93ada46eb75e54134e777666b9ed16215b26534.png", 
                "erased": false, 
                "hidden": false, 
                "id": 9262, 
                "name": "Suport General - Decidim Barcelona", 
                "official": false, 
                "official_level": 0, 
                "role": null, 
                "verified_organization": null
            }, 
            "body": "<p><a href=\"https://decidim.barcelona/proposals/carriles-bicis\">https://decidim.barcelona/proposals/carriles-bicis</a></p>", 
            "commentable_id": 1123, 
            "commentable_type": "Proposal", 
            "created_at": "14/04/2016 13:34:27", 
            "flagged": false, 
            "hidden": false, 
            "id": 15607, 
            "moderator_id": null, 
            "permissions": {
                "hide": false, 
                "hide_author": false, 
                "vote": false
            }, 
            "total_dislikes": 0, 
            "total_likes": 0, 
            "total_votes": 0
        }, 
        {
            "administrator_id": null, 
            "alignment": 0, 
            "ancestry": null, 
            "as": null, 
            "author": {
                "avatar_image": "https://decidim.barcelona/assets/avatar-866795c99abc33a3160d1f3fa93ada46eb75e54134e777666b9ed16215b26534.png", 
                "erased": false, 
                "hidden": false, 
                "id": 9262, 
                "name": "Suport General - Decidim Barcelona", 
                "official": false, 
                "official_level": 0, 
                "role": null, 
                "verified_organization": null
            }, 
            "body": "<p><a href=\"https://decidim.barcelona/proposals/els-carrils-bici-en-una-unica-direccio\">https://decidim.barcelona/proposals/els-carrils-bici-en-una-unica-direccio</a></p>", 
            "commentable_id": 1123, 
            "commentable_type": "Proposal", 
            "created_at": "14/04/2016 16:42:12", 
            "flagged": false, 
            "hidden": false, 
            "id": 15965, 
            "moderator_id": null, 
            "permissions": {
                "hide": false, 
                "hide_author": false, 
                "vote": false
            }, 
            "total_dislikes": 0, 
            "total_likes": 0, 
            "total_votes": 0
        }
    ], 
    "meta": {
        "current_page": 3, 
        "next_page": null, 
        "prev_page": 2, 
        "total_count": 53, 
        "total_pages": 3
    }
}