{
    "comments": [
        {
            "administrator_id": null, 
            "alignment": 1, 
            "ancestry": null, 
            "as": null, 
            "author": {
                "avatar_image": "https://decidim.barcelona/assets/avatar-866795c99abc33a3160d1f3fa93ada46eb75e54134e777666b9ed16215b26534.png", 
                "erased": false, 
                "hidden": false, 
                "id": 2491, 
                "name": "Encarna ", 
                "official": false, 
                "official_level": 0, 
                "role": null, 
                "verified_organization": null
            }, 
            "body": "<p>Completament d'acord, els bens p\u00fablics mai en mans privades. Ni electricitat, ni gas, ni aigua...! </p>", 
            "commentable_id": 1155, 
            "commentable_type": "Proposal", 
            "created_at": "09/03/2016 12:14:28", 
            "flagged": false, 
            "hidden": false, 
            "id": 4142, 
            "moderator_id": null, 
            "permissions": {
                "hide": false, 
                "hide_author": false, 
                "vote": false
            }, 
            "total_dislikes": 0, 
            "total_likes": 1, 
            "total_votes": 1
        }, 
        {
            "administrator_id": null, 
            "alignment": 1, 
            "ancestry": null, 
            "as": null, 
            "author": {
                "avatar_image": "https://decidim.barcelona/assets/avatar-866795c99abc33a3160d1f3fa93ada46eb75e54134e777666b9ed16215b26534.png", 
                "erased": false, 
                "hidden": false, 
                "id": 11436, 
                "name": "Marga d'Horta", 
                "official": false, 
                "official_level": 0, 
                "role": null, 
                "verified_organization": null
            }, 
            "body": "<p>No ens quedem amb l'aigua.  Anem m\u00e9s lluny.\n</p>", 
            "commentable_id": 1155, 
            "commentable_type": "Proposal", 
            "created_at": "10/03/2016 16:42:55", 
            "flagged": false, 
            "hidden": false, 
            "id": 4395, 
            "moderator_id": null, 
            "permissions": {
                "hide": false, 
                "hide_author": false, 
                "vote": false
            }, 
            "total_dislikes": 0, 
            "total_likes": 1, 
            "total_votes": 1
        }, 
        {
            "administrator_id": null, 
            "alignment": 1, 
            "ancestry": null, 
            "as": null, 
            "author": {
                "avatar_image": "https://decidim.barcelona/assets/avatar-866795c99abc33a3160d1f3fa93ada46eb75e54134e777666b9ed16215b26534.png", 
                "erased": false, 
                "hidden": false, 
                "id": 10097, 
                "name": "Iso ", 
                "official": false, 
                "official_level": 0, 
                "role": null, 
                "verified_organization": null
            }, 
            "body": "<p>Totalment a favor!</p>", 
            "commentable_id": 1155, 
            "commentable_type": "Proposal", 
            "created_at": "14/03/2016 10:34:29", 
            "flagged": false, 
            "hidden": false, 
            "id": 4756, 
            "moderator_id": null, 
            "permissions": {
                "hide": false, 
                "hide_author": false, 
                "vote": false
            }, 
            "total_dislikes": 0, 
            "total_likes": 1, 
            "total_votes": 1
        }, 
        {
            "administrator_id": null, 
            "alignment": 1, 
            "ancestry": null, 
            "as": null, 
            "author": {
                "avatar_image": "https://decidim.barcelona/assets/avatar-866795c99abc33a3160d1f3fa93ada46eb75e54134e777666b9ed16215b26534.png", 
                "erased": false, 
                "hidden": false, 
                "id": 15300, 
                "name": "oriolrp", 
                "official": false, 
                "official_level": 0, 
                "role": null, 
                "verified_organization": null
            }, 
            "body": "<p>La empresa Musa ens cobra a tots per no fer res, \u00e9s a dir: ens roba (gr\u00e0cies als goberns anteriors). Ja seria hora de retirar-li llic\u00e8ncies i municipalitzar tots els serveis</p>", 
            "commentable_id": 1155, 
            "commentable_type": "Proposal", 
            "created_at": "26/03/2016 14:17:07", 
            "flagged": false, 
            "hidden": false, 
            "id": 6499, 
            "moderator_id": null, 
            "permissions": {
                "hide": false, 
                "hide_author": false, 
                "vote": false
            }, 
            "total_dislikes": 0, 
            "total_likes": 1, 
            "total_votes": 1
        }, 
        {
            "administrator_id": null, 
            "alignment": 1, 
            "ancestry": null, 
            "as": null, 
            "author": {
                "avatar_image": "https://decidim.barcelona/assets/avatar-866795c99abc33a3160d1f3fa93ada46eb75e54134e777666b9ed16215b26534.png", 
                "erased": false, 
                "hidden": false, 
                "id": 10150, 
                "name": "M\u00f2nica Pujol", 
                "official": false, 
                "official_level": 0, 
                "role": null, 
                "verified_organization": null
            }, 
            "body": "<p>T'animes a donar suport?:</p>\n\n<p>RECUPEREM LA LLOTJA:\n<br />Reclamem que l'antiga seu de l\u2019escola d\u2019art La Llotja torni a ser centre p\u00fablic d'experimentaci\u00f3 educativa, de formaci\u00f3, creaci\u00f3, difusi\u00f3 i promoci\u00f3 dels ensenyaments art\u00edstics</p>\n\n<p><a href=\"https://decidim.barcelona/proposals/recuperem-el-borsi\">https://decidim.barcelona/proposals/recuperem-el-borsi</a></p>", 
            "commentable_id": 1155, 
            "commentable_type": "Proposal", 
            "created_at": "06/04/2016 18:48:12", 
            "flagged": false, 
            "hidden": false, 
            "id": 8828, 
            "moderator_id": null, 
            "permissions": {
                "hide": false, 
                "hide_author": false, 
                "vote": false
            }, 
            "total_dislikes": 0, 
            "total_likes": 0, 
            "total_votes": 0
        }, 
        {
            "administrator_id": null, 
            "alignment": -1, 
            "ancestry": null, 
            "as": null, 
            "author": {
                "avatar_image": "https://decidim.barcelona/assets/avatar-866795c99abc33a3160d1f3fa93ada46eb75e54134e777666b9ed16215b26534.png", 
                "erased": false, 
                "hidden": false, 
                "id": 22526, 
                "name": "Xarlio", 
                "official": false, 
                "official_level": 0, 
                "role": null, 
                "verified_organization": null
            }, 
            "body": "<p>Remunicipalitzar?com s'enten aix\u00f2? El servei d'abastament en baixa segons llei \u00e9s municipal i en el cas de Barcelona ho presta una empresa que per cert dona molt bon servei. Quin \u00e9s l'objectiu de tot aix\u00f2? Si no esteu contents amb l'empresa que presta el servei, l'Ajuntament,com a reguladors, perque no fixeu les condicions del servei? Que voleu un gestio directa municipal? Abans de fer aquesta proposta potser que expliqueu com gestionareu el servei, esteu preparats? Amb quin recurs i com ho fareu? Com Arenys de Munt que els darrers anys s'ha passat a gestio municipal i ens van vendre que sense benefici privat ens baixaria la factura i no han fet mes que pujar les tarifes i el servei es pitjor? Sembla que  per alguns senyors de l'Ajuntament \u00e9s una guerra personal contra AGBAR i posen per davant el seu interes personal a l'inter\u00e9s com\u00fa. Aquesta fet \u00e9s greu ja que en la situaci\u00f3 actual malbaratar recursos en alguna cosa que no \u00e9s problematica hem sembla una irresponsabilitat. </p>", 
            "commentable_id": 1155, 
            "commentable_type": "Proposal", 
            "created_at": "09/04/2016 01:04:49", 
            "flagged": false, 
            "hidden": false, 
            "id": 11536, 
            "moderator_id": null, 
            "permissions": {
                "hide": false, 
                "hide_author": false, 
                "vote": false
            }, 
            "total_dislikes": 0, 
            "total_likes": 0, 
            "total_votes": 0
        }
    ], 
    "meta": {
        "current_page": 2, 
        "next_page": null, 
        "prev_page": 1, 
        "total_count": 26, 
        "total_pages": 2
    }
}