{
    "comments": [
        {
            "administrator_id": null, 
            "alignment": 1, 
            "ancestry": null, 
            "as": null, 
            "author": {
                "avatar_image": "https://decidim.barcelona/assets/avatar-866795c99abc33a3160d1f3fa93ada46eb75e54134e777666b9ed16215b26534.png", 
                "erased": false, 
                "hidden": false, 
                "id": 179, 
                "name": "Susanna", 
                "official": false, 
                "official_level": 0, 
                "role": null, 
                "verified_organization": null
            }, 
            "body": "<p>\u00c9s un punt important\u00edssim i el cam\u00ed que grans ciutats han seguit.</p>", 
            "commentable_id": 1155, 
            "commentable_type": "Proposal", 
            "created_at": "02/02/2016 09:54:25", 
            "flagged": false, 
            "hidden": false, 
            "id": 170, 
            "moderator_id": null, 
            "permissions": {
                "hide": false, 
                "hide_author": false, 
                "vote": false
            }, 
            "total_dislikes": 0, 
            "total_likes": 14, 
            "total_votes": 14
        }, 
        {
            "administrator_id": null, 
            "alignment": 1, 
            "ancestry": null, 
            "as": null, 
            "author": {
                "avatar_image": "https://decidim.barcelona/assets/avatar-866795c99abc33a3160d1f3fa93ada46eb75e54134e777666b9ed16215b26534.png", 
                "erased": false, 
                "hidden": false, 
                "id": 1059, 
                "name": "Pol A.", 
                "official": false, 
                "official_level": 0, 
                "role": null, 
                "verified_organization": null
            }, 
            "body": "<p>Molt a favor!</p>", 
            "commentable_id": 1155, 
            "commentable_type": "Proposal", 
            "created_at": "02/02/2016 17:38:04", 
            "flagged": false, 
            "hidden": false, 
            "id": 305, 
            "moderator_id": null, 
            "permissions": {
                "hide": false, 
                "hide_author": false, 
                "vote": false
            }, 
            "total_dislikes": 0, 
            "total_likes": 6, 
            "total_votes": 6
        }, 
        {
            "administrator_id": null, 
            "alignment": 1, 
            "ancestry": null, 
            "as": null, 
            "author": {
                "avatar_image": "https://decidim.barcelona/assets/avatar-866795c99abc33a3160d1f3fa93ada46eb75e54134e777666b9ed16215b26534.png", 
                "erased": false, 
                "hidden": false, 
                "id": 56, 
                "name": "Mui", 
                "official": false, 
                "official_level": 0, 
                "role": null, 
                "verified_organization": null
            }, 
            "body": "<p>B\u00e0sic!</p>", 
            "commentable_id": 1155, 
            "commentable_type": "Proposal", 
            "created_at": "04/02/2016 10:19:03", 
            "flagged": false, 
            "hidden": false, 
            "id": 568, 
            "moderator_id": null, 
            "permissions": {
                "hide": false, 
                "hide_author": false, 
                "vote": false
            }, 
            "total_dislikes": 0, 
            "total_likes": 3, 
            "total_votes": 3
        }, 
        {
            "administrator_id": null, 
            "alignment": 1, 
            "ancestry": null, 
            "as": null, 
            "author": {
                "avatar_image": "https://decidim.barcelona/assets/avatar-866795c99abc33a3160d1f3fa93ada46eb75e54134e777666b9ed16215b26534.png", 
                "erased": false, 
                "hidden": false, 
                "id": 2613, 
                "name": "XaviP", 
                "official": false, 
                "official_level": 0, 
                "role": null, 
                "verified_organization": null
            }, 
            "body": "<p>L'aigua \u00e9s de tots, la gesti\u00f3 tamb\u00e9 ho ha de ser, i garantir el servei a persones sense recursos.</p>", 
            "commentable_id": 1155, 
            "commentable_type": "Proposal", 
            "created_at": "05/02/2016 19:02:17", 
            "flagged": false, 
            "hidden": false, 
            "id": 842, 
            "moderator_id": null, 
            "permissions": {
                "hide": false, 
                "hide_author": false, 
                "vote": false
            }, 
            "total_dislikes": 0, 
            "total_likes": 10, 
            "total_votes": 10
        }, 
        {
            "administrator_id": null, 
            "alignment": 1, 
            "ancestry": null, 
            "as": null, 
            "author": {
                "avatar_image": "https://decidim.barcelona/assets/avatar-866795c99abc33a3160d1f3fa93ada46eb75e54134e777666b9ed16215b26534.png", 
                "erased": false, 
                "hidden": false, 
                "id": 2943, 
                "name": "CarlesF", 
                "official": false, 
                "official_level": 0, 
                "role": null, 
                "verified_organization": null
            }, 
            "body": "<p> Els bens publics mai no haurien de ser en mans privades. Les necessitats b\u00e0siques no poden ser un negoci.</p>", 
            "commentable_id": 1155, 
            "commentable_type": "Proposal", 
            "created_at": "07/02/2016 01:42:58", 
            "flagged": false, 
            "hidden": false, 
            "id": 1018, 
            "moderator_id": null, 
            "permissions": {
                "hide": false, 
                "hide_author": false, 
                "vote": false
            }, 
            "total_dislikes": 0, 
            "total_likes": 12, 
            "total_votes": 12
        }, 
        {
            "administrator_id": null, 
            "alignment": 0, 
            "ancestry": null, 
            "as": null, 
            "author": {
                "avatar_image": "https://decidim.barcelona/assets/avatar-866795c99abc33a3160d1f3fa93ada46eb75e54134e777666b9ed16215b26534.png", 
                "erased": false, 
                "hidden": false, 
                "id": 3112, 
                "name": "Mingo", 
                "official": false, 
                "official_level": 0, 
                "role": null, 
                "verified_organization": null
            }, 
            "body": "<p>quin municipi seria propietari de l'aigua?</p>", 
            "commentable_id": 1155, 
            "commentable_type": "Proposal", 
            "created_at": "07/02/2016 22:14:59", 
            "flagged": false, 
            "hidden": false, 
            "id": 1109, 
            "moderator_id": null, 
            "permissions": {
                "hide": false, 
                "hide_author": false, 
                "vote": false
            }, 
            "total_dislikes": 0, 
            "total_likes": 0, 
            "total_votes": 0
        }, 
        {
            "administrator_id": null, 
            "alignment": 0, 
            "ancestry": null, 
            "as": null, 
            "author": {
                "avatar_image": "https://decidim.barcelona/assets/avatar-866795c99abc33a3160d1f3fa93ada46eb75e54134e777666b9ed16215b26534.png", 
                "erased": false, 
                "hidden": false, 
                "id": 3592, 
                "name": "Alfredo cano", 
                "official": false, 
                "official_level": 0, 
                "role": null, 
                "verified_organization": null
            }, 
            "body": "<p>El agua es un bien com\u00fan, no es un articulo de lujo de consumo opcional, asi  que no puede ser gestionada de forma privada donde lo que prima es el lucro privado.</p>", 
            "commentable_id": 1155, 
            "commentable_type": "Proposal", 
            "created_at": "08/02/2016 21:53:21", 
            "flagged": false, 
            "hidden": false, 
            "id": 1213, 
            "moderator_id": null, 
            "permissions": {
                "hide": false, 
                "hide_author": false, 
                "vote": false
            }, 
            "total_dislikes": 0, 
            "total_likes": 2, 
            "total_votes": 2
        }, 
        {
            "administrator_id": null, 
            "alignment": 1, 
            "ancestry": null, 
            "as": null, 
            "author": {
                "avatar_image": "https://decidim.barcelona/assets/avatar-866795c99abc33a3160d1f3fa93ada46eb75e54134e777666b9ed16215b26534.png", 
                "erased": false, 
                "hidden": false, 
                "id": 3656, 
                "name": "Eduardo", 
                "official": false, 
                "official_level": 0, 
                "role": null, 
                "verified_organization": null
            }, 
            "body": "<p>Sin lugar a dudas. Los servicios esenciales y el agua en primer lugar, en manos  de la gesti\u00f3n p\u00fablica.</p>", 
            "commentable_id": 1155, 
            "commentable_type": "Proposal", 
            "created_at": "08/02/2016 23:10:23", 
            "flagged": false, 
            "hidden": false, 
            "id": 1219, 
            "moderator_id": null, 
            "permissions": {
                "hide": false, 
                "hide_author": false, 
                "vote": false
            }, 
            "total_dislikes": 0, 
            "total_likes": 3, 
            "total_votes": 3
        }, 
        {
            "administrator_id": null, 
            "alignment": 1, 
            "ancestry": null, 
            "as": null, 
            "author": {
                "avatar_image": "https://decidim.barcelona/assets/avatar-866795c99abc33a3160d1f3fa93ada46eb75e54134e777666b9ed16215b26534.png", 
                "erased": false, 
                "hidden": false, 
                "id": 1042, 
                "name": "Am\u00e0lia Tarr\u00e9s", 
                "official": false, 
                "official_level": 0, 
                "role": null, 
                "verified_organization": null
            }, 
            "body": "<p>L'aigua, la llum i el gas mai haurien d'haver estat en mans d'empreses privades. Hauria de ser un b\u00e9 p\u00fablic perqu\u00e8 s\u00f3n necessitats b\u00e0siques i perqu\u00e8 \u00e9s un dret de ciutadania.</p>", 
            "commentable_id": 1155, 
            "commentable_type": "Proposal", 
            "created_at": "09/02/2016 09:02:41", 
            "flagged": false, 
            "hidden": false, 
            "id": 1238, 
            "moderator_id": null, 
            "permissions": {
                "hide": false, 
                "hide_author": false, 
                "vote": false
            }, 
            "total_dislikes": 0, 
            "total_likes": 3, 
            "total_votes": 3
        }, 
        {
            "administrator_id": null, 
            "alignment": 1, 
            "ancestry": null, 
            "as": null, 
            "author": {
                "avatar_image": "https://decidim.barcelona/assets/avatar-866795c99abc33a3160d1f3fa93ada46eb75e54134e777666b9ed16215b26534.png", 
                "erased": false, 
                "hidden": false, 
                "id": 4329, 
                "name": "Meritxell Martinez", 
                "official": false, 
                "official_level": 0, 
                "role": null, 
                "verified_organization": null
            }, 
            "body": "<p>Els bens publics mai no haurien de ser en mans privades. Les necessitats b\u00e0siques no poden ser un negoci.</p>", 
            "commentable_id": 1155, 
            "commentable_type": "Proposal", 
            "created_at": "10/02/2016 11:03:59", 
            "flagged": false, 
            "hidden": false, 
            "id": 1413, 
            "moderator_id": null, 
            "permissions": {
                "hide": false, 
                "hide_author": false, 
                "vote": false
            }, 
            "total_dislikes": 0, 
            "total_likes": 3, 
            "total_votes": 3
        }, 
        {
            "administrator_id": null, 
            "alignment": 1, 
            "ancestry": null, 
            "as": null, 
            "author": {
                "avatar_image": "https://decidim.barcelona/assets/avatar-866795c99abc33a3160d1f3fa93ada46eb75e54134e777666b9ed16215b26534.png", 
                "erased": false, 
                "hidden": false, 
                "id": 4422, 
                "name": "Smielyi", 
                "official": false, 
                "official_level": 0, 
                "role": null, 
                "verified_organization": null
            }, 
            "body": "<p>L'aigua \u00e9s un b\u00e9 estrat\u00e8gic, per aix\u00f2 les companyies volen tenir el control; control \u00e9s poder. \n<br />Per aquest motiu, l'aigua ha d'\u00e9sser patrimoni de la ciutadania i nom\u00e9s de gesti\u00f3 p\u00fablica \"vital\u00edcia\"</p>", 
            "commentable_id": 1155, 
            "commentable_type": "Proposal", 
            "created_at": "10/02/2016 14:12:25", 
            "flagged": false, 
            "hidden": false, 
            "id": 1424, 
            "moderator_id": null, 
            "permissions": {
                "hide": false, 
                "hide_author": false, 
                "vote": false
            }, 
            "total_dislikes": 0, 
            "total_likes": 3, 
            "total_votes": 3
        }, 
        {
            "administrator_id": null, 
            "alignment": 0, 
            "ancestry": null, 
            "as": null, 
            "author": {
                "avatar_image": "https://decidim.barcelona/assets/avatar-866795c99abc33a3160d1f3fa93ada46eb75e54134e777666b9ed16215b26534.png", 
                "erased": false, 
                "hidden": false, 
                "id": 4507, 
                "name": "AURELIO", 
                "official": false, 
                "official_level": 0, 
                "role": null, 
                "verified_organization": null
            }, 
            "body": "<p>considero que tenemos que conseguir entre todos que el agua sea un bien publico y de primera necesidad,ya que con el cambio climatico que se esta produciendo dentro de unos a\u00f1os sera el equivalente al petroleo por ejemplo</p>", 
            "commentable_id": 1155, 
            "commentable_type": "Proposal", 
            "created_at": "10/02/2016 18:38:50", 
            "flagged": false, 
            "hidden": false, 
            "id": 1457, 
            "moderator_id": null, 
            "permissions": {
                "hide": false, 
                "hide_author": false, 
                "vote": false
            }, 
            "total_dislikes": 0, 
            "total_likes": 1, 
            "total_votes": 1
        }, 
        {
            "administrator_id": null, 
            "alignment": 1, 
            "ancestry": null, 
            "as": null, 
            "author": {
                "avatar_image": "https://decidim.barcelona/assets/avatar-866795c99abc33a3160d1f3fa93ada46eb75e54134e777666b9ed16215b26534.png", 
                "erased": false, 
                "hidden": false, 
                "id": 4848, 
                "name": "Juanjo Valc\u00e1rcel", 
                "official": false, 
                "official_level": 0, 
                "role": null, 
                "verified_organization": null
            }, 
            "body": "<p>Aigua de tothom per tothom</p>", 
            "commentable_id": 1155, 
            "commentable_type": "Proposal", 
            "created_at": "11/02/2016 16:53:07", 
            "flagged": false, 
            "hidden": false, 
            "id": 1533, 
            "moderator_id": null, 
            "permissions": {
                "hide": false, 
                "hide_author": false, 
                "vote": false
            }, 
            "total_dislikes": 0, 
            "total_likes": 2, 
            "total_votes": 2
        }, 
        {
            "administrator_id": null, 
            "alignment": 1, 
            "ancestry": null, 
            "as": null, 
            "author": {
                "avatar_image": "https://decidim.barcelona/assets/avatar-866795c99abc33a3160d1f3fa93ada46eb75e54134e777666b9ed16215b26534.png", 
                "erased": false, 
                "hidden": false, 
                "id": 5185, 
                "name": "Marino", 
                "official": false, 
                "official_level": 0, 
                "role": null, 
                "verified_organization": null
            }, 
            "body": "<p>El agua es un bien p\u00fablico no puede estar en manos privadas. Ya esta bien que unos pocos se lucren con lo de todos. Empecemos a evitarlo, empecemos desprivatizando el agua.</p>", 
            "commentable_id": 1155, 
            "commentable_type": "Proposal", 
            "created_at": "12/02/2016 22:50:00", 
            "flagged": false, 
            "hidden": false, 
            "id": 1673, 
            "moderator_id": null, 
            "permissions": {
                "hide": false, 
                "hide_author": false, 
                "vote": false
            }, 
            "total_dislikes": 0, 
            "total_likes": 3, 
            "total_votes": 3
        }, 
        {
            "administrator_id": null, 
            "alignment": 1, 
            "ancestry": null, 
            "as": null, 
            "author": {
                "avatar_image": "https://decidim.barcelona/assets/avatar-866795c99abc33a3160d1f3fa93ada46eb75e54134e777666b9ed16215b26534.png", 
                "erased": false, 
                "hidden": false, 
                "id": 5296, 
                "name": "joanpallaresg", 
                "official": false, 
                "official_level": 0, 
                "role": null, 
                "verified_organization": null
            }, 
            "body": "<p>L'aigua \u00e9s vida. L'agua \u00e9s una necessitat b\u00e0sica i l'acc\u00e9s al seu subministrament  \u00e9s un dret fonamental que no pot estar sotm\u00e8s als interessos de l'activitat privada.</p>", 
            "commentable_id": 1155, 
            "commentable_type": "Proposal", 
            "created_at": "13/02/2016 22:41:49", 
            "flagged": false, 
            "hidden": false, 
            "id": 1734, 
            "moderator_id": null, 
            "permissions": {
                "hide": false, 
                "hide_author": false, 
                "vote": false
            }, 
            "total_dislikes": 0, 
            "total_likes": 2, 
            "total_votes": 2
        }, 
        {
            "administrator_id": null, 
            "alignment": -1, 
            "ancestry": null, 
            "as": null, 
            "author": {
                "avatar_image": "https://decidim.barcelona/assets/avatar-866795c99abc33a3160d1f3fa93ada46eb75e54134e777666b9ed16215b26534.png", 
                "erased": false, 
                "hidden": false, 
                "id": 6750, 
                "name": "jordi v", 
                "official": false, 
                "official_level": 0, 
                "role": null, 
                "verified_organization": null
            }, 
            "body": "<p>No per municipalitzar el servei ser\u00e0 ni millor, ni m\u00e9s eficient ...ni l'aigua m\u00e9s barata, per que no parlem de \"desprivatitzar\" ATLL? O l'aigua en alata no interessa......i les societats \"buides\" com ATLL operadora que emprea Acciona....???</p>", 
            "commentable_id": 1155, 
            "commentable_type": "Proposal", 
            "created_at": "19/02/2016 12:52:54", 
            "flagged": false, 
            "hidden": false, 
            "id": 2147, 
            "moderator_id": null, 
            "permissions": {
                "hide": false, 
                "hide_author": false, 
                "vote": false
            }, 
            "total_dislikes": 2, 
            "total_likes": 1, 
            "total_votes": 3
        }, 
        {
            "administrator_id": null, 
            "alignment": -1, 
            "ancestry": null, 
            "as": null, 
            "author": {
                "avatar_image": "https://decidim.barcelona/assets/avatar-866795c99abc33a3160d1f3fa93ada46eb75e54134e777666b9ed16215b26534.png", 
                "erased": false, 
                "hidden": false, 
                "id": 6776, 
                "name": "vincent g", 
                "official": false, 
                "official_level": 0, 
                "role": null, 
                "verified_organization": null
            }, 
            "body": "<p>L'aigua ha de ser ben gestionada a mig termini, i no ser sujeta a canvis politics cada 4 anys. Nom\u00e9s la bona gestio pot garantir bons preus, i bona qualitat. No crec que si posem politics al capdamunt d'empreses publiques tindrem m\u00e9s garanties. Ho veig un debat ideologic. </p>", 
            "commentable_id": 1155, 
            "commentable_type": "Proposal", 
            "created_at": "19/02/2016 14:34:59", 
            "flagged": false, 
            "hidden": false, 
            "id": 2166, 
            "moderator_id": null, 
            "permissions": {
                "hide": false, 
                "hide_author": false, 
                "vote": false
            }, 
            "total_dislikes": 4, 
            "total_likes": 2, 
            "total_votes": 6
        }, 
        {
            "administrator_id": null, 
            "alignment": -1, 
            "ancestry": null, 
            "as": null, 
            "author": {
                "avatar_image": "https://decidim.barcelona/assets/avatar-866795c99abc33a3160d1f3fa93ada46eb75e54134e777666b9ed16215b26534.png", 
                "erased": false, 
                "hidden": false, 
                "id": 6750, 
                "name": "jordi v", 
                "official": false, 
                "official_level": 0, 
                "role": null, 
                "verified_organization": null
            }, 
            "body": "<p>Agbar dona un bon servei, i te un Fons Social per ajudar als desfavorits...no crec que aquest sigui un problema real a Bcn </p>", 
            "commentable_id": 1155, 
            "commentable_type": "Proposal", 
            "created_at": "25/02/2016 17:15:28", 
            "flagged": false, 
            "hidden": false, 
            "id": 2732, 
            "moderator_id": null, 
            "permissions": {
                "hide": false, 
                "hide_author": false, 
                "vote": false
            }, 
            "total_dislikes": 6, 
            "total_likes": 0, 
            "total_votes": 6
        }, 
        {
            "administrator_id": null, 
            "alignment": 1, 
            "ancestry": null, 
            "as": null, 
            "author": {
                "avatar_image": "https://decidim.barcelona/assets/avatar-866795c99abc33a3160d1f3fa93ada46eb75e54134e777666b9ed16215b26534.png", 
                "erased": false, 
                "hidden": false, 
                "id": 9821, 
                "name": "marina puig", 
                "official": false, 
                "official_level": 0, 
                "role": null, 
                "verified_organization": null
            }, 
            "body": "<p>\u00c9s de calaix. Els recursos comuns, han de ser p\u00fablics, perqu\u00e8 s\u00f3n de tots, i amb bons t\u00e8cnics i l\u00edders que ho gestionin!</p>", 
            "commentable_id": 1155, 
            "commentable_type": "Proposal", 
            "created_at": "01/03/2016 20:53:21", 
            "flagged": false, 
            "hidden": false, 
            "id": 3239, 
            "moderator_id": null, 
            "permissions": {
                "hide": false, 
                "hide_author": false, 
                "vote": false
            }, 
            "total_dislikes": 0, 
            "total_likes": 1, 
            "total_votes": 1
        }, 
        {
            "administrator_id": null, 
            "alignment": 1, 
            "ancestry": null, 
            "as": null, 
            "author": {
                "avatar_image": "https://decidim.barcelona/assets/avatar-866795c99abc33a3160d1f3fa93ada46eb75e54134e777666b9ed16215b26534.png", 
                "erased": false, 
                "hidden": false, 
                "id": 5055, 
                "name": "tania", 
                "official": false, 
                "official_level": 0, 
                "role": null, 
                "verified_organization": null
            }, 
            "body": "<p>L'aigua \u00e9s imprescindible per totes i tots, i \u00e9s bo que ens co-responsabilitzem de la seva gesti\u00f3. </p>", 
            "commentable_id": 1155, 
            "commentable_type": "Proposal", 
            "created_at": "03/03/2016 01:22:42", 
            "flagged": false, 
            "hidden": false, 
            "id": 3401, 
            "moderator_id": null, 
            "permissions": {
                "hide": false, 
                "hide_author": false, 
                "vote": false
            }, 
            "total_dislikes": 0, 
            "total_likes": 1, 
            "total_votes": 1
        }, 
        {
            "administrator_id": null, 
            "alignment": null, 
            "ancestry": "1109", 
            "as": null, 
            "author": {
                "avatar_image": "https://decidim.barcelona/assets/avatar-866795c99abc33a3160d1f3fa93ada46eb75e54134e777666b9ed16215b26534.png", 
                "erased": false, 
                "hidden": false, 
                "id": 5185, 
                "name": "Marino", 
                "official": false, 
                "official_level": 0, 
                "role": null, 
                "verified_organization": null
            }, 
            "body": "<p>Qu\u00e9 municipio? Lo que debe estar claro es que el agua no puede ser gestionada por un empresa, entidad o sociedad privada. Un bien p\u00fablico debe ser p\u00fablico. Empecemos a evitar que unos cuantos se beneficien a costa de los dem\u00e1s. No todo tiene que ser negocio.</p>", 
            "commentable_id": 1155, 
            "commentable_type": "Proposal", 
            "created_at": "12/02/2016 22:55:54", 
            "flagged": false, 
            "hidden": false, 
            "id": 1674, 
            "moderator_id": null, 
            "permissions": {
                "hide": false, 
                "hide_author": false, 
                "vote": false
            }, 
            "total_dislikes": 0, 
            "total_likes": 2, 
            "total_votes": 2
        }, 
        {
            "administrator_id": null, 
            "alignment": null, 
            "ancestry": "1238", 
            "as": null, 
            "author": {
                "avatar_image": "https://decidim.barcelona/assets/avatar-866795c99abc33a3160d1f3fa93ada46eb75e54134e777666b9ed16215b26534.png", 
                "erased": false, 
                "hidden": false, 
                "id": 5185, 
                "name": "Marino", 
                "official": false, 
                "official_level": 0, 
                "role": null, 
                "verified_organization": null
            }, 
            "body": "<p>Estoy totalmente de acuerdo. No todo tiene que ser negocio. Lo bienes y los derechos sociales no pueden ser un negocio.\n<br />Sanidad y Salud\n<br />Energ\u00edas\n<br />Educaci\u00f3n\n<br />Justicia\n<br />Algunas de la necesidades sociales que no pueden ser negocio.</p>", 
            "commentable_id": 1155, 
            "commentable_type": "Proposal", 
            "created_at": "12/02/2016 23:01:08", 
            "flagged": false, 
            "hidden": false, 
            "id": 1675, 
            "moderator_id": null, 
            "permissions": {
                "hide": false, 
                "hide_author": false, 
                "vote": false
            }, 
            "total_dislikes": 0, 
            "total_likes": 1, 
            "total_votes": 1
        }, 
        {
            "administrator_id": null, 
            "alignment": null, 
            "ancestry": "2147", 
            "as": null, 
            "author": {
                "avatar_image": "https://decidim.barcelona/assets/avatar-866795c99abc33a3160d1f3fa93ada46eb75e54134e777666b9ed16215b26534.png", 
                "erased": false, 
                "hidden": false, 
                "id": 368, 
                "name": "Joaquim Navarro", 
                "official": false, 
                "official_level": 0, 
                "role": null, 
                "verified_organization": null
            }, 
            "body": "<p>\u00c9s clar, Agbar fa el seu servei gratu\u00eftament, no ser\u00e0 m\u00e9s barat perque no existeixen beneficis empresarials no? Au va!</p>", 
            "commentable_id": 1155, 
            "commentable_type": "Proposal", 
            "created_at": "21/03/2016 14:27:46", 
            "flagged": false, 
            "hidden": false, 
            "id": 6133, 
            "moderator_id": null, 
            "permissions": {
                "hide": false, 
                "hide_author": false, 
                "vote": false
            }, 
            "total_dislikes": 0, 
            "total_likes": 1, 
            "total_votes": 1
        }
    ], 
    "meta": {
        "current_page": 1, 
        "next_page": 2, 
        "prev_page": null, 
        "total_count": 26, 
        "total_pages": 2
    }
}