{
    "comments": [
        {
            "administrator_id": null, 
            "alignment": 0, 
            "ancestry": null, 
            "as": null, 
            "author": {
                "avatar_image": "https://decidim.barcelona/assets/avatar-866795c99abc33a3160d1f3fa93ada46eb75e54134e777666b9ed16215b26534.png", 
                "erased": false, 
                "hidden": false, 
                "id": 9262, 
                "name": "Suport General - Decidim Barcelona", 
                "official": false, 
                "official_level": 0, 
                "role": null, 
                "verified_organization": null
            }, 
            "body": "<p><a href=\"https://decidim.barcelona/proposals/restringir-el-acceso-de-la-ciudad-a-los-coches\">https://decidim.barcelona/proposals/restringir-el-acceso-de-la-ciudad-a-los-coches</a></p>", 
            "commentable_id": 1161, 
            "commentable_type": "Proposal", 
            "created_at": "14/04/2016 10:47:19", 
            "flagged": false, 
            "hidden": false, 
            "id": 15246, 
            "moderator_id": null, 
            "permissions": {
                "hide": false, 
                "hide_author": false, 
                "vote": false
            }, 
            "total_dislikes": 0, 
            "total_likes": 0, 
            "total_votes": 0
        }, 
        {
            "administrator_id": null, 
            "alignment": 0, 
            "ancestry": null, 
            "as": null, 
            "author": {
                "avatar_image": "https://decidim.barcelona/assets/avatar-866795c99abc33a3160d1f3fa93ada46eb75e54134e777666b9ed16215b26534.png", 
                "erased": false, 
                "hidden": false, 
                "id": 9262, 
                "name": "Suport General - Decidim Barcelona", 
                "official": false, 
                "official_level": 0, 
                "role": null, 
                "verified_organization": null
            }, 
            "body": "<p><a href=\"https://decidim.barcelona/proposals/treure-totes-les-motos-de-les-voreres\">https://decidim.barcelona/proposals/treure-totes-les-motos-de-les-voreres</a></p>", 
            "commentable_id": 1161, 
            "commentable_type": "Proposal", 
            "created_at": "14/04/2016 11:04:32", 
            "flagged": false, 
            "hidden": false, 
            "id": 15289, 
            "moderator_id": null, 
            "permissions": {
                "hide": false, 
                "hide_author": false, 
                "vote": false
            }, 
            "total_dislikes": 0, 
            "total_likes": 0, 
            "total_votes": 0
        }, 
        {
            "administrator_id": null, 
            "alignment": 0, 
            "ancestry": null, 
            "as": null, 
            "author": {
                "avatar_image": "https://decidim.barcelona/assets/avatar-866795c99abc33a3160d1f3fa93ada46eb75e54134e777666b9ed16215b26534.png", 
                "erased": false, 
                "hidden": false, 
                "id": 9262, 
                "name": "Suport General - Decidim Barcelona", 
                "official": false, 
                "official_level": 0, 
                "role": null, 
                "verified_organization": null
            }, 
            "body": "<p><a href=\"https://decidim.barcelona/proposals/ni-un-cotxe-aparcat-al-carrer-el-2035\">https://decidim.barcelona/proposals/ni-un-cotxe-aparcat-al-carrer-el-2035</a></p>", 
            "commentable_id": 1161, 
            "commentable_type": "Proposal", 
            "created_at": "14/04/2016 11:15:49", 
            "flagged": false, 
            "hidden": false, 
            "id": 15323, 
            "moderator_id": null, 
            "permissions": {
                "hide": false, 
                "hide_author": false, 
                "vote": false
            }, 
            "total_dislikes": 0, 
            "total_likes": 0, 
            "total_votes": 0
        }, 
        {
            "administrator_id": null, 
            "alignment": 0, 
            "ancestry": null, 
            "as": null, 
            "author": {
                "avatar_image": "https://decidim.barcelona/assets/avatar-866795c99abc33a3160d1f3fa93ada46eb75e54134e777666b9ed16215b26534.png", 
                "erased": false, 
                "hidden": false, 
                "id": 9262, 
                "name": "Suport General - Decidim Barcelona", 
                "official": false, 
                "official_level": 0, 
                "role": null, 
                "verified_organization": null
            }, 
            "body": "<p><a href=\"https://decidim.barcelona/proposals/la-calle-no-solo-para-los-coches-tambien-para-las-personas\">https://decidim.barcelona/proposals/la-calle-no-solo-para-los-coches-tambien-para-las-personas</a></p>", 
            "commentable_id": 1161, 
            "commentable_type": "Proposal", 
            "created_at": "14/04/2016 11:21:46", 
            "flagged": false, 
            "hidden": false, 
            "id": 15338, 
            "moderator_id": null, 
            "permissions": {
                "hide": false, 
                "hide_author": false, 
                "vote": false
            }, 
            "total_dislikes": 0, 
            "total_likes": 0, 
            "total_votes": 0
        }, 
        {
            "administrator_id": null, 
            "alignment": 0, 
            "ancestry": null, 
            "as": null, 
            "author": {
                "avatar_image": "https://decidim.barcelona/assets/avatar-866795c99abc33a3160d1f3fa93ada46eb75e54134e777666b9ed16215b26534.png", 
                "erased": false, 
                "hidden": false, 
                "id": 9262, 
                "name": "Suport General - Decidim Barcelona", 
                "official": false, 
                "official_level": 0, 
                "role": null, 
                "verified_organization": null
            }, 
            "body": "<p><a href=\"https://decidim.barcelona/proposals/zona-verde-de-aparcamiento-en-trinitat-nova-gratis-para-los-vecinos\">https://decidim.barcelona/proposals/zona-verde-de-aparcamiento-en-trinitat-nova-gratis-para-los-vecinos</a></p>", 
            "commentable_id": 1161, 
            "commentable_type": "Proposal", 
            "created_at": "14/04/2016 13:47:54", 
            "flagged": false, 
            "hidden": false, 
            "id": 15653, 
            "moderator_id": null, 
            "permissions": {
                "hide": false, 
                "hide_author": false, 
                "vote": false
            }, 
            "total_dislikes": 0, 
            "total_likes": 0, 
            "total_votes": 0
        }, 
        {
            "administrator_id": null, 
            "alignment": 0, 
            "ancestry": null, 
            "as": null, 
            "author": {
                "avatar_image": "https://decidim.barcelona/assets/avatar-866795c99abc33a3160d1f3fa93ada46eb75e54134e777666b9ed16215b26534.png", 
                "erased": false, 
                "hidden": false, 
                "id": 9262, 
                "name": "Suport General - Decidim Barcelona", 
                "official": false, 
                "official_level": 0, 
                "role": null, 
                "verified_organization": null
            }, 
            "body": "<p><a href=\"https://decidim.barcelona/proposals/targeta-combinada-transporte-publico-y-parking\">https://decidim.barcelona/proposals/targeta-combinada-transporte-publico-y-parking</a></p>", 
            "commentable_id": 1161, 
            "commentable_type": "Proposal", 
            "created_at": "14/04/2016 16:13:21", 
            "flagged": false, 
            "hidden": false, 
            "id": 15880, 
            "moderator_id": null, 
            "permissions": {
                "hide": false, 
                "hide_author": false, 
                "vote": false
            }, 
            "total_dislikes": 0, 
            "total_likes": 0, 
            "total_votes": 0
        }, 
        {
            "administrator_id": null, 
            "alignment": 0, 
            "ancestry": null, 
            "as": null, 
            "author": {
                "avatar_image": "https://decidim.barcelona/assets/avatar-866795c99abc33a3160d1f3fa93ada46eb75e54134e777666b9ed16215b26534.png", 
                "erased": false, 
                "hidden": false, 
                "id": 9262, 
                "name": "Suport General - Decidim Barcelona", 
                "official": false, 
                "official_level": 0, 
                "role": null, 
                "verified_organization": null
            }, 
            "body": "<p><a href=\"https://decidim.barcelona/proposals/establir-un-sistema-d-aparcaments-a-les-entrades-de-la-ciutat-com-a-enllac-amb-el-transport-public\">https://decidim.barcelona/proposals/establir-un-sistema-d-aparcaments-a-les-entrades-de-la-ciutat-com-a-enllac-amb-el-transport-public</a></p>", 
            "commentable_id": 1161, 
            "commentable_type": "Proposal", 
            "created_at": "14/04/2016 16:41:06", 
            "flagged": false, 
            "hidden": false, 
            "id": 15962, 
            "moderator_id": null, 
            "permissions": {
                "hide": false, 
                "hide_author": false, 
                "vote": false
            }, 
            "total_dislikes": 0, 
            "total_likes": 0, 
            "total_votes": 0
        }, 
        {
            "administrator_id": null, 
            "alignment": 0, 
            "ancestry": null, 
            "as": null, 
            "author": {
                "avatar_image": "https://decidim.barcelona/assets/avatar-866795c99abc33a3160d1f3fa93ada46eb75e54134e777666b9ed16215b26534.png", 
                "erased": false, 
                "hidden": false, 
                "id": 9262, 
                "name": "Suport General - Decidim Barcelona", 
                "official": false, 
                "official_level": 0, 
                "role": null, 
                "verified_organization": null
            }, 
            "body": "<p><a href=\"https://decidim.barcelona/proposals/instaurar-la-taxa-d-entrada-vehicles-a-la-ciutat\">https://decidim.barcelona/proposals/instaurar-la-taxa-d-entrada-vehicles-a-la-ciutat</a></p>", 
            "commentable_id": 1161, 
            "commentable_type": "Proposal", 
            "created_at": "14/04/2016 16:47:52", 
            "flagged": false, 
            "hidden": false, 
            "id": 15979, 
            "moderator_id": null, 
            "permissions": {
                "hide": false, 
                "hide_author": false, 
                "vote": false
            }, 
            "total_dislikes": 0, 
            "total_likes": 0, 
            "total_votes": 0
        }, 
        {
            "administrator_id": null, 
            "alignment": 0, 
            "ancestry": null, 
            "as": null, 
            "author": {
                "avatar_image": "https://decidim.barcelona/assets/avatar-866795c99abc33a3160d1f3fa93ada46eb75e54134e777666b9ed16215b26534.png", 
                "erased": false, 
                "hidden": false, 
                "id": 9262, 
                "name": "Suport General - Decidim Barcelona", 
                "official": false, 
                "official_level": 0, 
                "role": null, 
                "verified_organization": null
            }, 
            "body": "<p><a href=\"https://decidim.barcelona/proposals/racionalitzacio-horaris-estacionament-regulat\">https://decidim.barcelona/proposals/racionalitzacio-horaris-estacionament-regulat</a></p>", 
            "commentable_id": 1161, 
            "commentable_type": "Proposal", 
            "created_at": "14/04/2016 17:11:22", 
            "flagged": false, 
            "hidden": false, 
            "id": 16049, 
            "moderator_id": null, 
            "permissions": {
                "hide": false, 
                "hide_author": false, 
                "vote": false
            }, 
            "total_dislikes": 0, 
            "total_likes": 0, 
            "total_votes": 0
        }, 
        {
            "administrator_id": null, 
            "alignment": 0, 
            "ancestry": null, 
            "as": null, 
            "author": {
                "avatar_image": "https://decidim.barcelona/assets/avatar-866795c99abc33a3160d1f3fa93ada46eb75e54134e777666b9ed16215b26534.png", 
                "erased": false, 
                "hidden": false, 
                "id": 9262, 
                "name": "Suport General - Decidim Barcelona", 
                "official": false, 
                "official_level": 0, 
                "role": null, 
                "verified_organization": null
            }, 
            "body": "<p><a href=\"https://decidim.barcelona/proposals/prioritzar-la-vorera-enfront-l-espai-de-cotxes-aparcats-al-carrer\">https://decidim.barcelona/proposals/prioritzar-la-vorera-enfront-l-espai-de-cotxes-aparcats-al-carrer</a></p>", 
            "commentable_id": 1161, 
            "commentable_type": "Proposal", 
            "created_at": "14/04/2016 17:48:30", 
            "flagged": false, 
            "hidden": false, 
            "id": 16126, 
            "moderator_id": null, 
            "permissions": {
                "hide": false, 
                "hide_author": false, 
                "vote": false
            }, 
            "total_dislikes": 0, 
            "total_likes": 0, 
            "total_votes": 0
        }, 
        {
            "administrator_id": null, 
            "alignment": 0, 
            "ancestry": null, 
            "as": null, 
            "author": {
                "avatar_image": "https://decidim.barcelona/assets/avatar-866795c99abc33a3160d1f3fa93ada46eb75e54134e777666b9ed16215b26534.png", 
                "erased": false, 
                "hidden": false, 
                "id": 9262, 
                "name": "Suport General - Decidim Barcelona", 
                "official": false, 
                "official_level": 0, 
                "role": null, 
                "verified_organization": null
            }, 
            "body": "<p><a href=\"https://decidim.barcelona/proposals/optimitzar-les-places-d-aparcament-als-carrers\">https://decidim.barcelona/proposals/optimitzar-les-places-d-aparcament-als-carrers</a></p>", 
            "commentable_id": 1161, 
            "commentable_type": "Proposal", 
            "created_at": "14/04/2016 18:10:36", 
            "flagged": false, 
            "hidden": false, 
            "id": 16204, 
            "moderator_id": null, 
            "permissions": {
                "hide": false, 
                "hide_author": false, 
                "vote": false
            }, 
            "total_dislikes": 0, 
            "total_likes": 0, 
            "total_votes": 0
        }, 
        {
            "administrator_id": null, 
            "alignment": 0, 
            "ancestry": null, 
            "as": null, 
            "author": {
                "avatar_image": "https://decidim.barcelona/assets/avatar-866795c99abc33a3160d1f3fa93ada46eb75e54134e777666b9ed16215b26534.png", 
                "erased": false, 
                "hidden": false, 
                "id": 9262, 
                "name": "Suport General - Decidim Barcelona", 
                "official": false, 
                "official_level": 0, 
                "role": null, 
                "verified_organization": null
            }, 
            "body": "<p><a href=\"https://decidim.barcelona/proposals/aparcamientos-que-premien-el-estacionamiento-y-cobren-por-usar-el-vehiculo\">https://decidim.barcelona/proposals/aparcamientos-que-premien-el-estacionamiento-y-cobren-por-usar-el-vehiculo</a></p>", 
            "commentable_id": 1161, 
            "commentable_type": "Proposal", 
            "created_at": "15/04/2016 09:57:53", 
            "flagged": false, 
            "hidden": false, 
            "id": 16444, 
            "moderator_id": null, 
            "permissions": {
                "hide": false, 
                "hide_author": false, 
                "vote": false
            }, 
            "total_dislikes": 0, 
            "total_likes": 0, 
            "total_votes": 0
        }, 
        {
            "administrator_id": null, 
            "alignment": 0, 
            "ancestry": null, 
            "as": null, 
            "author": {
                "avatar_image": "https://decidim.barcelona/assets/avatar-866795c99abc33a3160d1f3fa93ada46eb75e54134e777666b9ed16215b26534.png", 
                "erased": false, 
                "hidden": false, 
                "id": 9262, 
                "name": "Suport General - Decidim Barcelona", 
                "official": false, 
                "official_level": 0, 
                "role": null, 
                "verified_organization": null
            }, 
            "body": "<p><a href=\"https://decidim.barcelona/proposals/ciutat-peatonal\">https://decidim.barcelona/proposals/ciutat-peatonal</a></p>", 
            "commentable_id": 1161, 
            "commentable_type": "Proposal", 
            "created_at": "15/04/2016 10:03:00", 
            "flagged": false, 
            "hidden": false, 
            "id": 16457, 
            "moderator_id": null, 
            "permissions": {
                "hide": false, 
                "hide_author": false, 
                "vote": false
            }, 
            "total_dislikes": 0, 
            "total_likes": 0, 
            "total_votes": 0
        }, 
        {
            "administrator_id": null, 
            "alignment": 0, 
            "ancestry": null, 
            "as": null, 
            "author": {
                "avatar_image": "https://decidim.barcelona/assets/avatar-866795c99abc33a3160d1f3fa93ada46eb75e54134e777666b9ed16215b26534.png", 
                "erased": false, 
                "hidden": false, 
                "id": 9262, 
                "name": "Suport General - Decidim Barcelona", 
                "official": false, 
                "official_level": 0, 
                "role": null, 
                "verified_organization": null
            }, 
            "body": "<p><a href=\"https://decidim.barcelona/proposals/aparcamientos-para-motos-bien-orientados\">https://decidim.barcelona/proposals/aparcamientos-para-motos-bien-orientados</a></p>", 
            "commentable_id": 1161, 
            "commentable_type": "Proposal", 
            "created_at": "15/04/2016 10:16:59", 
            "flagged": false, 
            "hidden": false, 
            "id": 16493, 
            "moderator_id": null, 
            "permissions": {
                "hide": false, 
                "hide_author": false, 
                "vote": false
            }, 
            "total_dislikes": 0, 
            "total_likes": 0, 
            "total_votes": 0
        }, 
        {
            "administrator_id": null, 
            "alignment": 0, 
            "ancestry": null, 
            "as": null, 
            "author": {
                "avatar_image": "https://decidim.barcelona/assets/avatar-866795c99abc33a3160d1f3fa93ada46eb75e54134e777666b9ed16215b26534.png", 
                "erased": false, 
                "hidden": false, 
                "id": 9262, 
                "name": "Suport General - Decidim Barcelona", 
                "official": false, 
                "official_level": 0, 
                "role": null, 
                "verified_organization": null
            }, 
            "body": "<p><a href=\"https://decidim.barcelona/proposals/estudiar-exempcions-de-construccio-d-aparcament-en-noves-promocions-d-habitatge\">https://decidim.barcelona/proposals/estudiar-exempcions-de-construccio-d-aparcament-en-noves-promocions-d-habitatge</a></p>", 
            "commentable_id": 1161, 
            "commentable_type": "Proposal", 
            "created_at": "16/04/2016 16:35:01", 
            "flagged": false, 
            "hidden": false, 
            "id": 18291, 
            "moderator_id": null, 
            "permissions": {
                "hide": false, 
                "hide_author": false, 
                "vote": false
            }, 
            "total_dislikes": 0, 
            "total_likes": 0, 
            "total_votes": 0
        }
    ], 
    "meta": {
        "current_page": 2, 
        "next_page": null, 
        "prev_page": 1, 
        "total_count": 35, 
        "total_pages": 2
    }
}