{
    "comments": [
        {
            "administrator_id": null, 
            "alignment": -1, 
            "ancestry": null, 
            "as": null, 
            "author": {
                "avatar_image": "https://decidim.barcelona/assets/avatar-866795c99abc33a3160d1f3fa93ada46eb75e54134e777666b9ed16215b26534.png", 
                "erased": false, 
                "hidden": false, 
                "id": 7919, 
                "name": "RCordoba", 
                "official": false, 
                "official_level": 0, 
                "role": null, 
                "verified_organization": null
            }, 
            "body": "<p>Una vergonya escoltar aquesta proposta. Sense comentaris.</p>", 
            "commentable_id": 1219, 
            "commentable_type": "Proposal", 
            "created_at": "24/02/2016 11:12:25", 
            "flagged": false, 
            "hidden": false, 
            "id": 2539, 
            "moderator_id": null, 
            "permissions": {
                "hide": false, 
                "hide_author": false, 
                "vote": false
            }, 
            "total_dislikes": 1, 
            "total_likes": 0, 
            "total_votes": 1
        }, 
        {
            "administrator_id": null, 
            "alignment": 1, 
            "ancestry": null, 
            "as": null, 
            "author": {
                "avatar_image": "https://decidim.barcelona/assets/avatar-866795c99abc33a3160d1f3fa93ada46eb75e54134e777666b9ed16215b26534.png", 
                "erased": false, 
                "hidden": false, 
                "id": 7937, 
                "name": "Pauet", 
                "official": false, 
                "official_level": 0, 
                "role": null, 
                "verified_organization": null
            }, 
            "body": "<p>Tota la ra\u00f3 del m\u00f3n. </p>", 
            "commentable_id": 1219, 
            "commentable_type": "Proposal", 
            "created_at": "24/02/2016 12:13:43", 
            "flagged": false, 
            "hidden": false, 
            "id": 2550, 
            "moderator_id": null, 
            "permissions": {
                "hide": false, 
                "hide_author": false, 
                "vote": false
            }, 
            "total_dislikes": 0, 
            "total_likes": 1, 
            "total_votes": 1
        }, 
        {
            "administrator_id": null, 
            "alignment": 1, 
            "ancestry": null, 
            "as": null, 
            "author": {
                "avatar_image": "https://decidim.barcelona/assets/avatar-866795c99abc33a3160d1f3fa93ada46eb75e54134e777666b9ed16215b26534.png", 
                "erased": false, 
                "hidden": false, 
                "id": 9821, 
                "name": "marina puig", 
                "official": false, 
                "official_level": 0, 
                "role": null, 
                "verified_organization": null
            }, 
            "body": "<p>No nom\u00e9s la femta grossa...cal tenir en compte la gran pudor i f\u00e0stic que fa la ciutat pel fet que els gossos pixin al carrer i als espais p\u00fablics i privats. Aix\u00f2 cal canviar-ho!</p>", 
            "commentable_id": 1219, 
            "commentable_type": "Proposal", 
            "created_at": "01/03/2016 21:57:29", 
            "flagged": false, 
            "hidden": false, 
            "id": 3252, 
            "moderator_id": null, 
            "permissions": {
                "hide": false, 
                "hide_author": false, 
                "vote": false
            }, 
            "total_dislikes": 0, 
            "total_likes": 2, 
            "total_votes": 2
        }, 
        {
            "administrator_id": null, 
            "alignment": 0, 
            "ancestry": null, 
            "as": null, 
            "author": {
                "avatar_image": "https://decidim.barcelona/assets/avatar-866795c99abc33a3160d1f3fa93ada46eb75e54134e777666b9ed16215b26534.png", 
                "erased": false, 
                "hidden": false, 
                "id": 10172, 
                "name": "jonesi", 
                "official": false, 
                "official_level": 0, 
                "role": null, 
                "verified_organization": null
            }, 
            "body": "<p>Hi ha amos que no saben tenir gos i aquests s\u00f3n els qui embruten deixant caques per totes bandes, sobretot entre els matolls on els nens juguen a fet i amagar i despr\u00e9s venen amb les sabates entifades, els pixums ja sabem tots com va. Altres que deixen que els gossos espantin nens, jo he vist casos al Parc de la Maternitat i a l'Espanya Industrial, l'\u00faltim cas en un carrer peatonal un gos corrents i bordant tot empaitant a nena petita i en aquell moment passava un noi en bici que de poc va a terra per no atropellar a la nena, el pare de la nena ho devia veure tot a c\u00e0mera lenta pobre... Qui tingui gos que el dugui com cal o tinguin gat o peixera que s\u00f3n m\u00e9s de casa.</p>", 
            "commentable_id": 1219, 
            "commentable_type": "Proposal", 
            "created_at": "03/03/2016 17:00:55", 
            "flagged": false, 
            "hidden": false, 
            "id": 3481, 
            "moderator_id": null, 
            "permissions": {
                "hide": false, 
                "hide_author": false, 
                "vote": false
            }, 
            "total_dislikes": 0, 
            "total_likes": 1, 
            "total_votes": 1
        }, 
        {
            "administrator_id": null, 
            "alignment": 0, 
            "ancestry": null, 
            "as": null, 
            "author": {
                "avatar_image": "https://decidim.barcelona/assets/avatar-866795c99abc33a3160d1f3fa93ada46eb75e54134e777666b9ed16215b26534.png", 
                "erased": false, 
                "hidden": false, 
                "id": 7252, 
                "name": "Silvia R.A.", 
                "official": false, 
                "official_level": 0, 
                "role": null, 
                "verified_organization": null
            }, 
            "body": "<p>\u00c9s una pena que estiguem tots tant crispats pel tema, i no es que ens vingui de nou. \u00c9s quelcom que ja fa massa temps que \u00e9s un problema. \u00bfQuan far\u00e0 alguna cosa al respecte el nostre Ajuntament? Pel b\u00e9 de tots: gossos, cuidadors, i resta de ciutadans.</p>", 
            "commentable_id": 1219, 
            "commentable_type": "Proposal", 
            "created_at": "14/03/2016 14:47:58", 
            "flagged": false, 
            "hidden": false, 
            "id": 4821, 
            "moderator_id": null, 
            "permissions": {
                "hide": false, 
                "hide_author": false, 
                "vote": false
            }, 
            "total_dislikes": 0, 
            "total_likes": 0, 
            "total_votes": 0
        }, 
        {
            "administrator_id": null, 
            "alignment": 1, 
            "ancestry": null, 
            "as": null, 
            "author": {
                "avatar_image": "https://decidim.barcelona/assets/avatar-866795c99abc33a3160d1f3fa93ada46eb75e54134e777666b9ed16215b26534.png", 
                "erased": false, 
                "hidden": false, 
                "id": 613, 
                "name": "Josep M Armengou", 
                "official": false, 
                "official_level": 0, 
                "role": null, 
                "verified_organization": null
            }, 
            "body": "<p>Plenament a favor de la proposta d'en Marc, coherent amb el que ha de ser una ciutat amiga (tamb\u00e9) del animals. Per\u00f2 \u00e9s que avui hi ha una gran quantitat de gent que confon els gossos amb objectes de consum en qui canalitzar els seus afectes, tot i que els tractin sovint amb ben poca cura. Sorpr\u00e8n la quantitat de persones que passegen diversos gossos a la vegada i s'ensenyoreixen de l'espai p\u00fablic en una proporci\u00f3 desorbitada. Tamb\u00e9 \u00e9s molt clar que de cap manera els poden portar deslligats llevat que es tracti d'un espai espec\u00edfic per als seus jocs. </p>", 
            "commentable_id": 1219, 
            "commentable_type": "Proposal", 
            "created_at": "14/03/2016 17:19:51", 
            "flagged": false, 
            "hidden": false, 
            "id": 4860, 
            "moderator_id": null, 
            "permissions": {
                "hide": false, 
                "hide_author": false, 
                "vote": false
            }, 
            "total_dislikes": 0, 
            "total_likes": 2, 
            "total_votes": 2
        }, 
        {
            "administrator_id": null, 
            "alignment": 0, 
            "ancestry": null, 
            "as": null, 
            "author": {
                "avatar_image": "https://decidim.barcelona/assets/avatar-866795c99abc33a3160d1f3fa93ada46eb75e54134e777666b9ed16215b26534.png", 
                "erased": false, 
                "hidden": false, 
                "id": 181, 
                "name": "crismon", 
                "official": false, 
                "official_level": 0, 
                "role": null, 
                "verified_organization": null
            }, 
            "body": "<p>Es podria obligar a portar bossa per recollir femtes i ampolla amb polveritzador pels orins, d'aquesta forma es barrejaria i no faria pudor etc.. Un gos no \u00e9s un gat. Necessiten espais oberts tancats grans (no pipi-cans) per relacionar-se, esbargir-se.. Entenc que hi ha persones que no els agraden els animals i que potser  s'omplen la boca de fets solidaris, quan son incapa\u00e7os d'ajudar o fer-se voluntari per gent necessitada. Els gossos s\u00f3n una gran ajuda per les persones, per relacionar-se, per companyia (a falta d'adults).. i no diguem ja els que estan ensinistrat com ajuda per altres (pigall, policia, visitadors hospitalaris, etc)</p>", 
            "commentable_id": 1219, 
            "commentable_type": "Proposal", 
            "created_at": "15/03/2016 13:56:29", 
            "flagged": false, 
            "hidden": false, 
            "id": 5025, 
            "moderator_id": null, 
            "permissions": {
                "hide": false, 
                "hide_author": false, 
                "vote": false
            }, 
            "total_dislikes": 0, 
            "total_likes": 0, 
            "total_votes": 0
        }, 
        {
            "administrator_id": null, 
            "alignment": -1, 
            "ancestry": null, 
            "as": null, 
            "author": {
                "avatar_image": "https://decidim.barcelona/assets/avatar-866795c99abc33a3160d1f3fa93ada46eb75e54134e777666b9ed16215b26534.png", 
                "erased": false, 
                "hidden": false, 
                "id": 11178, 
                "name": "annagsainz", 
                "official": false, 
                "official_level": 0, 
                "role": null, 
                "verified_organization": null
            }, 
            "body": "<p>Estic d'acord en multar els amos que no recullen les fems. Per\u00f2 aix\u00f2 de orinar a casa i prohibir (o gestionar) l'activitat dels gossos als parcs i carrers.... els gossos han de sortir de casa, passejar, jugar fora. Crec que haurien d'haver m\u00e9s espais adaptats per gossos a Barcelona, per\u00f2 la proposta que fas em sembla fora de lloc.</p>", 
            "commentable_id": 1219, 
            "commentable_type": "Proposal", 
            "created_at": "21/03/2016 10:35:10", 
            "flagged": false, 
            "hidden": false, 
            "id": 6073, 
            "moderator_id": null, 
            "permissions": {
                "hide": false, 
                "hide_author": false, 
                "vote": false
            }, 
            "total_dislikes": 0, 
            "total_likes": 0, 
            "total_votes": 0
        }, 
        {
            "administrator_id": null, 
            "alignment": 1, 
            "ancestry": null, 
            "as": null, 
            "author": {
                "avatar_image": "https://decidim.barcelona/assets/avatar-866795c99abc33a3160d1f3fa93ada46eb75e54134e777666b9ed16215b26534.png", 
                "erased": false, 
                "hidden": false, 
                "id": 889, 
                "name": "DCC", 
                "official": false, 
                "official_level": 0, 
                "role": null, 
                "verified_organization": null
            }, 
            "body": "<p>Si us plau busqueu m\u00e9s propostes com la vostre, jo mateix he fet unes, simplement amb la paraula gossos o en castell\u00e0 perros, o 'excrements' i trobareu m\u00e9s propostes a les que tamb\u00e9 podeu suport per tal d'acabar amb les #VoreresWC. \n<br />Tamb\u00e9 podeu informar d'incivisme amb gossos al 900.226.226 (Tel\u00e8fon gratu\u00eft de civisme), i ha l'APP per ANDROID i i-Phone 'Bustia ciutadana' on a 'Neteja de carrers o places' amb el concepte 'Bruticia' es pot denunciar i adjuntar la foto per que no puguin dir despr\u00e9s que no ho han trobat...</p>", 
            "commentable_id": 1219, 
            "commentable_type": "Proposal", 
            "created_at": "06/04/2016 09:48:42", 
            "flagged": false, 
            "hidden": false, 
            "id": 8211, 
            "moderator_id": null, 
            "permissions": {
                "hide": false, 
                "hide_author": false, 
                "vote": false
            }, 
            "total_dislikes": 0, 
            "total_likes": 0, 
            "total_votes": 0
        }, 
        {
            "administrator_id": null, 
            "alignment": 1, 
            "ancestry": null, 
            "as": null, 
            "author": {
                "avatar_image": "https://decidim.barcelona/assets/avatar-866795c99abc33a3160d1f3fa93ada46eb75e54134e777666b9ed16215b26534.png", 
                "erased": false, 
                "hidden": false, 
                "id": 889, 
                "name": "DCC", 
                "official": false, 
                "official_level": 0, 
                "role": null, 
                "verified_organization": null
            }, 
            "body": "<p>Si us plau busqueu m\u00e9s propostes com la vostre, jo mateix he fet unes, simplement amb la paraula gossos o en castell\u00e0 perros, o 'excrements' i trobareu m\u00e9s propostes a les que tamb\u00e9 podeu suport per tal d'acabar amb les #VoreresWC. \n<br />Tamb\u00e9 podeu informar d'incivisme amb gossos al 900.226.226 (Tel\u00e8fon gratu\u00eft de civisme), i ha l'APP per ANDROID i i-Phone 'Bustia ciutadana' on a 'Neteja de carrers o places' amb el concepte 'Bruticia' es pot denunciar i adjuntar la foto per que no puguin dir despr\u00e9s que no ho han trobat...</p>", 
            "commentable_id": 1219, 
            "commentable_type": "Proposal", 
            "created_at": "06/04/2016 10:23:16", 
            "flagged": false, 
            "hidden": false, 
            "id": 8249, 
            "moderator_id": null, 
            "permissions": {
                "hide": false, 
                "hide_author": false, 
                "vote": false
            }, 
            "total_dislikes": 0, 
            "total_likes": 0, 
            "total_votes": 0
        }, 
        {
            "administrator_id": null, 
            "alignment": null, 
            "ancestry": "2539", 
            "as": null, 
            "author": {
                "avatar_image": "https://decidim.barcelona/assets/avatar-866795c99abc33a3160d1f3fa93ada46eb75e54134e777666b9ed16215b26534.png", 
                "erased": false, 
                "hidden": false, 
                "id": 613, 
                "name": "Josep M Armengou", 
                "official": false, 
                "official_level": 0, 
                "role": null, 
                "verified_organization": null
            }, 
            "body": "<p>Per qu\u00e8 ? Estaria b\u00e9 que s'expliqu\u00e9s vost\u00e8.</p>", 
            "commentable_id": 1219, 
            "commentable_type": "Proposal", 
            "created_at": "14/03/2016 17:24:16", 
            "flagged": false, 
            "hidden": false, 
            "id": 4862, 
            "moderator_id": null, 
            "permissions": {
                "hide": false, 
                "hide_author": false, 
                "vote": false
            }, 
            "total_dislikes": 0, 
            "total_likes": 1, 
            "total_votes": 1
        }, 
        {
            "administrator_id": null, 
            "alignment": null, 
            "ancestry": "3252", 
            "as": null, 
            "author": {
                "avatar_image": "https://decidim.barcelona/assets/avatar-866795c99abc33a3160d1f3fa93ada46eb75e54134e777666b9ed16215b26534.png", 
                "erased": false, 
                "hidden": false, 
                "id": 48, 
                "name": "Marc Casanovas i Bassas", 
                "official": false, 
                "official_level": 0, 
                "role": null, 
                "verified_organization": null
            }, 
            "body": "<p>;)</p>", 
            "commentable_id": 1219, 
            "commentable_type": "Proposal", 
            "created_at": "01/03/2016 22:22:02", 
            "flagged": false, 
            "hidden": false, 
            "id": 3262, 
            "moderator_id": null, 
            "permissions": {
                "hide": false, 
                "hide_author": false, 
                "vote": false
            }, 
            "total_dislikes": 0, 
            "total_likes": 0, 
            "total_votes": 0
        }, 
        {
            "administrator_id": null, 
            "alignment": null, 
            "ancestry": "3481", 
            "as": null, 
            "author": {
                "avatar_image": "https://decidim.barcelona/assets/avatar-866795c99abc33a3160d1f3fa93ada46eb75e54134e777666b9ed16215b26534.png", 
                "erased": false, 
                "hidden": false, 
                "id": 48, 
                "name": "Marc Casanovas i Bassas", 
                "official": false, 
                "official_level": 0, 
                "role": null, 
                "verified_organization": null
            }, 
            "body": "<p>Exactament aquest era el sentit de la proposta ;)\n</p>", 
            "commentable_id": 1219, 
            "commentable_type": "Proposal", 
            "created_at": "09/03/2016 11:58:47", 
            "flagged": false, 
            "hidden": false, 
            "id": 4139, 
            "moderator_id": null, 
            "permissions": {
                "hide": false, 
                "hide_author": false, 
                "vote": false
            }, 
            "total_dislikes": 0, 
            "total_likes": 0, 
            "total_votes": 0
        }, 
        {
            "administrator_id": null, 
            "alignment": null, 
            "ancestry": "4821", 
            "as": null, 
            "author": {
                "avatar_image": "https://decidim.barcelona/assets/avatar-866795c99abc33a3160d1f3fa93ada46eb75e54134e777666b9ed16215b26534.png", 
                "erased": false, 
                "hidden": false, 
                "id": 613, 
                "name": "Josep M Armengou", 
                "official": false, 
                "official_level": 0, 
                "role": null, 
                "verified_organization": null
            }, 
            "body": "<p>Particularment, no hi veig tanta crispaci\u00f3, davant el que suposa en realitat per la marxa tranquil.la del \"carrer\", sovint pesadeta. Quant a l'Ajuntament, sempre pernso que a la base de tot hi ha les nostres accions individuals. All\u00f2 que fan per Europa, un xic m\u00e9s amunt, vaja. No va de policia, va de ciutadans actius a intervenir  davant les accions inc\u00edviques.</p>", 
            "commentable_id": 1219, 
            "commentable_type": "Proposal", 
            "created_at": "15/03/2016 10:05:17", 
            "flagged": false, 
            "hidden": false, 
            "id": 4960, 
            "moderator_id": null, 
            "permissions": {
                "hide": false, 
                "hide_author": false, 
                "vote": false
            }, 
            "total_dislikes": 0, 
            "total_likes": 0, 
            "total_votes": 0
        }, 
        {
            "administrator_id": null, 
            "alignment": null, 
            "ancestry": "4860", 
            "as": null, 
            "author": {
                "avatar_image": "https://decidim.barcelona/assets/avatar-866795c99abc33a3160d1f3fa93ada46eb75e54134e777666b9ed16215b26534.png", 
                "erased": false, 
                "hidden": false, 
                "id": 48, 
                "name": "Marc Casanovas i Bassas", 
                "official": false, 
                "official_level": 0, 
                "role": null, 
                "verified_organization": null
            }, 
            "body": "<p>Exactament aquest \u00e9s el sentit de la meva proposta ;)</p>", 
            "commentable_id": 1219, 
            "commentable_type": "Proposal", 
            "created_at": "15/03/2016 09:44:42", 
            "flagged": false, 
            "hidden": false, 
            "id": 4955, 
            "moderator_id": null, 
            "permissions": {
                "hide": false, 
                "hide_author": false, 
                "vote": false
            }, 
            "total_dislikes": 0, 
            "total_likes": 1, 
            "total_votes": 1
        }
    ], 
    "meta": {
        "current_page": 2, 
        "next_page": null, 
        "prev_page": 1, 
        "total_count": 30, 
        "total_pages": 2
    }
}