{
    "comments": [
        {
            "administrator_id": null, 
            "alignment": 1, 
            "ancestry": null, 
            "as": null, 
            "author": {
                "avatar_image": "https://decidim.barcelona/assets/avatar-866795c99abc33a3160d1f3fa93ada46eb75e54134e777666b9ed16215b26534.png", 
                "erased": false, 
                "hidden": false, 
                "id": 18381, 
                "name": "Queta Xampeny", 
                "official": false, 
                "official_level": 0, 
                "role": null, 
                "verified_organization": null
            }, 
            "body": "<p>Cobriment Ronda de Dalt Vall d'Hebron ja!!!!</p>", 
            "commentable_id": 1256, 
            "commentable_type": "Proposal", 
            "created_at": "05/04/2016 11:45:51", 
            "flagged": false, 
            "hidden": false, 
            "id": 7963, 
            "moderator_id": null, 
            "permissions": {
                "hide": false, 
                "hide_author": false, 
                "vote": false
            }, 
            "total_dislikes": 0, 
            "total_likes": 5, 
            "total_votes": 5
        }, 
        {
            "administrator_id": null, 
            "alignment": -1, 
            "ancestry": null, 
            "as": null, 
            "author": {
                "avatar_image": "https://decidim.barcelona/assets/avatar-866795c99abc33a3160d1f3fa93ada46eb75e54134e777666b9ed16215b26534.png", 
                "erased": false, 
                "hidden": false, 
                "id": 10337, 
                "name": "Rafaela Sub\u00edas", 
                "official": false, 
                "official_level": 0, 
                "role": null, 
                "verified_organization": null
            }, 
            "body": "<p>Em sembla que hi ha moltes zones a la ciutat amb greus problemes provocats pel tr\u00e0nsit, no nom\u00e9s la Ronda de Dalt.  Pot ser caldria contemplar accions encaminades a reduir la circulaci\u00f3 de vehicles en general,  potenciant el transport p\u00fablic i deixar les grans obres d'infraestructures per actuacions en les quals intervinguin m\u00e9s actors que els municipals.</p>", 
            "commentable_id": 1256, 
            "commentable_type": "Proposal", 
            "created_at": "05/04/2016 13:13:42", 
            "flagged": false, 
            "hidden": false, 
            "id": 7996, 
            "moderator_id": null, 
            "permissions": {
                "hide": false, 
                "hide_author": false, 
                "vote": false
            }, 
            "total_dislikes": 4, 
            "total_likes": 2, 
            "total_votes": 6
        }, 
        {
            "administrator_id": null, 
            "alignment": 1, 
            "ancestry": null, 
            "as": null, 
            "author": {
                "avatar_image": "https://decidim.barcelona/assets/avatar-866795c99abc33a3160d1f3fa93ada46eb75e54134e777666b9ed16215b26534.png", 
                "erased": false, 
                "hidden": false, 
                "id": 1137, 
                "name": "Sacramento Burgos Garrido", 
                "official": false, 
                "official_level": 0, 
                "role": null, 
                "verified_organization": null
            }, 
            "body": "<p>Queremos el cubrimiento de la ronda para crear un corredor verde con collserola, eliminar contaminacion acustica y unir barrios separados por una autopista urbana</p>", 
            "commentable_id": 1256, 
            "commentable_type": "Proposal", 
            "created_at": "05/04/2016 19:33:51", 
            "flagged": false, 
            "hidden": false, 
            "id": 8109, 
            "moderator_id": null, 
            "permissions": {
                "hide": false, 
                "hide_author": false, 
                "vote": false
            }, 
            "total_dislikes": 0, 
            "total_likes": 2, 
            "total_votes": 2
        }, 
        {
            "administrator_id": null, 
            "alignment": -1, 
            "ancestry": null, 
            "as": null, 
            "author": {
                "avatar_image": "https://decidim.barcelona/assets/avatar-866795c99abc33a3160d1f3fa93ada46eb75e54134e777666b9ed16215b26534.png", 
                "erased": false, 
                "hidden": false, 
                "id": 12911, 
                "name": "MariusG", 
                "official": false, 
                "official_level": 0, 
                "role": null, 
                "verified_organization": null
            }, 
            "body": "<p>Estoy a favor de la propuesta y la he apoyado, pero no estoy a favor de que esto lo lleve a cabo el ayuntamiento, se llevar\u00eda una cantidad de recursos ingente. No tengo muy claro que esta petici\u00f3n deba estar aqu\u00ed. </p>", 
            "commentable_id": 1256, 
            "commentable_type": "Proposal", 
            "created_at": "06/04/2016 11:35:20", 
            "flagged": false, 
            "hidden": false, 
            "id": 8317, 
            "moderator_id": null, 
            "permissions": {
                "hide": false, 
                "hide_author": false, 
                "vote": false
            }, 
            "total_dislikes": 2, 
            "total_likes": 0, 
            "total_votes": 2
        }, 
        {
            "administrator_id": null, 
            "alignment": 1, 
            "ancestry": null, 
            "as": null, 
            "author": {
                "avatar_image": "https://decidim.barcelona/assets/avatar-866795c99abc33a3160d1f3fa93ada46eb75e54134e777666b9ed16215b26534.png", 
                "erased": false, 
                "hidden": false, 
                "id": 1102, 
                "name": "Joaquim CAMA LLENA", 
                "official": false, 
                "official_level": 0, 
                "role": null, 
                "verified_organization": null
            }, 
            "body": "<p>Cal saber el motiu pel qual la Ronda al seu pas pels barris de la Vall d'Hebron no est\u00e0 coberta des de la seva concepci\u00f3 original: les presses. Les Olimpiades es tiraven a sobre i calia acabar com fos les infraestructures. Molts ciutadans de Barcelona van pagar per aix\u00f2: els adquirentes de pisos en les Viles Ol\u00edmpiques, per exemple, que encara estan sufragant de les seves butxaques les defici\u00e8ncies en les seves construccions. Per\u00f2 tamb\u00e9 els ve\u00efns dels barris de la Vall d'Hebron a qui va tocar pagar amb contaminaci\u00f3 ac\u00fasitca i atmosf\u00e8rica per a tota la vida els errors de l'Ajuntament de Barcelona. Ja \u00e9s hora que el propi Ajuntament ho arregli. Si t\u00e9 voluntat l'aplicar\u00e0 la viabilitat t\u00e8cnica i buscar\u00e0 la forma de finan\u00e7ament m\u00e9s eficient i menys onerosa per a la ciutat. Dir simplement que NO, significa menysprear als barris perjudicats.\n<br />selecciona tot el text\n</p>", 
            "commentable_id": 1256, 
            "commentable_type": "Proposal", 
            "created_at": "06/04/2016 18:10:43", 
            "flagged": false, 
            "hidden": false, 
            "id": 8799, 
            "moderator_id": null, 
            "permissions": {
                "hide": false, 
                "hide_author": false, 
                "vote": false
            }, 
            "total_dislikes": 0, 
            "total_likes": 2, 
            "total_votes": 2
        }, 
        {
            "administrator_id": null, 
            "alignment": 1, 
            "ancestry": null, 
            "as": null, 
            "author": {
                "avatar_image": "https://decidim.barcelona/assets/avatar-866795c99abc33a3160d1f3fa93ada46eb75e54134e777666b9ed16215b26534.png", 
                "erased": false, 
                "hidden": false, 
                "id": 2399, 
                "name": "Boira baixa", 
                "official": false, 
                "official_level": 0, 
                "role": null, 
                "verified_organization": null
            }, 
            "body": "<p>Far\u00edeu b\u00e9 d'esmenar correctament el t\u00edtol de la proposta, i canviar 'Cubriment' per \"Cobertura\", i encara, suprimir l'accent d'Hebron. Gr\u00e0cies.</p>", 
            "commentable_id": 1256, 
            "commentable_type": "Proposal", 
            "created_at": "07/04/2016 04:01:37", 
            "flagged": false, 
            "hidden": false, 
            "id": 9013, 
            "moderator_id": null, 
            "permissions": {
                "hide": false, 
                "hide_author": false, 
                "vote": false
            }, 
            "total_dislikes": 0, 
            "total_likes": 1, 
            "total_votes": 1
        }, 
        {
            "administrator_id": null, 
            "alignment": 1, 
            "ancestry": null, 
            "as": null, 
            "author": {
                "avatar_image": "https://decidim.barcelona/assets/avatar-866795c99abc33a3160d1f3fa93ada46eb75e54134e777666b9ed16215b26534.png", 
                "erased": false, 
                "hidden": false, 
                "id": 5158, 
                "name": "Maria Jos\u00e9 De Juli\u00e1n Margalef", 
                "official": false, 
                "official_level": 0, 
                "role": null, 
                "verified_organization": null
            }, 
            "body": "<p>Es insuportable el soroll i la contaminaci\u00f3</p>", 
            "commentable_id": 1256, 
            "commentable_type": "Proposal", 
            "created_at": "07/04/2016 14:14:22", 
            "flagged": false, 
            "hidden": false, 
            "id": 9455, 
            "moderator_id": null, 
            "permissions": {
                "hide": false, 
                "hide_author": false, 
                "vote": false
            }, 
            "total_dislikes": 0, 
            "total_likes": 1, 
            "total_votes": 1
        }, 
        {
            "administrator_id": null, 
            "alignment": 1, 
            "ancestry": null, 
            "as": null, 
            "author": {
                "avatar_image": "https://decidim.barcelona/assets/avatar-866795c99abc33a3160d1f3fa93ada46eb75e54134e777666b9ed16215b26534.png", 
                "erased": false, 
                "hidden": false, 
                "id": 20986, 
                "name": "Antonio Colme", 
                "official": false, 
                "official_level": 0, 
                "role": null, 
                "verified_organization": null
            }, 
            "body": "<p>El soroll es insoportable</p>", 
            "commentable_id": 1256, 
            "commentable_type": "Proposal", 
            "created_at": "08/04/2016 01:25:14", 
            "flagged": false, 
            "hidden": false, 
            "id": 10157, 
            "moderator_id": null, 
            "permissions": {
                "hide": false, 
                "hide_author": false, 
                "vote": false
            }, 
            "total_dislikes": 0, 
            "total_likes": 1, 
            "total_votes": 1
        }, 
        {
            "administrator_id": null, 
            "alignment": -1, 
            "ancestry": null, 
            "as": null, 
            "author": {
                "avatar_image": "https://decidim.barcelona/assets/avatar-866795c99abc33a3160d1f3fa93ada46eb75e54134e777666b9ed16215b26534.png", 
                "erased": false, 
                "hidden": false, 
                "id": 1458, 
                "name": "DAVID", 
                "official": false, 
                "official_level": 0, 
                "role": null, 
                "verified_organization": null
            }, 
            "body": "<p>S\u00f3c ve\u00ef del Barri de naixement. He viscut al bloc de Pg. de Vall d'Hebron 198-208 al costat de la Ronda. \u00c9s veritat que la Ronda suposa un maldecap ambiental. Tot i aix\u00ed crec que cobrir la Ronda \u00e9s un capritx m\u00e9s d'una associaci\u00f3 de ve\u00efns classista plena de Nimbis (Not in front of my garden- No davant del meu jard\u00ed) que es va oposar a la narcosala de manera ferotge. Conec el projecte de cobrici\u00f3 de la Ronda proposat per l'estudi d'arquitectes i considero que el seu abast presupostari i la seva aplicaci\u00f3 \u00e9s fara\u00f3nica.  Una sol\u00b7luci\u00f3 sensata seria l'enderroc mitjan\u00e7ant un pla especial del bloc 198-208 i el de darrere. \u00bfImplicaria perdre la casa per a moltes persones? Doncs no. Segons la legislaci\u00f3 actual, en cas d'afectaci\u00f3 s'hauria de construir un bloc d'habitatges nou amb les mateixes superf\u00edcies o superiors per habitatge en el mateix barri o a prop. Guanyarien els ve\u00efns i estalviariem diners. Redu\u00efr el tr\u00e0nsit a la Ronda s'hauria de plantejar en superf\u00edcie redu\u00efnt carrils,...</p>", 
            "commentable_id": 1256, 
            "commentable_type": "Proposal", 
            "created_at": "10/04/2016 17:53:09", 
            "flagged": false, 
            "hidden": false, 
            "id": 12804, 
            "moderator_id": null, 
            "permissions": {
                "hide": false, 
                "hide_author": false, 
                "vote": false
            }, 
            "total_dislikes": 0, 
            "total_likes": 0, 
            "total_votes": 0
        }, 
        {
            "administrator_id": null, 
            "alignment": 0, 
            "ancestry": null, 
            "as": null, 
            "author": {
                "avatar_image": "https://decidim.barcelona/assets/avatar-866795c99abc33a3160d1f3fa93ada46eb75e54134e777666b9ed16215b26534.png", 
                "erased": false, 
                "hidden": false, 
                "id": 17741, 
                "name": "Suport General3 - Decidim Barcelona", 
                "official": false, 
                "official_level": 0, 
                "role": null, 
                "verified_organization": null
            }, 
            "body": "<p><a href=\"https://decidim.barcelona/proposals/soterrar-la-ronda-de-dalt\">https://decidim.barcelona/proposals/soterrar-la-ronda-de-dalt</a></p>", 
            "commentable_id": 1256, 
            "commentable_type": "Proposal", 
            "created_at": "16/04/2016 13:11:51", 
            "flagged": false, 
            "hidden": false, 
            "id": 18152, 
            "moderator_id": null, 
            "permissions": {
                "hide": false, 
                "hide_author": false, 
                "vote": false
            }, 
            "total_dislikes": 0, 
            "total_likes": 0, 
            "total_votes": 0
        }, 
        {
            "administrator_id": null, 
            "alignment": null, 
            "ancestry": "8317", 
            "as": null, 
            "author": {
                "avatar_image": "https://decidim.barcelona/assets/avatar-866795c99abc33a3160d1f3fa93ada46eb75e54134e777666b9ed16215b26534.png", 
                "erased": false, 
                "hidden": false, 
                "id": 4469, 
                "name": "DNIC", 
                "official": false, 
                "official_level": 0, 
                "role": null, 
                "verified_organization": null
            }, 
            "body": "<p>Entiendo que un Ayuntamiento no puede afrontar una obra de este tipo, pero aqu\u00ed estamos para reivindicarlo y para que nuestro Ayuntamiento defienda, ante instancias m\u00e1s poderosas (espa\u00f1olas, europeas) la necesidad de llevarlo a cabo. Por ello, todas las peticiones que pretendan lo mismo , sean o no financiadas por recursos de la ciudad, tienen en estos foros la mejor oportunidad para solicitarlo. No se si servir\u00e0 de res, per\u00f2 al menys aqu\u00ed podem ser un clam de la voluntat ciutadana.\n</p>", 
            "commentable_id": 1256, 
            "commentable_type": "Proposal", 
            "created_at": "06/04/2016 16:52:09", 
            "flagged": false, 
            "hidden": false, 
            "id": 8706, 
            "moderator_id": null, 
            "permissions": {
                "hide": false, 
                "hide_author": false, 
                "vote": false
            }, 
            "total_dislikes": 0, 
            "total_likes": 1, 
            "total_votes": 1
        }, 
        {
            "administrator_id": null, 
            "alignment": null, 
            "ancestry": "9013", 
            "as": null, 
            "author": {
                "avatar_image": "https://decidim.barcelona/assets/avatar-866795c99abc33a3160d1f3fa93ada46eb75e54134e777666b9ed16215b26534.png", 
                "erased": false, 
                "hidden": false, 
                "id": 2399, 
                "name": "Boira baixa", 
                "official": false, 
                "official_level": 0, 
                "role": null, 
                "verified_organization": null
            }, 
            "body": "<p>\u00c9s que els 'cobriments' s\u00f3n m\u00e9s aviat 'de cor', sabeu?\u2026</p>", 
            "commentable_id": 1256, 
            "commentable_type": "Proposal", 
            "created_at": "07/04/2016 04:03:34", 
            "flagged": false, 
            "hidden": false, 
            "id": 9014, 
            "moderator_id": null, 
            "permissions": {
                "hide": false, 
                "hide_author": false, 
                "vote": false
            }, 
            "total_dislikes": 0, 
            "total_likes": 0, 
            "total_votes": 0
        }
    ], 
    "meta": {
        "current_page": 4, 
        "next_page": null, 
        "prev_page": 3, 
        "total_count": 70, 
        "total_pages": 4
    }
}