{
    "comments": [
        {
            "administrator_id": null, 
            "alignment": 1, 
            "ancestry": null, 
            "as": null, 
            "author": {
                "avatar_image": "https://decidim.barcelona/assets/avatar-866795c99abc33a3160d1f3fa93ada46eb75e54134e777666b9ed16215b26534.png", 
                "erased": false, 
                "hidden": false, 
                "id": 1208, 
                "name": "Jebimetal", 
                "official": false, 
                "official_level": 0, 
                "role": null, 
                "verified_organization": null
            }, 
            "body": "<p>I, a m\u00e9s, no es suposava que havien d'anar OBLIGAT\u00d2RIAMENT amb el murri\u00f3 posat?</p>", 
            "commentable_id": 1289, 
            "commentable_type": "Proposal", 
            "created_at": "02/02/2016 22:01:55", 
            "flagged": false, 
            "hidden": false, 
            "id": 361, 
            "moderator_id": null, 
            "permissions": {
                "hide": false, 
                "hide_author": false, 
                "vote": false
            }, 
            "total_dislikes": 3, 
            "total_likes": 3, 
            "total_votes": 6
        }, 
        {
            "administrator_id": null, 
            "alignment": -1, 
            "ancestry": null, 
            "as": null, 
            "author": {
                "avatar_image": "https://decidim.barcelona/assets/avatar-866795c99abc33a3160d1f3fa93ada46eb75e54134e777666b9ed16215b26534.png", 
                "erased": false, 
                "hidden": false, 
                "id": 581, 
                "name": "CarmeG", 
                "official": false, 
                "official_level": 0, 
                "role": null, 
                "verified_organization": null
            }, 
            "body": "<p>No s\u00e9 on hi ha aquesta evidencia... els caps de setmana a la nit el metro queda fet una porqueria de llaunes, begudes, etc... potser tamb\u00e9 hauriem de limitar l'acces a moltes persones (moltes mes q no pas gossos)</p>", 
            "commentable_id": 1289, 
            "commentable_type": "Proposal", 
            "created_at": "02/02/2016 22:42:26", 
            "flagged": false, 
            "hidden": false, 
            "id": 365, 
            "moderator_id": null, 
            "permissions": {
                "hide": false, 
                "hide_author": false, 
                "vote": false
            }, 
            "total_dislikes": 0, 
            "total_likes": 8, 
            "total_votes": 8
        }, 
        {
            "administrator_id": null, 
            "alignment": -1, 
            "ancestry": null, 
            "as": null, 
            "author": {
                "avatar_image": "https://decidim.barcelona/assets/avatar-866795c99abc33a3160d1f3fa93ada46eb75e54134e777666b9ed16215b26534.png", 
                "erased": false, 
                "hidden": false, 
                "id": 44, 
                "name": "David LH", 
                "official": false, 
                "official_level": 0, 
                "role": null, 
                "verified_organization": null
            }, 
            "body": "<p>nada de acuerdo, los perros son ciudadanos de la ciudad tambi\u00e9n y deben tener derecho a desplazarse con sus amos, solo hay que tomar medidas para que no muerdan ni molesten a los otros usuarios. </p>", 
            "commentable_id": 1289, 
            "commentable_type": "Proposal", 
            "created_at": "03/02/2016 10:46:13", 
            "flagged": false, 
            "hidden": false, 
            "id": 404, 
            "moderator_id": null, 
            "permissions": {
                "hide": false, 
                "hide_author": false, 
                "vote": false
            }, 
            "total_dislikes": 0, 
            "total_likes": 8, 
            "total_votes": 8
        }, 
        {
            "administrator_id": null, 
            "alignment": -1, 
            "ancestry": null, 
            "as": null, 
            "author": {
                "avatar_image": "https://decidim.barcelona/assets/avatar-866795c99abc33a3160d1f3fa93ada46eb75e54134e777666b9ed16215b26534.png", 
                "erased": false, 
                "hidden": false, 
                "id": 1629, 
                "name": "jygmutante", 
                "official": false, 
                "official_level": 0, 
                "role": null, 
                "verified_organization": null
            }, 
            "body": "<p>Perros en el metro y el autob\u00fas... la responsabilidad del due\u00f1o debe bastar a l@s que no les guste la idea de compartir el espacio con otros animales... no olvidemos que somos animales tambi\u00e9n.</p>", 
            "commentable_id": 1289, 
            "commentable_type": "Proposal", 
            "created_at": "03/02/2016 16:25:15", 
            "flagged": false, 
            "hidden": false, 
            "id": 437, 
            "moderator_id": null, 
            "permissions": {
                "hide": false, 
                "hide_author": false, 
                "vote": false
            }, 
            "total_dislikes": 1, 
            "total_likes": 8, 
            "total_votes": 9
        }, 
        {
            "administrator_id": null, 
            "alignment": -1, 
            "ancestry": null, 
            "as": null, 
            "author": {
                "avatar_image": "https://decidim.barcelona/assets/avatar-866795c99abc33a3160d1f3fa93ada46eb75e54134e777666b9ed16215b26534.png", 
                "erased": false, 
                "hidden": false, 
                "id": 1723, 
                "name": "tanyabeyeler", 
                "official": false, 
                "official_level": 0, 
                "role": null, 
                "verified_organization": null
            }, 
            "body": "<p>Los perrros est\u00e1n ya muy reglamentados, pues deben llevar bozal sean bebes o de peque\u00f1o tallaje. Cosa que ya es suficientemente opresiva para ellos. Forman parte del ecosistema de la ciudad, y mejoran la vida de muchas personas. Nunca me he encontrado con un perro ni agresivo ni que molestara ni que ensuciara en el metro, como en cambio hace mucha gente.</p>", 
            "commentable_id": 1289, 
            "commentable_type": "Proposal", 
            "created_at": "03/02/2016 18:19:32", 
            "flagged": false, 
            "hidden": false, 
            "id": 456, 
            "moderator_id": null, 
            "permissions": {
                "hide": false, 
                "hide_author": false, 
                "vote": false
            }, 
            "total_dislikes": 1, 
            "total_likes": 7, 
            "total_votes": 8
        }, 
        {
            "administrator_id": null, 
            "alignment": -1, 
            "ancestry": null, 
            "as": null, 
            "author": {
                "avatar_image": "https://decidim.barcelona/assets/avatar-866795c99abc33a3160d1f3fa93ada46eb75e54134e777666b9ed16215b26534.png", 
                "erased": false, 
                "hidden": false, 
                "id": 1903, 
                "name": "ignacioespacio", 
                "official": false, 
                "official_level": 0, 
                "role": null, 
                "verified_organization": null
            }, 
            "body": "<p>Nada de acuerdo. Solo hay que vigilar que se cumpla lo acordado.\n<br />Estoy seguro que las personas ensucian mucho mas de lo que pueden ensuciar el metro los animales.</p>", 
            "commentable_id": 1289, 
            "commentable_type": "Proposal", 
            "created_at": "03/02/2016 23:06:33", 
            "flagged": false, 
            "hidden": false, 
            "id": 510, 
            "moderator_id": null, 
            "permissions": {
                "hide": false, 
                "hide_author": false, 
                "vote": false
            }, 
            "total_dislikes": 1, 
            "total_likes": 9, 
            "total_votes": 10
        }, 
        {
            "administrator_id": null, 
            "alignment": -1, 
            "ancestry": null, 
            "as": null, 
            "author": {
                "avatar_image": "https://decidim.barcelona/assets/avatar-866795c99abc33a3160d1f3fa93ada46eb75e54134e777666b9ed16215b26534.png", 
                "erased": false, 
                "hidden": false, 
                "id": 1941, 
                "name": "christianpg", 
                "official": false, 
                "official_level": 0, 
                "role": null, 
                "verified_organization": null
            }, 
            "body": "<p>La degradaci\u00f3 al metro \u00e9s la que es produeix quan persones com tu hi entren! Jo no vull compartir el metro amb tu i s\u00ed que vull fer-ho amb els gossos, a reveure! </p>", 
            "commentable_id": 1289, 
            "commentable_type": "Proposal", 
            "created_at": "04/02/2016 02:27:25", 
            "flagged": false, 
            "hidden": false, 
            "id": 544, 
            "moderator_id": null, 
            "permissions": {
                "hide": false, 
                "hide_author": false, 
                "vote": false
            }, 
            "total_dislikes": 0, 
            "total_likes": 5, 
            "total_votes": 5
        }, 
        {
            "administrator_id": null, 
            "alignment": -1, 
            "ancestry": null, 
            "as": null, 
            "author": {
                "avatar_image": "https://decidim.barcelona/assets/avatar-866795c99abc33a3160d1f3fa93ada46eb75e54134e777666b9ed16215b26534.png", 
                "erased": false, 
                "hidden": false, 
                "id": 2044, 
                "name": "Francesc Ribas Iba\u00f1ez", 
                "official": false, 
                "official_level": 0, 
                "role": null, 
                "verified_organization": null
            }, 
            "body": "<p>No he vist cap gos dins les instal\u00b7lacions del metro que faci pintades, escupi al terra o faci \"botellon\". Son altres els que degraden </p>", 
            "commentable_id": 1289, 
            "commentable_type": "Proposal", 
            "created_at": "04/02/2016 12:31:58", 
            "flagged": false, 
            "hidden": false, 
            "id": 599, 
            "moderator_id": null, 
            "permissions": {
                "hide": false, 
                "hide_author": false, 
                "vote": false
            }, 
            "total_dislikes": 0, 
            "total_likes": 6, 
            "total_votes": 6
        }, 
        {
            "administrator_id": null, 
            "alignment": -1, 
            "ancestry": null, 
            "as": null, 
            "author": {
                "avatar_image": "https://decidim.barcelona/assets/avatar-866795c99abc33a3160d1f3fa93ada46eb75e54134e777666b9ed16215b26534.png", 
                "erased": false, 
                "hidden": false, 
                "id": 2135, 
                "name": "Rosa Mateu", 
                "official": false, 
                "official_level": 0, 
                "role": null, 
                "verified_organization": null
            }, 
            "body": "<p>No entenc quina \u00e9s la dignitat que perden els usuaris del metro si deixen entrar un gos. Mai he presenciat cap conflicte. L'acc\u00e9s de gossos al metro ha repercutit molt positivament. </p>", 
            "commentable_id": 1289, 
            "commentable_type": "Proposal", 
            "created_at": "05/02/2016 17:27:19", 
            "flagged": false, 
            "hidden": false, 
            "id": 836, 
            "moderator_id": null, 
            "permissions": {
                "hide": false, 
                "hide_author": false, 
                "vote": false
            }, 
            "total_dislikes": 0, 
            "total_likes": 4, 
            "total_votes": 4
        }, 
        {
            "administrator_id": null, 
            "alignment": -1, 
            "ancestry": null, 
            "as": null, 
            "author": {
                "avatar_image": "https://decidim.barcelona/assets/avatar-866795c99abc33a3160d1f3fa93ada46eb75e54134e777666b9ed16215b26534.png", 
                "erased": false, 
                "hidden": false, 
                "id": 2641, 
                "name": "Olmo Garcia", 
                "official": false, 
                "official_level": 0, 
                "role": null, 
                "verified_organization": null
            }, 
            "body": "<p>\u00bfQu\u00e9 dignidad es la que se ha perdido? No se han demostrado conflictos ni degradaci\u00f3n ni miedo a usar el metro por causa de los perros. \u00bfD\u00f3nde est\u00e1 el informe que supuestamente lo demuestra?</p>", 
            "commentable_id": 1289, 
            "commentable_type": "Proposal", 
            "created_at": "05/02/2016 20:19:27", 
            "flagged": false, 
            "hidden": false, 
            "id": 856, 
            "moderator_id": null, 
            "permissions": {
                "hide": false, 
                "hide_author": false, 
                "vote": false
            }, 
            "total_dislikes": 0, 
            "total_likes": 4, 
            "total_votes": 4
        }, 
        {
            "administrator_id": null, 
            "alignment": -1, 
            "ancestry": null, 
            "as": null, 
            "author": {
                "avatar_image": "https://decidim.barcelona/assets/avatar-866795c99abc33a3160d1f3fa93ada46eb75e54134e777666b9ed16215b26534.png", 
                "erased": false, 
                "hidden": false, 
                "id": 3112, 
                "name": "Mingo", 
                "official": false, 
                "official_level": 0, 
                "role": null, 
                "verified_organization": null
            }, 
            "body": "<p>p\u00e8rdua de la dignitat, conflicte, degradaci\u00f3, ... ???</p>", 
            "commentable_id": 1289, 
            "commentable_type": "Proposal", 
            "created_at": "08/02/2016 01:08:10", 
            "flagged": false, 
            "hidden": false, 
            "id": 1114, 
            "moderator_id": null, 
            "permissions": {
                "hide": false, 
                "hide_author": false, 
                "vote": false
            }, 
            "total_dislikes": 0, 
            "total_likes": 1, 
            "total_votes": 1
        }, 
        {
            "administrator_id": null, 
            "alignment": -1, 
            "ancestry": null, 
            "as": null, 
            "author": {
                "avatar_image": "https://decidim.barcelona/assets/avatar-866795c99abc33a3160d1f3fa93ada46eb75e54134e777666b9ed16215b26534.png", 
                "erased": false, 
                "hidden": false, 
                "id": 3910, 
                "name": "Adri\u00e0 Cano", 
                "official": false, 
                "official_level": 0, 
                "role": null, 
                "verified_organization": null
            }, 
            "body": "<p>La dignitat es retorna tenint respecte i educaci\u00f3 i no convertint casos a\u00efllats en fets habituals. Donar per suposat que els gossos fan baixar la dignitat del transport p\u00fablic \u00e9s rid\u00edcul.</p>", 
            "commentable_id": 1289, 
            "commentable_type": "Proposal", 
            "created_at": "09/02/2016 13:07:11", 
            "flagged": false, 
            "hidden": false, 
            "id": 1284, 
            "moderator_id": null, 
            "permissions": {
                "hide": false, 
                "hide_author": false, 
                "vote": false
            }, 
            "total_dislikes": 0, 
            "total_likes": 2, 
            "total_votes": 2
        }, 
        {
            "administrator_id": null, 
            "alignment": 0, 
            "ancestry": null, 
            "as": null, 
            "author": {
                "avatar_image": "https://decidim.barcelona/assets/avatar-866795c99abc33a3160d1f3fa93ada46eb75e54134e777666b9ed16215b26534.png", 
                "erased": false, 
                "hidden": false, 
                "id": 179, 
                "name": "Susanna", 
                "official": false, 
                "official_level": 0, 
                "role": null, 
                "verified_organization": null
            }, 
            "body": "<p>Est\u00e0 clar que tooooots porten els gossos amb morri\u00f3 i ben lligats...</p>", 
            "commentable_id": 1289, 
            "commentable_type": "Proposal", 
            "created_at": "09/02/2016 20:11:44", 
            "flagged": false, 
            "hidden": false, 
            "id": 1357, 
            "moderator_id": null, 
            "permissions": {
                "hide": false, 
                "hide_author": false, 
                "vote": false
            }, 
            "total_dislikes": 0, 
            "total_likes": 1, 
            "total_votes": 1
        }, 
        {
            "administrator_id": null, 
            "alignment": -1, 
            "ancestry": null, 
            "as": null, 
            "author": {
                "avatar_image": "https://decidim.barcelona/assets/avatar-866795c99abc33a3160d1f3fa93ada46eb75e54134e777666b9ed16215b26534.png", 
                "erased": true, 
                "hidden": false, 
                "id": 5546, 
                "name": null, 
                "official": false, 
                "official_level": 0, 
                "role": null, 
                "verified_organization": null
            }, 
            "body": "<p>La gran majoria de ciutats europees admeten gossos i els ciutadans no tenen por d'usar el metro</p>", 
            "commentable_id": 1289, 
            "commentable_type": "Proposal", 
            "created_at": "15/02/2016 19:12:37", 
            "flagged": false, 
            "hidden": false, 
            "id": 1876, 
            "moderator_id": null, 
            "permissions": {
                "hide": false, 
                "hide_author": false, 
                "vote": false
            }, 
            "total_dislikes": 0, 
            "total_likes": 1, 
            "total_votes": 1
        }, 
        {
            "administrator_id": null, 
            "alignment": -1, 
            "ancestry": null, 
            "as": null, 
            "author": {
                "avatar_image": "https://decidim.barcelona/assets/avatar-866795c99abc33a3160d1f3fa93ada46eb75e54134e777666b9ed16215b26534.png", 
                "erased": false, 
                "hidden": false, 
                "id": 6695, 
                "name": "alejandrojgs", 
                "official": false, 
                "official_level": 0, 
                "role": null, 
                "verified_organization": null
            }, 
            "body": "<p>A qui\u00e9n deber\u00edan prohibirle la entrada al metro son a personas como t\u00fa. He visto muchos perros en el metro y jam\u00e1s causando ning\u00fan problema. \n<br />En cambio, borrachos, carteristas, y personas molestas y/o conflictivas he visto much\u00edsimas y no se les dice nada. </p>", 
            "commentable_id": 1289, 
            "commentable_type": "Proposal", 
            "created_at": "19/02/2016 10:29:02", 
            "flagged": false, 
            "hidden": false, 
            "id": 2125, 
            "moderator_id": null, 
            "permissions": {
                "hide": false, 
                "hide_author": false, 
                "vote": false
            }, 
            "total_dislikes": 1, 
            "total_likes": 2, 
            "total_votes": 3
        }, 
        {
            "administrator_id": null, 
            "alignment": 1, 
            "ancestry": null, 
            "as": null, 
            "author": {
                "avatar_image": "https://decidim.barcelona/assets/avatar-866795c99abc33a3160d1f3fa93ada46eb75e54134e777666b9ed16215b26534.png", 
                "erased": false, 
                "hidden": false, 
                "id": 1173, 
                "name": "Emilio_Lopez1985", 
                "official": false, 
                "official_level": 0, 
                "role": null, 
                "verified_organization": null
            }, 
            "body": "<p>Jo estic totalment d' acord. PEro amb un matis que els gossos pigall si que els deixin entrar.</p>", 
            "commentable_id": 1289, 
            "commentable_type": "Proposal", 
            "created_at": "25/02/2016 20:13:37", 
            "flagged": false, 
            "hidden": false, 
            "id": 2740, 
            "moderator_id": null, 
            "permissions": {
                "hide": false, 
                "hide_author": false, 
                "vote": false
            }, 
            "total_dislikes": 1, 
            "total_likes": 0, 
            "total_votes": 1
        }, 
        {
            "administrator_id": null, 
            "alignment": -1, 
            "ancestry": null, 
            "as": null, 
            "author": {
                "avatar_image": "https://decidim.barcelona/assets/avatar-866795c99abc33a3160d1f3fa93ada46eb75e54134e777666b9ed16215b26534.png", 
                "erased": false, 
                "hidden": false, 
                "id": 8664, 
                "name": "danidl", 
                "official": false, 
                "official_level": 0, 
                "role": null, 
                "verified_organization": null
            }, 
            "body": "<p>Jo no veig cap mena de degradaci\u00f3.</p>", 
            "commentable_id": 1289, 
            "commentable_type": "Proposal", 
            "created_at": "26/02/2016 14:07:15", 
            "flagged": false, 
            "hidden": false, 
            "id": 2814, 
            "moderator_id": null, 
            "permissions": {
                "hide": false, 
                "hide_author": false, 
                "vote": false
            }, 
            "total_dislikes": 0, 
            "total_likes": 1, 
            "total_votes": 1
        }, 
        {
            "administrator_id": null, 
            "alignment": -1, 
            "ancestry": null, 
            "as": null, 
            "author": {
                "avatar_image": "https://decidim.barcelona/assets/avatar-866795c99abc33a3160d1f3fa93ada46eb75e54134e777666b9ed16215b26534.png", 
                "erased": false, 
                "hidden": false, 
                "id": 7132, 
                "name": "mgclares", 
                "official": false, 
                "official_level": 0, 
                "role": null, 
                "verified_organization": null
            }, 
            "body": "<p>Totalment en contra</p>", 
            "commentable_id": 1289, 
            "commentable_type": "Proposal", 
            "created_at": "29/02/2016 00:15:59", 
            "flagged": false, 
            "hidden": false, 
            "id": 3020, 
            "moderator_id": null, 
            "permissions": {
                "hide": false, 
                "hide_author": false, 
                "vote": false
            }, 
            "total_dislikes": 0, 
            "total_likes": 1, 
            "total_votes": 1
        }, 
        {
            "administrator_id": null, 
            "alignment": -1, 
            "ancestry": null, 
            "as": null, 
            "author": {
                "avatar_image": "https://decidim.barcelona/assets/avatar-866795c99abc33a3160d1f3fa93ada46eb75e54134e777666b9ed16215b26534.png", 
                "erased": false, 
                "hidden": false, 
                "id": 9366, 
                "name": "evaison", 
                "official": false, 
                "official_level": 0, 
                "role": null, 
                "verified_organization": null
            }, 
            "body": "<p>Nada de acuerdo. La dignidad al metro se la quita las personas que se comportan de forma inc\u00edvica y no los perros.</p>", 
            "commentable_id": 1289, 
            "commentable_type": "Proposal", 
            "created_at": "29/02/2016 18:37:58", 
            "flagged": false, 
            "hidden": false, 
            "id": 3076, 
            "moderator_id": null, 
            "permissions": {
                "hide": false, 
                "hide_author": false, 
                "vote": false
            }, 
            "total_dislikes": 0, 
            "total_likes": 2, 
            "total_votes": 2
        }, 
        {
            "administrator_id": null, 
            "alignment": 1, 
            "ancestry": null, 
            "as": null, 
            "author": {
                "avatar_image": "https://decidim.barcelona/assets/avatar-866795c99abc33a3160d1f3fa93ada46eb75e54134e777666b9ed16215b26534.png", 
                "erased": false, 
                "hidden": false, 
                "id": 12132, 
                "name": "Jaume Ferrer", 
                "official": false, 
                "official_level": 0, 
                "role": null, 
                "verified_organization": null
            }, 
            "body": "<p>Davant l'incimisme  de bona part dels propietaris de gossos que entren al metro, veig necessari que nom\u00e9s es deixin entrar els gossos pigall.  No vull sentir males olors de gossos i patir per si em mossegar\u00e0 o no. Ho sento per la gent que compleix la normativa per\u00f2 com que no fan res per recriminar aquestes actituds a les persones que se la salten.</p>", 
            "commentable_id": 1289, 
            "commentable_type": "Proposal", 
            "created_at": "15/03/2016 13:56:41", 
            "flagged": false, 
            "hidden": false, 
            "id": 5026, 
            "moderator_id": null, 
            "permissions": {
                "hide": false, 
                "hide_author": false, 
                "vote": false
            }, 
            "total_dislikes": 1, 
            "total_likes": 0, 
            "total_votes": 1
        }, 
        {
            "administrator_id": null, 
            "alignment": null, 
            "ancestry": "5026", 
            "as": null, 
            "author": {
                "avatar_image": "https://decidim.barcelona/assets/avatar-866795c99abc33a3160d1f3fa93ada46eb75e54134e777666b9ed16215b26534.png", 
                "erased": false, 
                "hidden": false, 
                "id": 12133, 
                "name": "kenca", 
                "official": false, 
                "official_level": 0, 
                "role": null, 
                "verified_organization": null
            }, 
            "body": "<p>yo no quiero oler a las personas que no se duchan en plena hora punta que huelen peor que los perros y me aguanto. Todo se solucionar\u00eda poniendo varios vagones donde podr\u00edan entrar los perros, y a quien les molestase su presencia, pues a los otros vagones!</p>", 
            "commentable_id": 1289, 
            "commentable_type": "Proposal", 
            "created_at": "17/03/2016 20:31:27", 
            "flagged": false, 
            "hidden": false, 
            "id": 5660, 
            "moderator_id": null, 
            "permissions": {
                "hide": false, 
                "hide_author": false, 
                "vote": false
            }, 
            "total_dislikes": 0, 
            "total_likes": 1, 
            "total_votes": 1
        }
    ], 
    "meta": {
        "current_page": 1, 
        "next_page": 2, 
        "prev_page": null, 
        "total_count": 29, 
        "total_pages": 2
    }
}