{
    "comments": [
        {
            "administrator_id": null, 
            "alignment": -1, 
            "ancestry": null, 
            "as": null, 
            "author": {
                "avatar_image": "https://decidim.barcelona/assets/avatar-866795c99abc33a3160d1f3fa93ada46eb75e54134e777666b9ed16215b26534.png", 
                "erased": false, 
                "hidden": false, 
                "id": 11178, 
                "name": "annagsainz", 
                "official": false, 
                "official_level": 0, 
                "role": null, 
                "verified_organization": null
            }, 
            "body": "<p>Totalment en contra. S'ha de regular l'entrada i pendre mesures per evitar incidents i que no molestin a altres usuaris. En tot cas, mai he vist cap incident amb un gos al metro, per\u00f2 si n'he vist molts amb persones: bebent, cridant, barallant-se, fumant dins del metro, etc.</p>", 
            "commentable_id": 1289, 
            "commentable_type": "Proposal", 
            "created_at": "21/03/2016 12:47:49", 
            "flagged": false, 
            "hidden": false, 
            "id": 6101, 
            "moderator_id": null, 
            "permissions": {
                "hide": false, 
                "hide_author": false, 
                "vote": false
            }, 
            "total_dislikes": 0, 
            "total_likes": 2, 
            "total_votes": 2
        }, 
        {
            "administrator_id": null, 
            "alignment": -1, 
            "ancestry": null, 
            "as": null, 
            "author": {
                "avatar_image": "https://decidim.barcelona/assets/avatar-866795c99abc33a3160d1f3fa93ada46eb75e54134e777666b9ed16215b26534.png", 
                "erased": false, 
                "hidden": false, 
                "id": 14473, 
                "name": "Paula Alfonso", 
                "official": false, 
                "official_level": 0, 
                "role": null, 
                "verified_organization": null
            }, 
            "body": "<p>No crec pas que el metro ni les persones que en s\u00f3n usu\u00e0ries hagin perdut la dignitat per permetre-hi la entrada als gossos. Si alg\u00fa t\u00e9 problemes amb algun propietari (recordem que els gossos fan el que els seus propietaris els permeten) que li digui o que informi a les autoritats pertinents. La soluci\u00f3 no \u00e9s negar als gossos l'\u00fas del metro sin\u00f3 fer complir les normatives vinculades a la seva entrada. Personalment crec que fins i tot haur\u00edem de permetre que els gossos viatgessin en bus.</p>", 
            "commentable_id": 1289, 
            "commentable_type": "Proposal", 
            "created_at": "21/03/2016 12:54:18", 
            "flagged": false, 
            "hidden": false, 
            "id": 6104, 
            "moderator_id": null, 
            "permissions": {
                "hide": false, 
                "hide_author": false, 
                "vote": false
            }, 
            "total_dislikes": 0, 
            "total_likes": 2, 
            "total_votes": 2
        }, 
        {
            "administrator_id": null, 
            "alignment": 1, 
            "ancestry": null, 
            "as": null, 
            "author": {
                "avatar_image": "https://decidim.barcelona/assets/avatar-866795c99abc33a3160d1f3fa93ada46eb75e54134e777666b9ed16215b26534.png", 
                "erased": false, 
                "hidden": false, 
                "id": 14891, 
                "name": "PauRebull", 
                "official": false, 
                "official_level": 0, 
                "role": null, 
                "verified_organization": null
            }, 
            "body": "<p>Totalment d'acord. A totes les instal\u00b7lacions p\u00fabliques no es pot entrar amb animals i el metro ha de tornar a ser aix\u00ed.\n<br />Els que no estan d'acord s'omplen la boca dient que s\u00f3n els amos els responsables per\u00f2 d'aquests la gran majoria no compleixen les normes ni pel que fa al morri\u00f3 ni pel que fa a l'horari en qu\u00e8 poden anar amb el gos. No entenen que no a tothom li agrada els gossos i a m\u00e9s \u00e9s totalment antihigi\u00e8nic!!!\n<br />Cal un debat seri\u00f3s ja sobre el problema de la gran quantitat de gossos a la ciutat.</p>", 
            "commentable_id": 1289, 
            "commentable_type": "Proposal", 
            "created_at": "28/03/2016 16:48:32", 
            "flagged": false, 
            "hidden": false, 
            "id": 6606, 
            "moderator_id": null, 
            "permissions": {
                "hide": false, 
                "hide_author": false, 
                "vote": false
            }, 
            "total_dislikes": 1, 
            "total_likes": 0, 
            "total_votes": 1
        }, 
        {
            "administrator_id": null, 
            "alignment": -1, 
            "ancestry": null, 
            "as": null, 
            "author": {
                "avatar_image": "https://decidim.barcelona/assets/avatar-866795c99abc33a3160d1f3fa93ada46eb75e54134e777666b9ed16215b26534.png", 
                "erased": false, 
                "hidden": false, 
                "id": 15578, 
                "name": "AlbertPr", 
                "official": false, 
                "official_level": 0, 
                "role": null, 
                "verified_organization": null
            }, 
            "body": "<p>Totalment en contra d'aquesta proposta. Hi ha molt incivisme al metro que s'ha de combatre, s\u00ed, per\u00f2 no per culpa dels gossos sino de les \"persones\" que ho embruten tot. El metro ja porta molt temps degradat, molt abans de l'arribada dels gossos.</p>", 
            "commentable_id": 1289, 
            "commentable_type": "Proposal", 
            "created_at": "29/03/2016 08:43:58", 
            "flagged": false, 
            "hidden": false, 
            "id": 6691, 
            "moderator_id": null, 
            "permissions": {
                "hide": false, 
                "hide_author": false, 
                "vote": false
            }, 
            "total_dislikes": 0, 
            "total_likes": 1, 
            "total_votes": 1
        }, 
        {
            "administrator_id": null, 
            "alignment": -1, 
            "ancestry": null, 
            "as": null, 
            "author": {
                "avatar_image": "https://decidim.barcelona/assets/avatar-866795c99abc33a3160d1f3fa93ada46eb75e54134e777666b9ed16215b26534.png", 
                "erased": false, 
                "hidden": false, 
                "id": 17170, 
                "name": "suho", 
                "official": false, 
                "official_level": 0, 
                "role": null, 
                "verified_organization": null
            }, 
            "body": "<p>No vull repetir tots els arguments de les persones que estan en contra d'aquesta proposta perqu\u00e8 estic TOTALMENT d'acord amb tots, i \u00e9s m\u00e9s, falta la proposta per a poder anar amb les nostres mascotes amb autob\u00fas.  Si tots tenim una mica de seny, sentit com\u00fa i comportament c\u00edvic amb respecte cap els altres (sense/amb mascota - anant en bicicleta - amb nens - utilitzant el m\u00f2bil - cotxe - moto.............) aquesta proposta no caldria debatir-la.</p>", 
            "commentable_id": 1289, 
            "commentable_type": "Proposal", 
            "created_at": "02/04/2016 19:00:51", 
            "flagged": false, 
            "hidden": false, 
            "id": 7531, 
            "moderator_id": null, 
            "permissions": {
                "hide": false, 
                "hide_author": false, 
                "vote": false
            }, 
            "total_dislikes": 0, 
            "total_likes": 2, 
            "total_votes": 2
        }, 
        {
            "administrator_id": null, 
            "alignment": 1, 
            "ancestry": null, 
            "as": null, 
            "author": {
                "avatar_image": "https://decidim.barcelona/assets/avatar-866795c99abc33a3160d1f3fa93ada46eb75e54134e777666b9ed16215b26534.png", 
                "erased": false, 
                "hidden": false, 
                "id": 1280, 
                "name": "MyBloodyBCN", 
                "official": false, 
                "official_level": 0, 
                "role": null, 
                "verified_organization": null
            }, 
            "body": "<p>Totalment d'acord, la posada en marxa d'aquesta normativa ha estat un complet error. el nostre pa\u00eds, malauradament, no \u00e9s de grisos, tot ha de ser o blanc o negre i quan es fa una normativa que permet l'acc\u00e9s amb restriccions (lligats, amb murri\u00f3, evitant hores punta, etc) molts amos es pasen aquestes limitacions per l'arc de triomf. A m\u00e9s, els serveis de seguretat del metro s\u00f3n poc rigurosos i jo he vist un munt de casos en que veien un gos sense lligar i sense murri\u00f3 i no els hi deien res. Clarament s'ha de tornar a la situaci\u00f3 anterior i abolir aquesta normativa.</p>", 
            "commentable_id": 1289, 
            "commentable_type": "Proposal", 
            "created_at": "08/04/2016 22:47:04", 
            "flagged": false, 
            "hidden": false, 
            "id": 11492, 
            "moderator_id": null, 
            "permissions": {
                "hide": false, 
                "hide_author": false, 
                "vote": false
            }, 
            "total_dislikes": 1, 
            "total_likes": 0, 
            "total_votes": 1
        }, 
        {
            "administrator_id": null, 
            "alignment": 0, 
            "ancestry": null, 
            "as": null, 
            "author": {
                "avatar_image": "https://decidim.barcelona/assets/avatar-866795c99abc33a3160d1f3fa93ada46eb75e54134e777666b9ed16215b26534.png", 
                "erased": false, 
                "hidden": false, 
                "id": 9262, 
                "name": "Suport General - Decidim Barcelona", 
                "official": false, 
                "official_level": 0, 
                "role": null, 
                "verified_organization": null
            }, 
            "body": "<p><a href=\"https://decidim.barcelona/proposals/aceptacion-de-mascotas-en-autobuses-metropolitanos\">https://decidim.barcelona/proposals/aceptacion-de-mascotas-en-autobuses-metropolitanos</a></p>", 
            "commentable_id": 1289, 
            "commentable_type": "Proposal", 
            "created_at": "14/04/2016 16:45:22", 
            "flagged": false, 
            "hidden": false, 
            "id": 15970, 
            "moderator_id": null, 
            "permissions": {
                "hide": false, 
                "hide_author": false, 
                "vote": false
            }, 
            "total_dislikes": 0, 
            "total_likes": 0, 
            "total_votes": 0
        }, 
        {
            "administrator_id": null, 
            "alignment": 0, 
            "ancestry": null, 
            "as": null, 
            "author": {
                "avatar_image": "https://decidim.barcelona/assets/avatar-866795c99abc33a3160d1f3fa93ada46eb75e54134e777666b9ed16215b26534.png", 
                "erased": false, 
                "hidden": false, 
                "id": 9262, 
                "name": "Suport General - Decidim Barcelona", 
                "official": false, 
                "official_level": 0, 
                "role": null, 
                "verified_organization": null
            }, 
            "body": "<p><a href=\"https://decidim.barcelona/proposals/gossos-a-l-autobus\">https://decidim.barcelona/proposals/gossos-a-l-autobus</a></p>", 
            "commentable_id": 1289, 
            "commentable_type": "Proposal", 
            "created_at": "14/04/2016 16:51:31", 
            "flagged": false, 
            "hidden": false, 
            "id": 15989, 
            "moderator_id": null, 
            "permissions": {
                "hide": false, 
                "hide_author": false, 
                "vote": false
            }, 
            "total_dislikes": 0, 
            "total_likes": 0, 
            "total_votes": 0
        }, 
        {
            "administrator_id": null, 
            "alignment": 0, 
            "ancestry": null, 
            "as": null, 
            "author": {
                "avatar_image": "https://decidim.barcelona/assets/avatar-866795c99abc33a3160d1f3fa93ada46eb75e54134e777666b9ed16215b26534.png", 
                "erased": false, 
                "hidden": false, 
                "id": 9262, 
                "name": "Suport General - Decidim Barcelona", 
                "official": false, 
                "official_level": 0, 
                "role": null, 
                "verified_organization": null
            }, 
            "body": "<p><a href=\"https://decidim.barcelona/proposals/gossos-a-l-autobus-de-barcelona-tmb\">https://decidim.barcelona/proposals/gossos-a-l-autobus-de-barcelona-tmb</a></p>", 
            "commentable_id": 1289, 
            "commentable_type": "Proposal", 
            "created_at": "15/04/2016 10:29:33", 
            "flagged": false, 
            "hidden": false, 
            "id": 16517, 
            "moderator_id": null, 
            "permissions": {
                "hide": false, 
                "hide_author": false, 
                "vote": false
            }, 
            "total_dislikes": 0, 
            "total_likes": 0, 
            "total_votes": 0
        }
    ], 
    "meta": {
        "current_page": 2, 
        "next_page": null, 
        "prev_page": 1, 
        "total_count": 29, 
        "total_pages": 2
    }
}