{
    "comments": [
        {
            "administrator_id": null, 
            "alignment": -1, 
            "ancestry": null, 
            "as": null, 
            "author": {
                "avatar_image": "https://decidim.barcelona/assets/avatar-866795c99abc33a3160d1f3fa93ada46eb75e54134e777666b9ed16215b26534.png", 
                "erased": false, 
                "hidden": false, 
                "id": 15599, 
                "name": "Paseante", 
                "official": false, 
                "official_level": 0, 
                "role": null, 
                "verified_organization": null
            }, 
            "body": "<p>Me parece muy correcto enlazar los tranv\u00edas por la Diagonal. M\u00e1s transporte p\u00fablico y menos coches y motos</p>", 
            "commentable_id": 1429, 
            "commentable_type": "Proposal", 
            "created_at": "29/03/2016 22:29:22", 
            "flagged": false, 
            "hidden": false, 
            "id": 6867, 
            "moderator_id": null, 
            "permissions": {
                "hide": false, 
                "hide_author": false, 
                "vote": false
            }, 
            "total_dislikes": 0, 
            "total_likes": 0, 
            "total_votes": 0
        }
    ], 
    "meta": {
        "current_page": 2, 
        "next_page": null, 
        "prev_page": 1, 
        "total_count": 21, 
        "total_pages": 2
    }
}