{
    "comments": [
        {
            "administrator_id": null, 
            "alignment": 1, 
            "ancestry": null, 
            "as": null, 
            "author": {
                "avatar_image": "https://decidim.barcelona/assets/avatar-866795c99abc33a3160d1f3fa93ada46eb75e54134e777666b9ed16215b26534.png", 
                "erased": false, 
                "hidden": false, 
                "id": 15665, 
                "name": "Oriol.bcn", 
                "official": false, 
                "official_level": 0, 
                "role": null, 
                "verified_organization": null
            }, 
            "body": "<p>Estic d\u00b4acord amb que cal un zoo del segle XXI, per\u00f2 fora del Parc de la Ciutadella. Cal una nova ubicaci\u00f3 i recuperar tot l\u00b4espai del Parc, que a Barcelona no anem precisament sobrats de grans parcs i jardins p\u00fablics.</p>", 
            "commentable_id": 1448, 
            "commentable_type": "Proposal", 
            "created_at": "29/03/2016 13:21:42", 
            "flagged": false, 
            "hidden": false, 
            "id": 6727, 
            "moderator_id": null, 
            "permissions": {
                "hide": false, 
                "hide_author": false, 
                "vote": false
            }, 
            "total_dislikes": 0, 
            "total_likes": 1, 
            "total_votes": 1
        }, 
        {
            "administrator_id": null, 
            "alignment": 1, 
            "ancestry": null, 
            "as": null, 
            "author": {
                "avatar_image": "https://decidim.barcelona/assets/avatar-866795c99abc33a3160d1f3fa93ada46eb75e54134e777666b9ed16215b26534.png", 
                "erased": false, 
                "hidden": false, 
                "id": 15708, 
                "name": "Cristiangonzaro", 
                "official": false, 
                "official_level": 0, 
                "role": null, 
                "verified_organization": null
            }, 
            "body": "<p>Barcelona hauria de ser capdevantera en proposar un nou tipos de zoo. Un zoo integrat a Collserola on els animals tinguin grans espais verds naturals i visquin en semi llibertat.</p>", 
            "commentable_id": 1448, 
            "commentable_type": "Proposal", 
            "created_at": "29/03/2016 15:15:54", 
            "flagged": false, 
            "hidden": false, 
            "id": 6785, 
            "moderator_id": null, 
            "permissions": {
                "hide": false, 
                "hide_author": false, 
                "vote": false
            }, 
            "total_dislikes": 0, 
            "total_likes": 0, 
            "total_votes": 0
        }, 
        {
            "administrator_id": null, 
            "alignment": 1, 
            "ancestry": null, 
            "as": null, 
            "author": {
                "avatar_image": "https://decidim.barcelona/assets/avatar-866795c99abc33a3160d1f3fa93ada46eb75e54134e777666b9ed16215b26534.png", 
                "erased": false, 
                "hidden": false, 
                "id": 13405, 
                "name": "Dsoriano ", 
                "official": false, 
                "official_level": 0, 
                "role": null, 
                "verified_organization": null
            }, 
            "body": "<p>A la cita que va tenir lloc al Parc de les Infantes, els infants i adolescents que van participar van demanar que els animals disposessin de m\u00e9s espai, ja que consideren que la dimensi\u00f3 de les g\u00e0bies no permeten unes bones condicions de vida pels animals. </p>", 
            "commentable_id": 1448, 
            "commentable_type": "Proposal", 
            "created_at": "30/03/2016 11:32:15", 
            "flagged": false, 
            "hidden": false, 
            "id": 6944, 
            "moderator_id": null, 
            "permissions": {
                "hide": false, 
                "hide_author": false, 
                "vote": false
            }, 
            "total_dislikes": 0, 
            "total_likes": 0, 
            "total_votes": 0
        }, 
        {
            "administrator_id": null, 
            "alignment": 1, 
            "ancestry": null, 
            "as": null, 
            "author": {
                "avatar_image": "https://decidim.barcelona/assets/avatar-866795c99abc33a3160d1f3fa93ada46eb75e54134e777666b9ed16215b26534.png", 
                "erased": false, 
                "hidden": false, 
                "id": 15092, 
                "name": "CiudadanoCurioso", 
                "official": false, 
                "official_level": 0, 
                "role": null, 
                "verified_organization": null
            }, 
            "body": "<p>Lo primero que hay que hacer es que el Ayuntamiento de Barcelona dicte Ordenanzas Municipales que regule de forma m\u00e1s estricta y exhaustiva las condiciones de salud, limpieza, tratos, primeros cuidados, etc\u00e9tera, que deben recibir los animales en establecimientos de car\u00e1cter abierto al p\u00fablico. As\u00ed, exigir una rehabilitaci\u00f3n de las instalaciones del Zoo de Barcelona para que se adapte a dicha normativa, y un mayor control sobre los trabajadores. Barcelona es una gran ciudad, pero queda desprestigiada con el trato inhumano que sistem\u00e1ticamente se realiza en el Zoo de Barcelona hacia los animales. </p>", 
            "commentable_id": 1448, 
            "commentable_type": "Proposal", 
            "created_at": "05/04/2016 12:45:31", 
            "flagged": false, 
            "hidden": false, 
            "id": 7981, 
            "moderator_id": null, 
            "permissions": {
                "hide": false, 
                "hide_author": false, 
                "vote": false
            }, 
            "total_dislikes": 0, 
            "total_likes": 1, 
            "total_votes": 1
        }, 
        {
            "administrator_id": null, 
            "alignment": 0, 
            "ancestry": null, 
            "as": null, 
            "author": {
                "avatar_image": "https://decidim.barcelona/assets/avatar-866795c99abc33a3160d1f3fa93ada46eb75e54134e777666b9ed16215b26534.png", 
                "erased": false, 
                "hidden": false, 
                "id": 10150, 
                "name": "M\u00f2nica Pujol", 
                "official": false, 
                "official_level": 0, 
                "role": null, 
                "verified_organization": null
            }, 
            "body": "<p>T'animes a donar suport?:</p>\n\n<p>RECUPEREM LA LLOTJA:\n<br />Reclamem que l'antiga seu de l\u2019escola d\u2019art La Llotja torni a ser centre p\u00fablic d'experimentaci\u00f3 educativa, de formaci\u00f3, creaci\u00f3, difusi\u00f3 i promoci\u00f3 dels ensenyaments art\u00edstics</p>\n\n<p><a href=\"https://decidim.barcelona/proposals/recuperem-el-borsi\">https://decidim.barcelona/proposals/recuperem-el-borsi</a></p>", 
            "commentable_id": 1448, 
            "commentable_type": "Proposal", 
            "created_at": "06/04/2016 18:48:29", 
            "flagged": false, 
            "hidden": false, 
            "id": 8829, 
            "moderator_id": null, 
            "permissions": {
                "hide": false, 
                "hide_author": false, 
                "vote": false
            }, 
            "total_dislikes": 0, 
            "total_likes": 0, 
            "total_votes": 0
        }, 
        {
            "administrator_id": null, 
            "alignment": 1, 
            "ancestry": null, 
            "as": null, 
            "author": {
                "avatar_image": "https://decidim.barcelona/assets/avatar-866795c99abc33a3160d1f3fa93ada46eb75e54134e777666b9ed16215b26534.png", 
                "erased": false, 
                "hidden": false, 
                "id": 13405, 
                "name": "Dsoriano ", 
                "official": false, 
                "official_level": 0, 
                "role": null, 
                "verified_organization": null
            }, 
            "body": "<p>Els infants de l\u2019esplai Abat Cassi\u00e0 van estar debatent diferents millores pel medi ambient de la ciutat. Van proposar augmentar l\u2019espai dels animals del zoo, ja que n\u2019hi ha que tenen molt poc espai. </p>", 
            "commentable_id": 1448, 
            "commentable_type": "Proposal", 
            "created_at": "07/04/2016 11:01:03", 
            "flagged": false, 
            "hidden": false, 
            "id": 9112, 
            "moderator_id": null, 
            "permissions": {
                "hide": false, 
                "hide_author": false, 
                "vote": false
            }, 
            "total_dislikes": 0, 
            "total_likes": 0, 
            "total_votes": 0
        }, 
        {
            "administrator_id": null, 
            "alignment": 1, 
            "ancestry": null, 
            "as": null, 
            "author": {
                "avatar_image": "https://decidim.barcelona/assets/avatar-866795c99abc33a3160d1f3fa93ada46eb75e54134e777666b9ed16215b26534.png", 
                "erased": false, 
                "hidden": false, 
                "id": 13405, 
                "name": "Dsoriano ", 
                "official": false, 
                "official_level": 0, 
                "role": null, 
                "verified_organization": null
            }, 
            "body": "<p>Els joves de l\u2019Agrupament Escolta Terra-Nova van participar a una cita presencial i van debatre diferents q\u00fcestions per millorar les condicions de vida de la poblaci\u00f3 de Barcelona. Aquests van proposar revisar exhaustivament o tancar el zoo, per ser un espai de maltractament animal i de banalitzaci\u00f3 dels drets dels animals. </p>", 
            "commentable_id": 1448, 
            "commentable_type": "Proposal", 
            "created_at": "07/04/2016 12:02:39", 
            "flagged": false, 
            "hidden": false, 
            "id": 9140, 
            "moderator_id": null, 
            "permissions": {
                "hide": false, 
                "hide_author": false, 
                "vote": false
            }, 
            "total_dislikes": 0, 
            "total_likes": 0, 
            "total_votes": 0
        }, 
        {
            "administrator_id": null, 
            "alignment": 1, 
            "ancestry": null, 
            "as": null, 
            "author": {
                "avatar_image": "https://decidim.barcelona/assets/avatar-866795c99abc33a3160d1f3fa93ada46eb75e54134e777666b9ed16215b26534.png", 
                "erased": false, 
                "hidden": false, 
                "id": 613, 
                "name": "Josep M Armengou", 
                "official": false, 
                "official_level": 0, 
                "role": null, 
                "verified_organization": null
            }, 
            "body": "<p>D'acord I en contra de tot fonamentalisme. Hi ha fins i tot qui el compara amb les corridas de toros. No fotem.</p>", 
            "commentable_id": 1448, 
            "commentable_type": "Proposal", 
            "created_at": "07/04/2016 13:42:49", 
            "flagged": false, 
            "hidden": false, 
            "id": 9369, 
            "moderator_id": null, 
            "permissions": {
                "hide": false, 
                "hide_author": false, 
                "vote": false
            }, 
            "total_dislikes": 0, 
            "total_likes": 0, 
            "total_votes": 0
        }, 
        {
            "administrator_id": null, 
            "alignment": 1, 
            "ancestry": null, 
            "as": null, 
            "author": {
                "avatar_image": "https://decidim.barcelona/assets/avatar-866795c99abc33a3160d1f3fa93ada46eb75e54134e777666b9ed16215b26534.png", 
                "erased": false, 
                "hidden": false, 
                "id": 3057, 
                "name": "Marga M.", 
                "official": false, 
                "official_level": 0, 
                "role": null, 
                "verified_organization": null
            }, 
            "body": "<p>Els zoos han de deixar d'existir com a aparador d'animals i de maltractament.</p>", 
            "commentable_id": 1448, 
            "commentable_type": "Proposal", 
            "created_at": "08/04/2016 23:24:11", 
            "flagged": false, 
            "hidden": false, 
            "id": 11514, 
            "moderator_id": null, 
            "permissions": {
                "hide": false, 
                "hide_author": false, 
                "vote": false
            }, 
            "total_dislikes": 0, 
            "total_likes": 1, 
            "total_votes": 1
        }, 
        {
            "administrator_id": null, 
            "alignment": 1, 
            "ancestry": null, 
            "as": null, 
            "author": {
                "avatar_image": "https://decidim.barcelona/assets/avatar-866795c99abc33a3160d1f3fa93ada46eb75e54134e777666b9ed16215b26534.png", 
                "erased": false, 
                "hidden": false, 
                "id": 22651, 
                "name": "Jes\u00fas Lois", 
                "official": false, 
                "official_level": 0, 
                "role": null, 
                "verified_organization": null
            }, 
            "body": "<p>Algo parecido a Cab\u00e1rceno</p>", 
            "commentable_id": 1448, 
            "commentable_type": "Proposal", 
            "created_at": "09/04/2016 22:38:17", 
            "flagged": false, 
            "hidden": false, 
            "id": 12723, 
            "moderator_id": null, 
            "permissions": {
                "hide": false, 
                "hide_author": false, 
                "vote": false
            }, 
            "total_dislikes": 0, 
            "total_likes": 0, 
            "total_votes": 0
        }
    ], 
    "meta": {
        "current_page": 3, 
        "next_page": null, 
        "prev_page": 2, 
        "total_count": 50, 
        "total_pages": 3
    }
}