{
    "comments": [
        {
            "administrator_id": null, 
            "alignment": 1, 
            "ancestry": null, 
            "as": null, 
            "author": {
                "avatar_image": "https://decidim.barcelona/assets/avatar-866795c99abc33a3160d1f3fa93ada46eb75e54134e777666b9ed16215b26534.png", 
                "erased": false, 
                "hidden": false, 
                "id": 9207, 
                "name": "Mir Eia RJ", 
                "official": false, 
                "official_level": 0, 
                "role": null, 
                "verified_organization": null
            }, 
            "body": "<p>Les entitats necessiten un espai com \u00e9s l'ateneu. Des del k-2 demanem suport a aquesta proposta!</p>", 
            "commentable_id": 1630, 
            "commentable_type": "Proposal", 
            "created_at": "28/02/2016 23:11:20", 
            "flagged": false, 
            "hidden": false, 
            "id": 3011, 
            "moderator_id": null, 
            "permissions": {
                "hide": false, 
                "hide_author": false, 
                "vote": false
            }, 
            "total_dislikes": 0, 
            "total_likes": 0, 
            "total_votes": 0
        }, 
        {
            "administrator_id": null, 
            "alignment": 0, 
            "ancestry": null, 
            "as": null, 
            "author": {
                "avatar_image": "https://decidim.barcelona/assets/avatar-866795c99abc33a3160d1f3fa93ada46eb75e54134e777666b9ed16215b26534.png", 
                "erased": false, 
                "hidden": false, 
                "id": 9314, 
                "name": "evvl76", 
                "official": false, 
                "official_level": 0, 
                "role": null, 
                "verified_organization": null
            }, 
            "body": "<p>Dono tot el meu suport a l'Ateneu. Fan una feina massa important i necessaria pel barri !!!! </p>", 
            "commentable_id": 1630, 
            "commentable_type": "Proposal", 
            "created_at": "29/02/2016 13:28:21", 
            "flagged": false, 
            "hidden": false, 
            "id": 3049, 
            "moderator_id": null, 
            "permissions": {
                "hide": false, 
                "hide_author": false, 
                "vote": false
            }, 
            "total_dislikes": 0, 
            "total_likes": 0, 
            "total_votes": 0
        }, 
        {
            "administrator_id": null, 
            "alignment": 0, 
            "ancestry": null, 
            "as": null, 
            "author": {
                "avatar_image": "https://decidim.barcelona/assets/avatar-866795c99abc33a3160d1f3fa93ada46eb75e54134e777666b9ed16215b26534.png", 
                "erased": false, 
                "hidden": false, 
                "id": 9701, 
                "name": "Manuel Lara Olivera", 
                "official": false, 
                "official_level": 0, 
                "role": null, 
                "verified_organization": null
            }, 
            "body": "<p>Hola pertenecemos al grupo de Amics de la Papirof\u00e9xia y l\u00f3gicamente deseamos todos con la m\u00e1xima implicaci\u00f3n dar nuestro soporte a \u00e9sta iniciativa, necesitamos tener un local para poder seguir realizando nuestros talleres para toda la gente que est\u00e1n colaborando y soporte al barrio.</p>", 
            "commentable_id": 1630, 
            "commentable_type": "Proposal", 
            "created_at": "01/03/2016 14:45:12", 
            "flagged": false, 
            "hidden": false, 
            "id": 3169, 
            "moderator_id": null, 
            "permissions": {
                "hide": false, 
                "hide_author": false, 
                "vote": false
            }, 
            "total_dislikes": 0, 
            "total_likes": 0, 
            "total_votes": 0
        }, 
        {
            "administrator_id": null, 
            "alignment": 1, 
            "ancestry": null, 
            "as": null, 
            "author": {
                "avatar_image": "https://decidim.barcelona/assets/avatar-866795c99abc33a3160d1f3fa93ada46eb75e54134e777666b9ed16215b26534.png", 
                "erased": false, 
                "hidden": false, 
                "id": 5718, 
                "name": "kerstin", 
                "official": false, 
                "official_level": 0, 
                "role": null, 
                "verified_organization": null
            }, 
            "body": "<p>L'Ateneu del Clot fa una tasca pel barri que no es pot perdre: acull moltes entitats i iniciatives, d\u00f3na serveis socials i culturals molt necessaris, i que donen molta vida i din\u00e0mica a la zona. Els cal una seu definitiva que li doni estabilitat i n'eviti la desaparici\u00f3.</p>", 
            "commentable_id": 1630, 
            "commentable_type": "Proposal", 
            "created_at": "14/03/2016 09:50:18", 
            "flagged": false, 
            "hidden": false, 
            "id": 4741, 
            "moderator_id": null, 
            "permissions": {
                "hide": false, 
                "hide_author": false, 
                "vote": false
            }, 
            "total_dislikes": 0, 
            "total_likes": 0, 
            "total_votes": 0
        }, 
        {
            "administrator_id": null, 
            "alignment": 1, 
            "ancestry": null, 
            "as": null, 
            "author": {
                "avatar_image": "https://decidim.barcelona/assets/avatar-866795c99abc33a3160d1f3fa93ada46eb75e54134e777666b9ed16215b26534.png", 
                "erased": false, 
                "hidden": false, 
                "id": 14622, 
                "name": "lali Mestre", 
                "official": false, 
                "official_level": 0, 
                "role": null, 
                "verified_organization": null
            }, 
            "body": "<p> l'Ateneu del Clot ha de tenir un local definitiu, \u00e9s necessari i imprescindible per el barri per  seguir l'activitat per a tots els p\u00fablics.</p>", 
            "commentable_id": 1630, 
            "commentable_type": "Proposal", 
            "created_at": "22/03/2016 10:33:28", 
            "flagged": false, 
            "hidden": false, 
            "id": 6229, 
            "moderator_id": null, 
            "permissions": {
                "hide": false, 
                "hide_author": false, 
                "vote": false
            }, 
            "total_dislikes": 0, 
            "total_likes": 0, 
            "total_votes": 0
        }, 
        {
            "administrator_id": null, 
            "alignment": 1, 
            "ancestry": null, 
            "as": null, 
            "author": {
                "avatar_image": "https://decidim.barcelona/assets/avatar-866795c99abc33a3160d1f3fa93ada46eb75e54134e777666b9ed16215b26534.png", 
                "erased": false, 
                "hidden": false, 
                "id": 16563, 
                "name": "Laura Mendoza Kaplan", 
                "official": false, 
                "official_level": 0, 
                "role": null, 
                "verified_organization": null
            }, 
            "body": "<p>Es necesario un buen proyecto de intervenci\u00f3n f\u00edsica en sus alrededores, que le de realce al edificio, ya que se pierde en el paisaje circundante.</p>", 
            "commentable_id": 1630, 
            "commentable_type": "Proposal", 
            "created_at": "31/03/2016 22:09:18", 
            "flagged": false, 
            "hidden": false, 
            "id": 7298, 
            "moderator_id": null, 
            "permissions": {
                "hide": false, 
                "hide_author": false, 
                "vote": false
            }, 
            "total_dislikes": 0, 
            "total_likes": 0, 
            "total_votes": 0
        }, 
        {
            "administrator_id": null, 
            "alignment": 1, 
            "ancestry": null, 
            "as": null, 
            "author": {
                "avatar_image": "https://decidim.barcelona/assets/avatar-866795c99abc33a3160d1f3fa93ada46eb75e54134e777666b9ed16215b26534.png", 
                "erased": false, 
                "hidden": false, 
                "id": 21187, 
                "name": "Txena Anguera", 
                "official": false, 
                "official_level": 0, 
                "role": null, 
                "verified_organization": null
            }, 
            "body": "<p>no permetem que la \"iniciativa privada\", desfaci l'esfor\u00e7, la il.lusi\u00f3 i  la feina de tants i tants anys.</p>", 
            "commentable_id": 1630, 
            "commentable_type": "Proposal", 
            "created_at": "08/04/2016 10:44:24", 
            "flagged": false, 
            "hidden": false, 
            "id": 10359, 
            "moderator_id": null, 
            "permissions": {
                "hide": false, 
                "hide_author": false, 
                "vote": false
            }, 
            "total_dislikes": 0, 
            "total_likes": 0, 
            "total_votes": 0
        }, 
        {
            "administrator_id": null, 
            "alignment": 0, 
            "ancestry": null, 
            "as": null, 
            "author": {
                "avatar_image": "https://decidim.barcelona/assets/avatar-866795c99abc33a3160d1f3fa93ada46eb75e54134e777666b9ed16215b26534.png", 
                "erased": false, 
                "hidden": false, 
                "id": 15492, 
                "name": "Lidia Gil", 
                "official": false, 
                "official_level": 0, 
                "role": null, 
                "verified_organization": null
            }, 
            "body": "<p>Mes de trenta-cinc anys a l'agrupament K-2. La tasca que fan es molt important. Joves amb empenta i compromesos. Estudiants que ho sacrifiquen tot per la canalla. Educant sense rebre res a canvi. Definitivament, aquest agrupament, sempre ha de lluitar amb la mateixa bestia. Local ja!!!\n</p>", 
            "commentable_id": 1630, 
            "commentable_type": "Proposal", 
            "created_at": "08/04/2016 21:03:43", 
            "flagged": false, 
            "hidden": false, 
            "id": 11443, 
            "moderator_id": null, 
            "permissions": {
                "hide": false, 
                "hide_author": false, 
                "vote": false
            }, 
            "total_dislikes": 0, 
            "total_likes": 0, 
            "total_votes": 0
        }, 
        {
            "administrator_id": null, 
            "alignment": 0, 
            "ancestry": null, 
            "as": null, 
            "author": {
                "avatar_image": "https://decidim.barcelona/assets/avatar-866795c99abc33a3160d1f3fa93ada46eb75e54134e777666b9ed16215b26534.png", 
                "erased": false, 
                "hidden": false, 
                "id": 17740, 
                "name": "Suport General2 - Decidim Barcelona", 
                "official": false, 
                "official_level": 0, 
                "role": null, 
                "verified_organization": null
            }, 
            "body": "<p><a href=\"https://decidim.barcelona/proposals/un-local-definitiu-per-la-farinera-ateneu-del-clot\">https://decidim.barcelona/proposals/un-local-definitiu-per-la-farinera-ateneu-del-clot</a></p>", 
            "commentable_id": 1630, 
            "commentable_type": "Proposal", 
            "created_at": "09/04/2016 14:21:31", 
            "flagged": false, 
            "hidden": false, 
            "id": 12250, 
            "moderator_id": null, 
            "permissions": {
                "hide": false, 
                "hide_author": false, 
                "vote": false
            }, 
            "total_dislikes": 0, 
            "total_likes": 0, 
            "total_votes": 0
        }, 
        {
            "administrator_id": null, 
            "alignment": 0, 
            "ancestry": null, 
            "as": null, 
            "author": {
                "avatar_image": "https://decidim.barcelona/assets/avatar-866795c99abc33a3160d1f3fa93ada46eb75e54134e777666b9ed16215b26534.png", 
                "erased": false, 
                "hidden": false, 
                "id": 17740, 
                "name": "Suport General2 - Decidim Barcelona", 
                "official": false, 
                "official_level": 0, 
                "role": null, 
                "verified_organization": null
            }, 
            "body": "<p><a href=\"https://decidim.barcelona/proposals/biblioteca-del-clot-al-clot\">https://decidim.barcelona/proposals/biblioteca-del-clot-al-clot</a></p>", 
            "commentable_id": 1630, 
            "commentable_type": "Proposal", 
            "created_at": "09/04/2016 14:26:07", 
            "flagged": false, 
            "hidden": false, 
            "id": 12265, 
            "moderator_id": null, 
            "permissions": {
                "hide": false, 
                "hide_author": false, 
                "vote": false
            }, 
            "total_dislikes": 0, 
            "total_likes": 0, 
            "total_votes": 0
        }, 
        {
            "administrator_id": null, 
            "alignment": 0, 
            "ancestry": null, 
            "as": null, 
            "author": {
                "avatar_image": "https://decidim.barcelona/assets/avatar-866795c99abc33a3160d1f3fa93ada46eb75e54134e777666b9ed16215b26534.png", 
                "erased": false, 
                "hidden": false, 
                "id": 17740, 
                "name": "Suport General2 - Decidim Barcelona", 
                "official": false, 
                "official_level": 0, 
                "role": null, 
                "verified_organization": null
            }, 
            "body": "<p><a href=\"https://decidim.barcelona/proposals/estudi-arquitectonic-de-costa-i-font-freser-trinxant\">https://decidim.barcelona/proposals/estudi-arquitectonic-de-costa-i-font-freser-trinxant</a></p>", 
            "commentable_id": 1630, 
            "commentable_type": "Proposal", 
            "created_at": "09/04/2016 14:27:22", 
            "flagged": false, 
            "hidden": false, 
            "id": 12272, 
            "moderator_id": null, 
            "permissions": {
                "hide": false, 
                "hide_author": false, 
                "vote": false
            }, 
            "total_dislikes": 0, 
            "total_likes": 0, 
            "total_votes": 0
        }, 
        {
            "administrator_id": null, 
            "alignment": 0, 
            "ancestry": null, 
            "as": null, 
            "author": {
                "avatar_image": "https://decidim.barcelona/assets/avatar-866795c99abc33a3160d1f3fa93ada46eb75e54134e777666b9ed16215b26534.png", 
                "erased": false, 
                "hidden": false, 
                "id": 17740, 
                "name": "Suport General2 - Decidim Barcelona", 
                "official": false, 
                "official_level": 0, 
                "role": null, 
                "verified_organization": null
            }, 
            "body": "<p><a href=\"https://decidim.barcelona/proposals/ampliacio-biblioteca-ramon-d-alos-moner\">https://decidim.barcelona/proposals/ampliacio-biblioteca-ramon-d-alos-moner</a></p>", 
            "commentable_id": 1630, 
            "commentable_type": "Proposal", 
            "created_at": "09/04/2016 14:31:13", 
            "flagged": false, 
            "hidden": false, 
            "id": 12287, 
            "moderator_id": null, 
            "permissions": {
                "hide": false, 
                "hide_author": false, 
                "vote": false
            }, 
            "total_dislikes": 0, 
            "total_likes": 0, 
            "total_votes": 0
        }, 
        {
            "administrator_id": null, 
            "alignment": 0, 
            "ancestry": null, 
            "as": null, 
            "author": {
                "avatar_image": "https://decidim.barcelona/assets/avatar-866795c99abc33a3160d1f3fa93ada46eb75e54134e777666b9ed16215b26534.png", 
                "erased": false, 
                "hidden": false, 
                "id": 17740, 
                "name": "Suport General2 - Decidim Barcelona", 
                "official": false, 
                "official_level": 0, 
                "role": null, 
                "verified_organization": null
            }, 
            "body": "<p><a href=\"https://decidim.barcelona/proposals/fer-una-biblioteca-al-clot-de-la-mel\">https://decidim.barcelona/proposals/fer-una-biblioteca-al-clot-de-la-mel</a></p>", 
            "commentable_id": 1630, 
            "commentable_type": "Proposal", 
            "created_at": "09/04/2016 14:31:58", 
            "flagged": false, 
            "hidden": false, 
            "id": 12289, 
            "moderator_id": null, 
            "permissions": {
                "hide": false, 
                "hide_author": false, 
                "vote": false
            }, 
            "total_dislikes": 0, 
            "total_likes": 0, 
            "total_votes": 0
        }, 
        {
            "administrator_id": null, 
            "alignment": 0, 
            "ancestry": null, 
            "as": null, 
            "author": {
                "avatar_image": "https://decidim.barcelona/assets/avatar-866795c99abc33a3160d1f3fa93ada46eb75e54134e777666b9ed16215b26534.png", 
                "erased": false, 
                "hidden": false, 
                "id": 17740, 
                "name": "Suport General2 - Decidim Barcelona", 
                "official": false, 
                "official_level": 0, 
                "role": null, 
                "verified_organization": null
            }, 
            "body": "<p><a href=\"https://decidim.barcelona/proposals/creacio-d-una-sala-per-a-la-cultura-popular-al-barri\">https://decidim.barcelona/proposals/creacio-d-una-sala-per-a-la-cultura-popular-al-barri</a></p>", 
            "commentable_id": 1630, 
            "commentable_type": "Proposal", 
            "created_at": "09/04/2016 14:46:40", 
            "flagged": false, 
            "hidden": false, 
            "id": 12343, 
            "moderator_id": null, 
            "permissions": {
                "hide": false, 
                "hide_author": false, 
                "vote": false
            }, 
            "total_dislikes": 0, 
            "total_likes": 0, 
            "total_votes": 0
        }, 
        {
            "administrator_id": null, 
            "alignment": 0, 
            "ancestry": null, 
            "as": null, 
            "author": {
                "avatar_image": "https://decidim.barcelona/assets/avatar-866795c99abc33a3160d1f3fa93ada46eb75e54134e777666b9ed16215b26534.png", 
                "erased": false, 
                "hidden": false, 
                "id": 17740, 
                "name": "Suport General2 - Decidim Barcelona", 
                "official": false, 
                "official_level": 0, 
                "role": null, 
                "verified_organization": null
            }, 
            "body": "<p><a href=\"https://decidim.barcelona/proposals/can-riera-riera-d-horta-regadora-parellada-centre-d-estudis-i-d-interpretacio\">https://decidim.barcelona/proposals/can-riera-riera-d-horta-regadora-parellada-centre-d-estudis-i-d-interpretacio</a></p>", 
            "commentable_id": 1630, 
            "commentable_type": "Proposal", 
            "created_at": "09/04/2016 14:47:30", 
            "flagged": false, 
            "hidden": false, 
            "id": 12346, 
            "moderator_id": null, 
            "permissions": {
                "hide": false, 
                "hide_author": false, 
                "vote": false
            }, 
            "total_dislikes": 0, 
            "total_likes": 0, 
            "total_votes": 0
        }, 
        {
            "administrator_id": null, 
            "alignment": 0, 
            "ancestry": null, 
            "as": null, 
            "author": {
                "avatar_image": "https://decidim.barcelona/assets/avatar-866795c99abc33a3160d1f3fa93ada46eb75e54134e777666b9ed16215b26534.png", 
                "erased": false, 
                "hidden": false, 
                "id": 17740, 
                "name": "Suport General2 - Decidim Barcelona", 
                "official": false, 
                "official_level": 0, 
                "role": null, 
                "verified_organization": null
            }, 
            "body": "<p><a href=\"https://decidim.barcelona/proposals/crear-una-escola-de-musica-al-barri-del-besos\">https://decidim.barcelona/proposals/crear-una-escola-de-musica-al-barri-del-besos</a></p>", 
            "commentable_id": 1630, 
            "commentable_type": "Proposal", 
            "created_at": "09/04/2016 14:59:58", 
            "flagged": false, 
            "hidden": false, 
            "id": 12367, 
            "moderator_id": null, 
            "permissions": {
                "hide": false, 
                "hide_author": false, 
                "vote": false
            }, 
            "total_dislikes": 0, 
            "total_likes": 0, 
            "total_votes": 0
        }
    ], 
    "meta": {
        "current_page": 2, 
        "next_page": null, 
        "prev_page": 1, 
        "total_count": 36, 
        "total_pages": 2
    }
}