{
    "comments": [
        {
            "administrator_id": null, 
            "alignment": 0, 
            "ancestry": null, 
            "as": null, 
            "author": {
                "avatar_image": "https://decidim.barcelona/assets/avatar-866795c99abc33a3160d1f3fa93ada46eb75e54134e777666b9ed16215b26534.png", 
                "erased": false, 
                "hidden": false, 
                "id": 594, 
                "name": "Jordi Go\u00f1i El Troc", 
                "official": false, 
                "official_level": 0, 
                "role": null, 
                "verified_organization": null
            }, 
            "body": "<p>Seria positiu que l'Ajuntament de Barcelona recolzi el moviment associatiu de t ots els districtes.\n</p>", 
            "commentable_id": 1630, 
            "commentable_type": "Proposal", 
            "created_at": "08/02/2016 23:15:41", 
            "flagged": false, 
            "hidden": false, 
            "id": 1220, 
            "moderator_id": null, 
            "permissions": {
                "hide": false, 
                "hide_author": false, 
                "vote": false
            }, 
            "total_dislikes": 0, 
            "total_likes": 6, 
            "total_votes": 6
        }, 
        {
            "administrator_id": null, 
            "alignment": 1, 
            "ancestry": null, 
            "as": null, 
            "author": {
                "avatar_image": "https://decidim.barcelona/assets/avatar-866795c99abc33a3160d1f3fa93ada46eb75e54134e777666b9ed16215b26534.png", 
                "erased": false, 
                "hidden": false, 
                "id": 3829, 
                "name": "Kevin Carroza", 
                "official": false, 
                "official_level": 0, 
                "role": null, 
                "verified_organization": null
            }, 
            "body": "<p>Totalment a favor ja que l'activitat cultural que ens ofereix l'ateneu del clot, es de car\u00e0cter plural i per a tots els p\u00fablics</p>", 
            "commentable_id": 1630, 
            "commentable_type": "Proposal", 
            "created_at": "09/02/2016 10:49:09", 
            "flagged": false, 
            "hidden": false, 
            "id": 1264, 
            "moderator_id": null, 
            "permissions": {
                "hide": false, 
                "hide_author": false, 
                "vote": false
            }, 
            "total_dislikes": 0, 
            "total_likes": 6, 
            "total_votes": 6
        }, 
        {
            "administrator_id": null, 
            "alignment": 1, 
            "ancestry": null, 
            "as": null, 
            "author": {
                "avatar_image": "https://decidim.barcelona/assets/avatar-866795c99abc33a3160d1f3fa93ada46eb75e54134e777666b9ed16215b26534.png", 
                "erased": false, 
                "hidden": false, 
                "id": 3841, 
                "name": "Arnau Borrell", 
                "official": false, 
                "official_level": 0, 
                "role": null, 
                "verified_organization": null
            }, 
            "body": "<p>Com a soci de l'Ateneu de Clot i membre de l'Agrupament Escolta K-2, dono suport absolut a aquesta iniciativa. Disposar d'un local \u00e9s imprescindible per a que pugui seguir la nostra activitat educativa amb infants i joves del barri.</p>", 
            "commentable_id": 1630, 
            "commentable_type": "Proposal", 
            "created_at": "09/02/2016 11:12:47", 
            "flagged": false, 
            "hidden": false, 
            "id": 1266, 
            "moderator_id": null, 
            "permissions": {
                "hide": false, 
                "hide_author": false, 
                "vote": false
            }, 
            "total_dislikes": 1, 
            "total_likes": 10, 
            "total_votes": 11
        }, 
        {
            "administrator_id": null, 
            "alignment": 1, 
            "ancestry": null, 
            "as": null, 
            "author": {
                "avatar_image": "https://decidim.barcelona/assets/avatar-866795c99abc33a3160d1f3fa93ada46eb75e54134e777666b9ed16215b26534.png", 
                "erased": false, 
                "hidden": false, 
                "id": 3890, 
                "name": "Mara Mar Rivas", 
                "official": false, 
                "official_level": 0, 
                "role": null, 
                "verified_organization": null
            }, 
            "body": "<p>Completament d\u00b4acord</p>", 
            "commentable_id": 1630, 
            "commentable_type": "Proposal", 
            "created_at": "09/02/2016 12:00:42", 
            "flagged": false, 
            "hidden": false, 
            "id": 1273, 
            "moderator_id": null, 
            "permissions": {
                "hide": false, 
                "hide_author": false, 
                "vote": false
            }, 
            "total_dislikes": 0, 
            "total_likes": 5, 
            "total_votes": 5
        }, 
        {
            "administrator_id": null, 
            "alignment": 0, 
            "ancestry": null, 
            "as": null, 
            "author": {
                "avatar_image": "https://decidim.barcelona/assets/avatar-866795c99abc33a3160d1f3fa93ada46eb75e54134e777666b9ed16215b26534.png", 
                "erased": false, 
                "hidden": false, 
                "id": 3920, 
                "name": "Edu Riu Llorca", 
                "official": false, 
                "official_level": 0, 
                "role": null, 
                "verified_organization": null
            }, 
            "body": "<p>  La tasca del ateneu al barri \u00e9s massa impotant per que es quedi sense local</p>", 
            "commentable_id": 1630, 
            "commentable_type": "Proposal", 
            "created_at": "09/02/2016 12:43:23", 
            "flagged": false, 
            "hidden": false, 
            "id": 1282, 
            "moderator_id": null, 
            "permissions": {
                "hide": false, 
                "hide_author": false, 
                "vote": false
            }, 
            "total_dislikes": 0, 
            "total_likes": 8, 
            "total_votes": 8
        }, 
        {
            "administrator_id": null, 
            "alignment": 1, 
            "ancestry": null, 
            "as": null, 
            "author": {
                "avatar_image": "https://decidim.barcelona/assets/avatar-866795c99abc33a3160d1f3fa93ada46eb75e54134e777666b9ed16215b26534.png", 
                "erased": false, 
                "hidden": false, 
                "id": 3996, 
                "name": "nortes21", 
                "official": false, 
                "official_level": 0, 
                "role": null, 
                "verified_organization": null
            }, 
            "body": "<p>A favor d'un local per a una entitat cultural</p>", 
            "commentable_id": 1630, 
            "commentable_type": "Proposal", 
            "created_at": "09/02/2016 14:22:16", 
            "flagged": false, 
            "hidden": false, 
            "id": 1295, 
            "moderator_id": null, 
            "permissions": {
                "hide": false, 
                "hide_author": false, 
                "vote": false
            }, 
            "total_dislikes": 0, 
            "total_likes": 4, 
            "total_votes": 4
        }, 
        {
            "administrator_id": null, 
            "alignment": 1, 
            "ancestry": null, 
            "as": null, 
            "author": {
                "avatar_image": "https://decidim.barcelona/assets/avatar-866795c99abc33a3160d1f3fa93ada46eb75e54134e777666b9ed16215b26534.png", 
                "erased": false, 
                "hidden": false, 
                "id": 4036, 
                "name": "Jaume Elias i Boy\u00e9", 
                "official": false, 
                "official_level": 0, 
                "role": null, 
                "verified_organization": null
            }, 
            "body": "<p>L'Ateneu del Clot \u00e9s una entitat hist\u00f2rica del barri molt activa en l'actualitat, amb m\u00e9s de 40 anys d'exist\u00e8ncia, nascuda dels moviments populars ve\u00efnals de resist\u00e8ncia a l'antic r\u00e8gim. La seva inicial reivindicaci\u00f3 d'\u00fas dels edificis, abandonats de la antiga Farinera de Sant Jaume per ser-ne l'entitat gestora i dinamitzadora (objectiu que finalment no es va aconseguir) va ser sens dubte el motor i l'impuls que amb el temps van permetre que el barri dispos\u00e9s de la infraestructura que avui \u00e9s l'hotel d'Entitats La Farinera del Clot. L'Ateneu del Clot \u00e9s una entitat absolutament arrelada al barri amb interessants activitats amb projecci\u00f3 al barri i obertes a tots els ve\u00efns, que al llarg dels anys ha acollit molts ve\u00efns en els seus tallers i activitats i ha proporcionat aixopluc i infraestructura a molts grups que han pogut desenvolupar les seves activitats eminentment culturals i de dinamitzaci\u00f3 social. Crec que l'Ateneu del Clot ha de tenir un local definitiu. Jaume Elias, soci n 8.</p>", 
            "commentable_id": 1630, 
            "commentable_type": "Proposal", 
            "created_at": "09/02/2016 16:48:35", 
            "flagged": false, 
            "hidden": false, 
            "id": 1318, 
            "moderator_id": null, 
            "permissions": {
                "hide": false, 
                "hide_author": false, 
                "vote": false
            }, 
            "total_dislikes": 0, 
            "total_likes": 5, 
            "total_votes": 5
        }, 
        {
            "administrator_id": null, 
            "alignment": 1, 
            "ancestry": null, 
            "as": null, 
            "author": {
                "avatar_image": "https://decidim.barcelona/assets/avatar-866795c99abc33a3160d1f3fa93ada46eb75e54134e777666b9ed16215b26534.png", 
                "erased": false, 
                "hidden": false, 
                "id": 4111, 
                "name": "Albert M.B.", 
                "official": false, 
                "official_level": 0, 
                "role": null, 
                "verified_organization": null
            }, 
            "body": "<p>L'Ateneu ofereix tallers atractius i activitats social i cultural que cal mantenir i difondre. Moltes vegades hi ha poca publicitat. Es mereixen m\u00e9s pres\u00e8ncia al barri i un local digne.</p>", 
            "commentable_id": 1630, 
            "commentable_type": "Proposal", 
            "created_at": "09/02/2016 18:34:05", 
            "flagged": false, 
            "hidden": false, 
            "id": 1343, 
            "moderator_id": null, 
            "permissions": {
                "hide": false, 
                "hide_author": false, 
                "vote": false
            }, 
            "total_dislikes": 0, 
            "total_likes": 3, 
            "total_votes": 3
        }, 
        {
            "administrator_id": null, 
            "alignment": 1, 
            "ancestry": null, 
            "as": null, 
            "author": {
                "avatar_image": "https://decidim.barcelona/assets/avatar-866795c99abc33a3160d1f3fa93ada46eb75e54134e777666b9ed16215b26534.png", 
                "erased": false, 
                "hidden": false, 
                "id": 4261, 
                "name": "Dui Acut", 
                "official": false, 
                "official_level": 0, 
                "role": null, 
                "verified_organization": null
            }, 
            "body": "<p>Es el m\u00ednim que es pot demanar d unes entitats culturals que funcionen sense conflictes aportant vslis molt nesessaris a la convivencia dels ciutadans , tallers per a tites les edats, actes culturals amateurs, emisora de r\u00e0ddio Clot, celebracions tradicionals  i trobades, moviment Escolta... fent i omplint amb valirs sans i ssludables  la vida dels ve\u00efns i veines. </p>", 
            "commentable_id": 1630, 
            "commentable_type": "Proposal", 
            "created_at": "09/02/2016 23:34:59", 
            "flagged": false, 
            "hidden": false, 
            "id": 1380, 
            "moderator_id": null, 
            "permissions": {
                "hide": false, 
                "hide_author": false, 
                "vote": false
            }, 
            "total_dislikes": 0, 
            "total_likes": 3, 
            "total_votes": 3
        }, 
        {
            "administrator_id": null, 
            "alignment": 1, 
            "ancestry": null, 
            "as": null, 
            "author": {
                "avatar_image": "https://decidim.barcelona/assets/avatar-866795c99abc33a3160d1f3fa93ada46eb75e54134e777666b9ed16215b26534.png", 
                "erased": true, 
                "hidden": false, 
                "id": 4521, 
                "name": null, 
                "official": false, 
                "official_level": 0, 
                "role": null, 
                "verified_organization": null
            }, 
            "body": "<p>L'Ateneu del Clot es mereix un local adequat per poder seguir duent a terme les seves activitats. Iniciatives populars com la de l'Ateneu s\u00f3n les que mereixen la pena.</p>", 
            "commentable_id": 1630, 
            "commentable_type": "Proposal", 
            "created_at": "10/02/2016 18:35:47", 
            "flagged": false, 
            "hidden": false, 
            "id": 1453, 
            "moderator_id": null, 
            "permissions": {
                "hide": false, 
                "hide_author": false, 
                "vote": false
            }, 
            "total_dislikes": 0, 
            "total_likes": 1, 
            "total_votes": 1
        }, 
        {
            "administrator_id": null, 
            "alignment": 1, 
            "ancestry": null, 
            "as": null, 
            "author": {
                "avatar_image": "https://decidim.barcelona/assets/avatar-866795c99abc33a3160d1f3fa93ada46eb75e54134e777666b9ed16215b26534.png", 
                "erased": false, 
                "hidden": false, 
                "id": 4914, 
                "name": "Vicen\u00e7 Mar\u00ed", 
                "official": false, 
                "official_level": 0, 
                "role": null, 
                "verified_organization": null
            }, 
            "body": "<p>La tasca qu\u00e8 fa al barri del Clotvper molts col\u00b7lectius \u00e9s bon\u00edssima! El barri no es pot permetre qu\u00e8 l'Ateneu no pugui continuar desenvolupant la seva tasca.</p>", 
            "commentable_id": 1630, 
            "commentable_type": "Proposal", 
            "created_at": "11/02/2016 21:22:01", 
            "flagged": false, 
            "hidden": false, 
            "id": 1581, 
            "moderator_id": null, 
            "permissions": {
                "hide": false, 
                "hide_author": false, 
                "vote": false
            }, 
            "total_dislikes": 0, 
            "total_likes": 1, 
            "total_votes": 1
        }, 
        {
            "administrator_id": null, 
            "alignment": 1, 
            "ancestry": null, 
            "as": null, 
            "author": {
                "avatar_image": "https://decidim.barcelona/assets/avatar-866795c99abc33a3160d1f3fa93ada46eb75e54134e777666b9ed16215b26534.png", 
                "erased": false, 
                "hidden": false, 
                "id": 5613, 
                "name": "Elizabeth Glrz", 
                "official": false, 
                "official_level": 0, 
                "role": null, 
                "verified_organization": null
            }, 
            "body": "<p>S'ha de donar recolzament a l'Ateneu que fa una gran labor de ajuda popular. \n<br />L'Ateneu \u00e9s de tots, l'Ateneu som Tots!</p>", 
            "commentable_id": 1630, 
            "commentable_type": "Proposal", 
            "created_at": "15/02/2016 22:11:39", 
            "flagged": false, 
            "hidden": false, 
            "id": 1898, 
            "moderator_id": null, 
            "permissions": {
                "hide": false, 
                "hide_author": false, 
                "vote": false
            }, 
            "total_dislikes": 0, 
            "total_likes": 1, 
            "total_votes": 1
        }, 
        {
            "administrator_id": null, 
            "alignment": 1, 
            "ancestry": null, 
            "as": null, 
            "author": {
                "avatar_image": "https://decidim.barcelona/assets/avatar-866795c99abc33a3160d1f3fa93ada46eb75e54134e777666b9ed16215b26534.png", 
                "erased": false, 
                "hidden": false, 
                "id": 5727, 
                "name": "Aurora llorca", 
                "official": false, 
                "official_level": 0, 
                "role": null, 
                "verified_organization": null
            }, 
            "body": "<p>com mare  i que porto nens  i he vist durant aquests anys que el ateneu s`ha mogut masses  vegades de lloc\n<br />aix\u00f2 a provocat que socis han fet el camp </p>", 
            "commentable_id": 1630, 
            "commentable_type": "Proposal", 
            "created_at": "16/02/2016 09:27:52", 
            "flagged": false, 
            "hidden": false, 
            "id": 1909, 
            "moderator_id": null, 
            "permissions": {
                "hide": false, 
                "hide_author": false, 
                "vote": false
            }, 
            "total_dislikes": 0, 
            "total_likes": 1, 
            "total_votes": 1
        }, 
        {
            "administrator_id": null, 
            "alignment": 1, 
            "ancestry": null, 
            "as": null, 
            "author": {
                "avatar_image": "https://decidim.barcelona/assets/avatar-866795c99abc33a3160d1f3fa93ada46eb75e54134e777666b9ed16215b26534.png", 
                "erased": false, 
                "hidden": false, 
                "id": 959, 
                "name": "Gemma At", 
                "official": false, 
                "official_level": 0, 
                "role": null, 
                "verified_organization": null
            }, 
            "body": "<p>Vecinos de Glories y el Poblenou, \n<br />\u00bfno est\u00e1is hartos de no tener un autob\u00fas que recorra La Diagonal en linea recta y sin desvios absurdos?, Necesitamos que se modifique el trajecte del autob\u00fas 7 y que vaya de Glories a Francesc Maci\u00e0 sin dar mil vueltas. Necesitamos un autob\u00fas expres por toda La Diagonal para mejorar la conexi\u00f3n de nuestro barrio. \n<br />Votad esta iniciativa, por favor aqu\u00ed: <a href=\"https://decidim.barcelona/proposals/d30-bus-directo-entre-glories-y-francesc-macia\">https://decidim.barcelona/proposals/d30-bus-directo-entre-glories-y-francesc-macia</a></p>", 
            "commentable_id": 1630, 
            "commentable_type": "Proposal", 
            "created_at": "17/02/2016 20:10:17", 
            "flagged": false, 
            "hidden": false, 
            "id": 2029, 
            "moderator_id": null, 
            "permissions": {
                "hide": false, 
                "hide_author": false, 
                "vote": false
            }, 
            "total_dislikes": 0, 
            "total_likes": 1, 
            "total_votes": 1
        }, 
        {
            "administrator_id": null, 
            "alignment": 1, 
            "ancestry": null, 
            "as": null, 
            "author": {
                "avatar_image": "https://decidim.barcelona/assets/avatar-866795c99abc33a3160d1f3fa93ada46eb75e54134e777666b9ed16215b26534.png", 
                "erased": false, 
                "hidden": false, 
                "id": 6482, 
                "name": "Pau FP", 
                "official": false, 
                "official_level": 0, 
                "role": null, 
                "verified_organization": null
            }, 
            "body": "<p>A favor, un centre hist\u00f2ric pel barri que ha de continuar fent la seva tasca!</p>", 
            "commentable_id": 1630, 
            "commentable_type": "Proposal", 
            "created_at": "18/02/2016 12:47:47", 
            "flagged": false, 
            "hidden": false, 
            "id": 2072, 
            "moderator_id": null, 
            "permissions": {
                "hide": false, 
                "hide_author": false, 
                "vote": false
            }, 
            "total_dislikes": 0, 
            "total_likes": 1, 
            "total_votes": 1
        }, 
        {
            "administrator_id": null, 
            "alignment": 1, 
            "ancestry": null, 
            "as": null, 
            "author": {
                "avatar_image": "https://decidim.barcelona/assets/avatar-866795c99abc33a3160d1f3fa93ada46eb75e54134e777666b9ed16215b26534.png", 
                "erased": false, 
                "hidden": false, 
                "id": 7144, 
                "name": "Gl\u00f2ria Mora Bonbeh\u00ed", 
                "official": false, 
                "official_level": 0, 
                "role": null, 
                "verified_organization": null
            }, 
            "body": "<p>Una entitat de barri tant important no es pot quedar sense un local.</p>", 
            "commentable_id": 1630, 
            "commentable_type": "Proposal", 
            "created_at": "21/02/2016 22:01:35", 
            "flagged": false, 
            "hidden": false, 
            "id": 2300, 
            "moderator_id": null, 
            "permissions": {
                "hide": false, 
                "hide_author": false, 
                "vote": false
            }, 
            "total_dislikes": 0, 
            "total_likes": 1, 
            "total_votes": 1
        }, 
        {
            "administrator_id": null, 
            "alignment": 1, 
            "ancestry": null, 
            "as": null, 
            "author": {
                "avatar_image": "https://decidim.barcelona/assets/avatar-866795c99abc33a3160d1f3fa93ada46eb75e54134e777666b9ed16215b26534.png", 
                "erased": false, 
                "hidden": false, 
                "id": 206, 
                "name": "OriolPuig", 
                "official": false, 
                "official_level": 0, 
                "role": null, 
                "verified_organization": null
            }, 
            "body": "<p>Ple suport! En el proc\u00e9s de negociaci\u00f3 entre partits ser\u00e0 una de les nostres l\u00ednies priorit\u00e0ries.\n<br />Salut!!</p>", 
            "commentable_id": 1630, 
            "commentable_type": "Proposal", 
            "created_at": "22/02/2016 18:12:39", 
            "flagged": false, 
            "hidden": false, 
            "id": 2408, 
            "moderator_id": null, 
            "permissions": {
                "hide": false, 
                "hide_author": false, 
                "vote": false
            }, 
            "total_dislikes": 0, 
            "total_likes": 3, 
            "total_votes": 3
        }, 
        {
            "administrator_id": null, 
            "alignment": 0, 
            "ancestry": null, 
            "as": null, 
            "author": {
                "avatar_image": "https://decidim.barcelona/assets/avatar-866795c99abc33a3160d1f3fa93ada46eb75e54134e777666b9ed16215b26534.png", 
                "erased": false, 
                "hidden": false, 
                "id": 8028, 
                "name": "Maribel Porras Camacho", 
                "official": false, 
                "official_level": 0, 
                "role": null, 
                "verified_organization": null
            }, 
            "body": "<p>Como socia apoyo totalmente esta propuesta, ya que es bueno paea el barrio y las personas que acudimos a el y hacemos alli actividades para ayuda hacia todos. </p>", 
            "commentable_id": 1630, 
            "commentable_type": "Proposal", 
            "created_at": "24/02/2016 15:48:31", 
            "flagged": false, 
            "hidden": false, 
            "id": 2573, 
            "moderator_id": null, 
            "permissions": {
                "hide": false, 
                "hide_author": false, 
                "vote": false
            }, 
            "total_dislikes": 0, 
            "total_likes": 0, 
            "total_votes": 0
        }, 
        {
            "administrator_id": null, 
            "alignment": 1, 
            "ancestry": null, 
            "as": null, 
            "author": {
                "avatar_image": "https://decidim.barcelona/assets/avatar-866795c99abc33a3160d1f3fa93ada46eb75e54134e777666b9ed16215b26534.png", 
                "erased": false, 
                "hidden": false, 
                "id": 8096, 
                "name": "Manu Oriol", 
                "official": false, 
                "official_level": 0, 
                "role": null, 
                "verified_organization": null
            }, 
            "body": "<p>Despr\u00e9s del que va costar aconseguir un espai com La Farinera del Clot, no es pot deixar perdre per q\u00fcestions que no tenen res a veure amb la cultura. La memoria \u00e9s l\u00e0bil per\u00f2 hi ha  hemeroteques: DOMINGO, 9 de mayo de 1999\n<br />La Farinera del Clot, de 1908, renace convertida en centro cultural El Ayuntamiento ha invertido 500 millones (pesetas) en su rehabilitaci\u00f3n\n<br />JOAQUIMA UTRERA Barcelona 9 MAY 1999</p>", 
            "commentable_id": 1630, 
            "commentable_type": "Proposal", 
            "created_at": "24/02/2016 18:41:11", 
            "flagged": false, 
            "hidden": false, 
            "id": 2601, 
            "moderator_id": null, 
            "permissions": {
                "hide": false, 
                "hide_author": false, 
                "vote": false
            }, 
            "total_dislikes": 0, 
            "total_likes": 0, 
            "total_votes": 0
        }, 
        {
            "administrator_id": null, 
            "alignment": 1, 
            "ancestry": null, 
            "as": null, 
            "author": {
                "avatar_image": "https://decidim.barcelona/assets/avatar-866795c99abc33a3160d1f3fa93ada46eb75e54134e777666b9ed16215b26534.png", 
                "erased": false, 
                "hidden": false, 
                "id": 8137, 
                "name": "Laia Nebot Soler", 
                "official": false, 
                "official_level": 0, 
                "role": null, 
                "verified_organization": null
            }, 
            "body": "<p>Tota entitat legal i que treballi per la gent del barri ha de tenir la seva seu!</p>", 
            "commentable_id": 1630, 
            "commentable_type": "Proposal", 
            "created_at": "24/02/2016 20:27:33", 
            "flagged": false, 
            "hidden": false, 
            "id": 2620, 
            "moderator_id": null, 
            "permissions": {
                "hide": false, 
                "hide_author": false, 
                "vote": false
            }, 
            "total_dislikes": 0, 
            "total_likes": 0, 
            "total_votes": 0
        }, 
        {
            "administrator_id": null, 
            "alignment": null, 
            "ancestry": "2573", 
            "as": null, 
            "author": {
                "avatar_image": "https://decidim.barcelona/assets/avatar-866795c99abc33a3160d1f3fa93ada46eb75e54134e777666b9ed16215b26534.png", 
                "erased": false, 
                "hidden": false, 
                "id": 8028, 
                "name": "Maribel Porras Camacho", 
                "official": false, 
                "official_level": 0, 
                "role": null, 
                "verified_organization": null
            }, 
            "body": "<p>Estoy a favor ha salido neutral </p>", 
            "commentable_id": 1630, 
            "commentable_type": "Proposal", 
            "created_at": "24/02/2016 15:53:46", 
            "flagged": false, 
            "hidden": false, 
            "id": 2574, 
            "moderator_id": null, 
            "permissions": {
                "hide": false, 
                "hide_author": false, 
                "vote": false
            }, 
            "total_dislikes": 0, 
            "total_likes": 0, 
            "total_votes": 0
        }
    ], 
    "meta": {
        "current_page": 1, 
        "next_page": 2, 
        "prev_page": null, 
        "total_count": 36, 
        "total_pages": 2
    }
}