{
    "comments": [
        {
            "administrator_id": null, 
            "alignment": 1, 
            "ancestry": null, 
            "as": null, 
            "author": {
                "avatar_image": "https://decidim.barcelona/assets/avatar-866795c99abc33a3160d1f3fa93ada46eb75e54134e777666b9ed16215b26534.png", 
                "erased": false, 
                "hidden": false, 
                "id": 7229, 
                "name": "benua", 
                "official": false, 
                "official_level": 0, 
                "role": null, 
                "verified_organization": null
            }, 
            "body": "<p>Traballem-hi tots i totes. Endavant!!!</p>", 
            "commentable_id": 2378, 
            "commentable_type": "Proposal", 
            "created_at": "22/02/2016 13:21:35", 
            "flagged": false, 
            "hidden": false, 
            "id": 2352, 
            "moderator_id": null, 
            "permissions": {
                "hide": false, 
                "hide_author": false, 
                "vote": false
            }, 
            "total_dislikes": 0, 
            "total_likes": 0, 
            "total_votes": 0
        }, 
        {
            "administrator_id": null, 
            "alignment": 0, 
            "ancestry": null, 
            "as": null, 
            "author": {
                "avatar_image": "https://decidim.barcelona/assets/avatar-866795c99abc33a3160d1f3fa93ada46eb75e54134e777666b9ed16215b26534.png", 
                "erased": false, 
                "hidden": false, 
                "id": 9262, 
                "name": "Suport General - Decidim Barcelona", 
                "official": false, 
                "official_level": 0, 
                "role": null, 
                "verified_organization": null
            }, 
            "body": "<p><a href=\"https://decidim.barcelona/proposals/font-cifre\">https://decidim.barcelona/proposals/font-cifre</a></p>", 
            "commentable_id": 2378, 
            "commentable_type": "Proposal", 
            "created_at": "13/04/2016 13:10:43", 
            "flagged": false, 
            "hidden": false, 
            "id": 14618, 
            "moderator_id": null, 
            "permissions": {
                "hide": false, 
                "hide_author": false, 
                "vote": false
            }, 
            "total_dislikes": 0, 
            "total_likes": 0, 
            "total_votes": 0
        }, 
        {
            "administrator_id": null, 
            "alignment": 0, 
            "ancestry": null, 
            "as": null, 
            "author": {
                "avatar_image": "https://decidim.barcelona/assets/avatar-866795c99abc33a3160d1f3fa93ada46eb75e54134e777666b9ed16215b26534.png", 
                "erased": false, 
                "hidden": false, 
                "id": 9262, 
                "name": "Suport General - Decidim Barcelona", 
                "official": false, 
                "official_level": 0, 
                "role": null, 
                "verified_organization": null
            }, 
            "body": "<p><a href=\"https://decidim.barcelona/proposals/soterrar-linias-electricas-al-coll\">https://decidim.barcelona/proposals/soterrar-linias-electricas-al-coll</a></p>", 
            "commentable_id": 2378, 
            "commentable_type": "Proposal", 
            "created_at": "13/04/2016 13:11:00", 
            "flagged": false, 
            "hidden": false, 
            "id": 14619, 
            "moderator_id": null, 
            "permissions": {
                "hide": false, 
                "hide_author": false, 
                "vote": false
            }, 
            "total_dislikes": 0, 
            "total_likes": 0, 
            "total_votes": 0
        }, 
        {
            "administrator_id": null, 
            "alignment": 0, 
            "ancestry": null, 
            "as": null, 
            "author": {
                "avatar_image": "https://decidim.barcelona/assets/avatar-866795c99abc33a3160d1f3fa93ada46eb75e54134e777666b9ed16215b26534.png", 
                "erased": false, 
                "hidden": false, 
                "id": 9262, 
                "name": "Suport General - Decidim Barcelona", 
                "official": false, 
                "official_level": 0, 
                "role": null, 
                "verified_organization": null
            }, 
            "body": "<p><a href=\"https://decidim.barcelona/proposals/reurbanitzacio-placa-mons\">https://decidim.barcelona/proposals/reurbanitzacio-placa-mons</a></p>", 
            "commentable_id": 2378, 
            "commentable_type": "Proposal", 
            "created_at": "13/04/2016 13:11:11", 
            "flagged": false, 
            "hidden": false, 
            "id": 14621, 
            "moderator_id": null, 
            "permissions": {
                "hide": false, 
                "hide_author": false, 
                "vote": false
            }, 
            "total_dislikes": 0, 
            "total_likes": 0, 
            "total_votes": 0
        }, 
        {
            "administrator_id": null, 
            "alignment": 0, 
            "ancestry": null, 
            "as": null, 
            "author": {
                "avatar_image": "https://decidim.barcelona/assets/avatar-866795c99abc33a3160d1f3fa93ada46eb75e54134e777666b9ed16215b26534.png", 
                "erased": false, 
                "hidden": false, 
                "id": 9262, 
                "name": "Suport General - Decidim Barcelona", 
                "official": false, 
                "official_level": 0, 
                "role": null, 
                "verified_organization": null
            }, 
            "body": "<p><a href=\"https://decidim.barcelona/proposals/millorar-el-manteniment-parcs-del-coll\">https://decidim.barcelona/proposals/millorar-el-manteniment-parcs-del-coll</a></p>", 
            "commentable_id": 2378, 
            "commentable_type": "Proposal", 
            "created_at": "13/04/2016 13:11:37", 
            "flagged": false, 
            "hidden": false, 
            "id": 14622, 
            "moderator_id": null, 
            "permissions": {
                "hide": false, 
                "hide_author": false, 
                "vote": false
            }, 
            "total_dislikes": 0, 
            "total_likes": 0, 
            "total_votes": 0
        }, 
        {
            "administrator_id": null, 
            "alignment": 0, 
            "ancestry": null, 
            "as": null, 
            "author": {
                "avatar_image": "https://decidim.barcelona/assets/avatar-866795c99abc33a3160d1f3fa93ada46eb75e54134e777666b9ed16215b26534.png", 
                "erased": false, 
                "hidden": false, 
                "id": 9262, 
                "name": "Suport General - Decidim Barcelona", 
                "official": false, 
                "official_level": 0, 
                "role": null, 
                "verified_organization": null
            }, 
            "body": "<p><a href=\"https://decidim.barcelona/proposals/canviar-tots-els-bancs-del-parc-de-la-creueta-del-coll\">https://decidim.barcelona/proposals/canviar-tots-els-bancs-del-parc-de-la-creueta-del-coll</a></p>", 
            "commentable_id": 2378, 
            "commentable_type": "Proposal", 
            "created_at": "13/04/2016 13:11:54", 
            "flagged": false, 
            "hidden": false, 
            "id": 14623, 
            "moderator_id": null, 
            "permissions": {
                "hide": false, 
                "hide_author": false, 
                "vote": false
            }, 
            "total_dislikes": 0, 
            "total_likes": 0, 
            "total_votes": 0
        }, 
        {
            "administrator_id": null, 
            "alignment": 0, 
            "ancestry": null, 
            "as": null, 
            "author": {
                "avatar_image": "https://decidim.barcelona/assets/avatar-866795c99abc33a3160d1f3fa93ada46eb75e54134e777666b9ed16215b26534.png", 
                "erased": false, 
                "hidden": false, 
                "id": 9262, 
                "name": "Suport General - Decidim Barcelona", 
                "official": false, 
                "official_level": 0, 
                "role": null, 
                "verified_organization": null
            }, 
            "body": "<p><a href=\"https://decidim.barcelona/proposals/parc-de-la-creueta-del-coll-macro-poli-instal-lacions-esportives-i-culturals-i-anfiteatre-roma\">https://decidim.barcelona/proposals/parc-de-la-creueta-del-coll-macro-poli-instal-lacions-esportives-i-culturals-i-anfiteatre-roma</a></p>", 
            "commentable_id": 2378, 
            "commentable_type": "Proposal", 
            "created_at": "13/04/2016 13:12:08", 
            "flagged": false, 
            "hidden": false, 
            "id": 14624, 
            "moderator_id": null, 
            "permissions": {
                "hide": false, 
                "hide_author": false, 
                "vote": false
            }, 
            "total_dislikes": 0, 
            "total_likes": 0, 
            "total_votes": 0
        }, 
        {
            "administrator_id": null, 
            "alignment": 0, 
            "ancestry": null, 
            "as": null, 
            "author": {
                "avatar_image": "https://decidim.barcelona/assets/avatar-866795c99abc33a3160d1f3fa93ada46eb75e54134e777666b9ed16215b26534.png", 
                "erased": false, 
                "hidden": false, 
                "id": 9262, 
                "name": "Suport General - Decidim Barcelona", 
                "official": false, 
                "official_level": 0, 
                "role": null, 
                "verified_organization": null
            }, 
            "body": "<p><a href=\"https://decidim.barcelona/proposals/urbanitzacio-carrer-torrent-del-remei\">https://decidim.barcelona/proposals/urbanitzacio-carrer-torrent-del-remei</a></p>", 
            "commentable_id": 2378, 
            "commentable_type": "Proposal", 
            "created_at": "13/04/2016 13:12:20", 
            "flagged": false, 
            "hidden": false, 
            "id": 14626, 
            "moderator_id": null, 
            "permissions": {
                "hide": false, 
                "hide_author": false, 
                "vote": false
            }, 
            "total_dislikes": 0, 
            "total_likes": 0, 
            "total_votes": 0
        }, 
        {
            "administrator_id": null, 
            "alignment": 0, 
            "ancestry": null, 
            "as": null, 
            "author": {
                "avatar_image": "https://decidim.barcelona/assets/avatar-866795c99abc33a3160d1f3fa93ada46eb75e54134e777666b9ed16215b26534.png", 
                "erased": false, 
                "hidden": false, 
                "id": 9262, 
                "name": "Suport General - Decidim Barcelona", 
                "official": false, 
                "official_level": 0, 
                "role": null, 
                "verified_organization": null
            }, 
            "body": "<p><a href=\"https://decidim.barcelona/proposals/espai-public-reurbanitzacio-coll-del-portell\">https://decidim.barcelona/proposals/espai-public-reurbanitzacio-coll-del-portell</a></p>", 
            "commentable_id": 2378, 
            "commentable_type": "Proposal", 
            "created_at": "13/04/2016 13:12:47", 
            "flagged": false, 
            "hidden": false, 
            "id": 14627, 
            "moderator_id": null, 
            "permissions": {
                "hide": false, 
                "hide_author": false, 
                "vote": false
            }, 
            "total_dislikes": 0, 
            "total_likes": 0, 
            "total_votes": 0
        }, 
        {
            "administrator_id": null, 
            "alignment": 0, 
            "ancestry": null, 
            "as": null, 
            "author": {
                "avatar_image": "https://decidim.barcelona/assets/avatar-866795c99abc33a3160d1f3fa93ada46eb75e54134e777666b9ed16215b26534.png", 
                "erased": false, 
                "hidden": false, 
                "id": 9262, 
                "name": "Suport General - Decidim Barcelona", 
                "official": false, 
                "official_level": 0, 
                "role": null, 
                "verified_organization": null
            }, 
            "body": "<p><a href=\"https://decidim.barcelona/proposals/execucio-eix-portell-fase-1-i-fase-3\">https://decidim.barcelona/proposals/execucio-eix-portell-fase-1-i-fase-3</a></p>", 
            "commentable_id": 2378, 
            "commentable_type": "Proposal", 
            "created_at": "13/04/2016 13:13:01", 
            "flagged": false, 
            "hidden": false, 
            "id": 14628, 
            "moderator_id": null, 
            "permissions": {
                "hide": false, 
                "hide_author": false, 
                "vote": false
            }, 
            "total_dislikes": 0, 
            "total_likes": 0, 
            "total_votes": 0
        }, 
        {
            "administrator_id": null, 
            "alignment": 0, 
            "ancestry": null, 
            "as": null, 
            "author": {
                "avatar_image": "https://decidim.barcelona/assets/avatar-866795c99abc33a3160d1f3fa93ada46eb75e54134e777666b9ed16215b26534.png", 
                "erased": false, 
                "hidden": false, 
                "id": 9262, 
                "name": "Suport General - Decidim Barcelona", 
                "official": false, 
                "official_level": 0, 
                "role": null, 
                "verified_organization": null
            }, 
            "body": "<p><a href=\"https://decidim.barcelona/proposals/reconstruir-castell-a-c-coll-del-portell\">https://decidim.barcelona/proposals/reconstruir-castell-a-c-coll-del-portell</a></p>", 
            "commentable_id": 2378, 
            "commentable_type": "Proposal", 
            "created_at": "13/04/2016 13:13:15", 
            "flagged": false, 
            "hidden": false, 
            "id": 14630, 
            "moderator_id": null, 
            "permissions": {
                "hide": false, 
                "hide_author": false, 
                "vote": false
            }, 
            "total_dislikes": 0, 
            "total_likes": 0, 
            "total_votes": 0
        }, 
        {
            "administrator_id": null, 
            "alignment": 0, 
            "ancestry": null, 
            "as": null, 
            "author": {
                "avatar_image": "https://decidim.barcelona/assets/avatar-866795c99abc33a3160d1f3fa93ada46eb75e54134e777666b9ed16215b26534.png", 
                "erased": false, 
                "hidden": false, 
                "id": 9262, 
                "name": "Suport General - Decidim Barcelona", 
                "official": false, 
                "official_level": 0, 
                "role": null, 
                "verified_organization": null
            }, 
            "body": "<p><a href=\"https://decidim.barcelona/proposals/el-coll-fer-la-1-fase-de-c-portell-i-millorar-l-acces-de-santuaris-a-portell-i-tirso\">https://decidim.barcelona/proposals/el-coll-fer-la-1-fase-de-c-portell-i-millorar-l-acces-de-santuaris-a-portell-i-tirso</a></p>", 
            "commentable_id": 2378, 
            "commentable_type": "Proposal", 
            "created_at": "13/04/2016 13:13:30", 
            "flagged": false, 
            "hidden": false, 
            "id": 14631, 
            "moderator_id": null, 
            "permissions": {
                "hide": false, 
                "hide_author": false, 
                "vote": false
            }, 
            "total_dislikes": 0, 
            "total_likes": 0, 
            "total_votes": 0
        }, 
        {
            "administrator_id": null, 
            "alignment": 0, 
            "ancestry": null, 
            "as": null, 
            "author": {
                "avatar_image": "https://decidim.barcelona/assets/avatar-866795c99abc33a3160d1f3fa93ada46eb75e54134e777666b9ed16215b26534.png", 
                "erased": false, 
                "hidden": false, 
                "id": 9262, 
                "name": "Suport General - Decidim Barcelona", 
                "official": false, 
                "official_level": 0, 
                "role": null, 
                "verified_organization": null
            }, 
            "body": "<p><a href=\"https://decidim.barcelona/proposals/millorar-accessibilitat-al-coll-amb-noves-escales-mecaniques-i-o-ascensors-publics\">https://decidim.barcelona/proposals/millorar-accessibilitat-al-coll-amb-noves-escales-mecaniques-i-o-ascensors-publics</a></p>", 
            "commentable_id": 2378, 
            "commentable_type": "Proposal", 
            "created_at": "13/04/2016 13:13:45", 
            "flagged": false, 
            "hidden": false, 
            "id": 14632, 
            "moderator_id": null, 
            "permissions": {
                "hide": false, 
                "hide_author": false, 
                "vote": false
            }, 
            "total_dislikes": 0, 
            "total_likes": 0, 
            "total_votes": 0
        }, 
        {
            "administrator_id": null, 
            "alignment": 0, 
            "ancestry": null, 
            "as": null, 
            "author": {
                "avatar_image": "https://decidim.barcelona/assets/avatar-866795c99abc33a3160d1f3fa93ada46eb75e54134e777666b9ed16215b26534.png", 
                "erased": false, 
                "hidden": false, 
                "id": 9262, 
                "name": "Suport General - Decidim Barcelona", 
                "official": false, 
                "official_level": 0, 
                "role": null, 
                "verified_organization": null
            }, 
            "body": "<p><a href=\"https://decidim.barcelona/proposals/obrir-al-transit-el-carrer-clotes-barri-del-coll\">https://decidim.barcelona/proposals/obrir-al-transit-el-carrer-clotes-barri-del-coll</a></p>", 
            "commentable_id": 2378, 
            "commentable_type": "Proposal", 
            "created_at": "13/04/2016 13:14:00", 
            "flagged": false, 
            "hidden": false, 
            "id": 14633, 
            "moderator_id": null, 
            "permissions": {
                "hide": false, 
                "hide_author": false, 
                "vote": false
            }, 
            "total_dislikes": 0, 
            "total_likes": 0, 
            "total_votes": 0
        }, 
        {
            "administrator_id": null, 
            "alignment": 0, 
            "ancestry": null, 
            "as": null, 
            "author": {
                "avatar_image": "https://decidim.barcelona/assets/avatar-866795c99abc33a3160d1f3fa93ada46eb75e54134e777666b9ed16215b26534.png", 
                "erased": false, 
                "hidden": false, 
                "id": 9262, 
                "name": "Suport General - Decidim Barcelona", 
                "official": false, 
                "official_level": 0, 
                "role": null, 
                "verified_organization": null
            }, 
            "body": "<p><a href=\"https://decidim.barcelona/proposals/terres-terciaries-en-el-barri-del-coll-impedeixen-l-urbanisme-dels-tres-turons\">https://decidim.barcelona/proposals/terres-terciaries-en-el-barri-del-coll-impedeixen-l-urbanisme-dels-tres-turons</a></p>", 
            "commentable_id": 2378, 
            "commentable_type": "Proposal", 
            "created_at": "13/04/2016 13:15:21", 
            "flagged": false, 
            "hidden": false, 
            "id": 14638, 
            "moderator_id": null, 
            "permissions": {
                "hide": false, 
                "hide_author": false, 
                "vote": false
            }, 
            "total_dislikes": 0, 
            "total_likes": 0, 
            "total_votes": 0
        }, 
        {
            "administrator_id": null, 
            "alignment": 0, 
            "ancestry": null, 
            "as": null, 
            "author": {
                "avatar_image": "https://decidim.barcelona/assets/avatar-866795c99abc33a3160d1f3fa93ada46eb75e54134e777666b9ed16215b26534.png", 
                "erased": false, 
                "hidden": false, 
                "id": 9262, 
                "name": "Suport General - Decidim Barcelona", 
                "official": false, 
                "official_level": 0, 
                "role": null, 
                "verified_organization": null
            }, 
            "body": "<p><a href=\"https://decidim.barcelona/proposals/fer-la-primera-fase-de-portell-al-coll\">https://decidim.barcelona/proposals/fer-la-primera-fase-de-portell-al-coll</a></p>", 
            "commentable_id": 2378, 
            "commentable_type": "Proposal", 
            "created_at": "13/04/2016 13:15:37", 
            "flagged": false, 
            "hidden": false, 
            "id": 14641, 
            "moderator_id": null, 
            "permissions": {
                "hide": false, 
                "hide_author": false, 
                "vote": false
            }, 
            "total_dislikes": 0, 
            "total_likes": 0, 
            "total_votes": 0
        }, 
        {
            "administrator_id": null, 
            "alignment": 0, 
            "ancestry": null, 
            "as": null, 
            "author": {
                "avatar_image": "https://decidim.barcelona/assets/avatar-866795c99abc33a3160d1f3fa93ada46eb75e54134e777666b9ed16215b26534.png", 
                "erased": false, 
                "hidden": false, 
                "id": 9262, 
                "name": "Suport General - Decidim Barcelona", 
                "official": false, 
                "official_level": 0, 
                "role": null, 
                "verified_organization": null
            }, 
            "body": "<p><a href=\"https://decidim.barcelona/proposals/reurbanitzacio-del-passeig-mare-de-deu-del-coll-vorera-i-paviment-nou-per-a-vianants-eliminant-els-cotxes-que-hi-aparquen-a-sobre\">https://decidim.barcelona/proposals/reurbanitzacio-del-passeig-mare-de-deu-del-coll-vorera-i-paviment-nou-per-a-vianants-eliminant-els-cotxes-que-hi-aparquen-a-sobre</a></p>", 
            "commentable_id": 2378, 
            "commentable_type": "Proposal", 
            "created_at": "13/04/2016 13:24:52", 
            "flagged": false, 
            "hidden": false, 
            "id": 14686, 
            "moderator_id": null, 
            "permissions": {
                "hide": false, 
                "hide_author": false, 
                "vote": false
            }, 
            "total_dislikes": 0, 
            "total_likes": 0, 
            "total_votes": 0
        }, 
        {
            "administrator_id": null, 
            "alignment": 0, 
            "ancestry": null, 
            "as": null, 
            "author": {
                "avatar_image": "https://decidim.barcelona/assets/avatar-866795c99abc33a3160d1f3fa93ada46eb75e54134e777666b9ed16215b26534.png", 
                "erased": false, 
                "hidden": false, 
                "id": 9262, 
                "name": "Suport General - Decidim Barcelona", 
                "official": false, 
                "official_level": 0, 
                "role": null, 
                "verified_organization": null
            }, 
            "body": "<p><a href=\"https://decidim.barcelona/proposals/acces-al-carrer-de-ceuta-vers-l-escola-virolai-creant-direccio-unica\">https://decidim.barcelona/proposals/acces-al-carrer-de-ceuta-vers-l-escola-virolai-creant-direccio-unica</a></p>", 
            "commentable_id": 2378, 
            "commentable_type": "Proposal", 
            "created_at": "13/04/2016 13:49:27", 
            "flagged": false, 
            "hidden": false, 
            "id": 14735, 
            "moderator_id": null, 
            "permissions": {
                "hide": false, 
                "hide_author": false, 
                "vote": false
            }, 
            "total_dislikes": 0, 
            "total_likes": 0, 
            "total_votes": 0
        }, 
        {
            "administrator_id": null, 
            "alignment": 0, 
            "ancestry": null, 
            "as": null, 
            "author": {
                "avatar_image": "https://decidim.barcelona/assets/avatar-866795c99abc33a3160d1f3fa93ada46eb75e54134e777666b9ed16215b26534.png", 
                "erased": false, 
                "hidden": false, 
                "id": 9262, 
                "name": "Suport General - Decidim Barcelona", 
                "official": false, 
                "official_level": 0, 
                "role": null, 
                "verified_organization": null
            }, 
            "body": "<p><a href=\"https://decidim.barcelona/proposals/recuperar-el-pessebre-d-en-pinyol\">https://decidim.barcelona/proposals/recuperar-el-pessebre-d-en-pinyol</a></p>", 
            "commentable_id": 2378, 
            "commentable_type": "Proposal", 
            "created_at": "13/04/2016 14:13:47", 
            "flagged": false, 
            "hidden": false, 
            "id": 14784, 
            "moderator_id": null, 
            "permissions": {
                "hide": false, 
                "hide_author": false, 
                "vote": false
            }, 
            "total_dislikes": 0, 
            "total_likes": 0, 
            "total_votes": 0
        }, 
        {
            "administrator_id": null, 
            "alignment": 0, 
            "ancestry": null, 
            "as": null, 
            "author": {
                "avatar_image": "https://decidim.barcelona/assets/avatar-866795c99abc33a3160d1f3fa93ada46eb75e54134e777666b9ed16215b26534.png", 
                "erased": false, 
                "hidden": false, 
                "id": 9262, 
                "name": "Suport General - Decidim Barcelona", 
                "official": false, 
                "official_level": 0, 
                "role": null, 
                "verified_organization": null
            }, 
            "body": "<p><a href=\"https://decidim.barcelona/proposals/equipament-integral-i-multidisciplinari-public-pel-barri-del-coll\">https://decidim.barcelona/proposals/equipament-integral-i-multidisciplinari-public-pel-barri-del-coll</a></p>", 
            "commentable_id": 2378, 
            "commentable_type": "Proposal", 
            "created_at": "13/04/2016 23:54:05", 
            "flagged": false, 
            "hidden": false, 
            "id": 15078, 
            "moderator_id": null, 
            "permissions": {
                "hide": false, 
                "hide_author": false, 
                "vote": false
            }, 
            "total_dislikes": 0, 
            "total_likes": 0, 
            "total_votes": 0
        }
    ], 
    "meta": {
        "current_page": 1, 
        "next_page": 2, 
        "prev_page": null, 
        "total_count": 24, 
        "total_pages": 2
    }
}