{
    "comments": [
        {
            "administrator_id": null, 
            "alignment": 0, 
            "ancestry": null, 
            "as": null, 
            "author": {
                "avatar_image": "https://decidim.barcelona/assets/avatar-866795c99abc33a3160d1f3fa93ada46eb75e54134e777666b9ed16215b26534.png", 
                "erased": false, 
                "hidden": false, 
                "id": 9262, 
                "name": "Suport General - Decidim Barcelona", 
                "official": false, 
                "official_level": 0, 
                "role": null, 
                "verified_organization": null
            }, 
            "body": "<p><a href=\"https://decidim.barcelona/proposals/escriturar-i-legalitzar-la-porta-del-final-de-ceuta-on-hi-ha-una-escola-i-una-casa-unifamiliar\">https://decidim.barcelona/proposals/escriturar-i-legalitzar-la-porta-del-final-de-ceuta-on-hi-ha-una-escola-i-una-casa-unifamiliar</a></p>", 
            "commentable_id": 2378, 
            "commentable_type": "Proposal", 
            "created_at": "13/04/2016 23:58:13", 
            "flagged": false, 
            "hidden": false, 
            "id": 15081, 
            "moderator_id": null, 
            "permissions": {
                "hide": false, 
                "hide_author": false, 
                "vote": false
            }, 
            "total_dislikes": 0, 
            "total_likes": 0, 
            "total_votes": 0
        }, 
        {
            "administrator_id": null, 
            "alignment": 0, 
            "ancestry": null, 
            "as": null, 
            "author": {
                "avatar_image": "https://decidim.barcelona/assets/avatar-866795c99abc33a3160d1f3fa93ada46eb75e54134e777666b9ed16215b26534.png", 
                "erased": false, 
                "hidden": false, 
                "id": 9262, 
                "name": "Suport General - Decidim Barcelona", 
                "official": false, 
                "official_level": 0, 
                "role": null, 
                "verified_organization": null
            }, 
            "body": "<p><a href=\"https://docs.google.com/spreadsheets/d/1mQgI4swO-Uckg7zvQYARnzhKfo3-9ajYMNVHuHuBai4/edit#gid=1204791048\">https://docs.google.com/spreadsheets/d/1mQgI4swO-Uckg7zvQYARnzhKfo3-9ajYMNVHuHuBai4/edit#gid=1204791048</a></p>", 
            "commentable_id": 2378, 
            "commentable_type": "Proposal", 
            "created_at": "14/04/2016 00:02:45", 
            "flagged": false, 
            "hidden": false, 
            "id": 15083, 
            "moderator_id": null, 
            "permissions": {
                "hide": false, 
                "hide_author": false, 
                "vote": false
            }, 
            "total_dislikes": 0, 
            "total_likes": 0, 
            "total_votes": 0
        }, 
        {
            "administrator_id": null, 
            "alignment": 0, 
            "ancestry": null, 
            "as": null, 
            "author": {
                "avatar_image": "https://decidim.barcelona/assets/avatar-866795c99abc33a3160d1f3fa93ada46eb75e54134e777666b9ed16215b26534.png", 
                "erased": false, 
                "hidden": false, 
                "id": 9262, 
                "name": "Suport General - Decidim Barcelona", 
                "official": false, 
                "official_level": 0, 
                "role": null, 
                "verified_organization": null
            }, 
            "body": "<p><a href=\"https://decidim.barcelona/proposals/el-coll-fer-arribar-el-metro-coll-teixonera-el-bus-129\">https://decidim.barcelona/proposals/el-coll-fer-arribar-el-metro-coll-teixonera-el-bus-129</a></p>", 
            "commentable_id": 2378, 
            "commentable_type": "Proposal", 
            "created_at": "14/04/2016 00:05:19", 
            "flagged": false, 
            "hidden": false, 
            "id": 15085, 
            "moderator_id": null, 
            "permissions": {
                "hide": false, 
                "hide_author": false, 
                "vote": false
            }, 
            "total_dislikes": 0, 
            "total_likes": 0, 
            "total_votes": 0
        }, 
        {
            "administrator_id": null, 
            "alignment": 0, 
            "ancestry": null, 
            "as": null, 
            "author": {
                "avatar_image": "https://decidim.barcelona/assets/avatar-866795c99abc33a3160d1f3fa93ada46eb75e54134e777666b9ed16215b26534.png", 
                "erased": false, 
                "hidden": false, 
                "id": 9262, 
                "name": "Suport General - Decidim Barcelona", 
                "official": false, 
                "official_level": 0, 
                "role": null, 
                "verified_organization": null
            }, 
            "body": "<p><a href=\"https://decidim.barcelona/proposals/mal-estat-del-paviment-c-mare-de-deu-del-coll-ampliar-voreres-treure-carril-d-aparcament\">https://decidim.barcelona/proposals/mal-estat-del-paviment-c-mare-de-deu-del-coll-ampliar-voreres-treure-carril-d-aparcament</a></p>", 
            "commentable_id": 2378, 
            "commentable_type": "Proposal", 
            "created_at": "14/04/2016 00:09:49", 
            "flagged": false, 
            "hidden": false, 
            "id": 15092, 
            "moderator_id": null, 
            "permissions": {
                "hide": false, 
                "hide_author": false, 
                "vote": false
            }, 
            "total_dislikes": 0, 
            "total_likes": 0, 
            "total_votes": 0
        }
    ], 
    "meta": {
        "current_page": 2, 
        "next_page": null, 
        "prev_page": 1, 
        "total_count": 24, 
        "total_pages": 2
    }
}