{
    "comments": [
        {
            "administrator_id": null, 
            "alignment": 0, 
            "ancestry": null, 
            "as": null, 
            "author": {
                "avatar_image": "https://decidim.barcelona/assets/avatar-866795c99abc33a3160d1f3fa93ada46eb75e54134e777666b9ed16215b26534.png", 
                "erased": false, 
                "hidden": false, 
                "id": 1401, 
                "name": "Lena", 
                "official": false, 
                "official_level": 0, 
                "role": null, 
                "verified_organization": null
            }, 
            "body": "<p>Hay ya muchas propuestas al respecto, has buscado antes de a\u00f1adir la tuya?\n<br /><a href=\"https://decidim.barcelona/proposals?search=gos\">https://decidim.barcelona/proposals?search=gos</a>\n<br /><a href=\"https://decidim.barcelona/proposals?search=gossos\">https://decidim.barcelona/proposals?search=gossos</a>\n<br />Saludos.</p>", 
            "commentable_id": 2617, 
            "commentable_type": "Proposal", 
            "created_at": "13/02/2016 07:08:57", 
            "flagged": false, 
            "hidden": false, 
            "id": 1682, 
            "moderator_id": null, 
            "permissions": {
                "hide": false, 
                "hide_author": false, 
                "vote": false
            }, 
            "total_dislikes": 0, 
            "total_likes": 1, 
            "total_votes": 1
        }, 
        {
            "administrator_id": null, 
            "alignment": 1, 
            "ancestry": null, 
            "as": null, 
            "author": {
                "avatar_image": "https://decidim.barcelona/assets/avatar-866795c99abc33a3160d1f3fa93ada46eb75e54134e777666b9ed16215b26534.png", 
                "erased": false, 
                "hidden": false, 
                "id": 889, 
                "name": "DCC", 
                "official": false, 
                "official_level": 0, 
                "role": null, 
                "verified_organization": null
            }, 
            "body": "<p>Si us plau busqueu m\u00e9s propostes com la vostre, jo mateix he fet unes, simplement amb la paraula gossos o en castell\u00e0 perros, o 'excrements' i trobareu m\u00e9s propostes a les que tamb\u00e9 podeu suport per tal d'acabar amb les #VoreresWC. \n<br />Tamb\u00e9 podeu informar d'incivisme amb gossos al 900.226.226 (Tel\u00e8fon gratu\u00eft de civisme), i ha l'APP per ANDROID i i-Phone 'Bustia ciutadana' on a 'Neteja de carrers o places' amb el concepte 'Bruticia' es pot denunciar i adjuntar la foto per que no puguin dir despr\u00e9s que no ho han trobat...</p>", 
            "commentable_id": 2617, 
            "commentable_type": "Proposal", 
            "created_at": "06/04/2016 10:23:48", 
            "flagged": false, 
            "hidden": false, 
            "id": 8252, 
            "moderator_id": null, 
            "permissions": {
                "hide": false, 
                "hide_author": false, 
                "vote": false
            }, 
            "total_dislikes": 0, 
            "total_likes": 0, 
            "total_votes": 0
        }, 
        {
            "administrator_id": null, 
            "alignment": 0, 
            "ancestry": null, 
            "as": null, 
            "author": {
                "avatar_image": "https://decidim.barcelona/assets/avatar-866795c99abc33a3160d1f3fa93ada46eb75e54134e777666b9ed16215b26534.png", 
                "erased": false, 
                "hidden": false, 
                "id": 17740, 
                "name": "Suport General2 - Decidim Barcelona", 
                "official": false, 
                "official_level": 0, 
                "role": null, 
                "verified_organization": null
            }, 
            "body": "<p><a href=\"https://decidim.barcelona/proposals/gossos-lligats-a-places-parcs-i-jardins\">https://decidim.barcelona/proposals/gossos-lligats-a-places-parcs-i-jardins</a></p>", 
            "commentable_id": 2617, 
            "commentable_type": "Proposal", 
            "created_at": "13/04/2016 10:49:34", 
            "flagged": false, 
            "hidden": false, 
            "id": 14330, 
            "moderator_id": null, 
            "permissions": {
                "hide": false, 
                "hide_author": false, 
                "vote": false
            }, 
            "total_dislikes": 0, 
            "total_likes": 0, 
            "total_votes": 0
        }, 
        {
            "administrator_id": null, 
            "alignment": 0, 
            "ancestry": null, 
            "as": null, 
            "author": {
                "avatar_image": "https://decidim.barcelona/assets/avatar-866795c99abc33a3160d1f3fa93ada46eb75e54134e777666b9ed16215b26534.png", 
                "erased": false, 
                "hidden": false, 
                "id": 17740, 
                "name": "Suport General2 - Decidim Barcelona", 
                "official": false, 
                "official_level": 0, 
                "role": null, 
                "verified_organization": null
            }, 
            "body": "<p><a href=\"https://decidim.barcelona/proposals/multas-elevadas-para-el-q-no-recoja-excrementos-de-su-mascota-en-via-publica\">https://decidim.barcelona/proposals/multas-elevadas-para-el-q-no-recoja-excrementos-de-su-mascota-en-via-publica</a></p>", 
            "commentable_id": 2617, 
            "commentable_type": "Proposal", 
            "created_at": "13/04/2016 10:50:24", 
            "flagged": false, 
            "hidden": false, 
            "id": 14331, 
            "moderator_id": null, 
            "permissions": {
                "hide": false, 
                "hide_author": false, 
                "vote": false
            }, 
            "total_dislikes": 0, 
            "total_likes": 0, 
            "total_votes": 0
        }, 
        {
            "administrator_id": null, 
            "alignment": 0, 
            "ancestry": null, 
            "as": null, 
            "author": {
                "avatar_image": "https://decidim.barcelona/assets/avatar-866795c99abc33a3160d1f3fa93ada46eb75e54134e777666b9ed16215b26534.png", 
                "erased": false, 
                "hidden": false, 
                "id": 17740, 
                "name": "Suport General2 - Decidim Barcelona", 
                "official": false, 
                "official_level": 0, 
                "role": null, 
                "verified_organization": null
            }, 
            "body": "<p><a href=\"https://decidim.barcelona/proposals/carnet-obligatori-de-tenenca-responsable\">https://decidim.barcelona/proposals/carnet-obligatori-de-tenenca-responsable</a></p>", 
            "commentable_id": 2617, 
            "commentable_type": "Proposal", 
            "created_at": "13/04/2016 10:51:16", 
            "flagged": false, 
            "hidden": false, 
            "id": 14333, 
            "moderator_id": null, 
            "permissions": {
                "hide": false, 
                "hide_author": false, 
                "vote": false
            }, 
            "total_dislikes": 0, 
            "total_likes": 0, 
            "total_votes": 0
        }, 
        {
            "administrator_id": null, 
            "alignment": 0, 
            "ancestry": null, 
            "as": null, 
            "author": {
                "avatar_image": "https://decidim.barcelona/assets/avatar-866795c99abc33a3160d1f3fa93ada46eb75e54134e777666b9ed16215b26534.png", 
                "erased": false, 
                "hidden": false, 
                "id": 17740, 
                "name": "Suport General2 - Decidim Barcelona", 
                "official": false, 
                "official_level": 0, 
                "role": null, 
                "verified_organization": null
            }, 
            "body": "<p><a href=\"https://decidim.barcelona/proposals/registre-genetic-de-gossos-per-sancionar-als-que-no-recullen-excrements\">https://decidim.barcelona/proposals/registre-genetic-de-gossos-per-sancionar-als-que-no-recullen-excrements</a></p>", 
            "commentable_id": 2617, 
            "commentable_type": "Proposal", 
            "created_at": "13/04/2016 10:51:36", 
            "flagged": false, 
            "hidden": false, 
            "id": 14336, 
            "moderator_id": null, 
            "permissions": {
                "hide": false, 
                "hide_author": false, 
                "vote": false
            }, 
            "total_dislikes": 0, 
            "total_likes": 0, 
            "total_votes": 0
        }, 
        {
            "administrator_id": null, 
            "alignment": 0, 
            "ancestry": null, 
            "as": null, 
            "author": {
                "avatar_image": "https://decidim.barcelona/assets/avatar-866795c99abc33a3160d1f3fa93ada46eb75e54134e777666b9ed16215b26534.png", 
                "erased": false, 
                "hidden": false, 
                "id": 17740, 
                "name": "Suport General2 - Decidim Barcelona", 
                "official": false, 
                "official_level": 0, 
                "role": null, 
                "verified_organization": null
            }, 
            "body": "<p><a href=\"https://decidim.barcelona/proposals/perseguir-i-sancionar-els-propietaris-d-animals-de-companyia-incivics-dret-ala-mobilitat-amb-tranquilitat\">https://decidim.barcelona/proposals/perseguir-i-sancionar-els-propietaris-d-animals-de-companyia-incivics-dret-ala-mobilitat-amb-tranquilitat</a></p>", 
            "commentable_id": 2617, 
            "commentable_type": "Proposal", 
            "created_at": "13/04/2016 11:00:26", 
            "flagged": false, 
            "hidden": false, 
            "id": 14358, 
            "moderator_id": null, 
            "permissions": {
                "hide": false, 
                "hide_author": false, 
                "vote": false
            }, 
            "total_dislikes": 0, 
            "total_likes": 0, 
            "total_votes": 0
        }, 
        {
            "administrator_id": null, 
            "alignment": 0, 
            "ancestry": null, 
            "as": null, 
            "author": {
                "avatar_image": "https://decidim.barcelona/assets/avatar-866795c99abc33a3160d1f3fa93ada46eb75e54134e777666b9ed16215b26534.png", 
                "erased": false, 
                "hidden": false, 
                "id": 17740, 
                "name": "Suport General2 - Decidim Barcelona", 
                "official": false, 
                "official_level": 0, 
                "role": null, 
                "verified_organization": null
            }, 
            "body": "<p><a href=\"https://decidim.barcelona/proposals/papereres-especifiques-per-caques-de-gos\">https://decidim.barcelona/proposals/papereres-especifiques-per-caques-de-gos</a></p>", 
            "commentable_id": 2617, 
            "commentable_type": "Proposal", 
            "created_at": "13/04/2016 11:04:31", 
            "flagged": false, 
            "hidden": false, 
            "id": 14367, 
            "moderator_id": null, 
            "permissions": {
                "hide": false, 
                "hide_author": false, 
                "vote": false
            }, 
            "total_dislikes": 0, 
            "total_likes": 0, 
            "total_votes": 0
        }, 
        {
            "administrator_id": null, 
            "alignment": 0, 
            "ancestry": null, 
            "as": null, 
            "author": {
                "avatar_image": "https://decidim.barcelona/assets/avatar-866795c99abc33a3160d1f3fa93ada46eb75e54134e777666b9ed16215b26534.png", 
                "erased": false, 
                "hidden": false, 
                "id": 17740, 
                "name": "Suport General2 - Decidim Barcelona", 
                "official": false, 
                "official_level": 0, 
                "role": null, 
                "verified_organization": null
            }, 
            "body": "<p><a href=\"https://decidim.barcelona/proposals/fixar-un-limit-de-gossos-per-habitatge\">https://decidim.barcelona/proposals/fixar-un-limit-de-gossos-per-habitatge</a></p>", 
            "commentable_id": 2617, 
            "commentable_type": "Proposal", 
            "created_at": "13/04/2016 11:11:29", 
            "flagged": false, 
            "hidden": false, 
            "id": 14387, 
            "moderator_id": null, 
            "permissions": {
                "hide": false, 
                "hide_author": false, 
                "vote": false
            }, 
            "total_dislikes": 0, 
            "total_likes": 0, 
            "total_votes": 0
        }, 
        {
            "administrator_id": null, 
            "alignment": 0, 
            "ancestry": null, 
            "as": null, 
            "author": {
                "avatar_image": "https://decidim.barcelona/assets/avatar-866795c99abc33a3160d1f3fa93ada46eb75e54134e777666b9ed16215b26534.png", 
                "erased": false, 
                "hidden": false, 
                "id": 17740, 
                "name": "Suport General2 - Decidim Barcelona", 
                "official": false, 
                "official_level": 0, 
                "role": null, 
                "verified_organization": null
            }, 
            "body": "<p><a href=\"https://decidim.barcelona/proposals/evitar-el-comportament-incivic-de-molts-propietaris-de-gos\">https://decidim.barcelona/proposals/evitar-el-comportament-incivic-de-molts-propietaris-de-gos</a></p>", 
            "commentable_id": 2617, 
            "commentable_type": "Proposal", 
            "created_at": "13/04/2016 11:19:04", 
            "flagged": false, 
            "hidden": false, 
            "id": 14418, 
            "moderator_id": null, 
            "permissions": {
                "hide": false, 
                "hide_author": false, 
                "vote": false
            }, 
            "total_dislikes": 0, 
            "total_likes": 0, 
            "total_votes": 0
        }, 
        {
            "administrator_id": null, 
            "alignment": 0, 
            "ancestry": null, 
            "as": null, 
            "author": {
                "avatar_image": "https://decidim.barcelona/assets/avatar-866795c99abc33a3160d1f3fa93ada46eb75e54134e777666b9ed16215b26534.png", 
                "erased": false, 
                "hidden": false, 
                "id": 17740, 
                "name": "Suport General2 - Decidim Barcelona", 
                "official": false, 
                "official_level": 0, 
                "role": null, 
                "verified_organization": null
            }, 
            "body": "<p><a href=\"https://decidim.barcelona/proposals/conscienciacio-veinal-sobre-els-gossos-i-les-zones-enjardinades\">https://decidim.barcelona/proposals/conscienciacio-veinal-sobre-els-gossos-i-les-zones-enjardinades</a></p>", 
            "commentable_id": 2617, 
            "commentable_type": "Proposal", 
            "created_at": "13/04/2016 11:19:55", 
            "flagged": false, 
            "hidden": false, 
            "id": 14421, 
            "moderator_id": null, 
            "permissions": {
                "hide": false, 
                "hide_author": false, 
                "vote": false
            }, 
            "total_dislikes": 0, 
            "total_likes": 0, 
            "total_votes": 0
        }, 
        {
            "administrator_id": null, 
            "alignment": 0, 
            "ancestry": null, 
            "as": null, 
            "author": {
                "avatar_image": "https://decidim.barcelona/assets/avatar-866795c99abc33a3160d1f3fa93ada46eb75e54134e777666b9ed16215b26534.png", 
                "erased": false, 
                "hidden": false, 
                "id": 17740, 
                "name": "Suport General2 - Decidim Barcelona", 
                "official": false, 
                "official_level": 0, 
                "role": null, 
                "verified_organization": null
            }, 
            "body": "<p><a href=\"https://decidim.barcelona/proposals/registre-adn-animals-domestics\">https://decidim.barcelona/proposals/registre-adn-animals-domestics</a></p>", 
            "commentable_id": 2617, 
            "commentable_type": "Proposal", 
            "created_at": "13/04/2016 11:20:51", 
            "flagged": false, 
            "hidden": false, 
            "id": 14423, 
            "moderator_id": null, 
            "permissions": {
                "hide": false, 
                "hide_author": false, 
                "vote": false
            }, 
            "total_dislikes": 0, 
            "total_likes": 0, 
            "total_votes": 0
        }, 
        {
            "administrator_id": null, 
            "alignment": 0, 
            "ancestry": null, 
            "as": null, 
            "author": {
                "avatar_image": "https://decidim.barcelona/assets/avatar-866795c99abc33a3160d1f3fa93ada46eb75e54134e777666b9ed16215b26534.png", 
                "erased": false, 
                "hidden": false, 
                "id": 17740, 
                "name": "Suport General2 - Decidim Barcelona", 
                "official": false, 
                "official_level": 0, 
                "role": null, 
                "verified_organization": null
            }, 
            "body": "<p><a href=\"https://decidim.barcelona/proposals/acompliment-de-les-ordenances-sobre-tinenca-d-animals\">https://decidim.barcelona/proposals/acompliment-de-les-ordenances-sobre-tinenca-d-animals</a></p>", 
            "commentable_id": 2617, 
            "commentable_type": "Proposal", 
            "created_at": "13/04/2016 11:23:07", 
            "flagged": false, 
            "hidden": false, 
            "id": 14430, 
            "moderator_id": null, 
            "permissions": {
                "hide": false, 
                "hide_author": false, 
                "vote": false
            }, 
            "total_dislikes": 0, 
            "total_likes": 0, 
            "total_votes": 0
        }, 
        {
            "administrator_id": null, 
            "alignment": 0, 
            "ancestry": null, 
            "as": null, 
            "author": {
                "avatar_image": "https://decidim.barcelona/assets/avatar-866795c99abc33a3160d1f3fa93ada46eb75e54134e777666b9ed16215b26534.png", 
                "erased": false, 
                "hidden": false, 
                "id": 17740, 
                "name": "Suport General2 - Decidim Barcelona", 
                "official": false, 
                "official_level": 0, 
                "role": null, 
                "verified_organization": null
            }, 
            "body": "<p><a href=\"https://decidim.barcelona/proposals/animals-domestics\">https://decidim.barcelona/proposals/animals-domestics</a></p>", 
            "commentable_id": 2617, 
            "commentable_type": "Proposal", 
            "created_at": "13/04/2016 11:26:01", 
            "flagged": false, 
            "hidden": false, 
            "id": 14436, 
            "moderator_id": null, 
            "permissions": {
                "hide": false, 
                "hide_author": false, 
                "vote": false
            }, 
            "total_dislikes": 0, 
            "total_likes": 0, 
            "total_votes": 0
        }, 
        {
            "administrator_id": null, 
            "alignment": 0, 
            "ancestry": null, 
            "as": null, 
            "author": {
                "avatar_image": "https://decidim.barcelona/assets/avatar-866795c99abc33a3160d1f3fa93ada46eb75e54134e777666b9ed16215b26534.png", 
                "erased": false, 
                "hidden": false, 
                "id": 17740, 
                "name": "Suport General2 - Decidim Barcelona", 
                "official": false, 
                "official_level": 0, 
                "role": null, 
                "verified_organization": null
            }, 
            "body": "<p><a href=\"https://decidim.barcelona/proposals/educador-cani-per-persones-grans-o-amb-minusvalies\">https://decidim.barcelona/proposals/educador-cani-per-persones-grans-o-amb-minusvalies</a></p>", 
            "commentable_id": 2617, 
            "commentable_type": "Proposal", 
            "created_at": "13/04/2016 11:28:47", 
            "flagged": false, 
            "hidden": false, 
            "id": 14445, 
            "moderator_id": null, 
            "permissions": {
                "hide": false, 
                "hide_author": false, 
                "vote": false
            }, 
            "total_dislikes": 0, 
            "total_likes": 0, 
            "total_votes": 0
        }, 
        {
            "administrator_id": null, 
            "alignment": 0, 
            "ancestry": null, 
            "as": null, 
            "author": {
                "avatar_image": "https://decidim.barcelona/assets/avatar-866795c99abc33a3160d1f3fa93ada46eb75e54134e777666b9ed16215b26534.png", 
                "erased": false, 
                "hidden": false, 
                "id": 17740, 
                "name": "Suport General2 - Decidim Barcelona", 
                "official": false, 
                "official_level": 0, 
                "role": null, 
                "verified_organization": null
            }, 
            "body": "<p><a href=\"https://decidim.barcelona/proposals/cens-adn-gossos\">https://decidim.barcelona/proposals/cens-adn-gossos</a></p>", 
            "commentable_id": 2617, 
            "commentable_type": "Proposal", 
            "created_at": "13/04/2016 12:17:25", 
            "flagged": false, 
            "hidden": false, 
            "id": 14498, 
            "moderator_id": null, 
            "permissions": {
                "hide": false, 
                "hide_author": false, 
                "vote": false
            }, 
            "total_dislikes": 0, 
            "total_likes": 0, 
            "total_votes": 0
        }, 
        {
            "administrator_id": null, 
            "alignment": 0, 
            "ancestry": null, 
            "as": null, 
            "author": {
                "avatar_image": "https://decidim.barcelona/assets/avatar-866795c99abc33a3160d1f3fa93ada46eb75e54134e777666b9ed16215b26534.png", 
                "erased": false, 
                "hidden": false, 
                "id": 17740, 
                "name": "Suport General2 - Decidim Barcelona", 
                "official": false, 
                "official_level": 0, 
                "role": null, 
                "verified_organization": null
            }, 
            "body": "<p><a href=\"https://decidim.barcelona/proposals/ferias-fomentantando-la-adopcion-de-animales-y-talleres-civicos\">https://decidim.barcelona/proposals/ferias-fomentantando-la-adopcion-de-animales-y-talleres-civicos</a></p>", 
            "commentable_id": 2617, 
            "commentable_type": "Proposal", 
            "created_at": "13/04/2016 12:19:47", 
            "flagged": false, 
            "hidden": false, 
            "id": 14502, 
            "moderator_id": null, 
            "permissions": {
                "hide": false, 
                "hide_author": false, 
                "vote": false
            }, 
            "total_dislikes": 0, 
            "total_likes": 0, 
            "total_votes": 0
        }, 
        {
            "administrator_id": null, 
            "alignment": 0, 
            "ancestry": null, 
            "as": null, 
            "author": {
                "avatar_image": "https://decidim.barcelona/assets/avatar-866795c99abc33a3160d1f3fa93ada46eb75e54134e777666b9ed16215b26534.png", 
                "erased": false, 
                "hidden": false, 
                "id": 17740, 
                "name": "Suport General2 - Decidim Barcelona", 
                "official": false, 
                "official_level": 0, 
                "role": null, 
                "verified_organization": null
            }, 
            "body": "<p><a href=\"https://decidim.barcelona/proposals/educacio-canina\">https://decidim.barcelona/proposals/educacio-canina</a></p>", 
            "commentable_id": 2617, 
            "commentable_type": "Proposal", 
            "created_at": "13/04/2016 12:20:29", 
            "flagged": false, 
            "hidden": false, 
            "id": 14505, 
            "moderator_id": null, 
            "permissions": {
                "hide": false, 
                "hide_author": false, 
                "vote": false
            }, 
            "total_dislikes": 0, 
            "total_likes": 0, 
            "total_votes": 0
        }, 
        {
            "administrator_id": null, 
            "alignment": 0, 
            "ancestry": null, 
            "as": null, 
            "author": {
                "avatar_image": "https://decidim.barcelona/assets/avatar-866795c99abc33a3160d1f3fa93ada46eb75e54134e777666b9ed16215b26534.png", 
                "erased": false, 
                "hidden": false, 
                "id": 17740, 
                "name": "Suport General2 - Decidim Barcelona", 
                "official": false, 
                "official_level": 0, 
                "role": null, 
                "verified_organization": null
            }, 
            "body": "<p><a href=\"https://decidim.barcelona/proposals/creacio-d-una-taula-de-treball\">https://decidim.barcelona/proposals/creacio-d-una-taula-de-treball</a></p>", 
            "commentable_id": 2617, 
            "commentable_type": "Proposal", 
            "created_at": "13/04/2016 12:22:36", 
            "flagged": false, 
            "hidden": false, 
            "id": 14510, 
            "moderator_id": null, 
            "permissions": {
                "hide": false, 
                "hide_author": false, 
                "vote": false
            }, 
            "total_dislikes": 0, 
            "total_likes": 0, 
            "total_votes": 0
        }, 
        {
            "administrator_id": null, 
            "alignment": 0, 
            "ancestry": null, 
            "as": null, 
            "author": {
                "avatar_image": "https://decidim.barcelona/assets/avatar-866795c99abc33a3160d1f3fa93ada46eb75e54134e777666b9ed16215b26534.png", 
                "erased": false, 
                "hidden": false, 
                "id": 17740, 
                "name": "Suport General2 - Decidim Barcelona", 
                "official": false, 
                "official_level": 0, 
                "role": null, 
                "verified_organization": null
            }, 
            "body": "<p><a href=\"https://decidim.barcelona/proposals/creacion-de-una-base-de-datos-de-adn-de-excrementos-de-perro-en-barcelona\">https://decidim.barcelona/proposals/creacion-de-una-base-de-datos-de-adn-de-excrementos-de-perro-en-barcelona</a></p>", 
            "commentable_id": 2617, 
            "commentable_type": "Proposal", 
            "created_at": "13/04/2016 12:33:01", 
            "flagged": false, 
            "hidden": false, 
            "id": 14535, 
            "moderator_id": null, 
            "permissions": {
                "hide": false, 
                "hide_author": false, 
                "vote": false
            }, 
            "total_dislikes": 0, 
            "total_likes": 0, 
            "total_votes": 0
        }
    ], 
    "meta": {
        "current_page": 1, 
        "next_page": 2, 
        "prev_page": null, 
        "total_count": 28, 
        "total_pages": 2
    }
}