{
    "comments": [
        {
            "administrator_id": null, 
            "alignment": 0, 
            "ancestry": null, 
            "as": null, 
            "author": {
                "avatar_image": "https://decidim.barcelona/assets/avatar-866795c99abc33a3160d1f3fa93ada46eb75e54134e777666b9ed16215b26534.png", 
                "erased": false, 
                "hidden": false, 
                "id": 17740, 
                "name": "Suport General2 - Decidim Barcelona", 
                "official": false, 
                "official_level": 0, 
                "role": null, 
                "verified_organization": null
            }, 
            "body": "<p><a href=\"https://decidim.barcelona/proposals/transparencia-en-denuncias-por-incivismos-de-orines-excrementos-de-perros\">https://decidim.barcelona/proposals/transparencia-en-denuncias-por-incivismos-de-orines-excrementos-de-perros</a></p>", 
            "commentable_id": 2617, 
            "commentable_type": "Proposal", 
            "created_at": "13/04/2016 12:36:37", 
            "flagged": false, 
            "hidden": false, 
            "id": 14546, 
            "moderator_id": null, 
            "permissions": {
                "hide": false, 
                "hide_author": false, 
                "vote": false
            }, 
            "total_dislikes": 0, 
            "total_likes": 0, 
            "total_votes": 0
        }, 
        {
            "administrator_id": null, 
            "alignment": 0, 
            "ancestry": null, 
            "as": null, 
            "author": {
                "avatar_image": "https://decidim.barcelona/assets/avatar-866795c99abc33a3160d1f3fa93ada46eb75e54134e777666b9ed16215b26534.png", 
                "erased": false, 
                "hidden": false, 
                "id": 17740, 
                "name": "Suport General2 - Decidim Barcelona", 
                "official": false, 
                "official_level": 0, 
                "role": null, 
                "verified_organization": null
            }, 
            "body": "<p><a href=\"https://decidim.barcelona/proposals/tinenca-responsable-de-mascotes-legalitat-premis-i-castics-conciencia-civica\">https://decidim.barcelona/proposals/tinenca-responsable-de-mascotes-legalitat-premis-i-castics-conciencia-civica</a></p>", 
            "commentable_id": 2617, 
            "commentable_type": "Proposal", 
            "created_at": "13/04/2016 12:46:35", 
            "flagged": false, 
            "hidden": false, 
            "id": 14565, 
            "moderator_id": null, 
            "permissions": {
                "hide": false, 
                "hide_author": false, 
                "vote": false
            }, 
            "total_dislikes": 0, 
            "total_likes": 0, 
            "total_votes": 0
        }, 
        {
            "administrator_id": null, 
            "alignment": 0, 
            "ancestry": null, 
            "as": null, 
            "author": {
                "avatar_image": "https://decidim.barcelona/assets/avatar-866795c99abc33a3160d1f3fa93ada46eb75e54134e777666b9ed16215b26534.png", 
                "erased": false, 
                "hidden": false, 
                "id": 17740, 
                "name": "Suport General2 - Decidim Barcelona", 
                "official": false, 
                "official_level": 0, 
                "role": null, 
                "verified_organization": null
            }, 
            "body": "<p><a href=\"https://decidim.barcelona/proposals/perseguir-a-los-duenos-que-no-recojan-las-cacas-de-sus-perros\">https://decidim.barcelona/proposals/perseguir-a-los-duenos-que-no-recojan-las-cacas-de-sus-perros</a></p>", 
            "commentable_id": 2617, 
            "commentable_type": "Proposal", 
            "created_at": "13/04/2016 12:54:02", 
            "flagged": false, 
            "hidden": false, 
            "id": 14583, 
            "moderator_id": null, 
            "permissions": {
                "hide": false, 
                "hide_author": false, 
                "vote": false
            }, 
            "total_dislikes": 0, 
            "total_likes": 0, 
            "total_votes": 0
        }, 
        {
            "administrator_id": null, 
            "alignment": 0, 
            "ancestry": null, 
            "as": null, 
            "author": {
                "avatar_image": "https://decidim.barcelona/assets/avatar-866795c99abc33a3160d1f3fa93ada46eb75e54134e777666b9ed16215b26534.png", 
                "erased": false, 
                "hidden": false, 
                "id": 17740, 
                "name": "Suport General2 - Decidim Barcelona", 
                "official": false, 
                "official_level": 0, 
                "role": null, 
                "verified_organization": null
            }, 
            "body": "<p><a href=\"https://decidim.barcelona/proposals/que-els-gossos-paguin-un-impost-per-utilitzar-el-transport-public-i-que-nomes-puguin-estar-en-un-sol-vago-del-metro\">https://decidim.barcelona/proposals/que-els-gossos-paguin-un-impost-per-utilitzar-el-transport-public-i-que-nomes-puguin-estar-en-un-sol-vago-del-metro</a></p>", 
            "commentable_id": 2617, 
            "commentable_type": "Proposal", 
            "created_at": "13/04/2016 12:55:40", 
            "flagged": false, 
            "hidden": false, 
            "id": 14587, 
            "moderator_id": null, 
            "permissions": {
                "hide": false, 
                "hide_author": false, 
                "vote": false
            }, 
            "total_dislikes": 0, 
            "total_likes": 0, 
            "total_votes": 0
        }, 
        {
            "administrator_id": null, 
            "alignment": 0, 
            "ancestry": null, 
            "as": null, 
            "author": {
                "avatar_image": "https://decidim.barcelona/assets/avatar-866795c99abc33a3160d1f3fa93ada46eb75e54134e777666b9ed16215b26534.png", 
                "erased": false, 
                "hidden": false, 
                "id": 17740, 
                "name": "Suport General2 - Decidim Barcelona", 
                "official": false, 
                "official_level": 0, 
                "role": null, 
                "verified_organization": null
            }, 
            "body": "<p><a href=\"https://decidim.barcelona/proposals/en-la-ciudad-hay-muchas-cacas-de-perro-y-que-se-controle-mas-a-los-perros-peligrosos-que-lleven-bozal-y-correa\">https://decidim.barcelona/proposals/en-la-ciudad-hay-muchas-cacas-de-perro-y-que-se-controle-mas-a-los-perros-peligrosos-que-lleven-bozal-y-correa</a></p>", 
            "commentable_id": 2617, 
            "commentable_type": "Proposal", 
            "created_at": "14/04/2016 13:25:05", 
            "flagged": false, 
            "hidden": false, 
            "id": 15582, 
            "moderator_id": null, 
            "permissions": {
                "hide": false, 
                "hide_author": false, 
                "vote": false
            }, 
            "total_dislikes": 0, 
            "total_likes": 0, 
            "total_votes": 0
        }, 
        {
            "administrator_id": null, 
            "alignment": 0, 
            "ancestry": null, 
            "as": null, 
            "author": {
                "avatar_image": "https://decidim.barcelona/assets/avatar-866795c99abc33a3160d1f3fa93ada46eb75e54134e777666b9ed16215b26534.png", 
                "erased": false, 
                "hidden": false, 
                "id": 17740, 
                "name": "Suport General2 - Decidim Barcelona", 
                "official": false, 
                "official_level": 0, 
                "role": null, 
                "verified_organization": null
            }, 
            "body": "<p><a href=\"https://decidim.barcelona/proposals/proteger-los-espacios-verdes-para-que-los-ninos-no-tengan-que-compartirlo-con-los-perros\">https://decidim.barcelona/proposals/proteger-los-espacios-verdes-para-que-los-ninos-no-tengan-que-compartirlo-con-los-perros</a></p>", 
            "commentable_id": 2617, 
            "commentable_type": "Proposal", 
            "created_at": "15/04/2016 19:09:52", 
            "flagged": false, 
            "hidden": false, 
            "id": 17559, 
            "moderator_id": null, 
            "permissions": {
                "hide": false, 
                "hide_author": false, 
                "vote": false
            }, 
            "total_dislikes": 0, 
            "total_likes": 0, 
            "total_votes": 0
        }, 
        {
            "administrator_id": null, 
            "alignment": 0, 
            "ancestry": null, 
            "as": null, 
            "author": {
                "avatar_image": "https://decidim.barcelona/assets/avatar-866795c99abc33a3160d1f3fa93ada46eb75e54134e777666b9ed16215b26534.png", 
                "erased": false, 
                "hidden": false, 
                "id": 17740, 
                "name": "Suport General2 - Decidim Barcelona", 
                "official": false, 
                "official_level": 0, 
                "role": null, 
                "verified_organization": null
            }, 
            "body": "<p><a href=\"https://decidim.barcelona/proposals/tenencia-responsable-d-animals-i-enduriment-de-les-lleis-d-incumpliment\">https://decidim.barcelona/proposals/tenencia-responsable-d-animals-i-enduriment-de-les-lleis-d-incumpliment</a></p>", 
            "commentable_id": 2617, 
            "commentable_type": "Proposal", 
            "created_at": "15/04/2016 19:12:12", 
            "flagged": false, 
            "hidden": false, 
            "id": 17563, 
            "moderator_id": null, 
            "permissions": {
                "hide": false, 
                "hide_author": false, 
                "vote": false
            }, 
            "total_dislikes": 0, 
            "total_likes": 0, 
            "total_votes": 0
        }, 
        {
            "administrator_id": null, 
            "alignment": 0, 
            "ancestry": null, 
            "as": null, 
            "author": {
                "avatar_image": "https://decidim.barcelona/assets/avatar-866795c99abc33a3160d1f3fa93ada46eb75e54134e777666b9ed16215b26534.png", 
                "erased": false, 
                "hidden": false, 
                "id": 17740, 
                "name": "Suport General2 - Decidim Barcelona", 
                "official": false, 
                "official_level": 0, 
                "role": null, 
                "verified_organization": null
            }, 
            "body": "<p><a href=\"https://decidim.barcelona/proposals/proteger-a-los-animales\">https://decidim.barcelona/proposals/proteger-a-los-animales</a></p>", 
            "commentable_id": 2617, 
            "commentable_type": "Proposal", 
            "created_at": "15/04/2016 19:12:44", 
            "flagged": false, 
            "hidden": false, 
            "id": 17564, 
            "moderator_id": null, 
            "permissions": {
                "hide": false, 
                "hide_author": false, 
                "vote": false
            }, 
            "total_dislikes": 0, 
            "total_likes": 0, 
            "total_votes": 0
        }
    ], 
    "meta": {
        "current_page": 2, 
        "next_page": null, 
        "prev_page": 1, 
        "total_count": 28, 
        "total_pages": 2
    }
}