{
    "comments": [
        {
            "administrator_id": null, 
            "alignment": 0, 
            "ancestry": null, 
            "as": null, 
            "author": {
                "avatar_image": "https://decidim.barcelona/assets/avatar-866795c99abc33a3160d1f3fa93ada46eb75e54134e777666b9ed16215b26534.png", 
                "erased": false, 
                "hidden": false, 
                "id": 9262, 
                "name": "Suport General - Decidim Barcelona", 
                "official": false, 
                "official_level": 0, 
                "role": null, 
                "verified_organization": null
            }, 
            "body": "<p><a href=\"https://decidim.barcelona/proposals/informacio-fiable-sobre-l-accessibilitat-de-les-estacions-de-metro\">https://decidim.barcelona/proposals/informacio-fiable-sobre-l-accessibilitat-de-les-estacions-de-metro</a></p>", 
            "commentable_id": 2846, 
            "commentable_type": "Proposal", 
            "created_at": "07/04/2016 18:41:53", 
            "flagged": false, 
            "hidden": false, 
            "id": 9889, 
            "moderator_id": null, 
            "permissions": {
                "hide": false, 
                "hide_author": false, 
                "vote": false
            }, 
            "total_dislikes": 0, 
            "total_likes": 0, 
            "total_votes": 0
        }, 
        {
            "administrator_id": null, 
            "alignment": 0, 
            "ancestry": null, 
            "as": null, 
            "author": {
                "avatar_image": "https://decidim.barcelona/assets/avatar-866795c99abc33a3160d1f3fa93ada46eb75e54134e777666b9ed16215b26534.png", 
                "erased": false, 
                "hidden": false, 
                "id": 9262, 
                "name": "Suport General - Decidim Barcelona", 
                "official": false, 
                "official_level": 0, 
                "role": null, 
                "verified_organization": null
            }, 
            "body": "<p><a href=\"https://decidim.barcelona/proposals/permetre-que-els-scooters-de-persones-amb-mobilitat-reduida-puguin-pujar-als-autobusos-i-al-transport-public-en-general\">https://decidim.barcelona/proposals/permetre-que-els-scooters-de-persones-amb-mobilitat-reduida-puguin-pujar-als-autobusos-i-al-transport-public-en-general</a></p>", 
            "commentable_id": 2846, 
            "commentable_type": "Proposal", 
            "created_at": "07/04/2016 18:42:12", 
            "flagged": false, 
            "hidden": false, 
            "id": 9890, 
            "moderator_id": null, 
            "permissions": {
                "hide": false, 
                "hide_author": false, 
                "vote": false
            }, 
            "total_dislikes": 0, 
            "total_likes": 0, 
            "total_votes": 0
        }, 
        {
            "administrator_id": null, 
            "alignment": 0, 
            "ancestry": null, 
            "as": null, 
            "author": {
                "avatar_image": "https://decidim.barcelona/assets/avatar-866795c99abc33a3160d1f3fa93ada46eb75e54134e777666b9ed16215b26534.png", 
                "erased": false, 
                "hidden": false, 
                "id": 9262, 
                "name": "Suport General - Decidim Barcelona", 
                "official": false, 
                "official_level": 0, 
                "role": null, 
                "verified_organization": null
            }, 
            "body": "<p><a href=\"https://decidim.barcelona/proposals/fer-conjuntament-amb-l-impd-i-les-federacions-d-entitats-un-mapa-de-punts-negres-d-accessibilitat-a-la-ciutat\">https://decidim.barcelona/proposals/fer-conjuntament-amb-l-impd-i-les-federacions-d-entitats-un-mapa-de-punts-negres-d-accessibilitat-a-la-ciutat</a></p>", 
            "commentable_id": 2846, 
            "commentable_type": "Proposal", 
            "created_at": "07/04/2016 18:42:38", 
            "flagged": false, 
            "hidden": false, 
            "id": 9892, 
            "moderator_id": null, 
            "permissions": {
                "hide": false, 
                "hide_author": false, 
                "vote": false
            }, 
            "total_dislikes": 0, 
            "total_likes": 0, 
            "total_votes": 0
        }, 
        {
            "administrator_id": null, 
            "alignment": 0, 
            "ancestry": null, 
            "as": null, 
            "author": {
                "avatar_image": "https://decidim.barcelona/assets/avatar-866795c99abc33a3160d1f3fa93ada46eb75e54134e777666b9ed16215b26534.png", 
                "erased": false, 
                "hidden": false, 
                "id": 9262, 
                "name": "Suport General - Decidim Barcelona", 
                "official": false, 
                "official_level": 0, 
                "role": null, 
                "verified_organization": null
            }, 
            "body": "<p><a href=\"https://decidim.barcelona/proposals/bancs-publics-adaptats-a-les-persones-que-pateixen-miossitis-amb-cossos-d-inclusio\">https://decidim.barcelona/proposals/bancs-publics-adaptats-a-les-persones-que-pateixen-miossitis-amb-cossos-d-inclusio</a></p>", 
            "commentable_id": 2846, 
            "commentable_type": "Proposal", 
            "created_at": "07/04/2016 18:56:57", 
            "flagged": false, 
            "hidden": false, 
            "id": 9904, 
            "moderator_id": null, 
            "permissions": {
                "hide": false, 
                "hide_author": false, 
                "vote": false
            }, 
            "total_dislikes": 0, 
            "total_likes": 0, 
            "total_votes": 0
        }, 
        {
            "administrator_id": null, 
            "alignment": 0, 
            "ancestry": null, 
            "as": null, 
            "author": {
                "avatar_image": "https://decidim.barcelona/assets/avatar-866795c99abc33a3160d1f3fa93ada46eb75e54134e777666b9ed16215b26534.png", 
                "erased": false, 
                "hidden": false, 
                "id": 9262, 
                "name": "Suport General - Decidim Barcelona", 
                "official": false, 
                "official_level": 0, 
                "role": null, 
                "verified_organization": null
            }, 
            "body": "<p><a href=\"https://decidim.barcelona/proposals/facilitar-l-acces-a-comercos-i-espais-d-oci-bars-restaurants-etc-a-les-persones-amb-discapacitat\">https://decidim.barcelona/proposals/facilitar-l-acces-a-comercos-i-espais-d-oci-bars-restaurants-etc-a-les-persones-amb-discapacitat</a></p>", 
            "commentable_id": 2846, 
            "commentable_type": "Proposal", 
            "created_at": "07/04/2016 18:57:58", 
            "flagged": false, 
            "hidden": false, 
            "id": 9906, 
            "moderator_id": null, 
            "permissions": {
                "hide": false, 
                "hide_author": false, 
                "vote": false
            }, 
            "total_dislikes": 0, 
            "total_likes": 0, 
            "total_votes": 0
        }, 
        {
            "administrator_id": null, 
            "alignment": 0, 
            "ancestry": null, 
            "as": null, 
            "author": {
                "avatar_image": "https://decidim.barcelona/assets/avatar-866795c99abc33a3160d1f3fa93ada46eb75e54134e777666b9ed16215b26534.png", 
                "erased": false, 
                "hidden": false, 
                "id": 9262, 
                "name": "Suport General - Decidim Barcelona", 
                "official": false, 
                "official_level": 0, 
                "role": null, 
                "verified_organization": null
            }, 
            "body": "<p><a href=\"https://decidim.barcelona/proposals/protocol-especific-de-bons-usos-al-metro\">https://decidim.barcelona/proposals/protocol-especific-de-bons-usos-al-metro</a></p>", 
            "commentable_id": 2846, 
            "commentable_type": "Proposal", 
            "created_at": "07/04/2016 18:58:32", 
            "flagged": false, 
            "hidden": false, 
            "id": 9907, 
            "moderator_id": null, 
            "permissions": {
                "hide": false, 
                "hide_author": false, 
                "vote": false
            }, 
            "total_dislikes": 0, 
            "total_likes": 0, 
            "total_votes": 0
        }, 
        {
            "administrator_id": null, 
            "alignment": 0, 
            "ancestry": null, 
            "as": null, 
            "author": {
                "avatar_image": "https://decidim.barcelona/assets/avatar-866795c99abc33a3160d1f3fa93ada46eb75e54134e777666b9ed16215b26534.png", 
                "erased": false, 
                "hidden": false, 
                "id": 9262, 
                "name": "Suport General - Decidim Barcelona", 
                "official": false, 
                "official_level": 0, 
                "role": null, 
                "verified_organization": null
            }, 
            "body": "<p><a href=\"https://decidim.barcelona/proposals/accessibilitat-l4-del-metro\">https://decidim.barcelona/proposals/accessibilitat-l4-del-metro</a></p>", 
            "commentable_id": 2846, 
            "commentable_type": "Proposal", 
            "created_at": "07/04/2016 18:58:47", 
            "flagged": false, 
            "hidden": false, 
            "id": 9908, 
            "moderator_id": null, 
            "permissions": {
                "hide": false, 
                "hide_author": false, 
                "vote": false
            }, 
            "total_dislikes": 0, 
            "total_likes": 0, 
            "total_votes": 0
        }, 
        {
            "administrator_id": null, 
            "alignment": 0, 
            "ancestry": null, 
            "as": null, 
            "author": {
                "avatar_image": "https://decidim.barcelona/assets/avatar-866795c99abc33a3160d1f3fa93ada46eb75e54134e777666b9ed16215b26534.png", 
                "erased": false, 
                "hidden": false, 
                "id": 9262, 
                "name": "Suport General - Decidim Barcelona", 
                "official": false, 
                "official_level": 0, 
                "role": null, 
                "verified_organization": null
            }, 
            "body": "<p><a href=\"https://decidim.barcelona/proposals/coordinacio-entre-administracions-en-materia-d-accessibilitat\">https://decidim.barcelona/proposals/coordinacio-entre-administracions-en-materia-d-accessibilitat</a></p>", 
            "commentable_id": 2846, 
            "commentable_type": "Proposal", 
            "created_at": "07/04/2016 18:59:46", 
            "flagged": false, 
            "hidden": false, 
            "id": 9910, 
            "moderator_id": null, 
            "permissions": {
                "hide": false, 
                "hide_author": false, 
                "vote": false
            }, 
            "total_dislikes": 0, 
            "total_likes": 0, 
            "total_votes": 0
        }, 
        {
            "administrator_id": null, 
            "alignment": 0, 
            "ancestry": null, 
            "as": null, 
            "author": {
                "avatar_image": "https://decidim.barcelona/assets/avatar-866795c99abc33a3160d1f3fa93ada46eb75e54134e777666b9ed16215b26534.png", 
                "erased": false, 
                "hidden": false, 
                "id": 9262, 
                "name": "Suport General - Decidim Barcelona", 
                "official": false, 
                "official_level": 0, 
                "role": null, 
                "verified_organization": null
            }, 
            "body": "<p><a href=\"https://decidim.barcelona/proposals/inspectors-d-accessibilitat-amb-diversitat-funcional\">https://decidim.barcelona/proposals/inspectors-d-accessibilitat-amb-diversitat-funcional</a></p>", 
            "commentable_id": 2846, 
            "commentable_type": "Proposal", 
            "created_at": "07/04/2016 19:09:16", 
            "flagged": false, 
            "hidden": false, 
            "id": 9921, 
            "moderator_id": null, 
            "permissions": {
                "hide": false, 
                "hide_author": false, 
                "vote": false
            }, 
            "total_dislikes": 0, 
            "total_likes": 0, 
            "total_votes": 0
        }, 
        {
            "administrator_id": null, 
            "alignment": 0, 
            "ancestry": null, 
            "as": null, 
            "author": {
                "avatar_image": "https://decidim.barcelona/assets/avatar-866795c99abc33a3160d1f3fa93ada46eb75e54134e777666b9ed16215b26534.png", 
                "erased": false, 
                "hidden": false, 
                "id": 9262, 
                "name": "Suport General - Decidim Barcelona", 
                "official": false, 
                "official_level": 0, 
                "role": null, 
                "verified_organization": null
            }, 
            "body": "<p><a href=\"https://decidim.barcelona/proposals/que-les-persones-amb-diversitat-funcional-tinguin-incidencia-politica-en-l-elaboracio-del-pla-general-d-urbanisme\">https://decidim.barcelona/proposals/que-les-persones-amb-diversitat-funcional-tinguin-incidencia-politica-en-l-elaboracio-del-pla-general-d-urbanisme</a></p>", 
            "commentable_id": 2846, 
            "commentable_type": "Proposal", 
            "created_at": "07/04/2016 19:10:14", 
            "flagged": false, 
            "hidden": false, 
            "id": 9924, 
            "moderator_id": null, 
            "permissions": {
                "hide": false, 
                "hide_author": false, 
                "vote": false
            }, 
            "total_dislikes": 0, 
            "total_likes": 0, 
            "total_votes": 0
        }, 
        {
            "administrator_id": null, 
            "alignment": 0, 
            "ancestry": null, 
            "as": null, 
            "author": {
                "avatar_image": "https://decidim.barcelona/assets/avatar-866795c99abc33a3160d1f3fa93ada46eb75e54134e777666b9ed16215b26534.png", 
                "erased": false, 
                "hidden": false, 
                "id": 9262, 
                "name": "Suport General - Decidim Barcelona", 
                "official": false, 
                "official_level": 0, 
                "role": null, 
                "verified_organization": null
            }, 
            "body": "<p><a href=\"https://decidim.barcelona/proposals/locals-i-productes-completament-adaptats-i-accessibles\">https://decidim.barcelona/proposals/locals-i-productes-completament-adaptats-i-accessibles</a></p>", 
            "commentable_id": 2846, 
            "commentable_type": "Proposal", 
            "created_at": "07/04/2016 19:14:16", 
            "flagged": false, 
            "hidden": false, 
            "id": 9932, 
            "moderator_id": null, 
            "permissions": {
                "hide": false, 
                "hide_author": false, 
                "vote": false
            }, 
            "total_dislikes": 0, 
            "total_likes": 0, 
            "total_votes": 0
        }, 
        {
            "administrator_id": null, 
            "alignment": 0, 
            "ancestry": null, 
            "as": null, 
            "author": {
                "avatar_image": "https://decidim.barcelona/assets/avatar-866795c99abc33a3160d1f3fa93ada46eb75e54134e777666b9ed16215b26534.png", 
                "erased": false, 
                "hidden": false, 
                "id": 9262, 
                "name": "Suport General - Decidim Barcelona", 
                "official": false, 
                "official_level": 0, 
                "role": null, 
                "verified_organization": null
            }, 
            "body": "<p><a href=\"https://decidim.barcelona/proposals/presencia-d-inspectors-que-garanteixin-mesures-d-accessibilitat-als-comercos\">https://decidim.barcelona/proposals/presencia-d-inspectors-que-garanteixin-mesures-d-accessibilitat-als-comercos</a></p>", 
            "commentable_id": 2846, 
            "commentable_type": "Proposal", 
            "created_at": "07/04/2016 19:14:31", 
            "flagged": false, 
            "hidden": false, 
            "id": 9933, 
            "moderator_id": null, 
            "permissions": {
                "hide": false, 
                "hide_author": false, 
                "vote": false
            }, 
            "total_dislikes": 0, 
            "total_likes": 0, 
            "total_votes": 0
        }, 
        {
            "administrator_id": null, 
            "alignment": 0, 
            "ancestry": null, 
            "as": null, 
            "author": {
                "avatar_image": "https://decidim.barcelona/assets/avatar-866795c99abc33a3160d1f3fa93ada46eb75e54134e777666b9ed16215b26534.png", 
                "erased": false, 
                "hidden": false, 
                "id": 9262, 
                "name": "Suport General - Decidim Barcelona", 
                "official": false, 
                "official_level": 0, 
                "role": null, 
                "verified_organization": null
            }, 
            "body": "<p><a href=\"https://decidim.barcelona/proposals/garantir-accessibilitat-comunicativa-i-fisica-a-tota-la-xarxa-de-transport-public\">https://decidim.barcelona/proposals/garantir-accessibilitat-comunicativa-i-fisica-a-tota-la-xarxa-de-transport-public</a></p>", 
            "commentable_id": 2846, 
            "commentable_type": "Proposal", 
            "created_at": "07/04/2016 19:21:45", 
            "flagged": false, 
            "hidden": false, 
            "id": 9947, 
            "moderator_id": null, 
            "permissions": {
                "hide": false, 
                "hide_author": false, 
                "vote": false
            }, 
            "total_dislikes": 0, 
            "total_likes": 0, 
            "total_votes": 0
        }, 
        {
            "administrator_id": null, 
            "alignment": 0, 
            "ancestry": null, 
            "as": null, 
            "author": {
                "avatar_image": "https://decidim.barcelona/assets/avatar-866795c99abc33a3160d1f3fa93ada46eb75e54134e777666b9ed16215b26534.png", 
                "erased": false, 
                "hidden": false, 
                "id": 9262, 
                "name": "Suport General - Decidim Barcelona", 
                "official": false, 
                "official_level": 0, 
                "role": null, 
                "verified_organization": null
            }, 
            "body": "<p><a href=\"https://decidim.barcelona/proposals/garantir-l-accessibilitat-dels-taxis\">https://decidim.barcelona/proposals/garantir-l-accessibilitat-dels-taxis</a></p>", 
            "commentable_id": 2846, 
            "commentable_type": "Proposal", 
            "created_at": "07/04/2016 19:21:58", 
            "flagged": false, 
            "hidden": false, 
            "id": 9949, 
            "moderator_id": null, 
            "permissions": {
                "hide": false, 
                "hide_author": false, 
                "vote": false
            }, 
            "total_dislikes": 0, 
            "total_likes": 0, 
            "total_votes": 0
        }, 
        {
            "administrator_id": null, 
            "alignment": 0, 
            "ancestry": null, 
            "as": null, 
            "author": {
                "avatar_image": "https://decidim.barcelona/assets/avatar-866795c99abc33a3160d1f3fa93ada46eb75e54134e777666b9ed16215b26534.png", 
                "erased": false, 
                "hidden": false, 
                "id": 9262, 
                "name": "Suport General - Decidim Barcelona", 
                "official": false, 
                "official_level": 0, 
                "role": null, 
                "verified_organization": null
            }, 
            "body": "<p><a href=\"https://decidim.barcelona/proposals/bascules-i-lliteres-accessibles-fisicament\">https://decidim.barcelona/proposals/bascules-i-lliteres-accessibles-fisicament</a></p>", 
            "commentable_id": 2846, 
            "commentable_type": "Proposal", 
            "created_at": "07/04/2016 19:23:03", 
            "flagged": false, 
            "hidden": false, 
            "id": 9953, 
            "moderator_id": null, 
            "permissions": {
                "hide": false, 
                "hide_author": false, 
                "vote": false
            }, 
            "total_dislikes": 0, 
            "total_likes": 0, 
            "total_votes": 0
        }, 
        {
            "administrator_id": null, 
            "alignment": 0, 
            "ancestry": null, 
            "as": null, 
            "author": {
                "avatar_image": "https://decidim.barcelona/assets/avatar-866795c99abc33a3160d1f3fa93ada46eb75e54134e777666b9ed16215b26534.png", 
                "erased": false, 
                "hidden": false, 
                "id": 9262, 
                "name": "Suport General - Decidim Barcelona", 
                "official": false, 
                "official_level": 0, 
                "role": null, 
                "verified_organization": null
            }, 
            "body": "<p><a href=\"https://decidim.barcelona/proposals/garantir-accessibilitat-i-mesures-de-seguretat-vial-a-tots-els-carrers-de-la-ciutat\">https://decidim.barcelona/proposals/garantir-accessibilitat-i-mesures-de-seguretat-vial-a-tots-els-carrers-de-la-ciutat</a></p>", 
            "commentable_id": 2846, 
            "commentable_type": "Proposal", 
            "created_at": "07/04/2016 19:24:01", 
            "flagged": false, 
            "hidden": false, 
            "id": 9956, 
            "moderator_id": null, 
            "permissions": {
                "hide": false, 
                "hide_author": false, 
                "vote": false
            }, 
            "total_dislikes": 0, 
            "total_likes": 0, 
            "total_votes": 0
        }, 
        {
            "administrator_id": null, 
            "alignment": 0, 
            "ancestry": null, 
            "as": null, 
            "author": {
                "avatar_image": "https://decidim.barcelona/assets/avatar-866795c99abc33a3160d1f3fa93ada46eb75e54134e777666b9ed16215b26534.png", 
                "erased": false, 
                "hidden": false, 
                "id": 9262, 
                "name": "Suport General - Decidim Barcelona", 
                "official": false, 
                "official_level": 0, 
                "role": null, 
                "verified_organization": null
            }, 
            "body": "<p><a href=\"https://decidim.barcelona/proposals/eliminar-els-wc-quimics-que-no-compleixen-mesures-d-accessibilitat\">https://decidim.barcelona/proposals/eliminar-els-wc-quimics-que-no-compleixen-mesures-d-accessibilitat</a></p>", 
            "commentable_id": 2846, 
            "commentable_type": "Proposal", 
            "created_at": "07/04/2016 19:25:08", 
            "flagged": false, 
            "hidden": false, 
            "id": 9960, 
            "moderator_id": null, 
            "permissions": {
                "hide": false, 
                "hide_author": false, 
                "vote": false
            }, 
            "total_dislikes": 0, 
            "total_likes": 0, 
            "total_votes": 0
        }, 
        {
            "administrator_id": null, 
            "alignment": 0, 
            "ancestry": null, 
            "as": null, 
            "author": {
                "avatar_image": "https://decidim.barcelona/assets/avatar-866795c99abc33a3160d1f3fa93ada46eb75e54134e777666b9ed16215b26534.png", 
                "erased": false, 
                "hidden": false, 
                "id": 9262, 
                "name": "Suport General - Decidim Barcelona", 
                "official": false, 
                "official_level": 0, 
                "role": null, 
                "verified_organization": null
            }, 
            "body": "<p><a href=\"https://decidim.barcelona/proposals/garantir-l-accessibilitat-equitativa-i-digne-a-tots-els-espais-publics-i-privats-per-exemple-el-museu-del-disseny\">https://decidim.barcelona/proposals/garantir-l-accessibilitat-equitativa-i-digne-a-tots-els-espais-publics-i-privats-per-exemple-el-museu-del-disseny</a></p>", 
            "commentable_id": 2846, 
            "commentable_type": "Proposal", 
            "created_at": "07/04/2016 19:25:57", 
            "flagged": false, 
            "hidden": false, 
            "id": 9961, 
            "moderator_id": null, 
            "permissions": {
                "hide": false, 
                "hide_author": false, 
                "vote": false
            }, 
            "total_dislikes": 0, 
            "total_likes": 0, 
            "total_votes": 0
        }, 
        {
            "administrator_id": null, 
            "alignment": 0, 
            "ancestry": null, 
            "as": null, 
            "author": {
                "avatar_image": "https://decidim.barcelona/assets/avatar-866795c99abc33a3160d1f3fa93ada46eb75e54134e777666b9ed16215b26534.png", 
                "erased": false, 
                "hidden": false, 
                "id": 9262, 
                "name": "Suport General - Decidim Barcelona", 
                "official": false, 
                "official_level": 0, 
                "role": null, 
                "verified_organization": null
            }, 
            "body": "<p><a href=\"https://decidim.barcelona/proposals/garantir-l-accessibilitat-als-hotels\">https://decidim.barcelona/proposals/garantir-l-accessibilitat-als-hotels</a></p>", 
            "commentable_id": 2846, 
            "commentable_type": "Proposal", 
            "created_at": "07/04/2016 19:27:15", 
            "flagged": false, 
            "hidden": false, 
            "id": 9966, 
            "moderator_id": null, 
            "permissions": {
                "hide": false, 
                "hide_author": false, 
                "vote": false
            }, 
            "total_dislikes": 0, 
            "total_likes": 0, 
            "total_votes": 0
        }, 
        {
            "administrator_id": null, 
            "alignment": 0, 
            "ancestry": null, 
            "as": null, 
            "author": {
                "avatar_image": "https://decidim.barcelona/assets/avatar-866795c99abc33a3160d1f3fa93ada46eb75e54134e777666b9ed16215b26534.png", 
                "erased": false, 
                "hidden": false, 
                "id": 9262, 
                "name": "Suport General - Decidim Barcelona", 
                "official": false, 
                "official_level": 0, 
                "role": null, 
                "verified_organization": null
            }, 
            "body": "<p><a href=\"https://decidim.barcelona/proposals/accessibilitat-a-la-oferta-de-lleure-i-cultura-de-la-ciutat\">https://decidim.barcelona/proposals/accessibilitat-a-la-oferta-de-lleure-i-cultura-de-la-ciutat</a></p>", 
            "commentable_id": 2846, 
            "commentable_type": "Proposal", 
            "created_at": "07/04/2016 19:27:45", 
            "flagged": false, 
            "hidden": false, 
            "id": 9968, 
            "moderator_id": null, 
            "permissions": {
                "hide": false, 
                "hide_author": false, 
                "vote": false
            }, 
            "total_dislikes": 0, 
            "total_likes": 0, 
            "total_votes": 0
        }
    ], 
    "meta": {
        "current_page": 2, 
        "next_page": 3, 
        "prev_page": 1, 
        "total_count": 60, 
        "total_pages": 3
    }
}