{
    "comments": [
        {
            "administrator_id": null, 
            "alignment": 0, 
            "ancestry": null, 
            "as": null, 
            "author": {
                "avatar_image": "https://decidim.barcelona/assets/avatar-866795c99abc33a3160d1f3fa93ada46eb75e54134e777666b9ed16215b26534.png", 
                "erased": false, 
                "hidden": false, 
                "id": 9262, 
                "name": "Suport General - Decidim Barcelona", 
                "official": false, 
                "official_level": 0, 
                "role": null, 
                "verified_organization": null
            }, 
            "body": "<p><a href=\"https://decidim.barcelona/proposals/espais-comunitaris-que-garanteixin-l-accessibilitat-fisica-i-comunicativa\">https://decidim.barcelona/proposals/espais-comunitaris-que-garanteixin-l-accessibilitat-fisica-i-comunicativa</a></p>", 
            "commentable_id": 2846, 
            "commentable_type": "Proposal", 
            "created_at": "07/04/2016 19:29:34", 
            "flagged": false, 
            "hidden": false, 
            "id": 9975, 
            "moderator_id": null, 
            "permissions": {
                "hide": false, 
                "hide_author": false, 
                "vote": false
            }, 
            "total_dislikes": 0, 
            "total_likes": 0, 
            "total_votes": 0
        }, 
        {
            "administrator_id": null, 
            "alignment": 0, 
            "ancestry": null, 
            "as": null, 
            "author": {
                "avatar_image": "https://decidim.barcelona/assets/avatar-866795c99abc33a3160d1f3fa93ada46eb75e54134e777666b9ed16215b26534.png", 
                "erased": false, 
                "hidden": false, 
                "id": 9262, 
                "name": "Suport General - Decidim Barcelona", 
                "official": false, 
                "official_level": 0, 
                "role": null, 
                "verified_organization": null
            }, 
            "body": "<p><a href=\"https://decidim.barcelona/proposals/bordillos-7-centimetros-mas-bajos\">https://decidim.barcelona/proposals/bordillos-7-centimetros-mas-bajos</a></p>", 
            "commentable_id": 2846, 
            "commentable_type": "Proposal", 
            "created_at": "07/04/2016 19:37:04", 
            "flagged": false, 
            "hidden": false, 
            "id": 9988, 
            "moderator_id": null, 
            "permissions": {
                "hide": false, 
                "hide_author": false, 
                "vote": false
            }, 
            "total_dislikes": 0, 
            "total_likes": 0, 
            "total_votes": 0
        }, 
        {
            "administrator_id": null, 
            "alignment": 0, 
            "ancestry": null, 
            "as": null, 
            "author": {
                "avatar_image": "https://decidim.barcelona/assets/avatar-866795c99abc33a3160d1f3fa93ada46eb75e54134e777666b9ed16215b26534.png", 
                "erased": false, 
                "hidden": false, 
                "id": 9262, 
                "name": "Suport General - Decidim Barcelona", 
                "official": false, 
                "official_level": 0, 
                "role": null, 
                "verified_organization": null
            }, 
            "body": "<p><a href=\"https://decidim.barcelona/proposals/programa-universal-d-adaptacio-funcional-de-la-llar\">https://decidim.barcelona/proposals/programa-universal-d-adaptacio-funcional-de-la-llar</a></p>", 
            "commentable_id": 2846, 
            "commentable_type": "Proposal", 
            "created_at": "07/04/2016 19:38:01", 
            "flagged": false, 
            "hidden": false, 
            "id": 9990, 
            "moderator_id": null, 
            "permissions": {
                "hide": false, 
                "hide_author": false, 
                "vote": false
            }, 
            "total_dislikes": 0, 
            "total_likes": 0, 
            "total_votes": 0
        }, 
        {
            "administrator_id": null, 
            "alignment": 0, 
            "ancestry": null, 
            "as": null, 
            "author": {
                "avatar_image": "https://decidim.barcelona/assets/avatar-866795c99abc33a3160d1f3fa93ada46eb75e54134e777666b9ed16215b26534.png", 
                "erased": false, 
                "hidden": false, 
                "id": 9262, 
                "name": "Suport General - Decidim Barcelona", 
                "official": false, 
                "official_level": 0, 
                "role": null, 
                "verified_organization": null
            }, 
            "body": "<p><a href=\"https://decidim.barcelona/proposals/establir-al-pla-de-formacio-municipal-una-oferta-formativa-obligatoria-sobre-accessibilitat\">https://decidim.barcelona/proposals/establir-al-pla-de-formacio-municipal-una-oferta-formativa-obligatoria-sobre-accessibilitat</a></p>", 
            "commentable_id": 2846, 
            "commentable_type": "Proposal", 
            "created_at": "07/04/2016 19:40:25", 
            "flagged": false, 
            "hidden": false, 
            "id": 9997, 
            "moderator_id": null, 
            "permissions": {
                "hide": false, 
                "hide_author": false, 
                "vote": false
            }, 
            "total_dislikes": 0, 
            "total_likes": 0, 
            "total_votes": 0
        }, 
        {
            "administrator_id": null, 
            "alignment": 0, 
            "ancestry": null, 
            "as": null, 
            "author": {
                "avatar_image": "https://decidim.barcelona/assets/avatar-866795c99abc33a3160d1f3fa93ada46eb75e54134e777666b9ed16215b26534.png", 
                "erased": false, 
                "hidden": false, 
                "id": 9262, 
                "name": "Suport General - Decidim Barcelona", 
                "official": false, 
                "official_level": 0, 
                "role": null, 
                "verified_organization": null
            }, 
            "body": "<p><a href=\"https://decidim.barcelona/proposals/revisar-la-normativa-d-accessibilitat\">https://decidim.barcelona/proposals/revisar-la-normativa-d-accessibilitat</a></p>", 
            "commentable_id": 2846, 
            "commentable_type": "Proposal", 
            "created_at": "07/04/2016 19:46:57", 
            "flagged": false, 
            "hidden": false, 
            "id": 10009, 
            "moderator_id": null, 
            "permissions": {
                "hide": false, 
                "hide_author": false, 
                "vote": false
            }, 
            "total_dislikes": 0, 
            "total_likes": 0, 
            "total_votes": 0
        }, 
        {
            "administrator_id": null, 
            "alignment": 0, 
            "ancestry": null, 
            "as": null, 
            "author": {
                "avatar_image": "https://decidim.barcelona/assets/avatar-866795c99abc33a3160d1f3fa93ada46eb75e54134e777666b9ed16215b26534.png", 
                "erased": false, 
                "hidden": false, 
                "id": 9262, 
                "name": "Suport General - Decidim Barcelona", 
                "official": false, 
                "official_level": 0, 
                "role": null, 
                "verified_organization": null
            }, 
            "body": "<p><a href=\"https://decidim.barcelona/proposals/comprovar-l-accessibilitat-i-l-adaptacio-correcta-dels-elements-basics-del-transport-public-rampes-entre-andana-i-vago-ascensors-etc-evitar-que-les-estacions-noves-o-remodelades-tinguin-defectes-de-disseny-que-perjudiquin-la-mobilitat\">https://decidim.barcelona/proposals/comprovar-l-accessibilitat-i-l-adaptacio-correcta-dels-elements-basics-del-transport-public-rampes-entre-andana-i-vago-ascensors-etc-evitar-que-les-estacions-noves-o-remodelades-tinguin-defectes-de-disseny-que-perjudiquin-la-mobilitat</a></p>", 
            "commentable_id": 2846, 
            "commentable_type": "Proposal", 
            "created_at": "07/04/2016 19:47:29", 
            "flagged": false, 
            "hidden": false, 
            "id": 10010, 
            "moderator_id": null, 
            "permissions": {
                "hide": false, 
                "hide_author": false, 
                "vote": false
            }, 
            "total_dislikes": 0, 
            "total_likes": 0, 
            "total_votes": 0
        }, 
        {
            "administrator_id": null, 
            "alignment": 0, 
            "ancestry": null, 
            "as": null, 
            "author": {
                "avatar_image": "https://decidim.barcelona/assets/avatar-866795c99abc33a3160d1f3fa93ada46eb75e54134e777666b9ed16215b26534.png", 
                "erased": false, 
                "hidden": false, 
                "id": 9263, 
                "name": "Suport decidim Activitat Econ\u00f2mica", 
                "official": false, 
                "official_level": 0, 
                "role": null, 
                "verified_organization": null
            }, 
            "body": "<p><a href=\"https://decidim.barcelona/proposals/accessibilitat-del-metro\">https://decidim.barcelona/proposals/accessibilitat-del-metro</a></p>", 
            "commentable_id": 2846, 
            "commentable_type": "Proposal", 
            "created_at": "08/04/2016 13:23:40", 
            "flagged": false, 
            "hidden": false, 
            "id": 10759, 
            "moderator_id": null, 
            "permissions": {
                "hide": false, 
                "hide_author": false, 
                "vote": false
            }, 
            "total_dislikes": 0, 
            "total_likes": 0, 
            "total_votes": 0
        }, 
        {
            "administrator_id": null, 
            "alignment": 0, 
            "ancestry": null, 
            "as": null, 
            "author": {
                "avatar_image": "https://decidim.barcelona/assets/avatar-866795c99abc33a3160d1f3fa93ada46eb75e54134e777666b9ed16215b26534.png", 
                "erased": false, 
                "hidden": false, 
                "id": 9263, 
                "name": "Suport decidim Activitat Econ\u00f2mica", 
                "official": false, 
                "official_level": 0, 
                "role": null, 
                "verified_organization": null
            }, 
            "body": "<p><a href=\"https://decidim.barcelona/proposals/instal-lar-ascensors-al-metro\">https://decidim.barcelona/proposals/instal-lar-ascensors-al-metro</a></p>", 
            "commentable_id": 2846, 
            "commentable_type": "Proposal", 
            "created_at": "08/04/2016 13:24:09", 
            "flagged": false, 
            "hidden": false, 
            "id": 10762, 
            "moderator_id": null, 
            "permissions": {
                "hide": false, 
                "hide_author": false, 
                "vote": false
            }, 
            "total_dislikes": 0, 
            "total_likes": 0, 
            "total_votes": 0
        }, 
        {
            "administrator_id": null, 
            "alignment": 0, 
            "ancestry": null, 
            "as": null, 
            "author": {
                "avatar_image": "https://decidim.barcelona/assets/avatar-866795c99abc33a3160d1f3fa93ada46eb75e54134e777666b9ed16215b26534.png", 
                "erased": false, 
                "hidden": false, 
                "id": 9262, 
                "name": "Suport General - Decidim Barcelona", 
                "official": false, 
                "official_level": 0, 
                "role": null, 
                "verified_organization": null
            }, 
            "body": "<p><a href=\"https://decidim.barcelona/proposals/reforcar-la-senyalitzacio-dels-seients-reservats-dels-busos-i-metro\">https://decidim.barcelona/proposals/reforcar-la-senyalitzacio-dels-seients-reservats-dels-busos-i-metro</a></p>", 
            "commentable_id": 2846, 
            "commentable_type": "Proposal", 
            "created_at": "13/04/2016 16:39:36", 
            "flagged": false, 
            "hidden": false, 
            "id": 14931, 
            "moderator_id": null, 
            "permissions": {
                "hide": false, 
                "hide_author": false, 
                "vote": false
            }, 
            "total_dislikes": 0, 
            "total_likes": 0, 
            "total_votes": 0
        }, 
        {
            "administrator_id": null, 
            "alignment": 0, 
            "ancestry": null, 
            "as": null, 
            "author": {
                "avatar_image": "https://decidim.barcelona/assets/avatar-866795c99abc33a3160d1f3fa93ada46eb75e54134e777666b9ed16215b26534.png", 
                "erased": false, 
                "hidden": false, 
                "id": 9262, 
                "name": "Suport General - Decidim Barcelona", 
                "official": false, 
                "official_level": 0, 
                "role": null, 
                "verified_organization": null
            }, 
            "body": "<p><a href=\"https://decidim.barcelona/proposals/iniciatives-per-facilitar-l-us-del-transport-public-per-a-tothom\">https://decidim.barcelona/proposals/iniciatives-per-facilitar-l-us-del-transport-public-per-a-tothom</a></p>", 
            "commentable_id": 2846, 
            "commentable_type": "Proposal", 
            "created_at": "13/04/2016 17:00:09", 
            "flagged": false, 
            "hidden": false, 
            "id": 14951, 
            "moderator_id": null, 
            "permissions": {
                "hide": false, 
                "hide_author": false, 
                "vote": false
            }, 
            "total_dislikes": 0, 
            "total_likes": 0, 
            "total_votes": 0
        }, 
        {
            "administrator_id": null, 
            "alignment": 0, 
            "ancestry": null, 
            "as": null, 
            "author": {
                "avatar_image": "https://decidim.barcelona/assets/avatar-866795c99abc33a3160d1f3fa93ada46eb75e54134e777666b9ed16215b26534.png", 
                "erased": false, 
                "hidden": false, 
                "id": 9262, 
                "name": "Suport General - Decidim Barcelona", 
                "official": false, 
                "official_level": 0, 
                "role": null, 
                "verified_organization": null
            }, 
            "body": "<p><a href=\"https://decidim.barcelona/proposals/retirar-pals-i-altres-elements-de-voreres-que-impedeixen-el-pas-de-vianants-i-persones-amb-discapacitat\">https://decidim.barcelona/proposals/retirar-pals-i-altres-elements-de-voreres-que-impedeixen-el-pas-de-vianants-i-persones-amb-discapacitat</a></p>", 
            "commentable_id": 2846, 
            "commentable_type": "Proposal", 
            "created_at": "13/04/2016 17:20:42", 
            "flagged": false, 
            "hidden": false, 
            "id": 14962, 
            "moderator_id": null, 
            "permissions": {
                "hide": false, 
                "hide_author": false, 
                "vote": false
            }, 
            "total_dislikes": 0, 
            "total_likes": 0, 
            "total_votes": 0
        }, 
        {
            "administrator_id": null, 
            "alignment": 0, 
            "ancestry": null, 
            "as": null, 
            "author": {
                "avatar_image": "https://decidim.barcelona/assets/avatar-866795c99abc33a3160d1f3fa93ada46eb75e54134e777666b9ed16215b26534.png", 
                "erased": false, 
                "hidden": false, 
                "id": 9262, 
                "name": "Suport General - Decidim Barcelona", 
                "official": false, 
                "official_level": 0, 
                "role": null, 
                "verified_organization": null
            }, 
            "body": "<p><a href=\"https://decidim.barcelona/proposals/instal-lar-ascensors-al-metro\">https://decidim.barcelona/proposals/instal-lar-ascensors-al-metro</a></p>", 
            "commentable_id": 2846, 
            "commentable_type": "Proposal", 
            "created_at": "13/04/2016 17:42:04", 
            "flagged": false, 
            "hidden": false, 
            "id": 14990, 
            "moderator_id": null, 
            "permissions": {
                "hide": false, 
                "hide_author": false, 
                "vote": false
            }, 
            "total_dislikes": 0, 
            "total_likes": 0, 
            "total_votes": 0
        }, 
        {
            "administrator_id": null, 
            "alignment": 0, 
            "ancestry": null, 
            "as": null, 
            "author": {
                "avatar_image": "https://decidim.barcelona/assets/avatar-866795c99abc33a3160d1f3fa93ada46eb75e54134e777666b9ed16215b26534.png", 
                "erased": false, 
                "hidden": false, 
                "id": 9262, 
                "name": "Suport General - Decidim Barcelona", 
                "official": false, 
                "official_level": 0, 
                "role": null, 
                "verified_organization": null
            }, 
            "body": "<p><a href=\"https://decidim.barcelona/proposals/adaptacio-complerta-dels-transports-publics\">https://decidim.barcelona/proposals/adaptacio-complerta-dels-transports-publics</a></p>", 
            "commentable_id": 2846, 
            "commentable_type": "Proposal", 
            "created_at": "14/04/2016 10:07:29", 
            "flagged": false, 
            "hidden": false, 
            "id": 15166, 
            "moderator_id": null, 
            "permissions": {
                "hide": false, 
                "hide_author": false, 
                "vote": false
            }, 
            "total_dislikes": 0, 
            "total_likes": 0, 
            "total_votes": 0
        }, 
        {
            "administrator_id": null, 
            "alignment": 0, 
            "ancestry": null, 
            "as": null, 
            "author": {
                "avatar_image": "https://decidim.barcelona/assets/avatar-866795c99abc33a3160d1f3fa93ada46eb75e54134e777666b9ed16215b26534.png", 
                "erased": false, 
                "hidden": false, 
                "id": 9262, 
                "name": "Suport General - Decidim Barcelona", 
                "official": false, 
                "official_level": 0, 
                "role": null, 
                "verified_organization": null
            }, 
            "body": "<p><a href=\"https://decidim.barcelona/proposals/transport-porta-a-porta\">https://decidim.barcelona/proposals/transport-porta-a-porta</a></p>", 
            "commentable_id": 2846, 
            "commentable_type": "Proposal", 
            "created_at": "14/04/2016 10:08:18", 
            "flagged": false, 
            "hidden": false, 
            "id": 15167, 
            "moderator_id": null, 
            "permissions": {
                "hide": false, 
                "hide_author": false, 
                "vote": false
            }, 
            "total_dislikes": 0, 
            "total_likes": 0, 
            "total_votes": 0
        }, 
        {
            "administrator_id": null, 
            "alignment": 0, 
            "ancestry": null, 
            "as": null, 
            "author": {
                "avatar_image": "https://decidim.barcelona/assets/avatar-866795c99abc33a3160d1f3fa93ada46eb75e54134e777666b9ed16215b26534.png", 
                "erased": false, 
                "hidden": false, 
                "id": 9262, 
                "name": "Suport General - Decidim Barcelona", 
                "official": false, 
                "official_level": 0, 
                "role": null, 
                "verified_organization": null
            }, 
            "body": "<p><a href=\"https://decidim.barcelona/proposals/accesibilidad-a-las-paradas-de-bus-crear-decalogo-de-como-han-de-ser-perfectamente-accesibles\">https://decidim.barcelona/proposals/accesibilidad-a-las-paradas-de-bus-crear-decalogo-de-como-han-de-ser-perfectamente-accesibles</a></p>", 
            "commentable_id": 2846, 
            "commentable_type": "Proposal", 
            "created_at": "14/04/2016 15:40:18", 
            "flagged": false, 
            "hidden": false, 
            "id": 15814, 
            "moderator_id": null, 
            "permissions": {
                "hide": false, 
                "hide_author": false, 
                "vote": false
            }, 
            "total_dislikes": 0, 
            "total_likes": 0, 
            "total_votes": 0
        }, 
        {
            "administrator_id": null, 
            "alignment": 0, 
            "ancestry": null, 
            "as": null, 
            "author": {
                "avatar_image": "https://decidim.barcelona/assets/avatar-866795c99abc33a3160d1f3fa93ada46eb75e54134e777666b9ed16215b26534.png", 
                "erased": false, 
                "hidden": false, 
                "id": 9262, 
                "name": "Suport General - Decidim Barcelona", 
                "official": false, 
                "official_level": 0, 
                "role": null, 
                "verified_organization": null
            }, 
            "body": "<p><a href=\"https://decidim.barcelona/proposals/accessibilitat-sortida-nord-estacio-zona-universitaria-linea-3-del-metro\">https://decidim.barcelona/proposals/accessibilitat-sortida-nord-estacio-zona-universitaria-linea-3-del-metro</a></p>", 
            "commentable_id": 2846, 
            "commentable_type": "Proposal", 
            "created_at": "14/04/2016 16:02:18", 
            "flagged": false, 
            "hidden": false, 
            "id": 15855, 
            "moderator_id": null, 
            "permissions": {
                "hide": false, 
                "hide_author": false, 
                "vote": false
            }, 
            "total_dislikes": 0, 
            "total_likes": 0, 
            "total_votes": 0
        }, 
        {
            "administrator_id": null, 
            "alignment": 0, 
            "ancestry": null, 
            "as": null, 
            "author": {
                "avatar_image": "https://decidim.barcelona/assets/avatar-866795c99abc33a3160d1f3fa93ada46eb75e54134e777666b9ed16215b26534.png", 
                "erased": false, 
                "hidden": false, 
                "id": 9262, 
                "name": "Suport General - Decidim Barcelona", 
                "official": false, 
                "official_level": 0, 
                "role": null, 
                "verified_organization": null
            }, 
            "body": "<p><a href=\"https://decidim.barcelona/proposals/no-mas-abusos-con-las-plazas-de-aparcamiento-de-discapacitados\">https://decidim.barcelona/proposals/no-mas-abusos-con-las-plazas-de-aparcamiento-de-discapacitados</a></p>", 
            "commentable_id": 2846, 
            "commentable_type": "Proposal", 
            "created_at": "14/04/2016 17:05:22", 
            "flagged": false, 
            "hidden": false, 
            "id": 16022, 
            "moderator_id": null, 
            "permissions": {
                "hide": false, 
                "hide_author": false, 
                "vote": false
            }, 
            "total_dislikes": 0, 
            "total_likes": 0, 
            "total_votes": 0
        }, 
        {
            "administrator_id": null, 
            "alignment": 0, 
            "ancestry": null, 
            "as": null, 
            "author": {
                "avatar_image": "https://decidim.barcelona/assets/avatar-866795c99abc33a3160d1f3fa93ada46eb75e54134e777666b9ed16215b26534.png", 
                "erased": false, 
                "hidden": false, 
                "id": 9262, 
                "name": "Suport General - Decidim Barcelona", 
                "official": false, 
                "official_level": 0, 
                "role": null, 
                "verified_organization": null
            }, 
            "body": "<p><a href=\"https://decidim.barcelona/proposals/renovacio-dels-semafors-peatonals-de-la-ciutat\">https://decidim.barcelona/proposals/renovacio-dels-semafors-peatonals-de-la-ciutat</a></p>", 
            "commentable_id": 2846, 
            "commentable_type": "Proposal", 
            "created_at": "14/04/2016 18:04:31", 
            "flagged": false, 
            "hidden": false, 
            "id": 16192, 
            "moderator_id": null, 
            "permissions": {
                "hide": false, 
                "hide_author": false, 
                "vote": false
            }, 
            "total_dislikes": 0, 
            "total_likes": 0, 
            "total_votes": 0
        }, 
        {
            "administrator_id": null, 
            "alignment": 0, 
            "ancestry": null, 
            "as": null, 
            "author": {
                "avatar_image": "https://decidim.barcelona/assets/avatar-866795c99abc33a3160d1f3fa93ada46eb75e54134e777666b9ed16215b26534.png", 
                "erased": false, 
                "hidden": false, 
                "id": 9262, 
                "name": "Suport General - Decidim Barcelona", 
                "official": false, 
                "official_level": 0, 
                "role": null, 
                "verified_organization": null
            }, 
            "body": "<p><a href=\"https://decidim.barcelona/proposals/mejora-de-la-cartelistica-de-metro-ferrocarriles-y-cercanias\">https://decidim.barcelona/proposals/mejora-de-la-cartelistica-de-metro-ferrocarriles-y-cercanias</a></p>", 
            "commentable_id": 2846, 
            "commentable_type": "Proposal", 
            "created_at": "15/04/2016 10:23:37", 
            "flagged": false, 
            "hidden": false, 
            "id": 16503, 
            "moderator_id": null, 
            "permissions": {
                "hide": false, 
                "hide_author": false, 
                "vote": false
            }, 
            "total_dislikes": 0, 
            "total_likes": 0, 
            "total_votes": 0
        }, 
        {
            "administrator_id": null, 
            "alignment": 0, 
            "ancestry": null, 
            "as": null, 
            "author": {
                "avatar_image": "https://decidim.barcelona/assets/avatar-866795c99abc33a3160d1f3fa93ada46eb75e54134e777666b9ed16215b26534.png", 
                "erased": false, 
                "hidden": false, 
                "id": 9262, 
                "name": "Suport General - Decidim Barcelona", 
                "official": false, 
                "official_level": 0, 
                "role": null, 
                "verified_organization": null
            }, 
            "body": "<p><a href=\"https://decidim.barcelona/proposals/accessibilitat-amb-diversos-trams-d-escales-mecaniques-a-les-escoles-3-pins-i-de-bosc-de-montjuic\">https://decidim.barcelona/proposals/accessibilitat-amb-diversos-trams-d-escales-mecaniques-a-les-escoles-3-pins-i-de-bosc-de-montjuic</a></p>", 
            "commentable_id": 2846, 
            "commentable_type": "Proposal", 
            "created_at": "15/04/2016 11:13:49", 
            "flagged": false, 
            "hidden": false, 
            "id": 16618, 
            "moderator_id": null, 
            "permissions": {
                "hide": false, 
                "hide_author": false, 
                "vote": false
            }, 
            "total_dislikes": 0, 
            "total_likes": 0, 
            "total_votes": 0
        }
    ], 
    "meta": {
        "current_page": 3, 
        "next_page": null, 
        "prev_page": 2, 
        "total_count": 60, 
        "total_pages": 3
    }
}