{
    "comments": [
        {
            "administrator_id": null, 
            "alignment": 1, 
            "ancestry": null, 
            "as": null, 
            "author": {
                "avatar_image": "https://decidim.barcelona/assets/avatar-866795c99abc33a3160d1f3fa93ada46eb75e54134e777666b9ed16215b26534.png", 
                "erased": false, 
                "hidden": false, 
                "id": 13405, 
                "name": "Dsoriano ", 
                "official": false, 
                "official_level": 0, 
                "role": null, 
                "verified_organization": null
            }, 
            "body": "<p>Els infants i joves del Casal Sant Josep de Calassan\u00e7 van estar debatent diverses propostes per millorar les condicions de vida dels ciutadans i ciutadanes de Barcelona. Entre aquestes van proposar dotar de senyals ac\u00fastiques tots els sem\u00e0fors per garantir la lliure mobilitat de les persones amb disminuci\u00f3 visual. </p>", 
            "commentable_id": 2846, 
            "commentable_type": "Proposal", 
            "created_at": "07/04/2016 09:33:58", 
            "flagged": false, 
            "hidden": false, 
            "id": 9049, 
            "moderator_id": null, 
            "permissions": {
                "hide": false, 
                "hide_author": false, 
                "vote": false
            }, 
            "total_dislikes": 0, 
            "total_likes": 0, 
            "total_votes": 0
        }, 
        {
            "administrator_id": null, 
            "alignment": 1, 
            "ancestry": null, 
            "as": null, 
            "author": {
                "avatar_image": "https://decidim.barcelona/assets/avatar-866795c99abc33a3160d1f3fa93ada46eb75e54134e777666b9ed16215b26534.png", 
                "erased": false, 
                "hidden": false, 
                "id": 12179, 
                "name": "suport.decidim1", 
                "official": false, 
                "official_level": 0, 
                "role": null, 
                "verified_organization": null
            }, 
            "body": "<p>Proposta debatuda en Sessi\u00f3 de treball PAM. Autonomia personal: \"Substituir el redactat de la proposta del PAM Pla d'accessibilitat universal per: Millorar l'accessibilitat per al conjunt de la ciutadania amb  l'elaboraci\u00f3 d'un Pla d'accessibilitat universal.\"</p>", 
            "commentable_id": 2846, 
            "commentable_type": "Proposal", 
            "created_at": "07/04/2016 12:00:54", 
            "flagged": false, 
            "hidden": false, 
            "id": 9138, 
            "moderator_id": null, 
            "permissions": {
                "hide": false, 
                "hide_author": false, 
                "vote": false
            }, 
            "total_dislikes": 0, 
            "total_likes": 0, 
            "total_votes": 0
        }, 
        {
            "administrator_id": null, 
            "alignment": 0, 
            "ancestry": null, 
            "as": null, 
            "author": {
                "avatar_image": "https://decidim.barcelona/assets/avatar-866795c99abc33a3160d1f3fa93ada46eb75e54134e777666b9ed16215b26534.png", 
                "erased": false, 
                "hidden": false, 
                "id": 17741, 
                "name": "Suport General3 - Decidim Barcelona", 
                "official": false, 
                "official_level": 0, 
                "role": null, 
                "verified_organization": null
            }, 
            "body": "<p><a href=\"https://decidim.barcelona/proposals/garantir-l-accessibilitat-al-transport-public\">https://decidim.barcelona/proposals/garantir-l-accessibilitat-al-transport-public</a></p>", 
            "commentable_id": 2846, 
            "commentable_type": "Proposal", 
            "created_at": "07/04/2016 13:47:36", 
            "flagged": false, 
            "hidden": false, 
            "id": 9381, 
            "moderator_id": null, 
            "permissions": {
                "hide": false, 
                "hide_author": false, 
                "vote": false
            }, 
            "total_dislikes": 0, 
            "total_likes": 0, 
            "total_votes": 0
        }, 
        {
            "administrator_id": null, 
            "alignment": 0, 
            "ancestry": null, 
            "as": null, 
            "author": {
                "avatar_image": "https://decidim.barcelona/assets/avatar-866795c99abc33a3160d1f3fa93ada46eb75e54134e777666b9ed16215b26534.png", 
                "erased": false, 
                "hidden": false, 
                "id": 9262, 
                "name": "Suport General - Decidim Barcelona", 
                "official": false, 
                "official_level": 0, 
                "role": null, 
                "verified_organization": null
            }, 
            "body": "<p><a href=\"https://decidim.barcelona/proposals/zones-infantils-adaptades\">https://decidim.barcelona/proposals/zones-infantils-adaptades</a></p>", 
            "commentable_id": 2846, 
            "commentable_type": "Proposal", 
            "created_at": "07/04/2016 17:32:41", 
            "flagged": false, 
            "hidden": false, 
            "id": 9804, 
            "moderator_id": null, 
            "permissions": {
                "hide": false, 
                "hide_author": false, 
                "vote": false
            }, 
            "total_dislikes": 0, 
            "total_likes": 0, 
            "total_votes": 0
        }, 
        {
            "administrator_id": null, 
            "alignment": 0, 
            "ancestry": null, 
            "as": null, 
            "author": {
                "avatar_image": "https://decidim.barcelona/assets/avatar-866795c99abc33a3160d1f3fa93ada46eb75e54134e777666b9ed16215b26534.png", 
                "erased": false, 
                "hidden": false, 
                "id": 9262, 
                "name": "Suport General - Decidim Barcelona", 
                "official": false, 
                "official_level": 0, 
                "role": null, 
                "verified_organization": null
            }, 
            "body": "<p><a href=\"https://decidim.barcelona/proposals/adaptacio-deltmb-per-les-persones-am-discapacitat-o-movilitat-reduida\">https://decidim.barcelona/proposals/adaptacio-deltmb-per-les-persones-am-discapacitat-o-movilitat-reduida</a></p>", 
            "commentable_id": 2846, 
            "commentable_type": "Proposal", 
            "created_at": "07/04/2016 17:33:09", 
            "flagged": false, 
            "hidden": false, 
            "id": 9805, 
            "moderator_id": null, 
            "permissions": {
                "hide": false, 
                "hide_author": false, 
                "vote": false
            }, 
            "total_dislikes": 0, 
            "total_likes": 0, 
            "total_votes": 0
        }, 
        {
            "administrator_id": null, 
            "alignment": 0, 
            "ancestry": null, 
            "as": null, 
            "author": {
                "avatar_image": "https://decidim.barcelona/assets/avatar-866795c99abc33a3160d1f3fa93ada46eb75e54134e777666b9ed16215b26534.png", 
                "erased": false, 
                "hidden": false, 
                "id": 9262, 
                "name": "Suport General - Decidim Barcelona", 
                "official": false, 
                "official_level": 0, 
                "role": null, 
                "verified_organization": null
            }, 
            "body": "<p><a href=\"https://decidim.barcelona/proposals/parc-accesible\">https://decidim.barcelona/proposals/parc-accesible</a></p>", 
            "commentable_id": 2846, 
            "commentable_type": "Proposal", 
            "created_at": "07/04/2016 17:33:51", 
            "flagged": false, 
            "hidden": false, 
            "id": 9807, 
            "moderator_id": null, 
            "permissions": {
                "hide": false, 
                "hide_author": false, 
                "vote": false
            }, 
            "total_dislikes": 0, 
            "total_likes": 0, 
            "total_votes": 0
        }, 
        {
            "administrator_id": null, 
            "alignment": 0, 
            "ancestry": null, 
            "as": null, 
            "author": {
                "avatar_image": "https://decidim.barcelona/assets/avatar-866795c99abc33a3160d1f3fa93ada46eb75e54134e777666b9ed16215b26534.png", 
                "erased": false, 
                "hidden": false, 
                "id": 9262, 
                "name": "Suport General - Decidim Barcelona", 
                "official": false, 
                "official_level": 0, 
                "role": null, 
                "verified_organization": null
            }, 
            "body": "<p><a href=\"https://decidim.barcelona/proposals/accessibilitat-i-tracte-a-persones-amb-discapacitat\">https://decidim.barcelona/proposals/accessibilitat-i-tracte-a-persones-amb-discapacitat</a></p>", 
            "commentable_id": 2846, 
            "commentable_type": "Proposal", 
            "created_at": "07/04/2016 17:37:08", 
            "flagged": false, 
            "hidden": false, 
            "id": 9814, 
            "moderator_id": null, 
            "permissions": {
                "hide": false, 
                "hide_author": false, 
                "vote": false
            }, 
            "total_dislikes": 0, 
            "total_likes": 0, 
            "total_votes": 0
        }, 
        {
            "administrator_id": null, 
            "alignment": 0, 
            "ancestry": null, 
            "as": null, 
            "author": {
                "avatar_image": "https://decidim.barcelona/assets/avatar-866795c99abc33a3160d1f3fa93ada46eb75e54134e777666b9ed16215b26534.png", 
                "erased": false, 
                "hidden": false, 
                "id": 9262, 
                "name": "Suport General - Decidim Barcelona", 
                "official": false, 
                "official_level": 0, 
                "role": null, 
                "verified_organization": null
            }, 
            "body": "<p><a href=\"https://decidim.barcelona/proposals/adaptar-les-estacions-de-metro-d-urquinaona-verdaguer-maragall-pl-espanya\">https://decidim.barcelona/proposals/adaptar-les-estacions-de-metro-d-urquinaona-verdaguer-maragall-pl-espanya</a></p>", 
            "commentable_id": 2846, 
            "commentable_type": "Proposal", 
            "created_at": "07/04/2016 17:44:48", 
            "flagged": false, 
            "hidden": false, 
            "id": 9824, 
            "moderator_id": null, 
            "permissions": {
                "hide": false, 
                "hide_author": false, 
                "vote": false
            }, 
            "total_dislikes": 0, 
            "total_likes": 0, 
            "total_votes": 0
        }, 
        {
            "administrator_id": null, 
            "alignment": 0, 
            "ancestry": null, 
            "as": null, 
            "author": {
                "avatar_image": "https://decidim.barcelona/assets/avatar-866795c99abc33a3160d1f3fa93ada46eb75e54134e777666b9ed16215b26534.png", 
                "erased": false, 
                "hidden": false, 
                "id": 9262, 
                "name": "Suport General - Decidim Barcelona", 
                "official": false, 
                "official_level": 0, 
                "role": null, 
                "verified_organization": null
            }, 
            "body": "<p><a href=\"https://decidim.barcelona/proposals/normativa-municipal-de-accesibilidad\">https://decidim.barcelona/proposals/normativa-municipal-de-accesibilidad</a></p>", 
            "commentable_id": 2846, 
            "commentable_type": "Proposal", 
            "created_at": "07/04/2016 17:45:27", 
            "flagged": false, 
            "hidden": false, 
            "id": 9825, 
            "moderator_id": null, 
            "permissions": {
                "hide": false, 
                "hide_author": false, 
                "vote": false
            }, 
            "total_dislikes": 0, 
            "total_likes": 0, 
            "total_votes": 0
        }, 
        {
            "administrator_id": null, 
            "alignment": 0, 
            "ancestry": null, 
            "as": null, 
            "author": {
                "avatar_image": "https://decidim.barcelona/assets/avatar-866795c99abc33a3160d1f3fa93ada46eb75e54134e777666b9ed16215b26534.png", 
                "erased": false, 
                "hidden": false, 
                "id": 9262, 
                "name": "Suport General - Decidim Barcelona", 
                "official": false, 
                "official_level": 0, 
                "role": null, 
                "verified_organization": null
            }, 
            "body": "<p><a href=\"https://decidim.barcelona/proposals/platges-adaptades\">https://decidim.barcelona/proposals/platges-adaptades</a></p>", 
            "commentable_id": 2846, 
            "commentable_type": "Proposal", 
            "created_at": "07/04/2016 17:45:46", 
            "flagged": false, 
            "hidden": false, 
            "id": 9827, 
            "moderator_id": null, 
            "permissions": {
                "hide": false, 
                "hide_author": false, 
                "vote": false
            }, 
            "total_dislikes": 0, 
            "total_likes": 0, 
            "total_votes": 0
        }, 
        {
            "administrator_id": null, 
            "alignment": 0, 
            "ancestry": null, 
            "as": null, 
            "author": {
                "avatar_image": "https://decidim.barcelona/assets/avatar-866795c99abc33a3160d1f3fa93ada46eb75e54134e777666b9ed16215b26534.png", 
                "erased": false, 
                "hidden": false, 
                "id": 9262, 
                "name": "Suport General - Decidim Barcelona", 
                "official": false, 
                "official_level": 0, 
                "role": null, 
                "verified_organization": null
            }, 
            "body": "<p><a href=\"https://decidim.barcelona/proposals/augmentar-l-oferta-de-transport-en-taxi-adaptat-per-a-discapacitats-fisics-per-poder-anar-al-metge\">https://decidim.barcelona/proposals/augmentar-l-oferta-de-transport-en-taxi-adaptat-per-a-discapacitats-fisics-per-poder-anar-al-metge</a></p>", 
            "commentable_id": 2846, 
            "commentable_type": "Proposal", 
            "created_at": "07/04/2016 17:48:27", 
            "flagged": false, 
            "hidden": false, 
            "id": 9834, 
            "moderator_id": null, 
            "permissions": {
                "hide": false, 
                "hide_author": false, 
                "vote": false
            }, 
            "total_dislikes": 0, 
            "total_likes": 0, 
            "total_votes": 0
        }, 
        {
            "administrator_id": null, 
            "alignment": 0, 
            "ancestry": null, 
            "as": null, 
            "author": {
                "avatar_image": "https://decidim.barcelona/assets/avatar-866795c99abc33a3160d1f3fa93ada46eb75e54134e777666b9ed16215b26534.png", 
                "erased": false, 
                "hidden": false, 
                "id": 9262, 
                "name": "Suport General - Decidim Barcelona", 
                "official": false, 
                "official_level": 0, 
                "role": null, 
                "verified_organization": null
            }, 
            "body": "<p><a href=\"https://decidim.barcelona/proposals/mapa-d-espais-d-oci-i-esbarjo-accessibles-bars-restaurants-botigues\">https://decidim.barcelona/proposals/mapa-d-espais-d-oci-i-esbarjo-accessibles-bars-restaurants-botigues</a></p>", 
            "commentable_id": 2846, 
            "commentable_type": "Proposal", 
            "created_at": "07/04/2016 17:59:06", 
            "flagged": false, 
            "hidden": false, 
            "id": 9844, 
            "moderator_id": null, 
            "permissions": {
                "hide": false, 
                "hide_author": false, 
                "vote": false
            }, 
            "total_dislikes": 0, 
            "total_likes": 0, 
            "total_votes": 0
        }, 
        {
            "administrator_id": null, 
            "alignment": 0, 
            "ancestry": null, 
            "as": null, 
            "author": {
                "avatar_image": "https://decidim.barcelona/assets/avatar-866795c99abc33a3160d1f3fa93ada46eb75e54134e777666b9ed16215b26534.png", 
                "erased": false, 
                "hidden": false, 
                "id": 9262, 
                "name": "Suport General - Decidim Barcelona", 
                "official": false, 
                "official_level": 0, 
                "role": null, 
                "verified_organization": null
            }, 
            "body": "<p><a href=\"https://decidim.barcelona/proposals/revisar-la-normativa-d-accessibilitat\">https://decidim.barcelona/proposals/revisar-la-normativa-d-accessibilitat</a></p>", 
            "commentable_id": 2846, 
            "commentable_type": "Proposal", 
            "created_at": "07/04/2016 18:00:38", 
            "flagged": false, 
            "hidden": false, 
            "id": 9847, 
            "moderator_id": null, 
            "permissions": {
                "hide": false, 
                "hide_author": false, 
                "vote": false
            }, 
            "total_dislikes": 0, 
            "total_likes": 0, 
            "total_votes": 0
        }, 
        {
            "administrator_id": null, 
            "alignment": 0, 
            "ancestry": null, 
            "as": null, 
            "author": {
                "avatar_image": "https://decidim.barcelona/assets/avatar-866795c99abc33a3160d1f3fa93ada46eb75e54134e777666b9ed16215b26534.png", 
                "erased": false, 
                "hidden": false, 
                "id": 9262, 
                "name": "Suport General - Decidim Barcelona", 
                "official": false, 
                "official_level": 0, 
                "role": null, 
                "verified_organization": null
            }, 
            "body": "<p><a href=\"https://decidim.barcelona/proposals/les-voreres-i-els-passos-de-vianants-sense-rampa-per-a-cadires-de-rodes\">https://decidim.barcelona/proposals/les-voreres-i-els-passos-de-vianants-sense-rampa-per-a-cadires-de-rodes</a></p>", 
            "commentable_id": 2846, 
            "commentable_type": "Proposal", 
            "created_at": "07/04/2016 18:00:50", 
            "flagged": false, 
            "hidden": false, 
            "id": 9849, 
            "moderator_id": null, 
            "permissions": {
                "hide": false, 
                "hide_author": false, 
                "vote": false
            }, 
            "total_dislikes": 0, 
            "total_likes": 0, 
            "total_votes": 0
        }, 
        {
            "administrator_id": null, 
            "alignment": 0, 
            "ancestry": null, 
            "as": null, 
            "author": {
                "avatar_image": "https://decidim.barcelona/assets/avatar-866795c99abc33a3160d1f3fa93ada46eb75e54134e777666b9ed16215b26534.png", 
                "erased": false, 
                "hidden": false, 
                "id": 9262, 
                "name": "Suport General - Decidim Barcelona", 
                "official": false, 
                "official_level": 0, 
                "role": null, 
                "verified_organization": null
            }, 
            "body": "<p><a href=\"https://decidim.barcelona/proposals/fer-accesible-la-parada-de-metro-urquinaona-de-la-l1-i-l4\">https://decidim.barcelona/proposals/fer-accesible-la-parada-de-metro-urquinaona-de-la-l1-i-l4</a></p>", 
            "commentable_id": 2846, 
            "commentable_type": "Proposal", 
            "created_at": "07/04/2016 18:01:12", 
            "flagged": false, 
            "hidden": false, 
            "id": 9850, 
            "moderator_id": null, 
            "permissions": {
                "hide": false, 
                "hide_author": false, 
                "vote": false
            }, 
            "total_dislikes": 0, 
            "total_likes": 0, 
            "total_votes": 0
        }, 
        {
            "administrator_id": null, 
            "alignment": 0, 
            "ancestry": null, 
            "as": null, 
            "author": {
                "avatar_image": "https://decidim.barcelona/assets/avatar-866795c99abc33a3160d1f3fa93ada46eb75e54134e777666b9ed16215b26534.png", 
                "erased": false, 
                "hidden": false, 
                "id": 9262, 
                "name": "Suport General - Decidim Barcelona", 
                "official": false, 
                "official_level": 0, 
                "role": null, 
                "verified_organization": null
            }, 
            "body": "<p><a href=\"https://decidim.barcelona/proposals/fer-accessible-el-transport-public-incorporant-tambe-les-necessitats-de-les-persones-que-necessiten-un-suport-extens-acompanyament\">https://decidim.barcelona/proposals/fer-accessible-el-transport-public-incorporant-tambe-les-necessitats-de-les-persones-que-necessiten-un-suport-extens-acompanyament</a></p>", 
            "commentable_id": 2846, 
            "commentable_type": "Proposal", 
            "created_at": "07/04/2016 18:04:27", 
            "flagged": false, 
            "hidden": false, 
            "id": 9855, 
            "moderator_id": null, 
            "permissions": {
                "hide": false, 
                "hide_author": false, 
                "vote": false
            }, 
            "total_dislikes": 0, 
            "total_likes": 0, 
            "total_votes": 0
        }, 
        {
            "administrator_id": null, 
            "alignment": 0, 
            "ancestry": null, 
            "as": null, 
            "author": {
                "avatar_image": "https://decidim.barcelona/assets/avatar-866795c99abc33a3160d1f3fa93ada46eb75e54134e777666b9ed16215b26534.png", 
                "erased": false, 
                "hidden": false, 
                "id": 9262, 
                "name": "Suport General - Decidim Barcelona", 
                "official": false, 
                "official_level": 0, 
                "role": null, 
                "verified_organization": null
            }, 
            "body": "<p><a href=\"https://decidim.barcelona/proposals/millores-en-el-servei-d-autobusos-per-tal-de-garantir-el-dret-a-la-mobilitat-de-les-persones-amb-discapacitat\">https://decidim.barcelona/proposals/millores-en-el-servei-d-autobusos-per-tal-de-garantir-el-dret-a-la-mobilitat-de-les-persones-amb-discapacitat</a></p>", 
            "commentable_id": 2846, 
            "commentable_type": "Proposal", 
            "created_at": "07/04/2016 18:05:12", 
            "flagged": false, 
            "hidden": false, 
            "id": 9856, 
            "moderator_id": null, 
            "permissions": {
                "hide": false, 
                "hide_author": false, 
                "vote": false
            }, 
            "total_dislikes": 0, 
            "total_likes": 0, 
            "total_votes": 0
        }, 
        {
            "administrator_id": null, 
            "alignment": 0, 
            "ancestry": null, 
            "as": null, 
            "author": {
                "avatar_image": "https://decidim.barcelona/assets/avatar-866795c99abc33a3160d1f3fa93ada46eb75e54134e777666b9ed16215b26534.png", 
                "erased": false, 
                "hidden": false, 
                "id": 9262, 
                "name": "Suport General - Decidim Barcelona", 
                "official": false, 
                "official_level": 0, 
                "role": null, 
                "verified_organization": null
            }, 
            "body": "<p><a href=\"https://decidim.barcelona/proposals/ampliar-l-oferta-de-taxi-adaptat-cetramsa\">https://decidim.barcelona/proposals/ampliar-l-oferta-de-taxi-adaptat-cetramsa</a></p>", 
            "commentable_id": 2846, 
            "commentable_type": "Proposal", 
            "created_at": "07/04/2016 18:05:28", 
            "flagged": false, 
            "hidden": false, 
            "id": 9857, 
            "moderator_id": null, 
            "permissions": {
                "hide": false, 
                "hide_author": false, 
                "vote": false
            }, 
            "total_dislikes": 0, 
            "total_likes": 0, 
            "total_votes": 0
        }, 
        {
            "administrator_id": null, 
            "alignment": 0, 
            "ancestry": null, 
            "as": null, 
            "author": {
                "avatar_image": "https://decidim.barcelona/assets/avatar-866795c99abc33a3160d1f3fa93ada46eb75e54134e777666b9ed16215b26534.png", 
                "erased": false, 
                "hidden": false, 
                "id": 9262, 
                "name": "Suport General - Decidim Barcelona", 
                "official": false, 
                "official_level": 0, 
                "role": null, 
                "verified_organization": null
            }, 
            "body": "<p><a href=\"https://decidim.barcelona/proposals/millorar-l-accessibilitat-del-transport-public-autobusos-i-metro-frequencia-manteniment-i-disseny-adequat-per-facilitar-la-mobilitat-autonoma-sense-acompanyament-de-les-persones-amb-diversitat-funcional\">https://decidim.barcelona/proposals/millorar-l-accessibilitat-del-transport-public-autobusos-i-metro-frequencia-manteniment-i-disseny-adequat-per-facilitar-la-mobilitat-autonoma-sense-acompanyament-de-les-persones-amb-diversitat-funcional</a></p>", 
            "commentable_id": 2846, 
            "commentable_type": "Proposal", 
            "created_at": "07/04/2016 18:05:54", 
            "flagged": false, 
            "hidden": false, 
            "id": 9858, 
            "moderator_id": null, 
            "permissions": {
                "hide": false, 
                "hide_author": false, 
                "vote": false
            }, 
            "total_dislikes": 0, 
            "total_likes": 0, 
            "total_votes": 0
        }, 
        {
            "administrator_id": null, 
            "alignment": 0, 
            "ancestry": null, 
            "as": null, 
            "author": {
                "avatar_image": "https://decidim.barcelona/assets/avatar-866795c99abc33a3160d1f3fa93ada46eb75e54134e777666b9ed16215b26534.png", 
                "erased": false, 
                "hidden": false, 
                "id": 9262, 
                "name": "Suport General - Decidim Barcelona", 
                "official": false, 
                "official_level": 0, 
                "role": null, 
                "verified_organization": null
            }, 
            "body": "<p><a href=\"https://decidim.barcelona/proposals/sensibilitzar-els-conductors-d-autobus-perque-tinguin-mes-cura-en-el-tracte-a-les-persones-amb-diversitat-funcional\">https://decidim.barcelona/proposals/sensibilitzar-els-conductors-d-autobus-perque-tinguin-mes-cura-en-el-tracte-a-les-persones-amb-diversitat-funcional</a></p>", 
            "commentable_id": 2846, 
            "commentable_type": "Proposal", 
            "created_at": "07/04/2016 18:06:26", 
            "flagged": false, 
            "hidden": false, 
            "id": 9859, 
            "moderator_id": null, 
            "permissions": {
                "hide": false, 
                "hide_author": false, 
                "vote": false
            }, 
            "total_dislikes": 0, 
            "total_likes": 0, 
            "total_votes": 0
        }
    ], 
    "meta": {
        "current_page": 1, 
        "next_page": 2, 
        "prev_page": null, 
        "total_count": 60, 
        "total_pages": 3
    }
}