{
    "comments": [
        {
            "administrator_id": null, 
            "alignment": 0, 
            "ancestry": null, 
            "as": null, 
            "author": {
                "avatar_image": "https://decidim.barcelona/assets/avatar-866795c99abc33a3160d1f3fa93ada46eb75e54134e777666b9ed16215b26534.png", 
                "erased": false, 
                "hidden": false, 
                "id": 17741, 
                "name": "Suport General3 - Decidim Barcelona", 
                "official": false, 
                "official_level": 0, 
                "role": null, 
                "verified_organization": null
            }, 
            "body": "<p><a href=\"https://decidim.barcelona/proposals/la-sanitat-a-barcelona-promoure-la-participacio-de-la-ciutadania\">https://decidim.barcelona/proposals/la-sanitat-a-barcelona-promoure-la-participacio-de-la-ciutadania</a></p>", 
            "commentable_id": 2871, 
            "commentable_type": "Proposal", 
            "created_at": "16/04/2016 12:32:48", 
            "flagged": false, 
            "hidden": false, 
            "id": 18112, 
            "moderator_id": null, 
            "permissions": {
                "hide": false, 
                "hide_author": false, 
                "vote": false
            }, 
            "total_dislikes": 0, 
            "total_likes": 0, 
            "total_votes": 0
        }, 
        {
            "administrator_id": null, 
            "alignment": 0, 
            "ancestry": null, 
            "as": null, 
            "author": {
                "avatar_image": "https://decidim.barcelona/assets/avatar-866795c99abc33a3160d1f3fa93ada46eb75e54134e777666b9ed16215b26534.png", 
                "erased": false, 
                "hidden": false, 
                "id": 17741, 
                "name": "Suport General3 - Decidim Barcelona", 
                "official": false, 
                "official_level": 0, 
                "role": null, 
                "verified_organization": null
            }, 
            "body": "<p><a href=\"https://decidim.barcelona/proposals/la-sanitat-a-barcelona-reorientacio-del-model-d-atencio\">https://decidim.barcelona/proposals/la-sanitat-a-barcelona-reorientacio-del-model-d-atencio</a></p>", 
            "commentable_id": 2871, 
            "commentable_type": "Proposal", 
            "created_at": "16/04/2016 13:24:11", 
            "flagged": false, 
            "hidden": false, 
            "id": 18166, 
            "moderator_id": null, 
            "permissions": {
                "hide": false, 
                "hide_author": false, 
                "vote": false
            }, 
            "total_dislikes": 0, 
            "total_likes": 0, 
            "total_votes": 0
        }, 
        {
            "administrator_id": null, 
            "alignment": 0, 
            "ancestry": null, 
            "as": null, 
            "author": {
                "avatar_image": "https://decidim.barcelona/assets/avatar-866795c99abc33a3160d1f3fa93ada46eb75e54134e777666b9ed16215b26534.png", 
                "erased": false, 
                "hidden": false, 
                "id": 17741, 
                "name": "Suport General3 - Decidim Barcelona", 
                "official": false, 
                "official_level": 0, 
                "role": null, 
                "verified_organization": null
            }, 
            "body": "<p><a href=\"https://decidim.barcelona/proposals/la-sanitat-a-barcelona-apropar-l-atencio-en-salut-mental-al-pacients\">https://decidim.barcelona/proposals/la-sanitat-a-barcelona-apropar-l-atencio-en-salut-mental-al-pacients</a></p>", 
            "commentable_id": 2871, 
            "commentable_type": "Proposal", 
            "created_at": "16/04/2016 13:24:19", 
            "flagged": false, 
            "hidden": false, 
            "id": 18167, 
            "moderator_id": null, 
            "permissions": {
                "hide": false, 
                "hide_author": false, 
                "vote": false
            }, 
            "total_dislikes": 0, 
            "total_likes": 0, 
            "total_votes": 0
        }, 
        {
            "administrator_id": null, 
            "alignment": 0, 
            "ancestry": null, 
            "as": null, 
            "author": {
                "avatar_image": "https://decidim.barcelona/assets/avatar-866795c99abc33a3160d1f3fa93ada46eb75e54134e777666b9ed16215b26534.png", 
                "erased": false, 
                "hidden": false, 
                "id": 17741, 
                "name": "Suport General3 - Decidim Barcelona", 
                "official": false, 
                "official_level": 0, 
                "role": null, 
                "verified_organization": null
            }, 
            "body": "<p><a href=\"https://decidim.barcelona/proposals/la-sanitat-a-barcelona-nou-centre-de-psiquiatria-general\">https://decidim.barcelona/proposals/la-sanitat-a-barcelona-nou-centre-de-psiquiatria-general</a></p>", 
            "commentable_id": 2871, 
            "commentable_type": "Proposal", 
            "created_at": "16/04/2016 13:24:26", 
            "flagged": false, 
            "hidden": false, 
            "id": 18168, 
            "moderator_id": null, 
            "permissions": {
                "hide": false, 
                "hide_author": false, 
                "vote": false
            }, 
            "total_dislikes": 0, 
            "total_likes": 0, 
            "total_votes": 0
        }, 
        {
            "administrator_id": null, 
            "alignment": 0, 
            "ancestry": null, 
            "as": null, 
            "author": {
                "avatar_image": "https://decidim.barcelona/assets/avatar-866795c99abc33a3160d1f3fa93ada46eb75e54134e777666b9ed16215b26534.png", 
                "erased": false, 
                "hidden": false, 
                "id": 17741, 
                "name": "Suport General3 - Decidim Barcelona", 
                "official": false, 
                "official_level": 0, 
                "role": null, 
                "verified_organization": null
            }, 
            "body": "<p><a href=\"https://decidim.barcelona/proposals/la-sanitat-a-barcelona-sinergies-sociosanitaries\">https://decidim.barcelona/proposals/la-sanitat-a-barcelona-sinergies-sociosanitaries</a></p>", 
            "commentable_id": 2871, 
            "commentable_type": "Proposal", 
            "created_at": "16/04/2016 13:24:44", 
            "flagged": false, 
            "hidden": false, 
            "id": 18169, 
            "moderator_id": null, 
            "permissions": {
                "hide": false, 
                "hide_author": false, 
                "vote": false
            }, 
            "total_dislikes": 0, 
            "total_likes": 0, 
            "total_votes": 0
        }, 
        {
            "administrator_id": null, 
            "alignment": 0, 
            "ancestry": null, 
            "as": null, 
            "author": {
                "avatar_image": "https://decidim.barcelona/assets/avatar-866795c99abc33a3160d1f3fa93ada46eb75e54134e777666b9ed16215b26534.png", 
                "erased": false, 
                "hidden": false, 
                "id": 17741, 
                "name": "Suport General3 - Decidim Barcelona", 
                "official": false, 
                "official_level": 0, 
                "role": null, 
                "verified_organization": null
            }, 
            "body": "<p><a href=\"https://decidim.barcelona/proposals/la-sanitat-a-barcelona-suport-atencio-sociosanitaria-a-domicili\">https://decidim.barcelona/proposals/la-sanitat-a-barcelona-suport-atencio-sociosanitaria-a-domicili</a></p>", 
            "commentable_id": 2871, 
            "commentable_type": "Proposal", 
            "created_at": "16/04/2016 13:24:48", 
            "flagged": false, 
            "hidden": false, 
            "id": 18170, 
            "moderator_id": null, 
            "permissions": {
                "hide": false, 
                "hide_author": false, 
                "vote": false
            }, 
            "total_dislikes": 0, 
            "total_likes": 0, 
            "total_votes": 0
        }, 
        {
            "administrator_id": null, 
            "alignment": 0, 
            "ancestry": null, 
            "as": null, 
            "author": {
                "avatar_image": "https://decidim.barcelona/assets/avatar-866795c99abc33a3160d1f3fa93ada46eb75e54134e777666b9ed16215b26534.png", 
                "erased": false, 
                "hidden": false, 
                "id": 17741, 
                "name": "Suport General3 - Decidim Barcelona", 
                "official": false, 
                "official_level": 0, 
                "role": null, 
                "verified_organization": null
            }, 
            "body": "<p><a href=\"https://decidim.barcelona/proposals/la-sanitat-a-barcelona-fomentar-bons-habits-alimentaris\">https://decidim.barcelona/proposals/la-sanitat-a-barcelona-fomentar-bons-habits-alimentaris</a></p>", 
            "commentable_id": 2871, 
            "commentable_type": "Proposal", 
            "created_at": "16/04/2016 13:24:55", 
            "flagged": false, 
            "hidden": false, 
            "id": 18171, 
            "moderator_id": null, 
            "permissions": {
                "hide": false, 
                "hide_author": false, 
                "vote": false
            }, 
            "total_dislikes": 0, 
            "total_likes": 0, 
            "total_votes": 0
        }, 
        {
            "administrator_id": null, 
            "alignment": 0, 
            "ancestry": null, 
            "as": null, 
            "author": {
                "avatar_image": "https://decidim.barcelona/assets/avatar-866795c99abc33a3160d1f3fa93ada46eb75e54134e777666b9ed16215b26534.png", 
                "erased": false, 
                "hidden": false, 
                "id": 17741, 
                "name": "Suport General3 - Decidim Barcelona", 
                "official": false, 
                "official_level": 0, 
                "role": null, 
                "verified_organization": null
            }, 
            "body": "<p><a href=\"https://decidim.barcelona/proposals/la-sanitat-a-barcelona-accions-intergeneracionals\">https://decidim.barcelona/proposals/la-sanitat-a-barcelona-accions-intergeneracionals</a></p>", 
            "commentable_id": 2871, 
            "commentable_type": "Proposal", 
            "created_at": "16/04/2016 13:25:00", 
            "flagged": false, 
            "hidden": false, 
            "id": 18172, 
            "moderator_id": null, 
            "permissions": {
                "hide": false, 
                "hide_author": false, 
                "vote": false
            }, 
            "total_dislikes": 0, 
            "total_likes": 0, 
            "total_votes": 0
        }, 
        {
            "administrator_id": null, 
            "alignment": 0, 
            "ancestry": null, 
            "as": null, 
            "author": {
                "avatar_image": "https://decidim.barcelona/assets/avatar-866795c99abc33a3160d1f3fa93ada46eb75e54134e777666b9ed16215b26534.png", 
                "erased": false, 
                "hidden": false, 
                "id": 17741, 
                "name": "Suport General3 - Decidim Barcelona", 
                "official": false, 
                "official_level": 0, 
                "role": null, 
                "verified_organization": null
            }, 
            "body": "<p><a href=\"https://decidim.barcelona/proposals/la-sanitat-a-barcelona-potenciar-les-acciones-comunitaries\">https://decidim.barcelona/proposals/la-sanitat-a-barcelona-potenciar-les-acciones-comunitaries</a></p>", 
            "commentable_id": 2871, 
            "commentable_type": "Proposal", 
            "created_at": "16/04/2016 13:25:06", 
            "flagged": false, 
            "hidden": false, 
            "id": 18173, 
            "moderator_id": null, 
            "permissions": {
                "hide": false, 
                "hide_author": false, 
                "vote": false
            }, 
            "total_dislikes": 0, 
            "total_likes": 0, 
            "total_votes": 0
        }, 
        {
            "administrator_id": null, 
            "alignment": 0, 
            "ancestry": null, 
            "as": null, 
            "author": {
                "avatar_image": "https://decidim.barcelona/assets/avatar-866795c99abc33a3160d1f3fa93ada46eb75e54134e777666b9ed16215b26534.png", 
                "erased": false, 
                "hidden": false, 
                "id": 17741, 
                "name": "Suport General3 - Decidim Barcelona", 
                "official": false, 
                "official_level": 0, 
                "role": null, 
                "verified_organization": null
            }, 
            "body": "<p><a href=\"https://decidim.barcelona/proposals/la-sanitat-a-barcelona-promoure-activament-politiques-de-salut-publica-davant-la-diversitat-de-malalties\">https://decidim.barcelona/proposals/la-sanitat-a-barcelona-promoure-activament-politiques-de-salut-publica-davant-la-diversitat-de-malalties</a></p>", 
            "commentable_id": 2871, 
            "commentable_type": "Proposal", 
            "created_at": "16/04/2016 13:28:13", 
            "flagged": false, 
            "hidden": false, 
            "id": 18182, 
            "moderator_id": null, 
            "permissions": {
                "hide": false, 
                "hide_author": false, 
                "vote": false
            }, 
            "total_dislikes": 0, 
            "total_likes": 0, 
            "total_votes": 0
        }, 
        {
            "administrator_id": null, 
            "alignment": 0, 
            "ancestry": null, 
            "as": null, 
            "author": {
                "avatar_image": "https://decidim.barcelona/assets/avatar-866795c99abc33a3160d1f3fa93ada46eb75e54134e777666b9ed16215b26534.png", 
                "erased": false, 
                "hidden": false, 
                "id": 17741, 
                "name": "Suport General3 - Decidim Barcelona", 
                "official": false, 
                "official_level": 0, 
                "role": null, 
                "verified_organization": null
            }, 
            "body": "<p><a href=\"https://decidim.barcelona/proposals/la-sanitat-a-barcelona-campanyes-sensibilitzacio-social\">https://decidim.barcelona/proposals/la-sanitat-a-barcelona-campanyes-sensibilitzacio-social</a></p>", 
            "commentable_id": 2871, 
            "commentable_type": "Proposal", 
            "created_at": "16/04/2016 13:28:21", 
            "flagged": false, 
            "hidden": false, 
            "id": 18183, 
            "moderator_id": null, 
            "permissions": {
                "hide": false, 
                "hide_author": false, 
                "vote": false
            }, 
            "total_dislikes": 0, 
            "total_likes": 0, 
            "total_votes": 0
        }, 
        {
            "administrator_id": null, 
            "alignment": 0, 
            "ancestry": null, 
            "as": null, 
            "author": {
                "avatar_image": "https://decidim.barcelona/assets/avatar-866795c99abc33a3160d1f3fa93ada46eb75e54134e777666b9ed16215b26534.png", 
                "erased": false, 
                "hidden": false, 
                "id": 17741, 
                "name": "Suport General3 - Decidim Barcelona", 
                "official": false, 
                "official_level": 0, 
                "role": null, 
                "verified_organization": null
            }, 
            "body": "<p><a href=\"https://decidim.barcelona/proposals/la-sanitat-a-barcelona-garantir-la-capacitat-d-influencia-de-les-persones-afectades-i-els-familiars-cuidadors\">https://decidim.barcelona/proposals/la-sanitat-a-barcelona-garantir-la-capacitat-d-influencia-de-les-persones-afectades-i-els-familiars-cuidadors</a></p>", 
            "commentable_id": 2871, 
            "commentable_type": "Proposal", 
            "created_at": "16/04/2016 13:28:26", 
            "flagged": false, 
            "hidden": false, 
            "id": 18184, 
            "moderator_id": null, 
            "permissions": {
                "hide": false, 
                "hide_author": false, 
                "vote": false
            }, 
            "total_dislikes": 0, 
            "total_likes": 0, 
            "total_votes": 0
        }, 
        {
            "administrator_id": null, 
            "alignment": 0, 
            "ancestry": null, 
            "as": null, 
            "author": {
                "avatar_image": "https://decidim.barcelona/assets/avatar-866795c99abc33a3160d1f3fa93ada46eb75e54134e777666b9ed16215b26534.png", 
                "erased": false, 
                "hidden": false, 
                "id": 17741, 
                "name": "Suport General3 - Decidim Barcelona", 
                "official": false, 
                "official_level": 0, 
                "role": null, 
                "verified_organization": null
            }, 
            "body": "<p><a href=\"https://decidim.barcelona/proposals/la-sanitat-a-barcelona-activar-llei-del-mecenatge\">https://decidim.barcelona/proposals/la-sanitat-a-barcelona-activar-llei-del-mecenatge</a></p>", 
            "commentable_id": 2871, 
            "commentable_type": "Proposal", 
            "created_at": "16/04/2016 13:28:34", 
            "flagged": false, 
            "hidden": false, 
            "id": 18185, 
            "moderator_id": null, 
            "permissions": {
                "hide": false, 
                "hide_author": false, 
                "vote": false
            }, 
            "total_dislikes": 0, 
            "total_likes": 0, 
            "total_votes": 0
        }, 
        {
            "administrator_id": null, 
            "alignment": 0, 
            "ancestry": null, 
            "as": null, 
            "author": {
                "avatar_image": "https://decidim.barcelona/assets/avatar-866795c99abc33a3160d1f3fa93ada46eb75e54134e777666b9ed16215b26534.png", 
                "erased": false, 
                "hidden": false, 
                "id": 17741, 
                "name": "Suport General3 - Decidim Barcelona", 
                "official": false, 
                "official_level": 0, 
                "role": null, 
                "verified_organization": null
            }, 
            "body": "<p><a href=\"https://decidim.barcelona/proposals/la-sanitat-a-barcelona-reconeixer-a-les-entitats-de-persones-afectades-i-familiars\">https://decidim.barcelona/proposals/la-sanitat-a-barcelona-reconeixer-a-les-entitats-de-persones-afectades-i-familiars</a></p>", 
            "commentable_id": 2871, 
            "commentable_type": "Proposal", 
            "created_at": "16/04/2016 13:28:39", 
            "flagged": false, 
            "hidden": false, 
            "id": 18186, 
            "moderator_id": null, 
            "permissions": {
                "hide": false, 
                "hide_author": false, 
                "vote": false
            }, 
            "total_dislikes": 0, 
            "total_likes": 0, 
            "total_votes": 0
        }, 
        {
            "administrator_id": null, 
            "alignment": 0, 
            "ancestry": null, 
            "as": null, 
            "author": {
                "avatar_image": "https://decidim.barcelona/assets/avatar-866795c99abc33a3160d1f3fa93ada46eb75e54134e777666b9ed16215b26534.png", 
                "erased": false, 
                "hidden": false, 
                "id": 17741, 
                "name": "Suport General3 - Decidim Barcelona", 
                "official": false, 
                "official_level": 0, 
                "role": null, 
                "verified_organization": null
            }, 
            "body": "<p><a href=\"https://decidim.barcelona/proposals/la-sanitat-a-barcelona-revisar-el-model-d-atencio-als-pacients\">https://decidim.barcelona/proposals/la-sanitat-a-barcelona-revisar-el-model-d-atencio-als-pacients</a></p>", 
            "commentable_id": 2871, 
            "commentable_type": "Proposal", 
            "created_at": "16/04/2016 13:28:45", 
            "flagged": false, 
            "hidden": false, 
            "id": 18187, 
            "moderator_id": null, 
            "permissions": {
                "hide": false, 
                "hide_author": false, 
                "vote": false
            }, 
            "total_dislikes": 0, 
            "total_likes": 0, 
            "total_votes": 0
        }, 
        {
            "administrator_id": null, 
            "alignment": 0, 
            "ancestry": null, 
            "as": null, 
            "author": {
                "avatar_image": "https://decidim.barcelona/assets/avatar-866795c99abc33a3160d1f3fa93ada46eb75e54134e777666b9ed16215b26534.png", 
                "erased": false, 
                "hidden": false, 
                "id": 17741, 
                "name": "Suport General3 - Decidim Barcelona", 
                "official": false, 
                "official_level": 0, 
                "role": null, 
                "verified_organization": null
            }, 
            "body": "<p><a href=\"https://decidim.barcelona/proposals/la-sanitat-a-barcelona-atendre-les-necessitats-derivades-de-la-dependencia-hospitalaria\">https://decidim.barcelona/proposals/la-sanitat-a-barcelona-atendre-les-necessitats-derivades-de-la-dependencia-hospitalaria</a></p>", 
            "commentable_id": 2871, 
            "commentable_type": "Proposal", 
            "created_at": "16/04/2016 13:28:50", 
            "flagged": false, 
            "hidden": false, 
            "id": 18188, 
            "moderator_id": null, 
            "permissions": {
                "hide": false, 
                "hide_author": false, 
                "vote": false
            }, 
            "total_dislikes": 0, 
            "total_likes": 0, 
            "total_votes": 0
        }, 
        {
            "administrator_id": null, 
            "alignment": 0, 
            "ancestry": null, 
            "as": null, 
            "author": {
                "avatar_image": "https://decidim.barcelona/assets/avatar-866795c99abc33a3160d1f3fa93ada46eb75e54134e777666b9ed16215b26534.png", 
                "erased": false, 
                "hidden": false, 
                "id": 17741, 
                "name": "Suport General3 - Decidim Barcelona", 
                "official": false, 
                "official_level": 0, 
                "role": null, 
                "verified_organization": null
            }, 
            "body": "<p><a href=\"https://decidim.barcelona/proposals/la-sanitat-a-barcelona-adaptacio-curricular-i-d-accessibilitat-de-les-escoles\">https://decidim.barcelona/proposals/la-sanitat-a-barcelona-adaptacio-curricular-i-d-accessibilitat-de-les-escoles</a></p>", 
            "commentable_id": 2871, 
            "commentable_type": "Proposal", 
            "created_at": "16/04/2016 13:28:56", 
            "flagged": false, 
            "hidden": false, 
            "id": 18189, 
            "moderator_id": null, 
            "permissions": {
                "hide": false, 
                "hide_author": false, 
                "vote": false
            }, 
            "total_dislikes": 0, 
            "total_likes": 0, 
            "total_votes": 0
        }, 
        {
            "administrator_id": null, 
            "alignment": 0, 
            "ancestry": null, 
            "as": null, 
            "author": {
                "avatar_image": "https://decidim.barcelona/assets/avatar-866795c99abc33a3160d1f3fa93ada46eb75e54134e777666b9ed16215b26534.png", 
                "erased": false, 
                "hidden": false, 
                "id": 17741, 
                "name": "Suport General3 - Decidim Barcelona", 
                "official": false, 
                "official_level": 0, 
                "role": null, 
                "verified_organization": null
            }, 
            "body": "<p><a href=\"https://decidim.barcelona/proposals/la-sanitat-a-barcelona-promoure-renovacio-dins-de-les-entitats-de-persones-malaltes-i-familiars\">https://decidim.barcelona/proposals/la-sanitat-a-barcelona-promoure-renovacio-dins-de-les-entitats-de-persones-malaltes-i-familiars</a></p>", 
            "commentable_id": 2871, 
            "commentable_type": "Proposal", 
            "created_at": "16/04/2016 13:29:04", 
            "flagged": false, 
            "hidden": false, 
            "id": 18190, 
            "moderator_id": null, 
            "permissions": {
                "hide": false, 
                "hide_author": false, 
                "vote": false
            }, 
            "total_dislikes": 0, 
            "total_likes": 0, 
            "total_votes": 0
        }, 
        {
            "administrator_id": null, 
            "alignment": 0, 
            "ancestry": null, 
            "as": null, 
            "author": {
                "avatar_image": "https://decidim.barcelona/assets/avatar-866795c99abc33a3160d1f3fa93ada46eb75e54134e777666b9ed16215b26534.png", 
                "erased": false, 
                "hidden": false, 
                "id": 17741, 
                "name": "Suport General3 - Decidim Barcelona", 
                "official": false, 
                "official_level": 0, 
                "role": null, 
                "verified_organization": null
            }, 
            "body": "<p><a href=\"https://decidim.barcelona/proposals/la-sanitat-a-barcelona-potenciar-les-entitats-de-persones-malaltes-i-familiars\">https://decidim.barcelona/proposals/la-sanitat-a-barcelona-potenciar-les-entitats-de-persones-malaltes-i-familiars</a></p>", 
            "commentable_id": 2871, 
            "commentable_type": "Proposal", 
            "created_at": "16/04/2016 13:29:09", 
            "flagged": false, 
            "hidden": false, 
            "id": 18191, 
            "moderator_id": null, 
            "permissions": {
                "hide": false, 
                "hide_author": false, 
                "vote": false
            }, 
            "total_dislikes": 0, 
            "total_likes": 0, 
            "total_votes": 0
        }, 
        {
            "administrator_id": null, 
            "alignment": 0, 
            "ancestry": null, 
            "as": null, 
            "author": {
                "avatar_image": "https://decidim.barcelona/assets/avatar-866795c99abc33a3160d1f3fa93ada46eb75e54134e777666b9ed16215b26534.png", 
                "erased": false, 
                "hidden": false, 
                "id": 17741, 
                "name": "Suport General3 - Decidim Barcelona", 
                "official": false, 
                "official_level": 0, 
                "role": null, 
                "verified_organization": null
            }, 
            "body": "<p><a href=\"https://decidim.barcelona/proposals/la-sanitat-a-barcelona-flexibilitzar-i-adaptar-les-prestacions-en-funcio-de-les-malalties-i-situacions\">https://decidim.barcelona/proposals/la-sanitat-a-barcelona-flexibilitzar-i-adaptar-les-prestacions-en-funcio-de-les-malalties-i-situacions</a></p>", 
            "commentable_id": 2871, 
            "commentable_type": "Proposal", 
            "created_at": "16/04/2016 13:29:14", 
            "flagged": false, 
            "hidden": false, 
            "id": 18192, 
            "moderator_id": null, 
            "permissions": {
                "hide": false, 
                "hide_author": false, 
                "vote": false
            }, 
            "total_dislikes": 0, 
            "total_likes": 0, 
            "total_votes": 0
        }
    ], 
    "meta": {
        "current_page": 3, 
        "next_page": 4, 
        "prev_page": 2, 
        "total_count": 63, 
        "total_pages": 4
    }
}