{
    "comments": [
        {
            "administrator_id": null, 
            "alignment": 0, 
            "ancestry": null, 
            "as": null, 
            "author": {
                "avatar_image": "https://decidim.barcelona/assets/avatar-866795c99abc33a3160d1f3fa93ada46eb75e54134e777666b9ed16215b26534.png", 
                "erased": false, 
                "hidden": false, 
                "id": 17741, 
                "name": "Suport General3 - Decidim Barcelona", 
                "official": false, 
                "official_level": 0, 
                "role": null, 
                "verified_organization": null
            }, 
            "body": "<p><a href=\"https://decidim.barcelona/proposals/la-sanitat-a-barcelona-promoure-tractaments-integrals\">https://decidim.barcelona/proposals/la-sanitat-a-barcelona-promoure-tractaments-integrals</a></p>", 
            "commentable_id": 2871, 
            "commentable_type": "Proposal", 
            "created_at": "16/04/2016 13:29:19", 
            "flagged": false, 
            "hidden": false, 
            "id": 18193, 
            "moderator_id": null, 
            "permissions": {
                "hide": false, 
                "hide_author": false, 
                "vote": false
            }, 
            "total_dislikes": 0, 
            "total_likes": 0, 
            "total_votes": 0
        }, 
        {
            "administrator_id": null, 
            "alignment": 0, 
            "ancestry": null, 
            "as": null, 
            "author": {
                "avatar_image": "https://decidim.barcelona/assets/avatar-866795c99abc33a3160d1f3fa93ada46eb75e54134e777666b9ed16215b26534.png", 
                "erased": false, 
                "hidden": false, 
                "id": 17741, 
                "name": "Suport General3 - Decidim Barcelona", 
                "official": false, 
                "official_level": 0, 
                "role": null, 
                "verified_organization": null
            }, 
            "body": "<p><a href=\"https://decidim.barcelona/proposals/la-sanitat-a-barcelona-acces-a-informacio-sobre-la-salut-a-barcelona\">https://decidim.barcelona/proposals/la-sanitat-a-barcelona-acces-a-informacio-sobre-la-salut-a-barcelona</a></p>", 
            "commentable_id": 2871, 
            "commentable_type": "Proposal", 
            "created_at": "16/04/2016 13:29:23", 
            "flagged": false, 
            "hidden": false, 
            "id": 18195, 
            "moderator_id": null, 
            "permissions": {
                "hide": false, 
                "hide_author": false, 
                "vote": false
            }, 
            "total_dislikes": 0, 
            "total_likes": 0, 
            "total_votes": 0
        }, 
        {
            "administrator_id": null, 
            "alignment": 0, 
            "ancestry": null, 
            "as": null, 
            "author": {
                "avatar_image": "https://decidim.barcelona/assets/avatar-866795c99abc33a3160d1f3fa93ada46eb75e54134e777666b9ed16215b26534.png", 
                "erased": false, 
                "hidden": false, 
                "id": 17740, 
                "name": "Suport General2 - Decidim Barcelona", 
                "official": false, 
                "official_level": 0, 
                "role": null, 
                "verified_organization": null
            }, 
            "body": "<p><a href=\"https://decidim.barcelona/proposals/obrir-els-serveis-en-tots-aquells-equipaments-sanitaris-de-la-ciutat-que-ara-romanen-tancats\">https://decidim.barcelona/proposals/obrir-els-serveis-en-tots-aquells-equipaments-sanitaris-de-la-ciutat-que-ara-romanen-tancats</a></p>", 
            "commentable_id": 2871, 
            "commentable_type": "Proposal", 
            "created_at": "16/04/2016 13:49:03", 
            "flagged": false, 
            "hidden": false, 
            "id": 18214, 
            "moderator_id": null, 
            "permissions": {
                "hide": false, 
                "hide_author": false, 
                "vote": false
            }, 
            "total_dislikes": 0, 
            "total_likes": 0, 
            "total_votes": 0
        }
    ], 
    "meta": {
        "current_page": 4, 
        "next_page": null, 
        "prev_page": 3, 
        "total_count": 63, 
        "total_pages": 4
    }
}