{
    "comments": [
        {
            "administrator_id": null, 
            "alignment": 0, 
            "ancestry": null, 
            "as": null, 
            "author": {
                "avatar_image": "https://decidim.barcelona/assets/avatar-866795c99abc33a3160d1f3fa93ada46eb75e54134e777666b9ed16215b26534.png", 
                "erased": false, 
                "hidden": false, 
                "id": 17740, 
                "name": "Suport General2 - Decidim Barcelona", 
                "official": false, 
                "official_level": 0, 
                "role": null, 
                "verified_organization": null
            }, 
            "body": "<p><a href=\"https://decidim.barcelona/proposals/crear-equipaments-municipals-per-persones-amb-problemes-de-salut-mental-habitatge-per-garantir-la-vida-independent\">https://decidim.barcelona/proposals/crear-equipaments-municipals-per-persones-amb-problemes-de-salut-mental-habitatge-per-garantir-la-vida-independent</a></p>", 
            "commentable_id": 2873, 
            "commentable_type": "Proposal", 
            "created_at": "07/04/2016 19:47:42", 
            "flagged": false, 
            "hidden": false, 
            "id": 10011, 
            "moderator_id": null, 
            "permissions": {
                "hide": false, 
                "hide_author": false, 
                "vote": false
            }, 
            "total_dislikes": 0, 
            "total_likes": 0, 
            "total_votes": 0
        }, 
        {
            "administrator_id": null, 
            "alignment": 0, 
            "ancestry": null, 
            "as": null, 
            "author": {
                "avatar_image": "https://decidim.barcelona/assets/avatar-866795c99abc33a3160d1f3fa93ada46eb75e54134e777666b9ed16215b26534.png", 
                "erased": false, 
                "hidden": false, 
                "id": 17740, 
                "name": "Suport General2 - Decidim Barcelona", 
                "official": false, 
                "official_level": 0, 
                "role": null, 
                "verified_organization": null
            }, 
            "body": "<p><a href=\"https://decidim.barcelona/proposals/definir-quin-es-el-model-de-salut-mental-de-la-ciutat\">https://decidim.barcelona/proposals/definir-quin-es-el-model-de-salut-mental-de-la-ciutat</a></p>", 
            "commentable_id": 2873, 
            "commentable_type": "Proposal", 
            "created_at": "07/04/2016 19:48:22", 
            "flagged": false, 
            "hidden": false, 
            "id": 10012, 
            "moderator_id": null, 
            "permissions": {
                "hide": false, 
                "hide_author": false, 
                "vote": false
            }, 
            "total_dislikes": 0, 
            "total_likes": 0, 
            "total_votes": 0
        }, 
        {
            "administrator_id": null, 
            "alignment": 0, 
            "ancestry": null, 
            "as": null, 
            "author": {
                "avatar_image": "https://decidim.barcelona/assets/avatar-866795c99abc33a3160d1f3fa93ada46eb75e54134e777666b9ed16215b26534.png", 
                "erased": false, 
                "hidden": false, 
                "id": 17740, 
                "name": "Suport General2 - Decidim Barcelona", 
                "official": false, 
                "official_level": 0, 
                "role": null, 
                "verified_organization": null
            }, 
            "body": "<p><a href=\"https://decidim.barcelona/proposals/crear-centres-de-dia-de-salut-mental-municipals-de-salut-mental-que-facilitin-l-acces-a-psicoterapies-especifiques-a-persones-amb-trastorn-mental-lleu\">https://decidim.barcelona/proposals/crear-centres-de-dia-de-salut-mental-municipals-de-salut-mental-que-facilitin-l-acces-a-psicoterapies-especifiques-a-persones-amb-trastorn-mental-lleu</a></p>", 
            "commentable_id": 2873, 
            "commentable_type": "Proposal", 
            "created_at": "07/04/2016 19:56:40", 
            "flagged": false, 
            "hidden": false, 
            "id": 10019, 
            "moderator_id": null, 
            "permissions": {
                "hide": false, 
                "hide_author": false, 
                "vote": false
            }, 
            "total_dislikes": 0, 
            "total_likes": 0, 
            "total_votes": 0
        }, 
        {
            "administrator_id": null, 
            "alignment": 0, 
            "ancestry": null, 
            "as": null, 
            "author": {
                "avatar_image": "https://decidim.barcelona/assets/avatar-866795c99abc33a3160d1f3fa93ada46eb75e54134e777666b9ed16215b26534.png", 
                "erased": false, 
                "hidden": false, 
                "id": 17740, 
                "name": "Suport General2 - Decidim Barcelona", 
                "official": false, 
                "official_level": 0, 
                "role": null, 
                "verified_organization": null
            }, 
            "body": "<p><a href=\"https://decidim.barcelona/proposals/crear-un-parc-municipal-de-vivendes-temporals-amb-suport-psicologic-i-de-treball-social-per-persones-afectades-amb-trastorn-mental-cronic-que-serveixi-per-alleujament-familiar\">https://decidim.barcelona/proposals/crear-un-parc-municipal-de-vivendes-temporals-amb-suport-psicologic-i-de-treball-social-per-persones-afectades-amb-trastorn-mental-cronic-que-serveixi-per-alleujament-familiar</a></p>", 
            "commentable_id": 2873, 
            "commentable_type": "Proposal", 
            "created_at": "07/04/2016 21:34:57", 
            "flagged": false, 
            "hidden": false, 
            "id": 10100, 
            "moderator_id": null, 
            "permissions": {
                "hide": false, 
                "hide_author": false, 
                "vote": false
            }, 
            "total_dislikes": 0, 
            "total_likes": 0, 
            "total_votes": 0
        }, 
        {
            "administrator_id": null, 
            "alignment": 0, 
            "ancestry": null, 
            "as": null, 
            "author": {
                "avatar_image": "https://decidim.barcelona/assets/avatar-866795c99abc33a3160d1f3fa93ada46eb75e54134e777666b9ed16215b26534.png", 
                "erased": false, 
                "hidden": false, 
                "id": 17740, 
                "name": "Suport General2 - Decidim Barcelona", 
                "official": false, 
                "official_level": 0, 
                "role": null, 
                "verified_organization": null
            }, 
            "body": "<p><a href=\"https://decidim.barcelona/proposals/protocols-de-seguretat-sanitaria-en-les-persones-internes\">https://decidim.barcelona/proposals/protocols-de-seguretat-sanitaria-en-les-persones-internes</a></p>", 
            "commentable_id": 2873, 
            "commentable_type": "Proposal", 
            "created_at": "07/04/2016 21:35:49", 
            "flagged": false, 
            "hidden": false, 
            "id": 10101, 
            "moderator_id": null, 
            "permissions": {
                "hide": false, 
                "hide_author": false, 
                "vote": false
            }, 
            "total_dislikes": 0, 
            "total_likes": 0, 
            "total_votes": 0
        }, 
        {
            "administrator_id": null, 
            "alignment": 0, 
            "ancestry": null, 
            "as": null, 
            "author": {
                "avatar_image": "https://decidim.barcelona/assets/avatar-866795c99abc33a3160d1f3fa93ada46eb75e54134e777666b9ed16215b26534.png", 
                "erased": false, 
                "hidden": false, 
                "id": 17740, 
                "name": "Suport General2 - Decidim Barcelona", 
                "official": false, 
                "official_level": 0, 
                "role": null, 
                "verified_organization": null
            }, 
            "body": "<p><a href=\"https://decidim.barcelona/proposals/garantir-programes-especialitzats-de-salut-mental-durant-l-embaras-i-naixement-de-l-infant\">https://decidim.barcelona/proposals/garantir-programes-especialitzats-de-salut-mental-durant-l-embaras-i-naixement-de-l-infant</a></p>", 
            "commentable_id": 2873, 
            "commentable_type": "Proposal", 
            "created_at": "08/04/2016 09:41:38", 
            "flagged": false, 
            "hidden": false, 
            "id": 10205, 
            "moderator_id": null, 
            "permissions": {
                "hide": false, 
                "hide_author": false, 
                "vote": false
            }, 
            "total_dislikes": 0, 
            "total_likes": 0, 
            "total_votes": 0
        }, 
        {
            "administrator_id": null, 
            "alignment": 0, 
            "ancestry": null, 
            "as": null, 
            "author": {
                "avatar_image": "https://decidim.barcelona/assets/avatar-866795c99abc33a3160d1f3fa93ada46eb75e54134e777666b9ed16215b26534.png", 
                "erased": false, 
                "hidden": false, 
                "id": 17740, 
                "name": "Suport General2 - Decidim Barcelona", 
                "official": false, 
                "official_level": 0, 
                "role": null, 
                "verified_organization": null
            }, 
            "body": "<p><a href=\"https://decidim.barcelona/proposals/creixer-en-recursos-dirigits-a-cobrir-les-necessitats-en-temes-de-salut-mental\">https://decidim.barcelona/proposals/creixer-en-recursos-dirigits-a-cobrir-les-necessitats-en-temes-de-salut-mental</a></p>", 
            "commentable_id": 2873, 
            "commentable_type": "Proposal", 
            "created_at": "08/04/2016 10:04:33", 
            "flagged": false, 
            "hidden": false, 
            "id": 10258, 
            "moderator_id": null, 
            "permissions": {
                "hide": false, 
                "hide_author": false, 
                "vote": false
            }, 
            "total_dislikes": 0, 
            "total_likes": 0, 
            "total_votes": 0
        }, 
        {
            "administrator_id": null, 
            "alignment": 0, 
            "ancestry": null, 
            "as": null, 
            "author": {
                "avatar_image": "https://decidim.barcelona/assets/avatar-866795c99abc33a3160d1f3fa93ada46eb75e54134e777666b9ed16215b26534.png", 
                "erased": false, 
                "hidden": false, 
                "id": 17740, 
                "name": "Suport General2 - Decidim Barcelona", 
                "official": false, 
                "official_level": 0, 
                "role": null, 
                "verified_organization": null
            }, 
            "body": "<p><a href=\"https://decidim.barcelona/proposals/generar-programes-de-suport-a-les-families-amb-familiars-amb-trastorn-mental\">https://decidim.barcelona/proposals/generar-programes-de-suport-a-les-families-amb-familiars-amb-trastorn-mental</a></p>", 
            "commentable_id": 2873, 
            "commentable_type": "Proposal", 
            "created_at": "08/04/2016 10:19:51", 
            "flagged": false, 
            "hidden": false, 
            "id": 10293, 
            "moderator_id": null, 
            "permissions": {
                "hide": false, 
                "hide_author": false, 
                "vote": false
            }, 
            "total_dislikes": 0, 
            "total_likes": 0, 
            "total_votes": 0
        }, 
        {
            "administrator_id": null, 
            "alignment": 0, 
            "ancestry": null, 
            "as": null, 
            "author": {
                "avatar_image": "https://decidim.barcelona/assets/avatar-866795c99abc33a3160d1f3fa93ada46eb75e54134e777666b9ed16215b26534.png", 
                "erased": false, 
                "hidden": false, 
                "id": 17740, 
                "name": "Suport General2 - Decidim Barcelona", 
                "official": false, 
                "official_level": 0, 
                "role": null, 
                "verified_organization": null
            }, 
            "body": "<p><a href=\"https://decidim.barcelona/proposals/recolzament-psico-pedagogic-a-la-poblacio\">https://decidim.barcelona/proposals/recolzament-psico-pedagogic-a-la-poblacio</a></p>", 
            "commentable_id": 2873, 
            "commentable_type": "Proposal", 
            "created_at": "08/04/2016 10:46:52", 
            "flagged": false, 
            "hidden": false, 
            "id": 10364, 
            "moderator_id": null, 
            "permissions": {
                "hide": false, 
                "hide_author": false, 
                "vote": false
            }, 
            "total_dislikes": 0, 
            "total_likes": 0, 
            "total_votes": 0
        }, 
        {
            "administrator_id": null, 
            "alignment": 0, 
            "ancestry": null, 
            "as": null, 
            "author": {
                "avatar_image": "https://decidim.barcelona/assets/avatar-866795c99abc33a3160d1f3fa93ada46eb75e54134e777666b9ed16215b26534.png", 
                "erased": false, 
                "hidden": false, 
                "id": 17740, 
                "name": "Suport General2 - Decidim Barcelona", 
                "official": false, 
                "official_level": 0, 
                "role": null, 
                "verified_organization": null
            }, 
            "body": "<p><a href=\"https://decidim.barcelona/proposals/estudi-de-salut-mental-a-la-zona-nord\">https://decidim.barcelona/proposals/estudi-de-salut-mental-a-la-zona-nord</a></p>", 
            "commentable_id": 2873, 
            "commentable_type": "Proposal", 
            "created_at": "08/04/2016 11:03:58", 
            "flagged": false, 
            "hidden": false, 
            "id": 10411, 
            "moderator_id": null, 
            "permissions": {
                "hide": false, 
                "hide_author": false, 
                "vote": false
            }, 
            "total_dislikes": 0, 
            "total_likes": 0, 
            "total_votes": 0
        }, 
        {
            "administrator_id": null, 
            "alignment": 0, 
            "ancestry": null, 
            "as": null, 
            "author": {
                "avatar_image": "https://decidim.barcelona/assets/avatar-866795c99abc33a3160d1f3fa93ada46eb75e54134e777666b9ed16215b26534.png", 
                "erased": false, 
                "hidden": false, 
                "id": 17740, 
                "name": "Suport General2 - Decidim Barcelona", 
                "official": false, 
                "official_level": 0, 
                "role": null, 
                "verified_organization": null
            }, 
            "body": "<p><a href=\"https://decidim.barcelona/proposals/persones-amb-discapacitat-intel-lectual-trastorns-de-conducta-i-envelliment\">https://decidim.barcelona/proposals/persones-amb-discapacitat-intel-lectual-trastorns-de-conducta-i-envelliment</a></p>", 
            "commentable_id": 2873, 
            "commentable_type": "Proposal", 
            "created_at": "11/04/2016 15:27:38", 
            "flagged": false, 
            "hidden": false, 
            "id": 12818, 
            "moderator_id": null, 
            "permissions": {
                "hide": false, 
                "hide_author": false, 
                "vote": false
            }, 
            "total_dislikes": 0, 
            "total_likes": 0, 
            "total_votes": 0
        }, 
        {
            "administrator_id": null, 
            "alignment": 0, 
            "ancestry": null, 
            "as": null, 
            "author": {
                "avatar_image": "https://decidim.barcelona/assets/avatar-866795c99abc33a3160d1f3fa93ada46eb75e54134e777666b9ed16215b26534.png", 
                "erased": false, 
                "hidden": false, 
                "id": 17740, 
                "name": "Suport General2 - Decidim Barcelona", 
                "official": false, 
                "official_level": 0, 
                "role": null, 
                "verified_organization": null
            }, 
            "body": "<p><a href=\"https://decidim.barcelona/proposals/donar-mes-recursos-residencials-enfocats-a-la-salut-mental\">https://decidim.barcelona/proposals/donar-mes-recursos-residencials-enfocats-a-la-salut-mental</a></p>", 
            "commentable_id": 2873, 
            "commentable_type": "Proposal", 
            "created_at": "11/04/2016 15:29:00", 
            "flagged": false, 
            "hidden": false, 
            "id": 12820, 
            "moderator_id": null, 
            "permissions": {
                "hide": false, 
                "hide_author": false, 
                "vote": false
            }, 
            "total_dislikes": 0, 
            "total_likes": 0, 
            "total_votes": 0
        }, 
        {
            "administrator_id": null, 
            "alignment": 0, 
            "ancestry": null, 
            "as": null, 
            "author": {
                "avatar_image": "https://decidim.barcelona/assets/avatar-866795c99abc33a3160d1f3fa93ada46eb75e54134e777666b9ed16215b26534.png", 
                "erased": false, 
                "hidden": false, 
                "id": 17740, 
                "name": "Suport General2 - Decidim Barcelona", 
                "official": false, 
                "official_level": 0, 
                "role": null, 
                "verified_organization": null
            }, 
            "body": "<p><a href=\"https://decidim.barcelona/proposals/crear-una-xarxa-de-voluntaris-per-acompanyar-a-les-persones-amb-problemes-de-salut-mental\">https://decidim.barcelona/proposals/crear-una-xarxa-de-voluntaris-per-acompanyar-a-les-persones-amb-problemes-de-salut-mental</a></p>", 
            "commentable_id": 2873, 
            "commentable_type": "Proposal", 
            "created_at": "11/04/2016 15:30:43", 
            "flagged": false, 
            "hidden": false, 
            "id": 12824, 
            "moderator_id": null, 
            "permissions": {
                "hide": false, 
                "hide_author": false, 
                "vote": false
            }, 
            "total_dislikes": 0, 
            "total_likes": 0, 
            "total_votes": 0
        }, 
        {
            "administrator_id": null, 
            "alignment": 0, 
            "ancestry": null, 
            "as": null, 
            "author": {
                "avatar_image": "https://decidim.barcelona/assets/avatar-866795c99abc33a3160d1f3fa93ada46eb75e54134e777666b9ed16215b26534.png", 
                "erased": false, 
                "hidden": false, 
                "id": 17740, 
                "name": "Suport General2 - Decidim Barcelona", 
                "official": false, 
                "official_level": 0, 
                "role": null, 
                "verified_organization": null
            }, 
            "body": "<p><a href=\"https://decidim.barcelona/proposals/grups-d-intervencio-psicologica-professors-alumnes-families-a-tots-els-centres-educatius\">https://decidim.barcelona/proposals/grups-d-intervencio-psicologica-professors-alumnes-families-a-tots-els-centres-educatius</a></p>", 
            "commentable_id": 2873, 
            "commentable_type": "Proposal", 
            "created_at": "11/04/2016 15:31:21", 
            "flagged": false, 
            "hidden": false, 
            "id": 12825, 
            "moderator_id": null, 
            "permissions": {
                "hide": false, 
                "hide_author": false, 
                "vote": false
            }, 
            "total_dislikes": 0, 
            "total_likes": 0, 
            "total_votes": 0
        }, 
        {
            "administrator_id": null, 
            "alignment": 0, 
            "ancestry": null, 
            "as": null, 
            "author": {
                "avatar_image": "https://decidim.barcelona/assets/avatar-866795c99abc33a3160d1f3fa93ada46eb75e54134e777666b9ed16215b26534.png", 
                "erased": false, 
                "hidden": false, 
                "id": 17740, 
                "name": "Suport General2 - Decidim Barcelona", 
                "official": false, 
                "official_level": 0, 
                "role": null, 
                "verified_organization": null
            }, 
            "body": "<p><a href=\"https://decidim.barcelona/proposals/mes-treball-en-xarxa-entre-els-diferents-professionals-que-treballen-en-salut-mental-a-infants-adolescents-joves\">https://decidim.barcelona/proposals/mes-treball-en-xarxa-entre-els-diferents-professionals-que-treballen-en-salut-mental-a-infants-adolescents-joves</a></p>", 
            "commentable_id": 2873, 
            "commentable_type": "Proposal", 
            "created_at": "11/04/2016 15:32:41", 
            "flagged": false, 
            "hidden": false, 
            "id": 12827, 
            "moderator_id": null, 
            "permissions": {
                "hide": false, 
                "hide_author": false, 
                "vote": false
            }, 
            "total_dislikes": 0, 
            "total_likes": 0, 
            "total_votes": 0
        }, 
        {
            "administrator_id": null, 
            "alignment": 0, 
            "ancestry": null, 
            "as": null, 
            "author": {
                "avatar_image": "https://decidim.barcelona/assets/avatar-866795c99abc33a3160d1f3fa93ada46eb75e54134e777666b9ed16215b26534.png", 
                "erased": false, 
                "hidden": false, 
                "id": 17740, 
                "name": "Suport General2 - Decidim Barcelona", 
                "official": false, 
                "official_level": 0, 
                "role": null, 
                "verified_organization": null
            }, 
            "body": "<p><a href=\"https://decidim.barcelona/proposals/tornar-a-situar-a-les-persones-al-centre-de-a-intervencio-com-a-subjectes-de-la-seva-salut-mental-i-no-com-objectes\">https://decidim.barcelona/proposals/tornar-a-situar-a-les-persones-al-centre-de-a-intervencio-com-a-subjectes-de-la-seva-salut-mental-i-no-com-objectes</a></p>", 
            "commentable_id": 2873, 
            "commentable_type": "Proposal", 
            "created_at": "11/04/2016 15:33:31", 
            "flagged": false, 
            "hidden": false, 
            "id": 12829, 
            "moderator_id": null, 
            "permissions": {
                "hide": false, 
                "hide_author": false, 
                "vote": false
            }, 
            "total_dislikes": 0, 
            "total_likes": 0, 
            "total_votes": 0
        }, 
        {
            "administrator_id": null, 
            "alignment": 0, 
            "ancestry": null, 
            "as": null, 
            "author": {
                "avatar_image": "https://decidim.barcelona/assets/avatar-866795c99abc33a3160d1f3fa93ada46eb75e54134e777666b9ed16215b26534.png", 
                "erased": false, 
                "hidden": false, 
                "id": 17740, 
                "name": "Suport General2 - Decidim Barcelona", 
                "official": false, 
                "official_level": 0, 
                "role": null, 
                "verified_organization": null
            }, 
            "body": "<p><a href=\"https://decidim.barcelona/proposals/millorar-la-coordinacio-entre-els-centres-privatsque-treballen-amb-joves-i-salut-mental-i-l-eaps-i-els-ies\">https://decidim.barcelona/proposals/millorar-la-coordinacio-entre-els-centres-privatsque-treballen-amb-joves-i-salut-mental-i-l-eaps-i-els-ies</a></p>", 
            "commentable_id": 2873, 
            "commentable_type": "Proposal", 
            "created_at": "11/04/2016 15:34:53", 
            "flagged": false, 
            "hidden": false, 
            "id": 12832, 
            "moderator_id": null, 
            "permissions": {
                "hide": false, 
                "hide_author": false, 
                "vote": false
            }, 
            "total_dislikes": 0, 
            "total_likes": 0, 
            "total_votes": 0
        }, 
        {
            "administrator_id": null, 
            "alignment": 0, 
            "ancestry": null, 
            "as": null, 
            "author": {
                "avatar_image": "https://decidim.barcelona/assets/avatar-866795c99abc33a3160d1f3fa93ada46eb75e54134e777666b9ed16215b26534.png", 
                "erased": false, 
                "hidden": false, 
                "id": 17740, 
                "name": "Suport General2 - Decidim Barcelona", 
                "official": false, 
                "official_level": 0, 
                "role": null, 
                "verified_organization": null
            }, 
            "body": "<p><a href=\"https://decidim.barcelona/proposals/asesoramiento-psicologico-a-pediatras-y-a-profesionales-que-atienden-la-primera-infancia\">https://decidim.barcelona/proposals/asesoramiento-psicologico-a-pediatras-y-a-profesionales-que-atienden-la-primera-infancia</a></p>", 
            "commentable_id": 2873, 
            "commentable_type": "Proposal", 
            "created_at": "11/04/2016 15:37:00", 
            "flagged": false, 
            "hidden": false, 
            "id": 12837, 
            "moderator_id": null, 
            "permissions": {
                "hide": false, 
                "hide_author": false, 
                "vote": false
            }, 
            "total_dislikes": 0, 
            "total_likes": 0, 
            "total_votes": 0
        }, 
        {
            "administrator_id": null, 
            "alignment": 0, 
            "ancestry": null, 
            "as": null, 
            "author": {
                "avatar_image": "https://decidim.barcelona/assets/avatar-866795c99abc33a3160d1f3fa93ada46eb75e54134e777666b9ed16215b26534.png", 
                "erased": false, 
                "hidden": false, 
                "id": 17740, 
                "name": "Suport General2 - Decidim Barcelona", 
                "official": false, 
                "official_level": 0, 
                "role": null, 
                "verified_organization": null
            }, 
            "body": "<p><a href=\"https://decidim.barcelona/proposals/incidir-en-el-target-d-edat-infantil-adolescent-joves-en-tots-els-plans-de-salut-mental\">https://decidim.barcelona/proposals/incidir-en-el-target-d-edat-infantil-adolescent-joves-en-tots-els-plans-de-salut-mental</a></p>", 
            "commentable_id": 2873, 
            "commentable_type": "Proposal", 
            "created_at": "11/04/2016 15:37:47", 
            "flagged": false, 
            "hidden": false, 
            "id": 12841, 
            "moderator_id": null, 
            "permissions": {
                "hide": false, 
                "hide_author": false, 
                "vote": false
            }, 
            "total_dislikes": 0, 
            "total_likes": 0, 
            "total_votes": 0
        }, 
        {
            "administrator_id": null, 
            "alignment": 0, 
            "ancestry": null, 
            "as": null, 
            "author": {
                "avatar_image": "https://decidim.barcelona/assets/avatar-866795c99abc33a3160d1f3fa93ada46eb75e54134e777666b9ed16215b26534.png", 
                "erased": false, 
                "hidden": false, 
                "id": 17740, 
                "name": "Suport General2 - Decidim Barcelona", 
                "official": false, 
                "official_level": 0, 
                "role": null, 
                "verified_organization": null
            }, 
            "body": "<p><a href=\"https://decidim.barcelona/proposals/crear-un-pla-de-salut-mental-especific-per-a-infancia-i-adolescencia\">https://decidim.barcelona/proposals/crear-un-pla-de-salut-mental-especific-per-a-infancia-i-adolescencia</a></p>", 
            "commentable_id": 2873, 
            "commentable_type": "Proposal", 
            "created_at": "11/04/2016 15:45:08", 
            "flagged": false, 
            "hidden": false, 
            "id": 12868, 
            "moderator_id": null, 
            "permissions": {
                "hide": false, 
                "hide_author": false, 
                "vote": false
            }, 
            "total_dislikes": 0, 
            "total_likes": 0, 
            "total_votes": 0
        }
    ], 
    "meta": {
        "current_page": 2, 
        "next_page": 3, 
        "prev_page": 1, 
        "total_count": 75, 
        "total_pages": 4
    }
}