{
    "comments": [
        {
            "administrator_id": null, 
            "alignment": 0, 
            "ancestry": null, 
            "as": null, 
            "author": {
                "avatar_image": "https://decidim.barcelona/assets/avatar-866795c99abc33a3160d1f3fa93ada46eb75e54134e777666b9ed16215b26534.png", 
                "erased": false, 
                "hidden": false, 
                "id": 17741, 
                "name": "Suport General3 - Decidim Barcelona", 
                "official": false, 
                "official_level": 0, 
                "role": null, 
                "verified_organization": null
            }, 
            "body": "<p><a href=\"https://decidim.barcelona/proposals/pla-de-salut-mental-programes-de-suport-per-professionals\">https://decidim.barcelona/proposals/pla-de-salut-mental-programes-de-suport-per-professionals</a></p>", 
            "commentable_id": 2873, 
            "commentable_type": "Proposal", 
            "created_at": "16/04/2016 11:54:41", 
            "flagged": false, 
            "hidden": false, 
            "id": 17982, 
            "moderator_id": null, 
            "permissions": {
                "hide": false, 
                "hide_author": false, 
                "vote": false
            }, 
            "total_dislikes": 0, 
            "total_likes": 0, 
            "total_votes": 0
        }, 
        {
            "administrator_id": null, 
            "alignment": 0, 
            "ancestry": null, 
            "as": null, 
            "author": {
                "avatar_image": "https://decidim.barcelona/assets/avatar-866795c99abc33a3160d1f3fa93ada46eb75e54134e777666b9ed16215b26534.png", 
                "erased": false, 
                "hidden": false, 
                "id": 17741, 
                "name": "Suport General3 - Decidim Barcelona", 
                "official": false, 
                "official_level": 0, 
                "role": null, 
                "verified_organization": null
            }, 
            "body": "<p><a href=\"https://decidim.barcelona/proposals/pla-de-salut-mental-recuperar-el-programa-d-acompanyament-terapeutic-en-infancia-i-adolescencia\">https://decidim.barcelona/proposals/pla-de-salut-mental-recuperar-el-programa-d-acompanyament-terapeutic-en-infancia-i-adolescencia</a></p>", 
            "commentable_id": 2873, 
            "commentable_type": "Proposal", 
            "created_at": "16/04/2016 11:54:46", 
            "flagged": false, 
            "hidden": false, 
            "id": 17984, 
            "moderator_id": null, 
            "permissions": {
                "hide": false, 
                "hide_author": false, 
                "vote": false
            }, 
            "total_dislikes": 0, 
            "total_likes": 0, 
            "total_votes": 0
        }, 
        {
            "administrator_id": null, 
            "alignment": 0, 
            "ancestry": null, 
            "as": null, 
            "author": {
                "avatar_image": "https://decidim.barcelona/assets/avatar-866795c99abc33a3160d1f3fa93ada46eb75e54134e777666b9ed16215b26534.png", 
                "erased": false, 
                "hidden": false, 
                "id": 17741, 
                "name": "Suport General3 - Decidim Barcelona", 
                "official": false, 
                "official_level": 0, 
                "role": null, 
                "verified_organization": null
            }, 
            "body": "<p><a href=\"https://decidim.barcelona/proposals/pla-de-salut-mental-promoure-el-treball-comunitari-en-l-ambit-de-la-salut-mental\">https://decidim.barcelona/proposals/pla-de-salut-mental-promoure-el-treball-comunitari-en-l-ambit-de-la-salut-mental</a></p>", 
            "commentable_id": 2873, 
            "commentable_type": "Proposal", 
            "created_at": "16/04/2016 11:54:53", 
            "flagged": false, 
            "hidden": false, 
            "id": 17985, 
            "moderator_id": null, 
            "permissions": {
                "hide": false, 
                "hide_author": false, 
                "vote": false
            }, 
            "total_dislikes": 0, 
            "total_likes": 0, 
            "total_votes": 0
        }, 
        {
            "administrator_id": null, 
            "alignment": 0, 
            "ancestry": null, 
            "as": null, 
            "author": {
                "avatar_image": "https://decidim.barcelona/assets/avatar-866795c99abc33a3160d1f3fa93ada46eb75e54134e777666b9ed16215b26534.png", 
                "erased": false, 
                "hidden": false, 
                "id": 17741, 
                "name": "Suport General3 - Decidim Barcelona", 
                "official": false, 
                "official_level": 0, 
                "role": null, 
                "verified_organization": null
            }, 
            "body": "<p><a href=\"https://decidim.barcelona/proposals/pla-de-salut-mental-participacio-dels-professionals-en-la-definicio-dels-serveis\">https://decidim.barcelona/proposals/pla-de-salut-mental-participacio-dels-professionals-en-la-definicio-dels-serveis</a></p>", 
            "commentable_id": 2873, 
            "commentable_type": "Proposal", 
            "created_at": "16/04/2016 11:55:16", 
            "flagged": false, 
            "hidden": false, 
            "id": 17988, 
            "moderator_id": null, 
            "permissions": {
                "hide": false, 
                "hide_author": false, 
                "vote": false
            }, 
            "total_dislikes": 0, 
            "total_likes": 0, 
            "total_votes": 0
        }, 
        {
            "administrator_id": null, 
            "alignment": 0, 
            "ancestry": null, 
            "as": null, 
            "author": {
                "avatar_image": "https://decidim.barcelona/assets/avatar-866795c99abc33a3160d1f3fa93ada46eb75e54134e777666b9ed16215b26534.png", 
                "erased": false, 
                "hidden": false, 
                "id": 17741, 
                "name": "Suport General3 - Decidim Barcelona", 
                "official": false, 
                "official_level": 0, 
                "role": null, 
                "verified_organization": null
            }, 
            "body": "<p><a href=\"https://decidim.barcelona/proposals/pla-de-salut-mental-model-integrador-dels-territoris-i-arees-d-intervencio\">https://decidim.barcelona/proposals/pla-de-salut-mental-model-integrador-dels-territoris-i-arees-d-intervencio</a></p>", 
            "commentable_id": 2873, 
            "commentable_type": "Proposal", 
            "created_at": "16/04/2016 11:55:22", 
            "flagged": false, 
            "hidden": false, 
            "id": 17990, 
            "moderator_id": null, 
            "permissions": {
                "hide": false, 
                "hide_author": false, 
                "vote": false
            }, 
            "total_dislikes": 0, 
            "total_likes": 0, 
            "total_votes": 0
        }, 
        {
            "administrator_id": null, 
            "alignment": 0, 
            "ancestry": null, 
            "as": null, 
            "author": {
                "avatar_image": "https://decidim.barcelona/assets/avatar-866795c99abc33a3160d1f3fa93ada46eb75e54134e777666b9ed16215b26534.png", 
                "erased": false, 
                "hidden": false, 
                "id": 17741, 
                "name": "Suport General3 - Decidim Barcelona", 
                "official": false, 
                "official_level": 0, 
                "role": null, 
                "verified_organization": null
            }, 
            "body": "<p><a href=\"https://decidim.barcelona/proposals/pla-de-salut-mental-revisar-criteris-inclusio-exclusio-a-serveis-en-relacio-a-la-salut-mental\">https://decidim.barcelona/proposals/pla-de-salut-mental-revisar-criteris-inclusio-exclusio-a-serveis-en-relacio-a-la-salut-mental</a></p>", 
            "commentable_id": 2873, 
            "commentable_type": "Proposal", 
            "created_at": "16/04/2016 11:55:28", 
            "flagged": false, 
            "hidden": false, 
            "id": 17991, 
            "moderator_id": null, 
            "permissions": {
                "hide": false, 
                "hide_author": false, 
                "vote": false
            }, 
            "total_dislikes": 0, 
            "total_likes": 0, 
            "total_votes": 0
        }, 
        {
            "administrator_id": null, 
            "alignment": 0, 
            "ancestry": null, 
            "as": null, 
            "author": {
                "avatar_image": "https://decidim.barcelona/assets/avatar-866795c99abc33a3160d1f3fa93ada46eb75e54134e777666b9ed16215b26534.png", 
                "erased": false, 
                "hidden": false, 
                "id": 17741, 
                "name": "Suport General3 - Decidim Barcelona", 
                "official": false, 
                "official_level": 0, 
                "role": null, 
                "verified_organization": null
            }, 
            "body": "<p><a href=\"https://decidim.barcelona/proposals/pla-de-salut-mental-fer-accessibles-els-serveis-de-salut-mental-a-les-persones\">https://decidim.barcelona/proposals/pla-de-salut-mental-fer-accessibles-els-serveis-de-salut-mental-a-les-persones</a></p>", 
            "commentable_id": 2873, 
            "commentable_type": "Proposal", 
            "created_at": "16/04/2016 11:55:38", 
            "flagged": false, 
            "hidden": false, 
            "id": 17993, 
            "moderator_id": null, 
            "permissions": {
                "hide": false, 
                "hide_author": false, 
                "vote": false
            }, 
            "total_dislikes": 0, 
            "total_likes": 0, 
            "total_votes": 0
        }, 
        {
            "administrator_id": null, 
            "alignment": 0, 
            "ancestry": null, 
            "as": null, 
            "author": {
                "avatar_image": "https://decidim.barcelona/assets/avatar-866795c99abc33a3160d1f3fa93ada46eb75e54134e777666b9ed16215b26534.png", 
                "erased": false, 
                "hidden": false, 
                "id": 17741, 
                "name": "Suport General3 - Decidim Barcelona", 
                "official": false, 
                "official_level": 0, 
                "role": null, 
                "verified_organization": null
            }, 
            "body": "<p><a href=\"https://decidim.barcelona/proposals/pla-de-salut-mental-donar-suport-a-les-families\">https://decidim.barcelona/proposals/pla-de-salut-mental-donar-suport-a-les-families</a></p>", 
            "commentable_id": 2873, 
            "commentable_type": "Proposal", 
            "created_at": "16/04/2016 11:55:41", 
            "flagged": false, 
            "hidden": false, 
            "id": 17995, 
            "moderator_id": null, 
            "permissions": {
                "hide": false, 
                "hide_author": false, 
                "vote": false
            }, 
            "total_dislikes": 0, 
            "total_likes": 0, 
            "total_votes": 0
        }, 
        {
            "administrator_id": null, 
            "alignment": 0, 
            "ancestry": null, 
            "as": null, 
            "author": {
                "avatar_image": "https://decidim.barcelona/assets/avatar-866795c99abc33a3160d1f3fa93ada46eb75e54134e777666b9ed16215b26534.png", 
                "erased": false, 
                "hidden": false, 
                "id": 17741, 
                "name": "Suport General3 - Decidim Barcelona", 
                "official": false, 
                "official_level": 0, 
                "role": null, 
                "verified_organization": null
            }, 
            "body": "<p><a href=\"https://decidim.barcelona/proposals/pla-de-salut-mental-mes-serveis-d-habitatge\">https://decidim.barcelona/proposals/pla-de-salut-mental-mes-serveis-d-habitatge</a></p>", 
            "commentable_id": 2873, 
            "commentable_type": "Proposal", 
            "created_at": "16/04/2016 12:16:46", 
            "flagged": false, 
            "hidden": false, 
            "id": 18099, 
            "moderator_id": null, 
            "permissions": {
                "hide": false, 
                "hide_author": false, 
                "vote": false
            }, 
            "total_dislikes": 0, 
            "total_likes": 0, 
            "total_votes": 0
        }, 
        {
            "administrator_id": null, 
            "alignment": 0, 
            "ancestry": null, 
            "as": null, 
            "author": {
                "avatar_image": "https://decidim.barcelona/assets/avatar-866795c99abc33a3160d1f3fa93ada46eb75e54134e777666b9ed16215b26534.png", 
                "erased": false, 
                "hidden": false, 
                "id": 17741, 
                "name": "Suport General3 - Decidim Barcelona", 
                "official": false, 
                "official_level": 0, 
                "role": null, 
                "verified_organization": null
            }, 
            "body": "<p><a href=\"https://decidim.barcelona/proposals/pla-de-salut-mental-desprivatitzar-les-terapies-alternatives\">https://decidim.barcelona/proposals/pla-de-salut-mental-desprivatitzar-les-terapies-alternatives</a></p>", 
            "commentable_id": 2873, 
            "commentable_type": "Proposal", 
            "created_at": "16/04/2016 12:17:05", 
            "flagged": false, 
            "hidden": false, 
            "id": 18100, 
            "moderator_id": null, 
            "permissions": {
                "hide": false, 
                "hide_author": false, 
                "vote": false
            }, 
            "total_dislikes": 0, 
            "total_likes": 0, 
            "total_votes": 0
        }, 
        {
            "administrator_id": null, 
            "alignment": 0, 
            "ancestry": null, 
            "as": null, 
            "author": {
                "avatar_image": "https://decidim.barcelona/assets/avatar-866795c99abc33a3160d1f3fa93ada46eb75e54134e777666b9ed16215b26534.png", 
                "erased": false, 
                "hidden": false, 
                "id": 17741, 
                "name": "Suport General3 - Decidim Barcelona", 
                "official": false, 
                "official_level": 0, 
                "role": null, 
                "verified_organization": null
            }, 
            "body": "<p><a href=\"https://decidim.barcelona/proposals/pla-de-salut-mental-promocionar-les-licitacions-a-centres-especials-de-treball-cets-des-de-l-ajuntament\">https://decidim.barcelona/proposals/pla-de-salut-mental-promocionar-les-licitacions-a-centres-especials-de-treball-cets-des-de-l-ajuntament</a></p>", 
            "commentable_id": 2873, 
            "commentable_type": "Proposal", 
            "created_at": "16/04/2016 12:17:16", 
            "flagged": false, 
            "hidden": false, 
            "id": 18101, 
            "moderator_id": null, 
            "permissions": {
                "hide": false, 
                "hide_author": false, 
                "vote": false
            }, 
            "total_dislikes": 0, 
            "total_likes": 0, 
            "total_votes": 0
        }, 
        {
            "administrator_id": null, 
            "alignment": 0, 
            "ancestry": null, 
            "as": null, 
            "author": {
                "avatar_image": "https://decidim.barcelona/assets/avatar-866795c99abc33a3160d1f3fa93ada46eb75e54134e777666b9ed16215b26534.png", 
                "erased": false, 
                "hidden": false, 
                "id": 17741, 
                "name": "Suport General3 - Decidim Barcelona", 
                "official": false, 
                "official_level": 0, 
                "role": null, 
                "verified_organization": null
            }, 
            "body": "<p><a href=\"https://decidim.barcelona/proposals/pla-de-salut-mental-suport-en-l-ambit-laboral-de-les-persones-afectades\">https://decidim.barcelona/proposals/pla-de-salut-mental-suport-en-l-ambit-laboral-de-les-persones-afectades</a></p>", 
            "commentable_id": 2873, 
            "commentable_type": "Proposal", 
            "created_at": "16/04/2016 12:17:30", 
            "flagged": false, 
            "hidden": false, 
            "id": 18102, 
            "moderator_id": null, 
            "permissions": {
                "hide": false, 
                "hide_author": false, 
                "vote": false
            }, 
            "total_dislikes": 0, 
            "total_likes": 0, 
            "total_votes": 0
        }, 
        {
            "administrator_id": null, 
            "alignment": 0, 
            "ancestry": null, 
            "as": null, 
            "author": {
                "avatar_image": "https://decidim.barcelona/assets/avatar-866795c99abc33a3160d1f3fa93ada46eb75e54134e777666b9ed16215b26534.png", 
                "erased": false, 
                "hidden": false, 
                "id": 17741, 
                "name": "Suport General3 - Decidim Barcelona", 
                "official": false, 
                "official_level": 0, 
                "role": null, 
                "verified_organization": null
            }, 
            "body": "<p><a href=\"https://decidim.barcelona/proposals/pla-de-salut-mental-alternatives-terapeutiques\">https://decidim.barcelona/proposals/pla-de-salut-mental-alternatives-terapeutiques</a></p>", 
            "commentable_id": 2873, 
            "commentable_type": "Proposal", 
            "created_at": "16/04/2016 12:17:57", 
            "flagged": false, 
            "hidden": false, 
            "id": 18103, 
            "moderator_id": null, 
            "permissions": {
                "hide": false, 
                "hide_author": false, 
                "vote": false
            }, 
            "total_dislikes": 0, 
            "total_likes": 0, 
            "total_votes": 0
        }, 
        {
            "administrator_id": null, 
            "alignment": 0, 
            "ancestry": null, 
            "as": null, 
            "author": {
                "avatar_image": "https://decidim.barcelona/assets/avatar-866795c99abc33a3160d1f3fa93ada46eb75e54134e777666b9ed16215b26534.png", 
                "erased": false, 
                "hidden": false, 
                "id": 17741, 
                "name": "Suport General3 - Decidim Barcelona", 
                "official": false, 
                "official_level": 0, 
                "role": null, 
                "verified_organization": null
            }, 
            "body": "<p><a href=\"https://decidim.barcelona/proposals/pla-de-salut-mental-accessibilitat-als-recursos\">https://decidim.barcelona/proposals/pla-de-salut-mental-accessibilitat-als-recursos</a></p>", 
            "commentable_id": 2873, 
            "commentable_type": "Proposal", 
            "created_at": "16/04/2016 12:18:12", 
            "flagged": false, 
            "hidden": false, 
            "id": 18104, 
            "moderator_id": null, 
            "permissions": {
                "hide": false, 
                "hide_author": false, 
                "vote": false
            }, 
            "total_dislikes": 0, 
            "total_likes": 0, 
            "total_votes": 0
        }, 
        {
            "administrator_id": null, 
            "alignment": 0, 
            "ancestry": null, 
            "as": null, 
            "author": {
                "avatar_image": "https://decidim.barcelona/assets/avatar-866795c99abc33a3160d1f3fa93ada46eb75e54134e777666b9ed16215b26534.png", 
                "erased": false, 
                "hidden": false, 
                "id": 17741, 
                "name": "Suport General3 - Decidim Barcelona", 
                "official": false, 
                "official_level": 0, 
                "role": null, 
                "verified_organization": null
            }, 
            "body": "<p><a href=\"https://decidim.barcelona/proposals/pla-de-salut-mental-consolidar-la-figura-del-psi\">https://decidim.barcelona/proposals/pla-de-salut-mental-consolidar-la-figura-del-psi</a></p>", 
            "commentable_id": 2873, 
            "commentable_type": "Proposal", 
            "created_at": "16/04/2016 12:18:25", 
            "flagged": false, 
            "hidden": false, 
            "id": 18105, 
            "moderator_id": null, 
            "permissions": {
                "hide": false, 
                "hide_author": false, 
                "vote": false
            }, 
            "total_dislikes": 0, 
            "total_likes": 0, 
            "total_votes": 0
        }
    ], 
    "meta": {
        "current_page": 4, 
        "next_page": null, 
        "prev_page": 3, 
        "total_count": 75, 
        "total_pages": 4
    }
}