{
    "comments": [
        {
            "administrator_id": null, 
            "alignment": 0, 
            "ancestry": null, 
            "as": null, 
            "author": {
                "avatar_image": "https://decidim.barcelona/assets/avatar-866795c99abc33a3160d1f3fa93ada46eb75e54134e777666b9ed16215b26534.png", 
                "erased": false, 
                "hidden": false, 
                "id": 17740, 
                "name": "Suport General2 - Decidim Barcelona", 
                "official": false, 
                "official_level": 0, 
                "role": null, 
                "verified_organization": null
            }, 
            "body": "<p><a href=\"https://decidim.barcelona/proposals/protocols-de-seguretat-en-l-atencio-mental-electro-shocks\">https://decidim.barcelona/proposals/protocols-de-seguretat-en-l-atencio-mental-electro-shocks</a></p>", 
            "commentable_id": 2873, 
            "commentable_type": "Proposal", 
            "created_at": "11/04/2016 15:47:39", 
            "flagged": false, 
            "hidden": false, 
            "id": 12884, 
            "moderator_id": null, 
            "permissions": {
                "hide": false, 
                "hide_author": false, 
                "vote": false
            }, 
            "total_dislikes": 0, 
            "total_likes": 0, 
            "total_votes": 0
        }, 
        {
            "administrator_id": null, 
            "alignment": 0, 
            "ancestry": null, 
            "as": null, 
            "author": {
                "avatar_image": "https://decidim.barcelona/assets/avatar-866795c99abc33a3160d1f3fa93ada46eb75e54134e777666b9ed16215b26534.png", 
                "erased": false, 
                "hidden": false, 
                "id": 17740, 
                "name": "Suport General2 - Decidim Barcelona", 
                "official": false, 
                "official_level": 0, 
                "role": null, 
                "verified_organization": null
            }, 
            "body": "<p><a href=\"https://decidim.barcelona/proposals/ampliar-les-campanyes-de-sensibilitzacio-sobre-salut-mental-per-lluitar-contra-l-estigmatitzacio\">https://decidim.barcelona/proposals/ampliar-les-campanyes-de-sensibilitzacio-sobre-salut-mental-per-lluitar-contra-l-estigmatitzacio</a></p>", 
            "commentable_id": 2873, 
            "commentable_type": "Proposal", 
            "created_at": "11/04/2016 15:50:16", 
            "flagged": false, 
            "hidden": false, 
            "id": 12900, 
            "moderator_id": null, 
            "permissions": {
                "hide": false, 
                "hide_author": false, 
                "vote": false
            }, 
            "total_dislikes": 0, 
            "total_likes": 0, 
            "total_votes": 0
        }, 
        {
            "administrator_id": null, 
            "alignment": 0, 
            "ancestry": null, 
            "as": null, 
            "author": {
                "avatar_image": "https://decidim.barcelona/assets/avatar-866795c99abc33a3160d1f3fa93ada46eb75e54134e777666b9ed16215b26534.png", 
                "erased": false, 
                "hidden": false, 
                "id": 17740, 
                "name": "Suport General2 - Decidim Barcelona", 
                "official": false, 
                "official_level": 0, 
                "role": null, 
                "verified_organization": null
            }, 
            "body": "<p><a href=\"https://decidim.barcelona/proposals/prevencion-del-burn-out-y-stress-laboral-para-profesionales-sanitarios\">https://decidim.barcelona/proposals/prevencion-del-burn-out-y-stress-laboral-para-profesionales-sanitarios</a></p>", 
            "commentable_id": 2873, 
            "commentable_type": "Proposal", 
            "created_at": "11/04/2016 16:08:24", 
            "flagged": false, 
            "hidden": false, 
            "id": 12949, 
            "moderator_id": null, 
            "permissions": {
                "hide": false, 
                "hide_author": false, 
                "vote": false
            }, 
            "total_dislikes": 0, 
            "total_likes": 0, 
            "total_votes": 0
        }, 
        {
            "administrator_id": null, 
            "alignment": 0, 
            "ancestry": null, 
            "as": null, 
            "author": {
                "avatar_image": "https://decidim.barcelona/assets/avatar-866795c99abc33a3160d1f3fa93ada46eb75e54134e777666b9ed16215b26534.png", 
                "erased": false, 
                "hidden": false, 
                "id": 17740, 
                "name": "Suport General2 - Decidim Barcelona", 
                "official": false, 
                "official_level": 0, 
                "role": null, 
                "verified_organization": null
            }, 
            "body": "<p><a href=\"https://decidim.barcelona/proposals/detectar-i-atendre-els-temes-de-salut-mental-dels-joves\">https://decidim.barcelona/proposals/detectar-i-atendre-els-temes-de-salut-mental-dels-joves</a></p>", 
            "commentable_id": 2873, 
            "commentable_type": "Proposal", 
            "created_at": "12/04/2016 10:31:50", 
            "flagged": false, 
            "hidden": false, 
            "id": 13393, 
            "moderator_id": null, 
            "permissions": {
                "hide": false, 
                "hide_author": false, 
                "vote": false
            }, 
            "total_dislikes": 0, 
            "total_likes": 0, 
            "total_votes": 0
        }, 
        {
            "administrator_id": null, 
            "alignment": 0, 
            "ancestry": null, 
            "as": null, 
            "author": {
                "avatar_image": "https://decidim.barcelona/assets/avatar-866795c99abc33a3160d1f3fa93ada46eb75e54134e777666b9ed16215b26534.png", 
                "erased": false, 
                "hidden": false, 
                "id": 17740, 
                "name": "Suport General2 - Decidim Barcelona", 
                "official": false, 
                "official_level": 0, 
                "role": null, 
                "verified_organization": null
            }, 
            "body": "<p><a href=\"https://decidim.barcelona/proposals/desenvolupar-mesures-per-treballar-la-salut-mental-a-les-corts\">https://decidim.barcelona/proposals/desenvolupar-mesures-per-treballar-la-salut-mental-a-les-corts</a></p>", 
            "commentable_id": 2873, 
            "commentable_type": "Proposal", 
            "created_at": "12/04/2016 11:05:36", 
            "flagged": false, 
            "hidden": false, 
            "id": 13447, 
            "moderator_id": null, 
            "permissions": {
                "hide": false, 
                "hide_author": false, 
                "vote": false
            }, 
            "total_dislikes": 0, 
            "total_likes": 0, 
            "total_votes": 0
        }, 
        {
            "administrator_id": null, 
            "alignment": 0, 
            "ancestry": null, 
            "as": null, 
            "author": {
                "avatar_image": "https://decidim.barcelona/assets/avatar-866795c99abc33a3160d1f3fa93ada46eb75e54134e777666b9ed16215b26534.png", 
                "erased": false, 
                "hidden": false, 
                "id": 17740, 
                "name": "Suport General2 - Decidim Barcelona", 
                "official": false, 
                "official_level": 0, 
                "role": null, 
                "verified_organization": null
            }, 
            "body": "<p><a href=\"https://decidim.barcelona/proposals/donar-mes-recursos-residencials-enfocats-a-la-salut-mental-73119ed9-9047-4fcd-9808-4e78837f63a1\">https://decidim.barcelona/proposals/donar-mes-recursos-residencials-enfocats-a-la-salut-mental-73119ed9-9047-4fcd-9808-4e78837f63a1</a></p>", 
            "commentable_id": 2873, 
            "commentable_type": "Proposal", 
            "created_at": "12/04/2016 12:01:27", 
            "flagged": false, 
            "hidden": false, 
            "id": 13542, 
            "moderator_id": null, 
            "permissions": {
                "hide": false, 
                "hide_author": false, 
                "vote": false
            }, 
            "total_dislikes": 0, 
            "total_likes": 0, 
            "total_votes": 0
        }, 
        {
            "administrator_id": null, 
            "alignment": 0, 
            "ancestry": null, 
            "as": null, 
            "author": {
                "avatar_image": "https://decidim.barcelona/assets/avatar-866795c99abc33a3160d1f3fa93ada46eb75e54134e777666b9ed16215b26534.png", 
                "erased": false, 
                "hidden": false, 
                "id": 17740, 
                "name": "Suport General2 - Decidim Barcelona", 
                "official": false, 
                "official_level": 0, 
                "role": null, 
                "verified_organization": null
            }, 
            "body": "<p><a href=\"https://decidim.barcelona/proposals/evitem-els-suicidis\">https://decidim.barcelona/proposals/evitem-els-suicidis</a></p>", 
            "commentable_id": 2873, 
            "commentable_type": "Proposal", 
            "created_at": "15/04/2016 18:43:43", 
            "flagged": false, 
            "hidden": false, 
            "id": 17483, 
            "moderator_id": null, 
            "permissions": {
                "hide": false, 
                "hide_author": false, 
                "vote": false
            }, 
            "total_dislikes": 0, 
            "total_likes": 0, 
            "total_votes": 0
        }, 
        {
            "administrator_id": null, 
            "alignment": 0, 
            "ancestry": null, 
            "as": null, 
            "author": {
                "avatar_image": "https://decidim.barcelona/assets/avatar-866795c99abc33a3160d1f3fa93ada46eb75e54134e777666b9ed16215b26534.png", 
                "erased": false, 
                "hidden": false, 
                "id": 17741, 
                "name": "Suport General3 - Decidim Barcelona", 
                "official": false, 
                "official_level": 0, 
                "role": null, 
                "verified_organization": null
            }, 
            "body": "<p><a href=\"https://decidim.barcelona/proposals/pla-de-salut-mental-models-d-intervencio-fonamentats\">https://decidim.barcelona/proposals/pla-de-salut-mental-models-d-intervencio-fonamentats</a></p>", 
            "commentable_id": 2873, 
            "commentable_type": "Proposal", 
            "created_at": "16/04/2016 11:51:52", 
            "flagged": false, 
            "hidden": false, 
            "id": 17964, 
            "moderator_id": null, 
            "permissions": {
                "hide": false, 
                "hide_author": false, 
                "vote": false
            }, 
            "total_dislikes": 0, 
            "total_likes": 0, 
            "total_votes": 0
        }, 
        {
            "administrator_id": null, 
            "alignment": 0, 
            "ancestry": null, 
            "as": null, 
            "author": {
                "avatar_image": "https://decidim.barcelona/assets/avatar-866795c99abc33a3160d1f3fa93ada46eb75e54134e777666b9ed16215b26534.png", 
                "erased": false, 
                "hidden": false, 
                "id": 17741, 
                "name": "Suport General3 - Decidim Barcelona", 
                "official": false, 
                "official_level": 0, 
                "role": null, 
                "verified_organization": null
            }, 
            "body": "<p>- <a href=\"https://decidim.barcelona/proposals/pla-de-salut-mental-integrar-nous-recursos-en-les-xarxes-ja-existents\">https://decidim.barcelona/proposals/pla-de-salut-mental-integrar-nous-recursos-en-les-xarxes-ja-existents</a></p>", 
            "commentable_id": 2873, 
            "commentable_type": "Proposal", 
            "created_at": "16/04/2016 11:52:17", 
            "flagged": false, 
            "hidden": false, 
            "id": 17967, 
            "moderator_id": null, 
            "permissions": {
                "hide": false, 
                "hide_author": false, 
                "vote": false
            }, 
            "total_dislikes": 0, 
            "total_likes": 0, 
            "total_votes": 0
        }, 
        {
            "administrator_id": null, 
            "alignment": 0, 
            "ancestry": null, 
            "as": null, 
            "author": {
                "avatar_image": "https://decidim.barcelona/assets/avatar-866795c99abc33a3160d1f3fa93ada46eb75e54134e777666b9ed16215b26534.png", 
                "erased": false, 
                "hidden": false, 
                "id": 17741, 
                "name": "Suport General3 - Decidim Barcelona", 
                "official": false, 
                "official_level": 0, 
                "role": null, 
                "verified_organization": null
            }, 
            "body": "<p><a href=\"https://decidim.barcelona/proposals/pla-de-salut-mental-donar-emfasi-a-la-prescripcio-sanitaria-social\">https://decidim.barcelona/proposals/pla-de-salut-mental-donar-emfasi-a-la-prescripcio-sanitaria-social</a></p>", 
            "commentable_id": 2873, 
            "commentable_type": "Proposal", 
            "created_at": "16/04/2016 11:52:28", 
            "flagged": false, 
            "hidden": false, 
            "id": 17968, 
            "moderator_id": null, 
            "permissions": {
                "hide": false, 
                "hide_author": false, 
                "vote": false
            }, 
            "total_dislikes": 0, 
            "total_likes": 0, 
            "total_votes": 0
        }, 
        {
            "administrator_id": null, 
            "alignment": 0, 
            "ancestry": null, 
            "as": null, 
            "author": {
                "avatar_image": "https://decidim.barcelona/assets/avatar-866795c99abc33a3160d1f3fa93ada46eb75e54134e777666b9ed16215b26534.png", 
                "erased": false, 
                "hidden": false, 
                "id": 17741, 
                "name": "Suport General3 - Decidim Barcelona", 
                "official": false, 
                "official_level": 0, 
                "role": null, 
                "verified_organization": null
            }, 
            "body": "<p>- <a href=\"https://decidim.barcelona/proposals/pla-de-salut-mental-donar-emfasi-a-la-prescripcio-sanitaria-social\">https://decidim.barcelona/proposals/pla-de-salut-mental-donar-emfasi-a-la-prescripcio-sanitaria-social</a></p>", 
            "commentable_id": 2873, 
            "commentable_type": "Proposal", 
            "created_at": "16/04/2016 11:52:40", 
            "flagged": false, 
            "hidden": false, 
            "id": 17969, 
            "moderator_id": null, 
            "permissions": {
                "hide": false, 
                "hide_author": false, 
                "vote": false
            }, 
            "total_dislikes": 0, 
            "total_likes": 0, 
            "total_votes": 0
        }, 
        {
            "administrator_id": null, 
            "alignment": 0, 
            "ancestry": null, 
            "as": null, 
            "author": {
                "avatar_image": "https://decidim.barcelona/assets/avatar-866795c99abc33a3160d1f3fa93ada46eb75e54134e777666b9ed16215b26534.png", 
                "erased": false, 
                "hidden": false, 
                "id": 17741, 
                "name": "Suport General3 - Decidim Barcelona", 
                "official": false, 
                "official_level": 0, 
                "role": null, 
                "verified_organization": null
            }, 
            "body": "<p>- <a href=\"https://decidim.barcelona/proposals/pla-de-salut-mental-ordenar-les-diferents-xarxes-de-serveis\">https://decidim.barcelona/proposals/pla-de-salut-mental-ordenar-les-diferents-xarxes-de-serveis</a></p>", 
            "commentable_id": 2873, 
            "commentable_type": "Proposal", 
            "created_at": "16/04/2016 11:53:03", 
            "flagged": false, 
            "hidden": false, 
            "id": 17970, 
            "moderator_id": null, 
            "permissions": {
                "hide": false, 
                "hide_author": false, 
                "vote": false
            }, 
            "total_dislikes": 0, 
            "total_likes": 0, 
            "total_votes": 0
        }, 
        {
            "administrator_id": null, 
            "alignment": 0, 
            "ancestry": null, 
            "as": null, 
            "author": {
                "avatar_image": "https://decidim.barcelona/assets/avatar-866795c99abc33a3160d1f3fa93ada46eb75e54134e777666b9ed16215b26534.png", 
                "erased": false, 
                "hidden": false, 
                "id": 17741, 
                "name": "Suport General3 - Decidim Barcelona", 
                "official": false, 
                "official_level": 0, 
                "role": null, 
                "verified_organization": null
            }, 
            "body": "<p><a href=\"https://decidim.barcelona/proposals/pla-de-salut-mental-promoure-la-prevencio-en-salut-mental-en-adolescents\">https://decidim.barcelona/proposals/pla-de-salut-mental-promoure-la-prevencio-en-salut-mental-en-adolescents</a></p>", 
            "commentable_id": 2873, 
            "commentable_type": "Proposal", 
            "created_at": "16/04/2016 11:53:16", 
            "flagged": false, 
            "hidden": false, 
            "id": 17971, 
            "moderator_id": null, 
            "permissions": {
                "hide": false, 
                "hide_author": false, 
                "vote": false
            }, 
            "total_dislikes": 0, 
            "total_likes": 0, 
            "total_votes": 0
        }, 
        {
            "administrator_id": null, 
            "alignment": 0, 
            "ancestry": null, 
            "as": null, 
            "author": {
                "avatar_image": "https://decidim.barcelona/assets/avatar-866795c99abc33a3160d1f3fa93ada46eb75e54134e777666b9ed16215b26534.png", 
                "erased": false, 
                "hidden": false, 
                "id": 17741, 
                "name": "Suport General3 - Decidim Barcelona", 
                "official": false, 
                "official_level": 0, 
                "role": null, 
                "verified_organization": null
            }, 
            "body": "<p><a href=\"https://decidim.barcelona/proposals/pla-de-salut-mental-actuacions-especifiques-en-materia-d-habitatge\">https://decidim.barcelona/proposals/pla-de-salut-mental-actuacions-especifiques-en-materia-d-habitatge</a></p>", 
            "commentable_id": 2873, 
            "commentable_type": "Proposal", 
            "created_at": "16/04/2016 11:53:45", 
            "flagged": false, 
            "hidden": false, 
            "id": 17973, 
            "moderator_id": null, 
            "permissions": {
                "hide": false, 
                "hide_author": false, 
                "vote": false
            }, 
            "total_dislikes": 0, 
            "total_likes": 0, 
            "total_votes": 0
        }, 
        {
            "administrator_id": null, 
            "alignment": 0, 
            "ancestry": null, 
            "as": null, 
            "author": {
                "avatar_image": "https://decidim.barcelona/assets/avatar-866795c99abc33a3160d1f3fa93ada46eb75e54134e777666b9ed16215b26534.png", 
                "erased": false, 
                "hidden": false, 
                "id": 17741, 
                "name": "Suport General3 - Decidim Barcelona", 
                "official": false, 
                "official_level": 0, 
                "role": null, 
                "verified_organization": null
            }, 
            "body": "<p><a href=\"https://decidim.barcelona/proposals/pla-de-salut-mental-facilitar-el-retorn-dels-joves-al-sistema-educatiu\">https://decidim.barcelona/proposals/pla-de-salut-mental-facilitar-el-retorn-dels-joves-al-sistema-educatiu</a></p>", 
            "commentable_id": 2873, 
            "commentable_type": "Proposal", 
            "created_at": "16/04/2016 11:53:52", 
            "flagged": false, 
            "hidden": false, 
            "id": 17974, 
            "moderator_id": null, 
            "permissions": {
                "hide": false, 
                "hide_author": false, 
                "vote": false
            }, 
            "total_dislikes": 0, 
            "total_likes": 0, 
            "total_votes": 0
        }, 
        {
            "administrator_id": null, 
            "alignment": 0, 
            "ancestry": null, 
            "as": null, 
            "author": {
                "avatar_image": "https://decidim.barcelona/assets/avatar-866795c99abc33a3160d1f3fa93ada46eb75e54134e777666b9ed16215b26534.png", 
                "erased": false, 
                "hidden": false, 
                "id": 17741, 
                "name": "Suport General3 - Decidim Barcelona", 
                "official": false, 
                "official_level": 0, 
                "role": null, 
                "verified_organization": null
            }, 
            "body": "<p><a href=\"https://decidim.barcelona/proposals/pla-de-salut-mental-promoure-programes-d-insercio-laboral-per-persones-amb-problemes-de-salut-mental\">https://decidim.barcelona/proposals/pla-de-salut-mental-promoure-programes-d-insercio-laboral-per-persones-amb-problemes-de-salut-mental</a></p>", 
            "commentable_id": 2873, 
            "commentable_type": "Proposal", 
            "created_at": "16/04/2016 11:53:58", 
            "flagged": false, 
            "hidden": false, 
            "id": 17975, 
            "moderator_id": null, 
            "permissions": {
                "hide": false, 
                "hide_author": false, 
                "vote": false
            }, 
            "total_dislikes": 0, 
            "total_likes": 0, 
            "total_votes": 0
        }, 
        {
            "administrator_id": null, 
            "alignment": 0, 
            "ancestry": null, 
            "as": null, 
            "author": {
                "avatar_image": "https://decidim.barcelona/assets/avatar-866795c99abc33a3160d1f3fa93ada46eb75e54134e777666b9ed16215b26534.png", 
                "erased": false, 
                "hidden": false, 
                "id": 17741, 
                "name": "Suport General3 - Decidim Barcelona", 
                "official": false, 
                "official_level": 0, 
                "role": null, 
                "verified_organization": null
            }, 
            "body": "<p><a href=\"https://decidim.barcelona/proposals/pla-de-salut-mental-continuitat-de-recursos-a-partir-de-18-anys-per-joves-tutelats\">https://decidim.barcelona/proposals/pla-de-salut-mental-continuitat-de-recursos-a-partir-de-18-anys-per-joves-tutelats</a></p>", 
            "commentable_id": 2873, 
            "commentable_type": "Proposal", 
            "created_at": "16/04/2016 11:54:03", 
            "flagged": false, 
            "hidden": false, 
            "id": 17976, 
            "moderator_id": null, 
            "permissions": {
                "hide": false, 
                "hide_author": false, 
                "vote": false
            }, 
            "total_dislikes": 0, 
            "total_likes": 0, 
            "total_votes": 0
        }, 
        {
            "administrator_id": null, 
            "alignment": 0, 
            "ancestry": null, 
            "as": null, 
            "author": {
                "avatar_image": "https://decidim.barcelona/assets/avatar-866795c99abc33a3160d1f3fa93ada46eb75e54134e777666b9ed16215b26534.png", 
                "erased": false, 
                "hidden": false, 
                "id": 17741, 
                "name": "Suport General3 - Decidim Barcelona", 
                "official": false, 
                "official_level": 0, 
                "role": null, 
                "verified_organization": null
            }, 
            "body": "<p><a href=\"https://decidim.barcelona/proposals/pla-de-salut-mental-fer-accessible-la-oferta-cultural-i-participativa-a-persones-amb-problemes-de-salut-mental\">https://decidim.barcelona/proposals/pla-de-salut-mental-fer-accessible-la-oferta-cultural-i-participativa-a-persones-amb-problemes-de-salut-mental</a></p>", 
            "commentable_id": 2873, 
            "commentable_type": "Proposal", 
            "created_at": "16/04/2016 11:54:10", 
            "flagged": false, 
            "hidden": false, 
            "id": 17977, 
            "moderator_id": null, 
            "permissions": {
                "hide": false, 
                "hide_author": false, 
                "vote": false
            }, 
            "total_dislikes": 0, 
            "total_likes": 0, 
            "total_votes": 0
        }, 
        {
            "administrator_id": null, 
            "alignment": 0, 
            "ancestry": null, 
            "as": null, 
            "author": {
                "avatar_image": "https://decidim.barcelona/assets/avatar-866795c99abc33a3160d1f3fa93ada46eb75e54134e777666b9ed16215b26534.png", 
                "erased": false, 
                "hidden": false, 
                "id": 17741, 
                "name": "Suport General3 - Decidim Barcelona", 
                "official": false, 
                "official_level": 0, 
                "role": null, 
                "verified_organization": null
            }, 
            "body": "<p><a href=\"https://decidim.barcelona/proposals/pla-de-salut-mental-recursos-per-persones-amb-problematiques-complexes\">https://decidim.barcelona/proposals/pla-de-salut-mental-recursos-per-persones-amb-problematiques-complexes</a></p>", 
            "commentable_id": 2873, 
            "commentable_type": "Proposal", 
            "created_at": "16/04/2016 11:54:19", 
            "flagged": false, 
            "hidden": false, 
            "id": 17978, 
            "moderator_id": null, 
            "permissions": {
                "hide": false, 
                "hide_author": false, 
                "vote": false
            }, 
            "total_dislikes": 0, 
            "total_likes": 0, 
            "total_votes": 0
        }, 
        {
            "administrator_id": null, 
            "alignment": 0, 
            "ancestry": null, 
            "as": null, 
            "author": {
                "avatar_image": "https://decidim.barcelona/assets/avatar-866795c99abc33a3160d1f3fa93ada46eb75e54134e777666b9ed16215b26534.png", 
                "erased": false, 
                "hidden": false, 
                "id": 17741, 
                "name": "Suport General3 - Decidim Barcelona", 
                "official": false, 
                "official_level": 0, 
                "role": null, 
                "verified_organization": null
            }, 
            "body": "<p><a href=\"https://decidim.barcelona/proposals/pla-de-salut-mental-humanitzar-els-serveis-publics\">https://decidim.barcelona/proposals/pla-de-salut-mental-humanitzar-els-serveis-publics</a></p>", 
            "commentable_id": 2873, 
            "commentable_type": "Proposal", 
            "created_at": "16/04/2016 11:54:34", 
            "flagged": false, 
            "hidden": false, 
            "id": 17980, 
            "moderator_id": null, 
            "permissions": {
                "hide": false, 
                "hide_author": false, 
                "vote": false
            }, 
            "total_dislikes": 0, 
            "total_likes": 0, 
            "total_votes": 0
        }
    ], 
    "meta": {
        "current_page": 3, 
        "next_page": 4, 
        "prev_page": 2, 
        "total_count": 75, 
        "total_pages": 4
    }
}