{
    "comments": [
        {
            "administrator_id": null, 
            "alignment": 0, 
            "ancestry": null, 
            "as": null, 
            "author": {
                "avatar_image": "https://decidim.barcelona/assets/avatar-866795c99abc33a3160d1f3fa93ada46eb75e54134e777666b9ed16215b26534.png", 
                "erased": false, 
                "hidden": false, 
                "id": 17740, 
                "name": "Suport General2 - Decidim Barcelona", 
                "official": false, 
                "official_level": 0, 
                "role": null, 
                "verified_organization": null
            }, 
            "body": "<p><a href=\"https://decidim.barcelona/proposals/augment-de-les-plantilles-professionals-de-sanitat-per-tal-de-millorar-els-ratios-d-atencio-professional-usuaris\">https://decidim.barcelona/proposals/augment-de-les-plantilles-professionals-de-sanitat-per-tal-de-millorar-els-ratios-d-atencio-professional-usuaris</a></p>", 
            "commentable_id": 2871, 
            "commentable_type": "Proposal", 
            "created_at": "07/04/2016 20:22:54", 
            "flagged": false, 
            "hidden": false, 
            "id": 10040, 
            "moderator_id": null, 
            "permissions": {
                "hide": false, 
                "hide_author": false, 
                "vote": false
            }, 
            "total_dislikes": 0, 
            "total_likes": 0, 
            "total_votes": 0
        }, 
        {
            "administrator_id": null, 
            "alignment": 0, 
            "ancestry": null, 
            "as": null, 
            "author": {
                "avatar_image": "https://decidim.barcelona/assets/avatar-866795c99abc33a3160d1f3fa93ada46eb75e54134e777666b9ed16215b26534.png", 
                "erased": false, 
                "hidden": false, 
                "id": 17740, 
                "name": "Suport General2 - Decidim Barcelona", 
                "official": false, 
                "official_level": 0, 
                "role": null, 
                "verified_organization": null
            }, 
            "body": "<p><a href=\"https://decidim.barcelona/proposals/garantir-un-nivell-de-proteccio-de-la-salut-suficient-i-necessari-pel-benestar-de-la-poblacio\">https://decidim.barcelona/proposals/garantir-un-nivell-de-proteccio-de-la-salut-suficient-i-necessari-pel-benestar-de-la-poblacio</a></p>", 
            "commentable_id": 2871, 
            "commentable_type": "Proposal", 
            "created_at": "07/04/2016 20:38:40", 
            "flagged": false, 
            "hidden": false, 
            "id": 10049, 
            "moderator_id": null, 
            "permissions": {
                "hide": false, 
                "hide_author": false, 
                "vote": false
            }, 
            "total_dislikes": 0, 
            "total_likes": 0, 
            "total_votes": 0
        }, 
        {
            "administrator_id": null, 
            "alignment": 0, 
            "ancestry": null, 
            "as": null, 
            "author": {
                "avatar_image": "https://decidim.barcelona/assets/avatar-866795c99abc33a3160d1f3fa93ada46eb75e54134e777666b9ed16215b26534.png", 
                "erased": false, 
                "hidden": false, 
                "id": 17740, 
                "name": "Suport General2 - Decidim Barcelona", 
                "official": false, 
                "official_level": 0, 
                "role": null, 
                "verified_organization": null
            }, 
            "body": "<p><a href=\"https://decidim.barcelona/proposals/protocols-de-diagnosis-segurs-i-efectius-evitant-possibles-consequencies-per-manca-de-un-diagnostic-incorrecta\">https://decidim.barcelona/proposals/protocols-de-diagnosis-segurs-i-efectius-evitant-possibles-consequencies-per-manca-de-un-diagnostic-incorrecta</a></p>", 
            "commentable_id": 2871, 
            "commentable_type": "Proposal", 
            "created_at": "07/04/2016 20:54:14", 
            "flagged": false, 
            "hidden": false, 
            "id": 10072, 
            "moderator_id": null, 
            "permissions": {
                "hide": false, 
                "hide_author": false, 
                "vote": false
            }, 
            "total_dislikes": 0, 
            "total_likes": 0, 
            "total_votes": 0
        }, 
        {
            "administrator_id": null, 
            "alignment": 0, 
            "ancestry": null, 
            "as": null, 
            "author": {
                "avatar_image": "https://decidim.barcelona/assets/avatar-866795c99abc33a3160d1f3fa93ada46eb75e54134e777666b9ed16215b26534.png", 
                "erased": false, 
                "hidden": false, 
                "id": 17740, 
                "name": "Suport General2 - Decidim Barcelona", 
                "official": false, 
                "official_level": 0, 
                "role": null, 
                "verified_organization": null
            }, 
            "body": "<p><a href=\"https://decidim.barcelona/proposals/garantir-l-acces-universal-a-la-sanitat-sense-barreres-burocratiques-a-tota-la-poblacio\">https://decidim.barcelona/proposals/garantir-l-acces-universal-a-la-sanitat-sense-barreres-burocratiques-a-tota-la-poblacio</a></p>", 
            "commentable_id": 2871, 
            "commentable_type": "Proposal", 
            "created_at": "07/04/2016 21:11:59", 
            "flagged": false, 
            "hidden": false, 
            "id": 10083, 
            "moderator_id": null, 
            "permissions": {
                "hide": false, 
                "hide_author": false, 
                "vote": false
            }, 
            "total_dislikes": 0, 
            "total_likes": 0, 
            "total_votes": 0
        }, 
        {
            "administrator_id": null, 
            "alignment": 0, 
            "ancestry": null, 
            "as": null, 
            "author": {
                "avatar_image": "https://decidim.barcelona/assets/avatar-866795c99abc33a3160d1f3fa93ada46eb75e54134e777666b9ed16215b26534.png", 
                "erased": false, 
                "hidden": false, 
                "id": 17740, 
                "name": "Suport General2 - Decidim Barcelona", 
                "official": false, 
                "official_level": 0, 
                "role": null, 
                "verified_organization": null
            }, 
            "body": "<p><a href=\"https://decidim.barcelona/proposals/instar-a-les-administracions-competents-per-a-garantir-l-acces-public-i-equitatiu-als-serveis-de-salut-mental-i-bucodental\">https://decidim.barcelona/proposals/instar-a-les-administracions-competents-per-a-garantir-l-acces-public-i-equitatiu-als-serveis-de-salut-mental-i-bucodental</a></p>", 
            "commentable_id": 2871, 
            "commentable_type": "Proposal", 
            "created_at": "07/04/2016 21:20:55", 
            "flagged": false, 
            "hidden": false, 
            "id": 10093, 
            "moderator_id": null, 
            "permissions": {
                "hide": false, 
                "hide_author": false, 
                "vote": false
            }, 
            "total_dislikes": 0, 
            "total_likes": 0, 
            "total_votes": 0
        }, 
        {
            "administrator_id": null, 
            "alignment": 0, 
            "ancestry": null, 
            "as": null, 
            "author": {
                "avatar_image": "https://decidim.barcelona/assets/avatar-866795c99abc33a3160d1f3fa93ada46eb75e54134e777666b9ed16215b26534.png", 
                "erased": false, 
                "hidden": false, 
                "id": 17740, 
                "name": "Suport General2 - Decidim Barcelona", 
                "official": false, 
                "official_level": 0, 
                "role": null, 
                "verified_organization": null
            }, 
            "body": "<p><a href=\"https://decidim.barcelona/proposals/cobertura-de-les-necessitats-sanitaries-basiques-odontologia-etc\">https://decidim.barcelona/proposals/cobertura-de-les-necessitats-sanitaries-basiques-odontologia-etc</a></p>", 
            "commentable_id": 2871, 
            "commentable_type": "Proposal", 
            "created_at": "07/04/2016 21:33:39", 
            "flagged": false, 
            "hidden": false, 
            "id": 10099, 
            "moderator_id": null, 
            "permissions": {
                "hide": false, 
                "hide_author": false, 
                "vote": false
            }, 
            "total_dislikes": 0, 
            "total_likes": 0, 
            "total_votes": 0
        }, 
        {
            "administrator_id": null, 
            "alignment": 0, 
            "ancestry": null, 
            "as": null, 
            "author": {
                "avatar_image": "https://decidim.barcelona/assets/avatar-866795c99abc33a3160d1f3fa93ada46eb75e54134e777666b9ed16215b26534.png", 
                "erased": false, 
                "hidden": false, 
                "id": 17740, 
                "name": "Suport General2 - Decidim Barcelona", 
                "official": false, 
                "official_level": 0, 
                "role": null, 
                "verified_organization": null
            }, 
            "body": "<p><a href=\"https://decidim.barcelona/proposals/impulsar-un-model-d-atencio-integral-sociosanitaria\">https://decidim.barcelona/proposals/impulsar-un-model-d-atencio-integral-sociosanitaria</a></p>", 
            "commentable_id": 2871, 
            "commentable_type": "Proposal", 
            "created_at": "07/04/2016 21:38:17", 
            "flagged": false, 
            "hidden": false, 
            "id": 10103, 
            "moderator_id": null, 
            "permissions": {
                "hide": false, 
                "hide_author": false, 
                "vote": false
            }, 
            "total_dislikes": 0, 
            "total_likes": 0, 
            "total_votes": 0
        }, 
        {
            "administrator_id": null, 
            "alignment": 0, 
            "ancestry": null, 
            "as": null, 
            "author": {
                "avatar_image": "https://decidim.barcelona/assets/avatar-866795c99abc33a3160d1f3fa93ada46eb75e54134e777666b9ed16215b26534.png", 
                "erased": false, 
                "hidden": false, 
                "id": 17740, 
                "name": "Suport General2 - Decidim Barcelona", 
                "official": false, 
                "official_level": 0, 
                "role": null, 
                "verified_organization": null
            }, 
            "body": "<p><a href=\"https://decidim.barcelona/proposals/millorar-l-accessibilitat-equitativa-i-el-temps-d-espera\">https://decidim.barcelona/proposals/millorar-l-accessibilitat-equitativa-i-el-temps-d-espera</a></p>", 
            "commentable_id": 2871, 
            "commentable_type": "Proposal", 
            "created_at": "07/04/2016 21:51:43", 
            "flagged": false, 
            "hidden": false, 
            "id": 10115, 
            "moderator_id": null, 
            "permissions": {
                "hide": false, 
                "hide_author": false, 
                "vote": false
            }, 
            "total_dislikes": 0, 
            "total_likes": 0, 
            "total_votes": 0
        }, 
        {
            "administrator_id": null, 
            "alignment": 0, 
            "ancestry": null, 
            "as": null, 
            "author": {
                "avatar_image": "https://decidim.barcelona/assets/avatar-866795c99abc33a3160d1f3fa93ada46eb75e54134e777666b9ed16215b26534.png", 
                "erased": false, 
                "hidden": false, 
                "id": 17740, 
                "name": "Suport General2 - Decidim Barcelona", 
                "official": false, 
                "official_level": 0, 
                "role": null, 
                "verified_organization": null
            }, 
            "body": "<p><a href=\"https://decidim.barcelona/proposals/garantir-els-serveis-sanitaris-i-de-salut-gratuits-i-reforcar-la-senyalitzacio-i-informacio-dels-existents\">https://decidim.barcelona/proposals/garantir-els-serveis-sanitaris-i-de-salut-gratuits-i-reforcar-la-senyalitzacio-i-informacio-dels-existents</a></p>", 
            "commentable_id": 2871, 
            "commentable_type": "Proposal", 
            "created_at": "08/04/2016 09:44:36", 
            "flagged": false, 
            "hidden": false, 
            "id": 10211, 
            "moderator_id": null, 
            "permissions": {
                "hide": false, 
                "hide_author": false, 
                "vote": false
            }, 
            "total_dislikes": 0, 
            "total_likes": 0, 
            "total_votes": 0
        }, 
        {
            "administrator_id": null, 
            "alignment": 0, 
            "ancestry": null, 
            "as": null, 
            "author": {
                "avatar_image": "https://decidim.barcelona/assets/avatar-866795c99abc33a3160d1f3fa93ada46eb75e54134e777666b9ed16215b26534.png", 
                "erased": false, 
                "hidden": false, 
                "id": 17740, 
                "name": "Suport General2 - Decidim Barcelona", 
                "official": false, 
                "official_level": 0, 
                "role": null, 
                "verified_organization": null
            }, 
            "body": "<p><a href=\"https://decidim.barcelona/proposals/recuperar-els-models-integrals-d-atencio\">https://decidim.barcelona/proposals/recuperar-els-models-integrals-d-atencio</a></p>", 
            "commentable_id": 2871, 
            "commentable_type": "Proposal", 
            "created_at": "11/04/2016 15:44:36", 
            "flagged": false, 
            "hidden": false, 
            "id": 12863, 
            "moderator_id": null, 
            "permissions": {
                "hide": false, 
                "hide_author": false, 
                "vote": false
            }, 
            "total_dislikes": 0, 
            "total_likes": 0, 
            "total_votes": 0
        }, 
        {
            "administrator_id": null, 
            "alignment": 0, 
            "ancestry": null, 
            "as": null, 
            "author": {
                "avatar_image": "https://decidim.barcelona/assets/avatar-866795c99abc33a3160d1f3fa93ada46eb75e54134e777666b9ed16215b26534.png", 
                "erased": false, 
                "hidden": false, 
                "id": 17740, 
                "name": "Suport General2 - Decidim Barcelona", 
                "official": false, 
                "official_level": 0, 
                "role": null, 
                "verified_organization": null
            }, 
            "body": "<p><a href=\"https://decidim.barcelona/proposals/realitzar-un-tractament-individualitzat-en-funcio-de-cada-persona\">https://decidim.barcelona/proposals/realitzar-un-tractament-individualitzat-en-funcio-de-cada-persona</a></p>", 
            "commentable_id": 2871, 
            "commentable_type": "Proposal", 
            "created_at": "11/04/2016 15:45:57", 
            "flagged": false, 
            "hidden": false, 
            "id": 12873, 
            "moderator_id": null, 
            "permissions": {
                "hide": false, 
                "hide_author": false, 
                "vote": false
            }, 
            "total_dislikes": 0, 
            "total_likes": 0, 
            "total_votes": 0
        }, 
        {
            "administrator_id": null, 
            "alignment": 0, 
            "ancestry": null, 
            "as": null, 
            "author": {
                "avatar_image": "https://decidim.barcelona/assets/avatar-866795c99abc33a3160d1f3fa93ada46eb75e54134e777666b9ed16215b26534.png", 
                "erased": false, 
                "hidden": false, 
                "id": 17740, 
                "name": "Suport General2 - Decidim Barcelona", 
                "official": false, 
                "official_level": 0, 
                "role": null, 
                "verified_organization": null
            }, 
            "body": "<p><a href=\"https://decidim.barcelona/proposals/dotar-d-interprets-els-caps-per-garantir-l-assistencia-sanitaria-a-aquelles-persones-que-no-entenen-el-castella-ni-el-catala\">https://decidim.barcelona/proposals/dotar-d-interprets-els-caps-per-garantir-l-assistencia-sanitaria-a-aquelles-persones-que-no-entenen-el-castella-ni-el-catala</a></p>", 
            "commentable_id": 2871, 
            "commentable_type": "Proposal", 
            "created_at": "11/04/2016 16:01:27", 
            "flagged": false, 
            "hidden": false, 
            "id": 12928, 
            "moderator_id": null, 
            "permissions": {
                "hide": false, 
                "hide_author": false, 
                "vote": false
            }, 
            "total_dislikes": 0, 
            "total_likes": 0, 
            "total_votes": 0
        }, 
        {
            "administrator_id": null, 
            "alignment": 0, 
            "ancestry": null, 
            "as": null, 
            "author": {
                "avatar_image": "https://decidim.barcelona/assets/avatar-866795c99abc33a3160d1f3fa93ada46eb75e54134e777666b9ed16215b26534.png", 
                "erased": false, 
                "hidden": false, 
                "id": 17740, 
                "name": "Suport General2 - Decidim Barcelona", 
                "official": false, 
                "official_level": 0, 
                "role": null, 
                "verified_organization": null
            }, 
            "body": "<p><a href=\"https://decidim.barcelona/proposals/disposar-dels-recursos-suficients-per-cobrir-les-necessitats-reals\">https://decidim.barcelona/proposals/disposar-dels-recursos-suficients-per-cobrir-les-necessitats-reals</a></p>", 
            "commentable_id": 2871, 
            "commentable_type": "Proposal", 
            "created_at": "11/04/2016 16:05:41", 
            "flagged": false, 
            "hidden": false, 
            "id": 12943, 
            "moderator_id": null, 
            "permissions": {
                "hide": false, 
                "hide_author": false, 
                "vote": false
            }, 
            "total_dislikes": 0, 
            "total_likes": 0, 
            "total_votes": 0
        }, 
        {
            "administrator_id": null, 
            "alignment": 0, 
            "ancestry": null, 
            "as": null, 
            "author": {
                "avatar_image": "https://decidim.barcelona/assets/avatar-866795c99abc33a3160d1f3fa93ada46eb75e54134e777666b9ed16215b26534.png", 
                "erased": false, 
                "hidden": false, 
                "id": 17740, 
                "name": "Suport General2 - Decidim Barcelona", 
                "official": false, 
                "official_level": 0, 
                "role": null, 
                "verified_organization": null
            }, 
            "body": "<p><a href=\"https://decidim.barcelona/proposals/fibromilagia-mes-formacio-a-tots-els-professionals-medics\">https://decidim.barcelona/proposals/fibromilagia-mes-formacio-a-tots-els-professionals-medics</a></p>", 
            "commentable_id": 2871, 
            "commentable_type": "Proposal", 
            "created_at": "11/04/2016 16:10:06", 
            "flagged": false, 
            "hidden": false, 
            "id": 12956, 
            "moderator_id": null, 
            "permissions": {
                "hide": false, 
                "hide_author": false, 
                "vote": false
            }, 
            "total_dislikes": 0, 
            "total_likes": 0, 
            "total_votes": 0
        }, 
        {
            "administrator_id": null, 
            "alignment": 0, 
            "ancestry": null, 
            "as": null, 
            "author": {
                "avatar_image": "https://decidim.barcelona/assets/avatar-866795c99abc33a3160d1f3fa93ada46eb75e54134e777666b9ed16215b26534.png", 
                "erased": false, 
                "hidden": false, 
                "id": 17740, 
                "name": "Suport General2 - Decidim Barcelona", 
                "official": false, 
                "official_level": 0, 
                "role": null, 
                "verified_organization": null
            }, 
            "body": "<p><a href=\"https://decidim.barcelona/proposals/facilitar-el-acceso-fisico-a-medicos-especialistas-y-a-diferentes-recursos-de-salud\">https://decidim.barcelona/proposals/facilitar-el-acceso-fisico-a-medicos-especialistas-y-a-diferentes-recursos-de-salud</a></p>", 
            "commentable_id": 2871, 
            "commentable_type": "Proposal", 
            "created_at": "12/04/2016 10:17:43", 
            "flagged": false, 
            "hidden": false, 
            "id": 13374, 
            "moderator_id": null, 
            "permissions": {
                "hide": false, 
                "hide_author": false, 
                "vote": false
            }, 
            "total_dislikes": 0, 
            "total_likes": 0, 
            "total_votes": 0
        }, 
        {
            "administrator_id": null, 
            "alignment": 0, 
            "ancestry": null, 
            "as": null, 
            "author": {
                "avatar_image": "https://decidim.barcelona/assets/avatar-866795c99abc33a3160d1f3fa93ada46eb75e54134e777666b9ed16215b26534.png", 
                "erased": false, 
                "hidden": false, 
                "id": 17740, 
                "name": "Suport General2 - Decidim Barcelona", 
                "official": false, 
                "official_level": 0, 
                "role": null, 
                "verified_organization": null
            }, 
            "body": "<p><a href=\"https://decidim.barcelona/proposals/promoure-i-optimitzar-els-recursos-publics-per-una-salut-publica-i-universal-de-qualitat-a-les-corts\">https://decidim.barcelona/proposals/promoure-i-optimitzar-els-recursos-publics-per-una-salut-publica-i-universal-de-qualitat-a-les-corts</a></p>", 
            "commentable_id": 2871, 
            "commentable_type": "Proposal", 
            "created_at": "12/04/2016 11:04:31", 
            "flagged": false, 
            "hidden": false, 
            "id": 13446, 
            "moderator_id": null, 
            "permissions": {
                "hide": false, 
                "hide_author": false, 
                "vote": false
            }, 
            "total_dislikes": 0, 
            "total_likes": 0, 
            "total_votes": 0
        }, 
        {
            "administrator_id": null, 
            "alignment": 0, 
            "ancestry": null, 
            "as": null, 
            "author": {
                "avatar_image": "https://decidim.barcelona/assets/avatar-866795c99abc33a3160d1f3fa93ada46eb75e54134e777666b9ed16215b26534.png", 
                "erased": false, 
                "hidden": false, 
                "id": 17740, 
                "name": "Suport General2 - Decidim Barcelona", 
                "official": false, 
                "official_level": 0, 
                "role": null, 
                "verified_organization": null
            }, 
            "body": "<p><a href=\"https://decidim.barcelona/proposals/atencio-primaria-en-salut-universal-accessible-i-integral\">https://decidim.barcelona/proposals/atencio-primaria-en-salut-universal-accessible-i-integral</a></p>", 
            "commentable_id": 2871, 
            "commentable_type": "Proposal", 
            "created_at": "12/04/2016 12:28:48", 
            "flagged": false, 
            "hidden": false, 
            "id": 13623, 
            "moderator_id": null, 
            "permissions": {
                "hide": false, 
                "hide_author": false, 
                "vote": false
            }, 
            "total_dislikes": 0, 
            "total_likes": 0, 
            "total_votes": 0
        }, 
        {
            "administrator_id": null, 
            "alignment": 0, 
            "ancestry": null, 
            "as": null, 
            "author": {
                "avatar_image": "https://decidim.barcelona/assets/avatar-866795c99abc33a3160d1f3fa93ada46eb75e54134e777666b9ed16215b26534.png", 
                "erased": false, 
                "hidden": false, 
                "id": 17740, 
                "name": "Suport General2 - Decidim Barcelona", 
                "official": false, 
                "official_level": 0, 
                "role": null, 
                "verified_organization": null
            }, 
            "body": "<p><a href=\"https://decidim.barcelona/proposals/fer-un-pacte-de-millora-per-la-salut-publica-que-no-es-modifiqui-en-funcio-de-qui-governa\">https://decidim.barcelona/proposals/fer-un-pacte-de-millora-per-la-salut-publica-que-no-es-modifiqui-en-funcio-de-qui-governa</a></p>", 
            "commentable_id": 2871, 
            "commentable_type": "Proposal", 
            "created_at": "12/04/2016 13:02:57", 
            "flagged": false, 
            "hidden": false, 
            "id": 13699, 
            "moderator_id": null, 
            "permissions": {
                "hide": false, 
                "hide_author": false, 
                "vote": false
            }, 
            "total_dislikes": 0, 
            "total_likes": 0, 
            "total_votes": 0
        }, 
        {
            "administrator_id": null, 
            "alignment": 0, 
            "ancestry": null, 
            "as": null, 
            "author": {
                "avatar_image": "https://decidim.barcelona/assets/avatar-866795c99abc33a3160d1f3fa93ada46eb75e54134e777666b9ed16215b26534.png", 
                "erased": false, 
                "hidden": false, 
                "id": 17741, 
                "name": "Suport General3 - Decidim Barcelona", 
                "official": false, 
                "official_level": 0, 
                "role": null, 
                "verified_organization": null
            }, 
            "body": "<p>\n- <a href=\"https://decidim.barcelona/proposals/la-sanitat-a-barcelona-millorar-la-coordinacio-de-serveis-sanitaris-i-socials\">https://decidim.barcelona/proposals/la-sanitat-a-barcelona-millorar-la-coordinacio-de-serveis-sanitaris-i-socials</a>\n</p>", 
            "commentable_id": 2871, 
            "commentable_type": "Proposal", 
            "created_at": "16/04/2016 12:32:22", 
            "flagged": false, 
            "hidden": false, 
            "id": 18109, 
            "moderator_id": null, 
            "permissions": {
                "hide": false, 
                "hide_author": false, 
                "vote": false
            }, 
            "total_dislikes": 0, 
            "total_likes": 0, 
            "total_votes": 0
        }, 
        {
            "administrator_id": null, 
            "alignment": 0, 
            "ancestry": null, 
            "as": null, 
            "author": {
                "avatar_image": "https://decidim.barcelona/assets/avatar-866795c99abc33a3160d1f3fa93ada46eb75e54134e777666b9ed16215b26534.png", 
                "erased": false, 
                "hidden": false, 
                "id": 17741, 
                "name": "Suport General3 - Decidim Barcelona", 
                "official": false, 
                "official_level": 0, 
                "role": null, 
                "verified_organization": null
            }, 
            "body": "<p><a href=\"https://decidim.barcelona/proposals/la-sanitat-a-barcelona-adaptar-els-recursos-en-funcio-de-les-necessitats-ciutadanes\">https://decidim.barcelona/proposals/la-sanitat-a-barcelona-adaptar-els-recursos-en-funcio-de-les-necessitats-ciutadanes</a></p>", 
            "commentable_id": 2871, 
            "commentable_type": "Proposal", 
            "created_at": "16/04/2016 12:32:41", 
            "flagged": false, 
            "hidden": false, 
            "id": 18111, 
            "moderator_id": null, 
            "permissions": {
                "hide": false, 
                "hide_author": false, 
                "vote": false
            }, 
            "total_dislikes": 0, 
            "total_likes": 0, 
            "total_votes": 0
        }
    ], 
    "meta": {
        "current_page": 2, 
        "next_page": 3, 
        "prev_page": 1, 
        "total_count": 63, 
        "total_pages": 4
    }
}