{
    "comments": [
        {
            "administrator_id": null, 
            "alignment": 0, 
            "ancestry": null, 
            "as": null, 
            "author": {
                "avatar_image": "https://decidim.barcelona/assets/avatar-866795c99abc33a3160d1f3fa93ada46eb75e54134e777666b9ed16215b26534.png", 
                "erased": false, 
                "hidden": false, 
                "id": 4771, 
                "name": "Felix Ortega", 
                "official": false, 
                "official_level": 0, 
                "role": null, 
                "verified_organization": null
            }, 
            "body": "<p>On representa que es pot trobar aquest Pla de Cultures? </p>", 
            "commentable_id": 2889, 
            "commentable_type": "Proposal", 
            "created_at": "23/02/2016 16:41:51", 
            "flagged": false, 
            "hidden": false, 
            "id": 2477, 
            "moderator_id": null, 
            "permissions": {
                "hide": false, 
                "hide_author": false, 
                "vote": false
            }, 
            "total_dislikes": 0, 
            "total_likes": 0, 
            "total_votes": 0
        }, 
        {
            "administrator_id": null, 
            "alignment": 0, 
            "ancestry": null, 
            "as": null, 
            "author": {
                "avatar_image": "https://decidim.barcelona/assets/avatar-866795c99abc33a3160d1f3fa93ada46eb75e54134e777666b9ed16215b26534.png", 
                "erased": false, 
                "hidden": false, 
                "id": 17740, 
                "name": "Suport General2 - Decidim Barcelona", 
                "official": false, 
                "official_level": 0, 
                "role": null, 
                "verified_organization": null
            }, 
            "body": "<p><a href=\"https://decidim.barcelona/proposals/crear-festivales-culturales-musica-teatro-etc-publicos-a-precio-razonable\">https://decidim.barcelona/proposals/crear-festivales-culturales-musica-teatro-etc-publicos-a-precio-razonable</a></p>", 
            "commentable_id": 2889, 
            "commentable_type": "Proposal", 
            "created_at": "08/04/2016 11:54:01", 
            "flagged": false, 
            "hidden": false, 
            "id": 10556, 
            "moderator_id": null, 
            "permissions": {
                "hide": false, 
                "hide_author": false, 
                "vote": false
            }, 
            "total_dislikes": 0, 
            "total_likes": 0, 
            "total_votes": 0
        }, 
        {
            "administrator_id": null, 
            "alignment": 0, 
            "ancestry": null, 
            "as": null, 
            "author": {
                "avatar_image": "https://decidim.barcelona/assets/avatar-866795c99abc33a3160d1f3fa93ada46eb75e54134e777666b9ed16215b26534.png", 
                "erased": false, 
                "hidden": false, 
                "id": 17740, 
                "name": "Suport General2 - Decidim Barcelona", 
                "official": false, 
                "official_level": 0, 
                "role": null, 
                "verified_organization": null
            }, 
            "body": "<p><a href=\"https://decidim.barcelona/proposals/fomentar-la-intervencion-de-espectaculos-artisticos-en-la-via-publica\">https://decidim.barcelona/proposals/fomentar-la-intervencion-de-espectaculos-artisticos-en-la-via-publica</a></p>", 
            "commentable_id": 2889, 
            "commentable_type": "Proposal", 
            "created_at": "08/04/2016 11:59:53", 
            "flagged": false, 
            "hidden": false, 
            "id": 10568, 
            "moderator_id": null, 
            "permissions": {
                "hide": false, 
                "hide_author": false, 
                "vote": false
            }, 
            "total_dislikes": 0, 
            "total_likes": 0, 
            "total_votes": 0
        }, 
        {
            "administrator_id": null, 
            "alignment": 0, 
            "ancestry": null, 
            "as": null, 
            "author": {
                "avatar_image": "https://decidim.barcelona/assets/avatar-866795c99abc33a3160d1f3fa93ada46eb75e54134e777666b9ed16215b26534.png", 
                "erased": false, 
                "hidden": false, 
                "id": 17740, 
                "name": "Suport General2 - Decidim Barcelona", 
                "official": false, 
                "official_level": 0, 
                "role": null, 
                "verified_organization": null
            }, 
            "body": "<p><a href=\"https://decidim.barcelona/proposals/creacion-de-un-festival-de-arts-al-carrer-oficial-de-barcelona\">https://decidim.barcelona/proposals/creacion-de-un-festival-de-arts-al-carrer-oficial-de-barcelona</a></p>", 
            "commentable_id": 2889, 
            "commentable_type": "Proposal", 
            "created_at": "08/04/2016 12:04:02", 
            "flagged": false, 
            "hidden": false, 
            "id": 10573, 
            "moderator_id": null, 
            "permissions": {
                "hide": false, 
                "hide_author": false, 
                "vote": false
            }, 
            "total_dislikes": 0, 
            "total_likes": 0, 
            "total_votes": 0
        }, 
        {
            "administrator_id": null, 
            "alignment": 0, 
            "ancestry": null, 
            "as": null, 
            "author": {
                "avatar_image": "https://decidim.barcelona/assets/avatar-866795c99abc33a3160d1f3fa93ada46eb75e54134e777666b9ed16215b26534.png", 
                "erased": false, 
                "hidden": false, 
                "id": 17740, 
                "name": "Suport General2 - Decidim Barcelona", 
                "official": false, 
                "official_level": 0, 
                "role": null, 
                "verified_organization": null
            }, 
            "body": "<p><a href=\"https://decidim.barcelona/proposals/museu-del-transport-public-a-barcelona\">https://decidim.barcelona/proposals/museu-del-transport-public-a-barcelona</a></p>", 
            "commentable_id": 2889, 
            "commentable_type": "Proposal", 
            "created_at": "08/04/2016 12:10:15", 
            "flagged": false, 
            "hidden": false, 
            "id": 10586, 
            "moderator_id": null, 
            "permissions": {
                "hide": false, 
                "hide_author": false, 
                "vote": false
            }, 
            "total_dislikes": 0, 
            "total_likes": 0, 
            "total_votes": 0
        }, 
        {
            "administrator_id": null, 
            "alignment": 0, 
            "ancestry": null, 
            "as": null, 
            "author": {
                "avatar_image": "https://decidim.barcelona/assets/avatar-866795c99abc33a3160d1f3fa93ada46eb75e54134e777666b9ed16215b26534.png", 
                "erased": false, 
                "hidden": false, 
                "id": 17740, 
                "name": "Suport General2 - Decidim Barcelona", 
                "official": false, 
                "official_level": 0, 
                "role": null, 
                "verified_organization": null
            }, 
            "body": "<p><a href=\"https://decidim.barcelona/proposals/repensar-els-limits-de-l-externalitzacio-de-serveis-publics\">https://decidim.barcelona/proposals/repensar-els-limits-de-l-externalitzacio-de-serveis-publics</a></p>", 
            "commentable_id": 2889, 
            "commentable_type": "Proposal", 
            "created_at": "08/04/2016 12:10:56", 
            "flagged": false, 
            "hidden": false, 
            "id": 10589, 
            "moderator_id": null, 
            "permissions": {
                "hide": false, 
                "hide_author": false, 
                "vote": false
            }, 
            "total_dislikes": 0, 
            "total_likes": 0, 
            "total_votes": 0
        }, 
        {
            "administrator_id": null, 
            "alignment": 0, 
            "ancestry": null, 
            "as": null, 
            "author": {
                "avatar_image": "https://decidim.barcelona/assets/avatar-866795c99abc33a3160d1f3fa93ada46eb75e54134e777666b9ed16215b26534.png", 
                "erased": false, 
                "hidden": false, 
                "id": 17740, 
                "name": "Suport General2 - Decidim Barcelona", 
                "official": false, 
                "official_level": 0, 
                "role": null, 
                "verified_organization": null
            }, 
            "body": "<p><a href=\"https://decidim.barcelona/proposals/generar-un-programa-d-innovacio-estable-entre-centres-d-ensenyament-i-centres-culturals-de-proximitat\">https://decidim.barcelona/proposals/generar-un-programa-d-innovacio-estable-entre-centres-d-ensenyament-i-centres-culturals-de-proximitat</a></p>", 
            "commentable_id": 2889, 
            "commentable_type": "Proposal", 
            "created_at": "08/04/2016 12:12:34", 
            "flagged": false, 
            "hidden": false, 
            "id": 10591, 
            "moderator_id": null, 
            "permissions": {
                "hide": false, 
                "hide_author": false, 
                "vote": false
            }, 
            "total_dislikes": 0, 
            "total_likes": 0, 
            "total_votes": 0
        }, 
        {
            "administrator_id": null, 
            "alignment": 0, 
            "ancestry": null, 
            "as": null, 
            "author": {
                "avatar_image": "https://decidim.barcelona/assets/avatar-866795c99abc33a3160d1f3fa93ada46eb75e54134e777666b9ed16215b26534.png", 
                "erased": false, 
                "hidden": false, 
                "id": 17740, 
                "name": "Suport General2 - Decidim Barcelona", 
                "official": false, 
                "official_level": 0, 
                "role": null, 
                "verified_organization": null
            }, 
            "body": "<p><a href=\"https://decidim.barcelona/proposals/incorporar-el-ciutada-en-la-creacio-de-les-col-leccions\">https://decidim.barcelona/proposals/incorporar-el-ciutada-en-la-creacio-de-les-col-leccions</a></p>", 
            "commentable_id": 2889, 
            "commentable_type": "Proposal", 
            "created_at": "08/04/2016 12:15:45", 
            "flagged": false, 
            "hidden": false, 
            "id": 10597, 
            "moderator_id": null, 
            "permissions": {
                "hide": false, 
                "hide_author": false, 
                "vote": false
            }, 
            "total_dislikes": 0, 
            "total_likes": 0, 
            "total_votes": 0
        }, 
        {
            "administrator_id": null, 
            "alignment": 0, 
            "ancestry": null, 
            "as": null, 
            "author": {
                "avatar_image": "https://decidim.barcelona/assets/avatar-866795c99abc33a3160d1f3fa93ada46eb75e54134e777666b9ed16215b26534.png", 
                "erased": false, 
                "hidden": false, 
                "id": 17740, 
                "name": "Suport General2 - Decidim Barcelona", 
                "official": false, 
                "official_level": 0, 
                "role": null, 
                "verified_organization": null
            }, 
            "body": "<p><a href=\"https://decidim.barcelona/proposals/creacio-d-un-entorn-virtual-de-recursos-compartits\">https://decidim.barcelona/proposals/creacio-d-un-entorn-virtual-de-recursos-compartits</a></p>", 
            "commentable_id": 2889, 
            "commentable_type": "Proposal", 
            "created_at": "08/04/2016 12:17:36", 
            "flagged": false, 
            "hidden": false, 
            "id": 10608, 
            "moderator_id": null, 
            "permissions": {
                "hide": false, 
                "hide_author": false, 
                "vote": false
            }, 
            "total_dislikes": 0, 
            "total_likes": 0, 
            "total_votes": 0
        }, 
        {
            "administrator_id": null, 
            "alignment": 0, 
            "ancestry": null, 
            "as": null, 
            "author": {
                "avatar_image": "https://decidim.barcelona/assets/avatar-866795c99abc33a3160d1f3fa93ada46eb75e54134e777666b9ed16215b26534.png", 
                "erased": false, 
                "hidden": false, 
                "id": 17740, 
                "name": "Suport General2 - Decidim Barcelona", 
                "official": false, 
                "official_level": 0, 
                "role": null, 
                "verified_organization": null
            }, 
            "body": "<p><a href=\"https://decidim.barcelona/proposals/permeabilitzar-les-institucions\">https://decidim.barcelona/proposals/permeabilitzar-les-institucions</a></p>", 
            "commentable_id": 2889, 
            "commentable_type": "Proposal", 
            "created_at": "08/04/2016 12:20:30", 
            "flagged": false, 
            "hidden": false, 
            "id": 10619, 
            "moderator_id": null, 
            "permissions": {
                "hide": false, 
                "hide_author": false, 
                "vote": false
            }, 
            "total_dislikes": 0, 
            "total_likes": 0, 
            "total_votes": 0
        }, 
        {
            "administrator_id": null, 
            "alignment": 0, 
            "ancestry": null, 
            "as": null, 
            "author": {
                "avatar_image": "https://decidim.barcelona/assets/avatar-866795c99abc33a3160d1f3fa93ada46eb75e54134e777666b9ed16215b26534.png", 
                "erased": false, 
                "hidden": false, 
                "id": 17740, 
                "name": "Suport General2 - Decidim Barcelona", 
                "official": false, 
                "official_level": 0, 
                "role": null, 
                "verified_organization": null
            }, 
            "body": "<p><a href=\"https://decidim.barcelona/proposals/ens-conve-una-politica-real-a-favor-de-la-cultura-popular-i-l-associacionisme-cultural-a-la-ciutat-de-barcelona-10\">https://decidim.barcelona/proposals/ens-conve-una-politica-real-a-favor-de-la-cultura-popular-i-l-associacionisme-cultural-a-la-ciutat-de-barcelona-10</a></p>", 
            "commentable_id": 2889, 
            "commentable_type": "Proposal", 
            "created_at": "08/04/2016 12:28:00", 
            "flagged": false, 
            "hidden": false, 
            "id": 10640, 
            "moderator_id": null, 
            "permissions": {
                "hide": false, 
                "hide_author": false, 
                "vote": false
            }, 
            "total_dislikes": 0, 
            "total_likes": 0, 
            "total_votes": 0
        }, 
        {
            "administrator_id": null, 
            "alignment": 0, 
            "ancestry": null, 
            "as": null, 
            "author": {
                "avatar_image": "https://decidim.barcelona/assets/avatar-866795c99abc33a3160d1f3fa93ada46eb75e54134e777666b9ed16215b26534.png", 
                "erased": false, 
                "hidden": false, 
                "id": 17740, 
                "name": "Suport General2 - Decidim Barcelona", 
                "official": false, 
                "official_level": 0, 
                "role": null, 
                "verified_organization": null
            }, 
            "body": "<p><a href=\"https://decidim.barcelona/proposals/desenvolupar-noves-formules-de-cooperacio-public-privat\">https://decidim.barcelona/proposals/desenvolupar-noves-formules-de-cooperacio-public-privat</a></p>", 
            "commentable_id": 2889, 
            "commentable_type": "Proposal", 
            "created_at": "08/04/2016 12:32:13", 
            "flagged": false, 
            "hidden": false, 
            "id": 10653, 
            "moderator_id": null, 
            "permissions": {
                "hide": false, 
                "hide_author": false, 
                "vote": false
            }, 
            "total_dislikes": 0, 
            "total_likes": 0, 
            "total_votes": 0
        }, 
        {
            "administrator_id": null, 
            "alignment": 0, 
            "ancestry": null, 
            "as": null, 
            "author": {
                "avatar_image": "https://decidim.barcelona/assets/avatar-866795c99abc33a3160d1f3fa93ada46eb75e54134e777666b9ed16215b26534.png", 
                "erased": false, 
                "hidden": false, 
                "id": 17740, 
                "name": "Suport General2 - Decidim Barcelona", 
                "official": false, 
                "official_level": 0, 
                "role": null, 
                "verified_organization": null
            }, 
            "body": "<p><a href=\"https://decidim.barcelona/proposals/actes-multiculturals-als-barris\">https://decidim.barcelona/proposals/actes-multiculturals-als-barris</a></p>", 
            "commentable_id": 2889, 
            "commentable_type": "Proposal", 
            "created_at": "08/04/2016 12:36:06", 
            "flagged": false, 
            "hidden": false, 
            "id": 10664, 
            "moderator_id": null, 
            "permissions": {
                "hide": false, 
                "hide_author": false, 
                "vote": false
            }, 
            "total_dislikes": 0, 
            "total_likes": 0, 
            "total_votes": 0
        }, 
        {
            "administrator_id": null, 
            "alignment": 0, 
            "ancestry": null, 
            "as": null, 
            "author": {
                "avatar_image": "https://decidim.barcelona/assets/avatar-866795c99abc33a3160d1f3fa93ada46eb75e54134e777666b9ed16215b26534.png", 
                "erased": false, 
                "hidden": false, 
                "id": 17740, 
                "name": "Suport General2 - Decidim Barcelona", 
                "official": false, 
                "official_level": 0, 
                "role": null, 
                "verified_organization": null
            }, 
            "body": "<p><a href=\"https://decidim.barcelona/proposals/dotar-de-mes-autonomia-de-gestio-els-centres\">https://decidim.barcelona/proposals/dotar-de-mes-autonomia-de-gestio-els-centres</a></p>", 
            "commentable_id": 2889, 
            "commentable_type": "Proposal", 
            "created_at": "08/04/2016 12:37:29", 
            "flagged": false, 
            "hidden": false, 
            "id": 10668, 
            "moderator_id": null, 
            "permissions": {
                "hide": false, 
                "hide_author": false, 
                "vote": false
            }, 
            "total_dislikes": 0, 
            "total_likes": 0, 
            "total_votes": 0
        }, 
        {
            "administrator_id": null, 
            "alignment": 0, 
            "ancestry": null, 
            "as": null, 
            "author": {
                "avatar_image": "https://decidim.barcelona/assets/avatar-866795c99abc33a3160d1f3fa93ada46eb75e54134e777666b9ed16215b26534.png", 
                "erased": false, 
                "hidden": false, 
                "id": 17740, 
                "name": "Suport General2 - Decidim Barcelona", 
                "official": false, 
                "official_level": 0, 
                "role": null, 
                "verified_organization": null
            }, 
            "body": "<p><a href=\"https://decidim.barcelona/proposals/major-participacio-dels-centres-en-els-organs-generals-de-decisio-de-l-icub\">https://decidim.barcelona/proposals/major-participacio-dels-centres-en-els-organs-generals-de-decisio-de-l-icub</a></p>", 
            "commentable_id": 2889, 
            "commentable_type": "Proposal", 
            "created_at": "08/04/2016 12:42:15", 
            "flagged": false, 
            "hidden": false, 
            "id": 10672, 
            "moderator_id": null, 
            "permissions": {
                "hide": false, 
                "hide_author": false, 
                "vote": false
            }, 
            "total_dislikes": 0, 
            "total_likes": 0, 
            "total_votes": 0
        }, 
        {
            "administrator_id": null, 
            "alignment": 0, 
            "ancestry": null, 
            "as": null, 
            "author": {
                "avatar_image": "https://decidim.barcelona/assets/avatar-866795c99abc33a3160d1f3fa93ada46eb75e54134e777666b9ed16215b26534.png", 
                "erased": false, 
                "hidden": false, 
                "id": 17740, 
                "name": "Suport General2 - Decidim Barcelona", 
                "official": false, 
                "official_level": 0, 
                "role": null, 
                "verified_organization": null
            }, 
            "body": "<p><a href=\"https://decidim.barcelona/proposals/coordinacio-de-la-cultura-de-la-ciutat\">https://decidim.barcelona/proposals/coordinacio-de-la-cultura-de-la-ciutat</a></p>", 
            "commentable_id": 2889, 
            "commentable_type": "Proposal", 
            "created_at": "08/04/2016 12:55:02", 
            "flagged": false, 
            "hidden": false, 
            "id": 10690, 
            "moderator_id": null, 
            "permissions": {
                "hide": false, 
                "hide_author": false, 
                "vote": false
            }, 
            "total_dislikes": 0, 
            "total_likes": 0, 
            "total_votes": 0
        }, 
        {
            "administrator_id": null, 
            "alignment": 0, 
            "ancestry": null, 
            "as": null, 
            "author": {
                "avatar_image": "https://decidim.barcelona/assets/avatar-866795c99abc33a3160d1f3fa93ada46eb75e54134e777666b9ed16215b26534.png", 
                "erased": false, 
                "hidden": false, 
                "id": 17740, 
                "name": "Suport General2 - Decidim Barcelona", 
                "official": false, 
                "official_level": 0, 
                "role": null, 
                "verified_organization": null
            }, 
            "body": "<p><a href=\"https://decidim.barcelona/proposals/afavorir-la-participacio-dels-tecnics-de-les-institucions\">https://decidim.barcelona/proposals/afavorir-la-participacio-dels-tecnics-de-les-institucions</a></p>", 
            "commentable_id": 2889, 
            "commentable_type": "Proposal", 
            "created_at": "08/04/2016 12:55:41", 
            "flagged": false, 
            "hidden": false, 
            "id": 10691, 
            "moderator_id": null, 
            "permissions": {
                "hide": false, 
                "hide_author": false, 
                "vote": false
            }, 
            "total_dislikes": 0, 
            "total_likes": 0, 
            "total_votes": 0
        }, 
        {
            "administrator_id": null, 
            "alignment": 0, 
            "ancestry": null, 
            "as": null, 
            "author": {
                "avatar_image": "https://decidim.barcelona/assets/avatar-866795c99abc33a3160d1f3fa93ada46eb75e54134e777666b9ed16215b26534.png", 
                "erased": false, 
                "hidden": false, 
                "id": 17740, 
                "name": "Suport General2 - Decidim Barcelona", 
                "official": false, 
                "official_level": 0, 
                "role": null, 
                "verified_organization": null
            }, 
            "body": "<p><a href=\"https://decidim.barcelona/proposals/creacio-d-un-departament-o-responsable-de-sostenibilitat\">https://decidim.barcelona/proposals/creacio-d-un-departament-o-responsable-de-sostenibilitat</a></p>", 
            "commentable_id": 2889, 
            "commentable_type": "Proposal", 
            "created_at": "08/04/2016 12:56:30", 
            "flagged": false, 
            "hidden": false, 
            "id": 10694, 
            "moderator_id": null, 
            "permissions": {
                "hide": false, 
                "hide_author": false, 
                "vote": false
            }, 
            "total_dislikes": 0, 
            "total_likes": 0, 
            "total_votes": 0
        }, 
        {
            "administrator_id": null, 
            "alignment": 0, 
            "ancestry": null, 
            "as": null, 
            "author": {
                "avatar_image": "https://decidim.barcelona/assets/avatar-866795c99abc33a3160d1f3fa93ada46eb75e54134e777666b9ed16215b26534.png", 
                "erased": false, 
                "hidden": false, 
                "id": 17740, 
                "name": "Suport General2 - Decidim Barcelona", 
                "official": false, 
                "official_level": 0, 
                "role": null, 
                "verified_organization": null
            }, 
            "body": "<p><a href=\"https://decidim.barcelona/proposals/potenciar-el-gran-actiu-de-coneixement-de-les-institucions-culturals\">https://decidim.barcelona/proposals/potenciar-el-gran-actiu-de-coneixement-de-les-institucions-culturals</a></p>", 
            "commentable_id": 2889, 
            "commentable_type": "Proposal", 
            "created_at": "08/04/2016 12:57:00", 
            "flagged": false, 
            "hidden": false, 
            "id": 10696, 
            "moderator_id": null, 
            "permissions": {
                "hide": false, 
                "hide_author": false, 
                "vote": false
            }, 
            "total_dislikes": 0, 
            "total_likes": 0, 
            "total_votes": 0
        }, 
        {
            "administrator_id": null, 
            "alignment": 0, 
            "ancestry": null, 
            "as": null, 
            "author": {
                "avatar_image": "https://decidim.barcelona/assets/avatar-866795c99abc33a3160d1f3fa93ada46eb75e54134e777666b9ed16215b26534.png", 
                "erased": false, 
                "hidden": false, 
                "id": 17740, 
                "name": "Suport General2 - Decidim Barcelona", 
                "official": false, 
                "official_level": 0, 
                "role": null, 
                "verified_organization": null
            }, 
            "body": "<p><a href=\"https://decidim.barcelona/proposals/creacio-d-un-magatzem-de-recursos-compartits\">https://decidim.barcelona/proposals/creacio-d-un-magatzem-de-recursos-compartits</a></p>", 
            "commentable_id": 2889, 
            "commentable_type": "Proposal", 
            "created_at": "08/04/2016 12:57:33", 
            "flagged": false, 
            "hidden": false, 
            "id": 10697, 
            "moderator_id": null, 
            "permissions": {
                "hide": false, 
                "hide_author": false, 
                "vote": false
            }, 
            "total_dislikes": 0, 
            "total_likes": 0, 
            "total_votes": 0
        }, 
        {
            "administrator_id": null, 
            "alignment": null, 
            "ancestry": "2477", 
            "as": null, 
            "author": {
                "avatar_image": "https://decidim.barcelona/assets/avatar-866795c99abc33a3160d1f3fa93ada46eb75e54134e777666b9ed16215b26534.png", 
                "erased": false, 
                "hidden": false, 
                "id": 4771, 
                "name": "Felix Ortega", 
                "official": false, 
                "official_level": 0, 
                "role": null, 
                "verified_organization": null
            }, 
            "body": "<p>Alg\u00fan moderador o informador per aqu\u00ed? Gr\u00e0cies</p>", 
            "commentable_id": 2889, 
            "commentable_type": "Proposal", 
            "created_at": "23/03/2016 13:23:08", 
            "flagged": false, 
            "hidden": false, 
            "id": 6388, 
            "moderator_id": null, 
            "permissions": {
                "hide": false, 
                "hide_author": false, 
                "vote": false
            }, 
            "total_dislikes": 0, 
            "total_likes": 0, 
            "total_votes": 0
        }
    ], 
    "meta": {
        "current_page": 1, 
        "next_page": 2, 
        "prev_page": null, 
        "total_count": 52, 
        "total_pages": 3
    }
}