{
    "comments": [
        {
            "administrator_id": null, 
            "alignment": 0, 
            "ancestry": null, 
            "as": null, 
            "author": {
                "avatar_image": "https://decidim.barcelona/assets/avatar-866795c99abc33a3160d1f3fa93ada46eb75e54134e777666b9ed16215b26534.png", 
                "erased": false, 
                "hidden": false, 
                "id": 17740, 
                "name": "Suport General2 - Decidim Barcelona", 
                "official": false, 
                "official_level": 0, 
                "role": null, 
                "verified_organization": null
            }, 
            "body": "<p><a href=\"https://decidim.barcelona/proposals/creacio-del-museu-de-la-gub-i-dels-bombers\">https://decidim.barcelona/proposals/creacio-del-museu-de-la-gub-i-dels-bombers</a></p>", 
            "commentable_id": 2889, 
            "commentable_type": "Proposal", 
            "created_at": "08/04/2016 12:57:59", 
            "flagged": false, 
            "hidden": false, 
            "id": 10698, 
            "moderator_id": null, 
            "permissions": {
                "hide": false, 
                "hide_author": false, 
                "vote": false
            }, 
            "total_dislikes": 0, 
            "total_likes": 0, 
            "total_votes": 0
        }, 
        {
            "administrator_id": null, 
            "alignment": 0, 
            "ancestry": null, 
            "as": null, 
            "author": {
                "avatar_image": "https://decidim.barcelona/assets/avatar-866795c99abc33a3160d1f3fa93ada46eb75e54134e777666b9ed16215b26534.png", 
                "erased": false, 
                "hidden": false, 
                "id": 17740, 
                "name": "Suport General2 - Decidim Barcelona", 
                "official": false, 
                "official_level": 0, 
                "role": null, 
                "verified_organization": null
            }, 
            "body": "<p><a href=\"https://decidim.barcelona/proposals/promoure-noves-formes-d-emprenedoria\">https://decidim.barcelona/proposals/promoure-noves-formes-d-emprenedoria</a></p>", 
            "commentable_id": 2889, 
            "commentable_type": "Proposal", 
            "created_at": "08/04/2016 12:59:48", 
            "flagged": false, 
            "hidden": false, 
            "id": 10700, 
            "moderator_id": null, 
            "permissions": {
                "hide": false, 
                "hide_author": false, 
                "vote": false
            }, 
            "total_dislikes": 0, 
            "total_likes": 0, 
            "total_votes": 0
        }, 
        {
            "administrator_id": null, 
            "alignment": 0, 
            "ancestry": null, 
            "as": null, 
            "author": {
                "avatar_image": "https://decidim.barcelona/assets/avatar-866795c99abc33a3160d1f3fa93ada46eb75e54134e777666b9ed16215b26534.png", 
                "erased": false, 
                "hidden": false, 
                "id": 17740, 
                "name": "Suport General2 - Decidim Barcelona", 
                "official": false, 
                "official_level": 0, 
                "role": null, 
                "verified_organization": null
            }, 
            "body": "<p><a href=\"https://decidim.barcelona/proposals/seleccio-de-la-direccio-de-cada-d-institucio-per-criteris-professionals-sotmesos-tambe-al-consell-social-i-democratic\">https://decidim.barcelona/proposals/seleccio-de-la-direccio-de-cada-d-institucio-per-criteris-professionals-sotmesos-tambe-al-consell-social-i-democratic</a></p>", 
            "commentable_id": 2889, 
            "commentable_type": "Proposal", 
            "created_at": "08/04/2016 13:03:59", 
            "flagged": false, 
            "hidden": false, 
            "id": 10707, 
            "moderator_id": null, 
            "permissions": {
                "hide": false, 
                "hide_author": false, 
                "vote": false
            }, 
            "total_dislikes": 0, 
            "total_likes": 0, 
            "total_votes": 0
        }, 
        {
            "administrator_id": null, 
            "alignment": 0, 
            "ancestry": null, 
            "as": null, 
            "author": {
                "avatar_image": "https://decidim.barcelona/assets/avatar-866795c99abc33a3160d1f3fa93ada46eb75e54134e777666b9ed16215b26534.png", 
                "erased": false, 
                "hidden": false, 
                "id": 17740, 
                "name": "Suport General2 - Decidim Barcelona", 
                "official": false, 
                "official_level": 0, 
                "role": null, 
                "verified_organization": null
            }, 
            "body": "<p><a href=\"https://decidim.barcelona/proposals/ens-conve-una-politica-real-a-favor-de-la-cultura-popular-i-l-associacionisme-cultural-a-la-ciutat-de-barcelona-8\">https://decidim.barcelona/proposals/ens-conve-una-politica-real-a-favor-de-la-cultura-popular-i-l-associacionisme-cultural-a-la-ciutat-de-barcelona-8</a></p>", 
            "commentable_id": 2889, 
            "commentable_type": "Proposal", 
            "created_at": "08/04/2016 13:09:25", 
            "flagged": false, 
            "hidden": false, 
            "id": 10715, 
            "moderator_id": null, 
            "permissions": {
                "hide": false, 
                "hide_author": false, 
                "vote": false
            }, 
            "total_dislikes": 0, 
            "total_likes": 0, 
            "total_votes": 0
        }, 
        {
            "administrator_id": null, 
            "alignment": 0, 
            "ancestry": null, 
            "as": null, 
            "author": {
                "avatar_image": "https://decidim.barcelona/assets/avatar-866795c99abc33a3160d1f3fa93ada46eb75e54134e777666b9ed16215b26534.png", 
                "erased": false, 
                "hidden": false, 
                "id": 17740, 
                "name": "Suport General2 - Decidim Barcelona", 
                "official": false, 
                "official_level": 0, 
                "role": null, 
                "verified_organization": null
            }, 
            "body": "<p><a href=\"https://decidim.barcelona/proposals/establir-una-relacio-amb-la-administracio-que-es-basi-en-la-escolta-i-la-empatia-amb-una-interlocucio-mes-transversal\">https://decidim.barcelona/proposals/establir-una-relacio-amb-la-administracio-que-es-basi-en-la-escolta-i-la-empatia-amb-una-interlocucio-mes-transversal</a></p>", 
            "commentable_id": 2889, 
            "commentable_type": "Proposal", 
            "created_at": "08/04/2016 13:16:01", 
            "flagged": false, 
            "hidden": false, 
            "id": 10733, 
            "moderator_id": null, 
            "permissions": {
                "hide": false, 
                "hide_author": false, 
                "vote": false
            }, 
            "total_dislikes": 0, 
            "total_likes": 0, 
            "total_votes": 0
        }, 
        {
            "administrator_id": null, 
            "alignment": 0, 
            "ancestry": null, 
            "as": null, 
            "author": {
                "avatar_image": "https://decidim.barcelona/assets/avatar-866795c99abc33a3160d1f3fa93ada46eb75e54134e777666b9ed16215b26534.png", 
                "erased": false, 
                "hidden": false, 
                "id": 17740, 
                "name": "Suport General2 - Decidim Barcelona", 
                "official": false, 
                "official_level": 0, 
                "role": null, 
                "verified_organization": null
            }, 
            "body": "<p><a href=\"https://decidim.barcelona/proposals/ens-conve-una-politica-real-a-favor-de-la-cultura-popular-i-l-associacionisme-cultural-a-la-ciutat-de-barcelona-4\">https://decidim.barcelona/proposals/ens-conve-una-politica-real-a-favor-de-la-cultura-popular-i-l-associacionisme-cultural-a-la-ciutat-de-barcelona-4</a></p>", 
            "commentable_id": 2889, 
            "commentable_type": "Proposal", 
            "created_at": "08/04/2016 13:18:44", 
            "flagged": false, 
            "hidden": false, 
            "id": 10740, 
            "moderator_id": null, 
            "permissions": {
                "hide": false, 
                "hide_author": false, 
                "vote": false
            }, 
            "total_dislikes": 0, 
            "total_likes": 0, 
            "total_votes": 0
        }, 
        {
            "administrator_id": null, 
            "alignment": 0, 
            "ancestry": null, 
            "as": null, 
            "author": {
                "avatar_image": "https://decidim.barcelona/assets/avatar-866795c99abc33a3160d1f3fa93ada46eb75e54134e777666b9ed16215b26534.png", 
                "erased": false, 
                "hidden": false, 
                "id": 17740, 
                "name": "Suport General2 - Decidim Barcelona", 
                "official": false, 
                "official_level": 0, 
                "role": null, 
                "verified_organization": null
            }, 
            "body": "<p><a href=\"https://decidim.barcelona/proposals/taules-de-treball-i-disseny-de-programes-conjunts\">https://decidim.barcelona/proposals/taules-de-treball-i-disseny-de-programes-conjunts</a></p>", 
            "commentable_id": 2889, 
            "commentable_type": "Proposal", 
            "created_at": "08/04/2016 13:34:34", 
            "flagged": false, 
            "hidden": false, 
            "id": 10797, 
            "moderator_id": null, 
            "permissions": {
                "hide": false, 
                "hide_author": false, 
                "vote": false
            }, 
            "total_dislikes": 0, 
            "total_likes": 0, 
            "total_votes": 0
        }, 
        {
            "administrator_id": null, 
            "alignment": 0, 
            "ancestry": null, 
            "as": null, 
            "author": {
                "avatar_image": "https://decidim.barcelona/assets/avatar-866795c99abc33a3160d1f3fa93ada46eb75e54134e777666b9ed16215b26534.png", 
                "erased": false, 
                "hidden": false, 
                "id": 17740, 
                "name": "Suport General2 - Decidim Barcelona", 
                "official": false, 
                "official_level": 0, 
                "role": null, 
                "verified_organization": null
            }, 
            "body": "<p><a href=\"https://decidim.barcelona/proposals/ens-conve-una-politica-real-a-favor-de-la-cultura-popular-i-l-associacionisme-cultural-a-la-ciutat-de-barcelona-7\">https://decidim.barcelona/proposals/ens-conve-una-politica-real-a-favor-de-la-cultura-popular-i-l-associacionisme-cultural-a-la-ciutat-de-barcelona-7</a></p>", 
            "commentable_id": 2889, 
            "commentable_type": "Proposal", 
            "created_at": "08/04/2016 13:35:19", 
            "flagged": false, 
            "hidden": false, 
            "id": 10800, 
            "moderator_id": null, 
            "permissions": {
                "hide": false, 
                "hide_author": false, 
                "vote": false
            }, 
            "total_dislikes": 0, 
            "total_likes": 0, 
            "total_votes": 0
        }, 
        {
            "administrator_id": null, 
            "alignment": 0, 
            "ancestry": null, 
            "as": null, 
            "author": {
                "avatar_image": "https://decidim.barcelona/assets/avatar-866795c99abc33a3160d1f3fa93ada46eb75e54134e777666b9ed16215b26534.png", 
                "erased": false, 
                "hidden": false, 
                "id": 17740, 
                "name": "Suport General2 - Decidim Barcelona", 
                "official": false, 
                "official_level": 0, 
                "role": null, 
                "verified_organization": null
            }, 
            "body": "<p><a href=\"https://decidim.barcelona/proposals/difondre-la-feia-educativa-en-cultura-i-dels-equipaments-culturals\">https://decidim.barcelona/proposals/difondre-la-feia-educativa-en-cultura-i-dels-equipaments-culturals</a></p>", 
            "commentable_id": 2889, 
            "commentable_type": "Proposal", 
            "created_at": "08/04/2016 13:41:00", 
            "flagged": false, 
            "hidden": false, 
            "id": 10822, 
            "moderator_id": null, 
            "permissions": {
                "hide": false, 
                "hide_author": false, 
                "vote": false
            }, 
            "total_dislikes": 0, 
            "total_likes": 0, 
            "total_votes": 0
        }, 
        {
            "administrator_id": null, 
            "alignment": 0, 
            "ancestry": null, 
            "as": null, 
            "author": {
                "avatar_image": "https://decidim.barcelona/assets/avatar-866795c99abc33a3160d1f3fa93ada46eb75e54134e777666b9ed16215b26534.png", 
                "erased": false, 
                "hidden": false, 
                "id": 17740, 
                "name": "Suport General2 - Decidim Barcelona", 
                "official": false, 
                "official_level": 0, 
                "role": null, 
                "verified_organization": null
            }, 
            "body": "<p><a href=\"https://decidim.barcelona/proposals/ens-conve-una-politica-real-a-favor-de-la-cultura-popular-i-l-associacionisme-cultural-a-la-ciutat-de-barcelona-3\">https://decidim.barcelona/proposals/ens-conve-una-politica-real-a-favor-de-la-cultura-popular-i-l-associacionisme-cultural-a-la-ciutat-de-barcelona-3</a></p>", 
            "commentable_id": 2889, 
            "commentable_type": "Proposal", 
            "created_at": "08/04/2016 13:44:20", 
            "flagged": false, 
            "hidden": false, 
            "id": 10836, 
            "moderator_id": null, 
            "permissions": {
                "hide": false, 
                "hide_author": false, 
                "vote": false
            }, 
            "total_dislikes": 0, 
            "total_likes": 0, 
            "total_votes": 0
        }, 
        {
            "administrator_id": null, 
            "alignment": 0, 
            "ancestry": null, 
            "as": null, 
            "author": {
                "avatar_image": "https://decidim.barcelona/assets/avatar-866795c99abc33a3160d1f3fa93ada46eb75e54134e777666b9ed16215b26534.png", 
                "erased": false, 
                "hidden": false, 
                "id": 17740, 
                "name": "Suport General2 - Decidim Barcelona", 
                "official": false, 
                "official_level": 0, 
                "role": null, 
                "verified_organization": null
            }, 
            "body": "<p><a href=\"https://decidim.barcelona/proposals/ens-conve-una-politica-real-a-favor-de-la-cultura-popular-i-l-associacionisme-cultural-a-la-ciutat-de-barcelona-1\">https://decidim.barcelona/proposals/ens-conve-una-politica-real-a-favor-de-la-cultura-popular-i-l-associacionisme-cultural-a-la-ciutat-de-barcelona-1</a></p>", 
            "commentable_id": 2889, 
            "commentable_type": "Proposal", 
            "created_at": "08/04/2016 13:44:47", 
            "flagged": false, 
            "hidden": false, 
            "id": 10837, 
            "moderator_id": null, 
            "permissions": {
                "hide": false, 
                "hide_author": false, 
                "vote": false
            }, 
            "total_dislikes": 0, 
            "total_likes": 0, 
            "total_votes": 0
        }, 
        {
            "administrator_id": null, 
            "alignment": 0, 
            "ancestry": null, 
            "as": null, 
            "author": {
                "avatar_image": "https://decidim.barcelona/assets/avatar-866795c99abc33a3160d1f3fa93ada46eb75e54134e777666b9ed16215b26534.png", 
                "erased": false, 
                "hidden": false, 
                "id": 17740, 
                "name": "Suport General2 - Decidim Barcelona", 
                "official": false, 
                "official_level": 0, 
                "role": null, 
                "verified_organization": null
            }, 
            "body": "<p><a href=\"https://decidim.barcelona/proposals/ens-conve-una-politica-real-a-favor-de-la-cultura-popular-i-l-associacionisme-cultural-a-la-ciutat-de-barcelona-9\">https://decidim.barcelona/proposals/ens-conve-una-politica-real-a-favor-de-la-cultura-popular-i-l-associacionisme-cultural-a-la-ciutat-de-barcelona-9</a></p>", 
            "commentable_id": 2889, 
            "commentable_type": "Proposal", 
            "created_at": "08/04/2016 13:46:15", 
            "flagged": false, 
            "hidden": false, 
            "id": 10844, 
            "moderator_id": null, 
            "permissions": {
                "hide": false, 
                "hide_author": false, 
                "vote": false
            }, 
            "total_dislikes": 0, 
            "total_likes": 0, 
            "total_votes": 0
        }, 
        {
            "administrator_id": null, 
            "alignment": 0, 
            "ancestry": null, 
            "as": null, 
            "author": {
                "avatar_image": "https://decidim.barcelona/assets/avatar-866795c99abc33a3160d1f3fa93ada46eb75e54134e777666b9ed16215b26534.png", 
                "erased": false, 
                "hidden": false, 
                "id": 17740, 
                "name": "Suport General2 - Decidim Barcelona", 
                "official": false, 
                "official_level": 0, 
                "role": null, 
                "verified_organization": null
            }, 
            "body": "<p><a href=\"https://decidim.barcelona/proposals/ens-conve-una-politica-real-a-favor-de-la-cultura-popular-i-l-associacionisme-cultural-a-la-ciutat-de-barcelona-11\">https://decidim.barcelona/proposals/ens-conve-una-politica-real-a-favor-de-la-cultura-popular-i-l-associacionisme-cultural-a-la-ciutat-de-barcelona-11</a></p>", 
            "commentable_id": 2889, 
            "commentable_type": "Proposal", 
            "created_at": "08/04/2016 13:46:49", 
            "flagged": false, 
            "hidden": false, 
            "id": 10846, 
            "moderator_id": null, 
            "permissions": {
                "hide": false, 
                "hide_author": false, 
                "vote": false
            }, 
            "total_dislikes": 0, 
            "total_likes": 0, 
            "total_votes": 0
        }, 
        {
            "administrator_id": null, 
            "alignment": 0, 
            "ancestry": null, 
            "as": null, 
            "author": {
                "avatar_image": "https://decidim.barcelona/assets/avatar-866795c99abc33a3160d1f3fa93ada46eb75e54134e777666b9ed16215b26534.png", 
                "erased": false, 
                "hidden": false, 
                "id": 17740, 
                "name": "Suport General2 - Decidim Barcelona", 
                "official": false, 
                "official_level": 0, 
                "role": null, 
                "verified_organization": null
            }, 
            "body": "<p><a href=\"https://decidim.barcelona/proposals/elaboracio-d-un-codi-de-bones-practiques-intern\">https://decidim.barcelona/proposals/elaboracio-d-un-codi-de-bones-practiques-intern</a></p>", 
            "commentable_id": 2889, 
            "commentable_type": "Proposal", 
            "created_at": "08/04/2016 14:24:45", 
            "flagged": false, 
            "hidden": false, 
            "id": 10921, 
            "moderator_id": null, 
            "permissions": {
                "hide": false, 
                "hide_author": false, 
                "vote": false
            }, 
            "total_dislikes": 0, 
            "total_likes": 0, 
            "total_votes": 0
        }, 
        {
            "administrator_id": null, 
            "alignment": 0, 
            "ancestry": null, 
            "as": null, 
            "author": {
                "avatar_image": "https://decidim.barcelona/assets/avatar-866795c99abc33a3160d1f3fa93ada46eb75e54134e777666b9ed16215b26534.png", 
                "erased": false, 
                "hidden": false, 
                "id": 17740, 
                "name": "Suport General2 - Decidim Barcelona", 
                "official": false, 
                "official_level": 0, 
                "role": null, 
                "verified_organization": null
            }, 
            "body": "<p><a href=\"https://decidim.barcelona/proposals/revertir-les-jerarquies-en-la-presa-de-decisions\">https://decidim.barcelona/proposals/revertir-les-jerarquies-en-la-presa-de-decisions</a></p>", 
            "commentable_id": 2889, 
            "commentable_type": "Proposal", 
            "created_at": "08/04/2016 14:30:23", 
            "flagged": false, 
            "hidden": false, 
            "id": 10933, 
            "moderator_id": null, 
            "permissions": {
                "hide": false, 
                "hide_author": false, 
                "vote": false
            }, 
            "total_dislikes": 0, 
            "total_likes": 0, 
            "total_votes": 0
        }, 
        {
            "administrator_id": null, 
            "alignment": 0, 
            "ancestry": null, 
            "as": null, 
            "author": {
                "avatar_image": "https://decidim.barcelona/assets/avatar-866795c99abc33a3160d1f3fa93ada46eb75e54134e777666b9ed16215b26534.png", 
                "erased": false, 
                "hidden": false, 
                "id": 17740, 
                "name": "Suport General2 - Decidim Barcelona", 
                "official": false, 
                "official_level": 0, 
                "role": null, 
                "verified_organization": null
            }, 
            "body": "<p><a href=\"https://decidim.barcelona/proposals/museu-del-transport-public\">https://decidim.barcelona/proposals/museu-del-transport-public</a></p>", 
            "commentable_id": 2889, 
            "commentable_type": "Proposal", 
            "created_at": "08/04/2016 14:31:50", 
            "flagged": false, 
            "hidden": false, 
            "id": 10937, 
            "moderator_id": null, 
            "permissions": {
                "hide": false, 
                "hide_author": false, 
                "vote": false
            }, 
            "total_dislikes": 0, 
            "total_likes": 0, 
            "total_votes": 0
        }, 
        {
            "administrator_id": null, 
            "alignment": 0, 
            "ancestry": null, 
            "as": null, 
            "author": {
                "avatar_image": "https://decidim.barcelona/assets/avatar-866795c99abc33a3160d1f3fa93ada46eb75e54134e777666b9ed16215b26534.png", 
                "erased": false, 
                "hidden": false, 
                "id": 17740, 
                "name": "Suport General2 - Decidim Barcelona", 
                "official": false, 
                "official_level": 0, 
                "role": null, 
                "verified_organization": null
            }, 
            "body": "<p><a href=\"https://decidim.barcelona/proposals/promoure-mesures-per-garantir-les-condicions-laborals-dels-treballadors-de-les-empreses-que-contracta-l-administracio\">https://decidim.barcelona/proposals/promoure-mesures-per-garantir-les-condicions-laborals-dels-treballadors-de-les-empreses-que-contracta-l-administracio</a></p>", 
            "commentable_id": 2889, 
            "commentable_type": "Proposal", 
            "created_at": "08/04/2016 14:35:38", 
            "flagged": false, 
            "hidden": false, 
            "id": 10951, 
            "moderator_id": null, 
            "permissions": {
                "hide": false, 
                "hide_author": false, 
                "vote": false
            }, 
            "total_dislikes": 0, 
            "total_likes": 0, 
            "total_votes": 0
        }, 
        {
            "administrator_id": null, 
            "alignment": 0, 
            "ancestry": null, 
            "as": null, 
            "author": {
                "avatar_image": "https://decidim.barcelona/assets/avatar-866795c99abc33a3160d1f3fa93ada46eb75e54134e777666b9ed16215b26534.png", 
                "erased": false, 
                "hidden": false, 
                "id": 17740, 
                "name": "Suport General2 - Decidim Barcelona", 
                "official": false, 
                "official_level": 0, 
                "role": null, 
                "verified_organization": null
            }, 
            "body": "<p><a href=\"https://decidim.barcelona/proposals/pla-estrategic-de-com-a-minim-4-anys-de-durada-a-cada-institucio\">https://decidim.barcelona/proposals/pla-estrategic-de-com-a-minim-4-anys-de-durada-a-cada-institucio</a></p>", 
            "commentable_id": 2889, 
            "commentable_type": "Proposal", 
            "created_at": "08/04/2016 14:38:10", 
            "flagged": false, 
            "hidden": false, 
            "id": 10957, 
            "moderator_id": null, 
            "permissions": {
                "hide": false, 
                "hide_author": false, 
                "vote": false
            }, 
            "total_dislikes": 0, 
            "total_likes": 0, 
            "total_votes": 0
        }, 
        {
            "administrator_id": null, 
            "alignment": 0, 
            "ancestry": null, 
            "as": null, 
            "author": {
                "avatar_image": "https://decidim.barcelona/assets/avatar-866795c99abc33a3160d1f3fa93ada46eb75e54134e777666b9ed16215b26534.png", 
                "erased": false, 
                "hidden": false, 
                "id": 17740, 
                "name": "Suport General2 - Decidim Barcelona", 
                "official": false, 
                "official_level": 0, 
                "role": null, 
                "verified_organization": null
            }, 
            "body": "<p><a href=\"https://decidim.barcelona/proposals/contracte-programa-dels-tecnics-per-projectes-anuals\">https://decidim.barcelona/proposals/contracte-programa-dels-tecnics-per-projectes-anuals</a></p>", 
            "commentable_id": 2889, 
            "commentable_type": "Proposal", 
            "created_at": "08/04/2016 15:19:37", 
            "flagged": false, 
            "hidden": false, 
            "id": 10989, 
            "moderator_id": null, 
            "permissions": {
                "hide": false, 
                "hide_author": false, 
                "vote": false
            }, 
            "total_dislikes": 0, 
            "total_likes": 0, 
            "total_votes": 0
        }, 
        {
            "administrator_id": null, 
            "alignment": 0, 
            "ancestry": null, 
            "as": null, 
            "author": {
                "avatar_image": "https://decidim.barcelona/assets/avatar-866795c99abc33a3160d1f3fa93ada46eb75e54134e777666b9ed16215b26534.png", 
                "erased": false, 
                "hidden": false, 
                "id": 17740, 
                "name": "Suport General2 - Decidim Barcelona", 
                "official": false, 
                "official_level": 0, 
                "role": null, 
                "verified_organization": null
            }, 
            "body": "<p><a href=\"https://decidim.barcelona/proposals/contracte-programa-anual-entre-l-administracio-i-cada-institucio\">https://decidim.barcelona/proposals/contracte-programa-anual-entre-l-administracio-i-cada-institucio</a></p>", 
            "commentable_id": 2889, 
            "commentable_type": "Proposal", 
            "created_at": "08/04/2016 15:20:54", 
            "flagged": false, 
            "hidden": false, 
            "id": 10991, 
            "moderator_id": null, 
            "permissions": {
                "hide": false, 
                "hide_author": false, 
                "vote": false
            }, 
            "total_dislikes": 0, 
            "total_likes": 0, 
            "total_votes": 0
        }
    ], 
    "meta": {
        "current_page": 2, 
        "next_page": 3, 
        "prev_page": 1, 
        "total_count": 52, 
        "total_pages": 3
    }
}