{
    "comments": [
        {
            "administrator_id": null, 
            "alignment": 0, 
            "ancestry": null, 
            "as": null, 
            "author": {
                "avatar_image": "https://decidim.barcelona/assets/avatar-866795c99abc33a3160d1f3fa93ada46eb75e54134e777666b9ed16215b26534.png", 
                "erased": false, 
                "hidden": false, 
                "id": 17740, 
                "name": "Suport General2 - Decidim Barcelona", 
                "official": false, 
                "official_level": 0, 
                "role": null, 
                "verified_organization": null
            }, 
            "body": "<p><a href=\"https://decidim.barcelona/proposals/flexibilitzacio-d-horaris-d-equipaments-en-funcio-dels-usos\">https://decidim.barcelona/proposals/flexibilitzacio-d-horaris-d-equipaments-en-funcio-dels-usos</a></p>", 
            "commentable_id": 2889, 
            "commentable_type": "Proposal", 
            "created_at": "08/04/2016 15:22:24", 
            "flagged": false, 
            "hidden": false, 
            "id": 10992, 
            "moderator_id": null, 
            "permissions": {
                "hide": false, 
                "hide_author": false, 
                "vote": false
            }, 
            "total_dislikes": 0, 
            "total_likes": 0, 
            "total_votes": 0
        }, 
        {
            "administrator_id": null, 
            "alignment": 0, 
            "ancestry": null, 
            "as": null, 
            "author": {
                "avatar_image": "https://decidim.barcelona/assets/avatar-866795c99abc33a3160d1f3fa93ada46eb75e54134e777666b9ed16215b26534.png", 
                "erased": false, 
                "hidden": false, 
                "id": 17740, 
                "name": "Suport General2 - Decidim Barcelona", 
                "official": false, 
                "official_level": 0, 
                "role": null, 
                "verified_organization": null
            }, 
            "body": "<p><a href=\"https://decidim.barcelona/proposals/creacio-de-la-casa-gitana\">https://decidim.barcelona/proposals/creacio-de-la-casa-gitana</a></p>", 
            "commentable_id": 2889, 
            "commentable_type": "Proposal", 
            "created_at": "08/04/2016 15:45:32", 
            "flagged": false, 
            "hidden": false, 
            "id": 11021, 
            "moderator_id": null, 
            "permissions": {
                "hide": false, 
                "hide_author": false, 
                "vote": false
            }, 
            "total_dislikes": 0, 
            "total_likes": 0, 
            "total_votes": 0
        }, 
        {
            "administrator_id": null, 
            "alignment": 0, 
            "ancestry": null, 
            "as": null, 
            "author": {
                "avatar_image": "https://decidim.barcelona/assets/avatar-866795c99abc33a3160d1f3fa93ada46eb75e54134e777666b9ed16215b26534.png", 
                "erased": false, 
                "hidden": false, 
                "id": 17740, 
                "name": "Suport General2 - Decidim Barcelona", 
                "official": false, 
                "official_level": 0, 
                "role": null, 
                "verified_organization": null
            }, 
            "body": "<p><a href=\"https://decidim.barcelona/proposals/crear-un-festival-de-cultura-gitana-per-visualitzar-positivament-la-seva-cultura\">https://decidim.barcelona/proposals/crear-un-festival-de-cultura-gitana-per-visualitzar-positivament-la-seva-cultura</a></p>", 
            "commentable_id": 2889, 
            "commentable_type": "Proposal", 
            "created_at": "08/04/2016 15:46:33", 
            "flagged": false, 
            "hidden": false, 
            "id": 11022, 
            "moderator_id": null, 
            "permissions": {
                "hide": false, 
                "hide_author": false, 
                "vote": false
            }, 
            "total_dislikes": 0, 
            "total_likes": 0, 
            "total_votes": 0
        }, 
        {
            "administrator_id": null, 
            "alignment": 0, 
            "ancestry": null, 
            "as": null, 
            "author": {
                "avatar_image": "https://decidim.barcelona/assets/avatar-866795c99abc33a3160d1f3fa93ada46eb75e54134e777666b9ed16215b26534.png", 
                "erased": false, 
                "hidden": false, 
                "id": 17740, 
                "name": "Suport General2 - Decidim Barcelona", 
                "official": false, 
                "official_level": 0, 
                "role": null, 
                "verified_organization": null
            }, 
            "body": "<p><a href=\"https://decidim.barcelona/proposals/ens-conve-una-politica-real-a-favor-de-la-cultura-popular-i-l-associacionisme-cultural-a-la-ciutat-de-barcelona-6\">https://decidim.barcelona/proposals/ens-conve-una-politica-real-a-favor-de-la-cultura-popular-i-l-associacionisme-cultural-a-la-ciutat-de-barcelona-6</a></p>", 
            "commentable_id": 2889, 
            "commentable_type": "Proposal", 
            "created_at": "08/04/2016 16:01:18", 
            "flagged": false, 
            "hidden": false, 
            "id": 11067, 
            "moderator_id": null, 
            "permissions": {
                "hide": false, 
                "hide_author": false, 
                "vote": false
            }, 
            "total_dislikes": 0, 
            "total_likes": 0, 
            "total_votes": 0
        }, 
        {
            "administrator_id": null, 
            "alignment": 0, 
            "ancestry": null, 
            "as": null, 
            "author": {
                "avatar_image": "https://decidim.barcelona/assets/avatar-866795c99abc33a3160d1f3fa93ada46eb75e54134e777666b9ed16215b26534.png", 
                "erased": false, 
                "hidden": false, 
                "id": 17740, 
                "name": "Suport General2 - Decidim Barcelona", 
                "official": false, 
                "official_level": 0, 
                "role": null, 
                "verified_organization": null
            }, 
            "body": "<p><a href=\"https://decidim.barcelona/proposals/ens-conve-una-politica-real-a-favor-de-la-cultura-popular-i-l-associacionisme-cultural-a-la-ciutat-de-barcelona-5\">https://decidim.barcelona/proposals/ens-conve-una-politica-real-a-favor-de-la-cultura-popular-i-l-associacionisme-cultural-a-la-ciutat-de-barcelona-5</a></p>", 
            "commentable_id": 2889, 
            "commentable_type": "Proposal", 
            "created_at": "08/04/2016 16:03:06", 
            "flagged": false, 
            "hidden": false, 
            "id": 11071, 
            "moderator_id": null, 
            "permissions": {
                "hide": false, 
                "hide_author": false, 
                "vote": false
            }, 
            "total_dislikes": 0, 
            "total_likes": 0, 
            "total_votes": 0
        }, 
        {
            "administrator_id": null, 
            "alignment": 0, 
            "ancestry": null, 
            "as": null, 
            "author": {
                "avatar_image": "https://decidim.barcelona/assets/avatar-866795c99abc33a3160d1f3fa93ada46eb75e54134e777666b9ed16215b26534.png", 
                "erased": false, 
                "hidden": false, 
                "id": 17740, 
                "name": "Suport General2 - Decidim Barcelona", 
                "official": false, 
                "official_level": 0, 
                "role": null, 
                "verified_organization": null
            }, 
            "body": "<p><a href=\"https://decidim.barcelona/proposals/ens-conve-una-politica-real-a-favor-de-la-cultura-popular-i-l-associacionisme-cultural-a-la-ciutat-de-barcelona-2\">https://decidim.barcelona/proposals/ens-conve-una-politica-real-a-favor-de-la-cultura-popular-i-l-associacionisme-cultural-a-la-ciutat-de-barcelona-2</a></p>", 
            "commentable_id": 2889, 
            "commentable_type": "Proposal", 
            "created_at": "08/04/2016 16:09:23", 
            "flagged": false, 
            "hidden": false, 
            "id": 11088, 
            "moderator_id": null, 
            "permissions": {
                "hide": false, 
                "hide_author": false, 
                "vote": false
            }, 
            "total_dislikes": 0, 
            "total_likes": 0, 
            "total_votes": 0
        }, 
        {
            "administrator_id": null, 
            "alignment": 0, 
            "ancestry": null, 
            "as": null, 
            "author": {
                "avatar_image": "https://decidim.barcelona/assets/avatar-866795c99abc33a3160d1f3fa93ada46eb75e54134e777666b9ed16215b26534.png", 
                "erased": false, 
                "hidden": false, 
                "id": 17740, 
                "name": "Suport General2 - Decidim Barcelona", 
                "official": false, 
                "official_level": 0, 
                "role": null, 
                "verified_organization": null
            }, 
            "body": "<p><a href=\"https://decidim.barcelona/proposals/impulsar-guies-de-recursos-que-incorporin-la-visio-de-la-cultura-gitana\">https://decidim.barcelona/proposals/impulsar-guies-de-recursos-que-incorporin-la-visio-de-la-cultura-gitana</a></p>", 
            "commentable_id": 2889, 
            "commentable_type": "Proposal", 
            "created_at": "08/04/2016 16:10:43", 
            "flagged": false, 
            "hidden": false, 
            "id": 11093, 
            "moderator_id": null, 
            "permissions": {
                "hide": false, 
                "hide_author": false, 
                "vote": false
            }, 
            "total_dislikes": 0, 
            "total_likes": 0, 
            "total_votes": 0
        }, 
        {
            "administrator_id": null, 
            "alignment": 0, 
            "ancestry": null, 
            "as": null, 
            "author": {
                "avatar_image": "https://decidim.barcelona/assets/avatar-866795c99abc33a3160d1f3fa93ada46eb75e54134e777666b9ed16215b26534.png", 
                "erased": false, 
                "hidden": false, 
                "id": 17740, 
                "name": "Suport General2 - Decidim Barcelona", 
                "official": false, 
                "official_level": 0, 
                "role": null, 
                "verified_organization": null
            }, 
            "body": "<p><a href=\"https://decidim.barcelona/proposals/consells-ciutadans-als-equipaments-culturals-i-museus\">https://decidim.barcelona/proposals/consells-ciutadans-als-equipaments-culturals-i-museus</a></p>", 
            "commentable_id": 2889, 
            "commentable_type": "Proposal", 
            "created_at": "08/04/2016 16:13:36", 
            "flagged": false, 
            "hidden": false, 
            "id": 11099, 
            "moderator_id": null, 
            "permissions": {
                "hide": false, 
                "hide_author": false, 
                "vote": false
            }, 
            "total_dislikes": 0, 
            "total_likes": 0, 
            "total_votes": 0
        }, 
        {
            "administrator_id": null, 
            "alignment": 0, 
            "ancestry": null, 
            "as": null, 
            "author": {
                "avatar_image": "https://decidim.barcelona/assets/avatar-866795c99abc33a3160d1f3fa93ada46eb75e54134e777666b9ed16215b26534.png", 
                "erased": false, 
                "hidden": false, 
                "id": 17740, 
                "name": "Suport General2 - Decidim Barcelona", 
                "official": false, 
                "official_level": 0, 
                "role": null, 
                "verified_organization": null
            }, 
            "body": "<p><a href=\"https://decidim.barcelona/proposals/redactar-els-protocols-festius-de-tots-els-districtes\">https://decidim.barcelona/proposals/redactar-els-protocols-festius-de-tots-els-districtes</a></p>", 
            "commentable_id": 2889, 
            "commentable_type": "Proposal", 
            "created_at": "13/04/2016 09:46:13", 
            "flagged": false, 
            "hidden": false, 
            "id": 14199, 
            "moderator_id": null, 
            "permissions": {
                "hide": false, 
                "hide_author": false, 
                "vote": false
            }, 
            "total_dislikes": 0, 
            "total_likes": 0, 
            "total_votes": 0
        }, 
        {
            "administrator_id": null, 
            "alignment": 0, 
            "ancestry": null, 
            "as": null, 
            "author": {
                "avatar_image": "https://decidim.barcelona/assets/avatar-866795c99abc33a3160d1f3fa93ada46eb75e54134e777666b9ed16215b26534.png", 
                "erased": false, 
                "hidden": false, 
                "id": 17740, 
                "name": "Suport General2 - Decidim Barcelona", 
                "official": false, 
                "official_level": 0, 
                "role": null, 
                "verified_organization": null
            }, 
            "body": "<p><a href=\"https://decidim.barcelona/proposals/declaracio-d-interes-cultural-de-totes-les-festes-amb-trajectoria-consolidada-en-els-barris-de-la-ciutat\">https://decidim.barcelona/proposals/declaracio-d-interes-cultural-de-totes-les-festes-amb-trajectoria-consolidada-en-els-barris-de-la-ciutat</a></p>", 
            "commentable_id": 2889, 
            "commentable_type": "Proposal", 
            "created_at": "13/04/2016 09:50:10", 
            "flagged": false, 
            "hidden": false, 
            "id": 14202, 
            "moderator_id": null, 
            "permissions": {
                "hide": false, 
                "hide_author": false, 
                "vote": false
            }, 
            "total_dislikes": 0, 
            "total_likes": 0, 
            "total_votes": 0
        }, 
        {
            "administrator_id": null, 
            "alignment": 0, 
            "ancestry": null, 
            "as": null, 
            "author": {
                "avatar_image": "https://decidim.barcelona/assets/avatar-866795c99abc33a3160d1f3fa93ada46eb75e54134e777666b9ed16215b26534.png", 
                "erased": false, 
                "hidden": false, 
                "id": 17740, 
                "name": "Suport General2 - Decidim Barcelona", 
                "official": false, 
                "official_level": 0, 
                "role": null, 
                "verified_organization": null
            }, 
            "body": "<p><a href=\"https://decidim.barcelona/proposals/declaracio-d-interes-cultural-de-totes-les-festes-amb-trajectoria-consolidada-en-els-barris-de-la-ciutat-0894bfd0-c3a7-40b0-9f14-194136d82bb9\">https://decidim.barcelona/proposals/declaracio-d-interes-cultural-de-totes-les-festes-amb-trajectoria-consolidada-en-els-barris-de-la-ciutat-0894bfd0-c3a7-40b0-9f14-194136d82bb9</a></p>", 
            "commentable_id": 2889, 
            "commentable_type": "Proposal", 
            "created_at": "13/04/2016 09:54:29", 
            "flagged": false, 
            "hidden": false, 
            "id": 14214, 
            "moderator_id": null, 
            "permissions": {
                "hide": false, 
                "hide_author": false, 
                "vote": false
            }, 
            "total_dislikes": 0, 
            "total_likes": 0, 
            "total_votes": 0
        }, 
        {
            "administrator_id": null, 
            "alignment": 0, 
            "ancestry": null, 
            "as": null, 
            "author": {
                "avatar_image": "https://decidim.barcelona/assets/avatar-866795c99abc33a3160d1f3fa93ada46eb75e54134e777666b9ed16215b26534.png", 
                "erased": false, 
                "hidden": false, 
                "id": 17740, 
                "name": "Suport General2 - Decidim Barcelona", 
                "official": false, 
                "official_level": 0, 
                "role": null, 
                "verified_organization": null
            }, 
            "body": "<p><a href=\"https://decidim.barcelona/proposals/elaborar-un-mapa-festiu-dels-barris-de-la-ciutat-preveient-els-usos-de-l-espai-public-que-se-n-derivin-1ba13679-0f19-4978-bbab-f8c1fa2d3313\">https://decidim.barcelona/proposals/elaborar-un-mapa-festiu-dels-barris-de-la-ciutat-preveient-els-usos-de-l-espai-public-que-se-n-derivin-1ba13679-0f19-4978-bbab-f8c1fa2d3313</a></p>", 
            "commentable_id": 2889, 
            "commentable_type": "Proposal", 
            "created_at": "13/04/2016 09:56:14", 
            "flagged": false, 
            "hidden": false, 
            "id": 14219, 
            "moderator_id": null, 
            "permissions": {
                "hide": false, 
                "hide_author": false, 
                "vote": false
            }, 
            "total_dislikes": 0, 
            "total_likes": 0, 
            "total_votes": 0
        }
    ], 
    "meta": {
        "current_page": 3, 
        "next_page": null, 
        "prev_page": 2, 
        "total_count": 52, 
        "total_pages": 3
    }
}