{
    "comments": [
        {
            "administrator_id": null, 
            "alignment": 0, 
            "ancestry": null, 
            "as": null, 
            "author": {
                "avatar_image": "https://decidim.barcelona/assets/avatar-866795c99abc33a3160d1f3fa93ada46eb75e54134e777666b9ed16215b26534.png", 
                "erased": false, 
                "hidden": false, 
                "id": 17740, 
                "name": "Suport General2 - Decidim Barcelona", 
                "official": false, 
                "official_level": 0, 
                "role": null, 
                "verified_organization": null
            }, 
            "body": "<p><a href=\"https://decidim.barcelona/proposals/museus-municipals-gratuits-per-a-major-de-65-anys\">https://decidim.barcelona/proposals/museus-municipals-gratuits-per-a-major-de-65-anys</a></p>", 
            "commentable_id": 2892, 
            "commentable_type": "Proposal", 
            "created_at": "06/04/2016 13:46:57", 
            "flagged": false, 
            "hidden": false, 
            "id": 8525, 
            "moderator_id": null, 
            "permissions": {
                "hide": false, 
                "hide_author": false, 
                "vote": false
            }, 
            "total_dislikes": 0, 
            "total_likes": 0, 
            "total_votes": 0
        }, 
        {
            "administrator_id": null, 
            "alignment": 0, 
            "ancestry": null, 
            "as": null, 
            "author": {
                "avatar_image": "https://decidim.barcelona/assets/avatar-866795c99abc33a3160d1f3fa93ada46eb75e54134e777666b9ed16215b26534.png", 
                "erased": false, 
                "hidden": false, 
                "id": 17740, 
                "name": "Suport General2 - Decidim Barcelona", 
                "official": false, 
                "official_level": 0, 
                "role": null, 
                "verified_organization": null
            }, 
            "body": "<p><a href=\"https://decidim.barcelona/proposals/adaptar-serveis-a-les-realitats-de-les-persones\">https://decidim.barcelona/proposals/adaptar-serveis-a-les-realitats-de-les-persones</a></p>", 
            "commentable_id": 2892, 
            "commentable_type": "Proposal", 
            "created_at": "06/04/2016 14:09:06", 
            "flagged": false, 
            "hidden": false, 
            "id": 8587, 
            "moderator_id": null, 
            "permissions": {
                "hide": false, 
                "hide_author": false, 
                "vote": false
            }, 
            "total_dislikes": 0, 
            "total_likes": 0, 
            "total_votes": 0
        }, 
        {
            "administrator_id": null, 
            "alignment": 0, 
            "ancestry": null, 
            "as": null, 
            "author": {
                "avatar_image": "https://decidim.barcelona/assets/avatar-866795c99abc33a3160d1f3fa93ada46eb75e54134e777666b9ed16215b26534.png", 
                "erased": false, 
                "hidden": false, 
                "id": 17740, 
                "name": "Suport General2 - Decidim Barcelona", 
                "official": false, 
                "official_level": 0, 
                "role": null, 
                "verified_organization": null
            }, 
            "body": "<p><a href=\"https://decidim.barcelona/proposals/que-els-preus-de-les-activitats-ofertes-per-l-ajuntament-tinguin-preus-adaptats-a-les-capacitats-economiques-particulars\">https://decidim.barcelona/proposals/que-els-preus-de-les-activitats-ofertes-per-l-ajuntament-tinguin-preus-adaptats-a-les-capacitats-economiques-particulars</a></p>", 
            "commentable_id": 2892, 
            "commentable_type": "Proposal", 
            "created_at": "07/04/2016 12:51:53", 
            "flagged": false, 
            "hidden": false, 
            "id": 9213, 
            "moderator_id": null, 
            "permissions": {
                "hide": false, 
                "hide_author": false, 
                "vote": false
            }, 
            "total_dislikes": 0, 
            "total_likes": 0, 
            "total_votes": 0
        }, 
        {
            "administrator_id": null, 
            "alignment": 0, 
            "ancestry": null, 
            "as": null, 
            "author": {
                "avatar_image": "https://decidim.barcelona/assets/avatar-866795c99abc33a3160d1f3fa93ada46eb75e54134e777666b9ed16215b26534.png", 
                "erased": false, 
                "hidden": false, 
                "id": 17740, 
                "name": "Suport General2 - Decidim Barcelona", 
                "official": false, 
                "official_level": 0, 
                "role": null, 
                "verified_organization": null
            }, 
            "body": "<p><a href=\"https://decidim.barcelona/proposals/museus-municipals-gratuits-per-a-major-de-65-anys\">https://decidim.barcelona/proposals/museus-municipals-gratuits-per-a-major-de-65-anys</a></p>", 
            "commentable_id": 2892, 
            "commentable_type": "Proposal", 
            "created_at": "08/04/2016 11:10:51", 
            "flagged": false, 
            "hidden": false, 
            "id": 10433, 
            "moderator_id": null, 
            "permissions": {
                "hide": false, 
                "hide_author": false, 
                "vote": false
            }, 
            "total_dislikes": 0, 
            "total_likes": 0, 
            "total_votes": 0
        }, 
        {
            "administrator_id": null, 
            "alignment": 0, 
            "ancestry": null, 
            "as": null, 
            "author": {
                "avatar_image": "https://decidim.barcelona/assets/avatar-866795c99abc33a3160d1f3fa93ada46eb75e54134e777666b9ed16215b26534.png", 
                "erased": false, 
                "hidden": false, 
                "id": 17740, 
                "name": "Suport General2 - Decidim Barcelona", 
                "official": false, 
                "official_level": 0, 
                "role": null, 
                "verified_organization": null
            }, 
            "body": "<p><a href=\"https://decidim.barcelona/proposals/entrades-gratuites-o-preu-simbolic-a-les-principals-atraccions-turistiques-per-els-barcelonins\">https://decidim.barcelona/proposals/entrades-gratuites-o-preu-simbolic-a-les-principals-atraccions-turistiques-per-els-barcelonins</a></p>", 
            "commentable_id": 2892, 
            "commentable_type": "Proposal", 
            "created_at": "08/04/2016 11:51:53", 
            "flagged": false, 
            "hidden": false, 
            "id": 10546, 
            "moderator_id": null, 
            "permissions": {
                "hide": false, 
                "hide_author": false, 
                "vote": false
            }, 
            "total_dislikes": 0, 
            "total_likes": 0, 
            "total_votes": 0
        }, 
        {
            "administrator_id": null, 
            "alignment": 0, 
            "ancestry": null, 
            "as": null, 
            "author": {
                "avatar_image": "https://decidim.barcelona/assets/avatar-866795c99abc33a3160d1f3fa93ada46eb75e54134e777666b9ed16215b26534.png", 
                "erased": false, 
                "hidden": false, 
                "id": 17740, 
                "name": "Suport General2 - Decidim Barcelona", 
                "official": false, 
                "official_level": 0, 
                "role": null, 
                "verified_organization": null
            }, 
            "body": "<p><a href=\"https://decidim.barcelona/proposals/museus-gratuits-pels-ciutadans-de-barcelona\">https://decidim.barcelona/proposals/museus-gratuits-pels-ciutadans-de-barcelona</a></p>", 
            "commentable_id": 2892, 
            "commentable_type": "Proposal", 
            "created_at": "08/04/2016 11:52:26", 
            "flagged": false, 
            "hidden": false, 
            "id": 10550, 
            "moderator_id": null, 
            "permissions": {
                "hide": false, 
                "hide_author": false, 
                "vote": false
            }, 
            "total_dislikes": 0, 
            "total_likes": 0, 
            "total_votes": 0
        }, 
        {
            "administrator_id": null, 
            "alignment": 0, 
            "ancestry": null, 
            "as": null, 
            "author": {
                "avatar_image": "https://decidim.barcelona/assets/avatar-866795c99abc33a3160d1f3fa93ada46eb75e54134e777666b9ed16215b26534.png", 
                "erased": false, 
                "hidden": false, 
                "id": 17740, 
                "name": "Suport General2 - Decidim Barcelona", 
                "official": false, 
                "official_level": 0, 
                "role": null, 
                "verified_organization": null
            }, 
            "body": "<p><a href=\"https://decidim.barcelona/proposals/gratuitat-o-tarifes-reduides-per-a-residents-barcelonins-o-catalans\">https://decidim.barcelona/proposals/gratuitat-o-tarifes-reduides-per-a-residents-barcelonins-o-catalans</a></p>", 
            "commentable_id": 2892, 
            "commentable_type": "Proposal", 
            "created_at": "08/04/2016 11:54:59", 
            "flagged": false, 
            "hidden": false, 
            "id": 10559, 
            "moderator_id": null, 
            "permissions": {
                "hide": false, 
                "hide_author": false, 
                "vote": false
            }, 
            "total_dislikes": 0, 
            "total_likes": 0, 
            "total_votes": 0
        }, 
        {
            "administrator_id": null, 
            "alignment": 0, 
            "ancestry": null, 
            "as": null, 
            "author": {
                "avatar_image": "https://decidim.barcelona/assets/avatar-866795c99abc33a3160d1f3fa93ada46eb75e54134e777666b9ed16215b26534.png", 
                "erased": false, 
                "hidden": false, 
                "id": 17740, 
                "name": "Suport General2 - Decidim Barcelona", 
                "official": false, 
                "official_level": 0, 
                "role": null, 
                "verified_organization": null
            }, 
            "body": "<p><a href=\"https://decidim.barcelona/proposals/preu-especial-museus-veins-de-barcelona\">https://decidim.barcelona/proposals/preu-especial-museus-veins-de-barcelona</a></p>", 
            "commentable_id": 2892, 
            "commentable_type": "Proposal", 
            "created_at": "08/04/2016 11:55:22", 
            "flagged": false, 
            "hidden": false, 
            "id": 10560, 
            "moderator_id": null, 
            "permissions": {
                "hide": false, 
                "hide_author": false, 
                "vote": false
            }, 
            "total_dislikes": 0, 
            "total_likes": 0, 
            "total_votes": 0
        }, 
        {
            "administrator_id": null, 
            "alignment": 0, 
            "ancestry": null, 
            "as": null, 
            "author": {
                "avatar_image": "https://decidim.barcelona/assets/avatar-866795c99abc33a3160d1f3fa93ada46eb75e54134e777666b9ed16215b26534.png", 
                "erased": false, 
                "hidden": false, 
                "id": 17740, 
                "name": "Suport General2 - Decidim Barcelona", 
                "official": false, 
                "official_level": 0, 
                "role": null, 
                "verified_organization": null
            }, 
            "body": "<p><a href=\"https://decidim.barcelona/proposals/gaudir-jove\">https://decidim.barcelona/proposals/gaudir-jove</a></p>", 
            "commentable_id": 2892, 
            "commentable_type": "Proposal", 
            "created_at": "08/04/2016 12:06:30", 
            "flagged": false, 
            "hidden": false, 
            "id": 10579, 
            "moderator_id": null, 
            "permissions": {
                "hide": false, 
                "hide_author": false, 
                "vote": false
            }, 
            "total_dislikes": 0, 
            "total_likes": 0, 
            "total_votes": 0
        }, 
        {
            "administrator_id": null, 
            "alignment": 0, 
            "ancestry": null, 
            "as": null, 
            "author": {
                "avatar_image": "https://decidim.barcelona/assets/avatar-866795c99abc33a3160d1f3fa93ada46eb75e54134e777666b9ed16215b26534.png", 
                "erased": false, 
                "hidden": false, 
                "id": 17740, 
                "name": "Suport General2 - Decidim Barcelona", 
                "official": false, 
                "official_level": 0, 
                "role": null, 
                "verified_organization": null
            }, 
            "body": "<p><a href=\"https://decidim.barcelona/proposals/gratuitat-a-tots-el-barcelonins-de-la-entrada-als-recintes-com-la-sagrada-familia-etc\">https://decidim.barcelona/proposals/gratuitat-a-tots-el-barcelonins-de-la-entrada-als-recintes-com-la-sagrada-familia-etc</a></p>", 
            "commentable_id": 2892, 
            "commentable_type": "Proposal", 
            "created_at": "08/04/2016 12:08:00", 
            "flagged": false, 
            "hidden": false, 
            "id": 10581, 
            "moderator_id": null, 
            "permissions": {
                "hide": false, 
                "hide_author": false, 
                "vote": false
            }, 
            "total_dislikes": 0, 
            "total_likes": 0, 
            "total_votes": 0
        }, 
        {
            "administrator_id": null, 
            "alignment": 0, 
            "ancestry": null, 
            "as": null, 
            "author": {
                "avatar_image": "https://decidim.barcelona/assets/avatar-866795c99abc33a3160d1f3fa93ada46eb75e54134e777666b9ed16215b26534.png", 
                "erased": false, 
                "hidden": false, 
                "id": 17740, 
                "name": "Suport General2 - Decidim Barcelona", 
                "official": false, 
                "official_level": 0, 
                "role": null, 
                "verified_organization": null
            }, 
            "body": "<p><a href=\"https://decidim.barcelona/proposals/una-rebaixa-proporcional-en-el-preu-d-un-espectacle-en-funcio-de-l-ajut-public-rebut-pels-ciutadans-de-barcelona\">https://decidim.barcelona/proposals/una-rebaixa-proporcional-en-el-preu-d-un-espectacle-en-funcio-de-l-ajut-public-rebut-pels-ciutadans-de-barcelona</a></p>", 
            "commentable_id": 2892, 
            "commentable_type": "Proposal", 
            "created_at": "08/04/2016 12:13:44", 
            "flagged": false, 
            "hidden": false, 
            "id": 10593, 
            "moderator_id": null, 
            "permissions": {
                "hide": false, 
                "hide_author": false, 
                "vote": false
            }, 
            "total_dislikes": 0, 
            "total_likes": 0, 
            "total_votes": 0
        }, 
        {
            "administrator_id": null, 
            "alignment": 0, 
            "ancestry": null, 
            "as": null, 
            "author": {
                "avatar_image": "https://decidim.barcelona/assets/avatar-866795c99abc33a3160d1f3fa93ada46eb75e54134e777666b9ed16215b26534.png", 
                "erased": false, 
                "hidden": false, 
                "id": 17740, 
                "name": "Suport General2 - Decidim Barcelona", 
                "official": false, 
                "official_level": 0, 
                "role": null, 
                "verified_organization": null
            }, 
            "body": "<p><a href=\"https://decidim.barcelona/proposals/que-els-preus-de-les-activitats-ofertes-per-l-ajuntament-tinguin-preus-adaptats-a-les-capacitats-economiques-particulars\">https://decidim.barcelona/proposals/que-els-preus-de-les-activitats-ofertes-per-l-ajuntament-tinguin-preus-adaptats-a-les-capacitats-economiques-particulars</a></p>", 
            "commentable_id": 2892, 
            "commentable_type": "Proposal", 
            "created_at": "08/04/2016 12:14:10", 
            "flagged": false, 
            "hidden": false, 
            "id": 10594, 
            "moderator_id": null, 
            "permissions": {
                "hide": false, 
                "hide_author": false, 
                "vote": false
            }, 
            "total_dislikes": 0, 
            "total_likes": 0, 
            "total_votes": 0
        }, 
        {
            "administrator_id": null, 
            "alignment": 0, 
            "ancestry": null, 
            "as": null, 
            "author": {
                "avatar_image": "https://decidim.barcelona/assets/avatar-866795c99abc33a3160d1f3fa93ada46eb75e54134e777666b9ed16215b26534.png", 
                "erased": false, 
                "hidden": false, 
                "id": 17740, 
                "name": "Suport General2 - Decidim Barcelona", 
                "official": false, 
                "official_level": 0, 
                "role": null, 
                "verified_organization": null
            }, 
            "body": "<p><a href=\"https://decidim.barcelona/proposals/entrada-preferent-al-museu-picasso-per-a-veins-de-barcelona\">https://decidim.barcelona/proposals/entrada-preferent-al-museu-picasso-per-a-veins-de-barcelona</a></p>", 
            "commentable_id": 2892, 
            "commentable_type": "Proposal", 
            "created_at": "08/04/2016 12:20:59", 
            "flagged": false, 
            "hidden": false, 
            "id": 10621, 
            "moderator_id": null, 
            "permissions": {
                "hide": false, 
                "hide_author": false, 
                "vote": false
            }, 
            "total_dislikes": 0, 
            "total_likes": 0, 
            "total_votes": 0
        }, 
        {
            "administrator_id": null, 
            "alignment": 0, 
            "ancestry": null, 
            "as": null, 
            "author": {
                "avatar_image": "https://decidim.barcelona/assets/avatar-866795c99abc33a3160d1f3fa93ada46eb75e54134e777666b9ed16215b26534.png", 
                "erased": false, 
                "hidden": false, 
                "id": 17740, 
                "name": "Suport General2 - Decidim Barcelona", 
                "official": false, 
                "official_level": 0, 
                "role": null, 
                "verified_organization": null
            }, 
            "body": "<p><a href=\"https://decidim.barcelona/proposals/museos-abiertos-los-domingos-todo-el-dia\">https://decidim.barcelona/proposals/museos-abiertos-los-domingos-todo-el-dia</a></p>", 
            "commentable_id": 2892, 
            "commentable_type": "Proposal", 
            "created_at": "08/04/2016 12:58:30", 
            "flagged": false, 
            "hidden": false, 
            "id": 10699, 
            "moderator_id": null, 
            "permissions": {
                "hide": false, 
                "hide_author": false, 
                "vote": false
            }, 
            "total_dislikes": 0, 
            "total_likes": 0, 
            "total_votes": 0
        }, 
        {
            "administrator_id": null, 
            "alignment": 0, 
            "ancestry": null, 
            "as": null, 
            "author": {
                "avatar_image": "https://decidim.barcelona/assets/avatar-866795c99abc33a3160d1f3fa93ada46eb75e54134e777666b9ed16215b26534.png", 
                "erased": false, 
                "hidden": false, 
                "id": 17740, 
                "name": "Suport General2 - Decidim Barcelona", 
                "official": false, 
                "official_level": 0, 
                "role": null, 
                "verified_organization": null
            }, 
            "body": "<p><a href=\"https://decidim.barcelona/proposals/facilitar-l-accessibilitat-a-espais-culturals-als-ciutadans\">https://decidim.barcelona/proposals/facilitar-l-accessibilitat-a-espais-culturals-als-ciutadans</a></p>", 
            "commentable_id": 2892, 
            "commentable_type": "Proposal", 
            "created_at": "08/04/2016 13:17:32", 
            "flagged": false, 
            "hidden": false, 
            "id": 10735, 
            "moderator_id": null, 
            "permissions": {
                "hide": false, 
                "hide_author": false, 
                "vote": false
            }, 
            "total_dislikes": 0, 
            "total_likes": 0, 
            "total_votes": 0
        }, 
        {
            "administrator_id": null, 
            "alignment": 0, 
            "ancestry": null, 
            "as": null, 
            "author": {
                "avatar_image": "https://decidim.barcelona/assets/avatar-866795c99abc33a3160d1f3fa93ada46eb75e54134e777666b9ed16215b26534.png", 
                "erased": false, 
                "hidden": false, 
                "id": 17740, 
                "name": "Suport General2 - Decidim Barcelona", 
                "official": false, 
                "official_level": 0, 
                "role": null, 
                "verified_organization": null
            }, 
            "body": "<p><a href=\"https://decidim.barcelona/proposals/afavorir-la-cultura-i-l-art-com-una-eina-d-integracio-social\">https://decidim.barcelona/proposals/afavorir-la-cultura-i-l-art-com-una-eina-d-integracio-social</a></p>", 
            "commentable_id": 2892, 
            "commentable_type": "Proposal", 
            "created_at": "08/04/2016 13:38:26", 
            "flagged": false, 
            "hidden": false, 
            "id": 10816, 
            "moderator_id": null, 
            "permissions": {
                "hide": false, 
                "hide_author": false, 
                "vote": false
            }, 
            "total_dislikes": 0, 
            "total_likes": 0, 
            "total_votes": 0
        }, 
        {
            "administrator_id": null, 
            "alignment": 0, 
            "ancestry": null, 
            "as": null, 
            "author": {
                "avatar_image": "https://decidim.barcelona/assets/avatar-866795c99abc33a3160d1f3fa93ada46eb75e54134e777666b9ed16215b26534.png", 
                "erased": false, 
                "hidden": false, 
                "id": 17740, 
                "name": "Suport General2 - Decidim Barcelona", 
                "official": false, 
                "official_level": 0, 
                "role": null, 
                "verified_organization": null
            }, 
            "body": "<p><a href=\"https://decidim.barcelona/proposals/acceso-a-la-cultura-para-todos\">https://decidim.barcelona/proposals/acceso-a-la-cultura-para-todos</a></p>", 
            "commentable_id": 2892, 
            "commentable_type": "Proposal", 
            "created_at": "08/04/2016 13:42:33", 
            "flagged": false, 
            "hidden": false, 
            "id": 10828, 
            "moderator_id": null, 
            "permissions": {
                "hide": false, 
                "hide_author": false, 
                "vote": false
            }, 
            "total_dislikes": 0, 
            "total_likes": 0, 
            "total_votes": 0
        }, 
        {
            "administrator_id": null, 
            "alignment": 0, 
            "ancestry": null, 
            "as": null, 
            "author": {
                "avatar_image": "https://decidim.barcelona/assets/avatar-866795c99abc33a3160d1f3fa93ada46eb75e54134e777666b9ed16215b26534.png", 
                "erased": false, 
                "hidden": false, 
                "id": 17740, 
                "name": "Suport General2 - Decidim Barcelona", 
                "official": false, 
                "official_level": 0, 
                "role": null, 
                "verified_organization": null
            }, 
            "body": "<p><a href=\"https://decidim.barcelona/proposals/programa-per-una-cultura-igualitaria-i-no-discriminatoria\">https://decidim.barcelona/proposals/programa-per-una-cultura-igualitaria-i-no-discriminatoria</a></p>", 
            "commentable_id": 2892, 
            "commentable_type": "Proposal", 
            "created_at": "08/04/2016 14:26:23", 
            "flagged": false, 
            "hidden": false, 
            "id": 10925, 
            "moderator_id": null, 
            "permissions": {
                "hide": false, 
                "hide_author": false, 
                "vote": false
            }, 
            "total_dislikes": 0, 
            "total_likes": 0, 
            "total_votes": 0
        }, 
        {
            "administrator_id": null, 
            "alignment": 0, 
            "ancestry": null, 
            "as": null, 
            "author": {
                "avatar_image": "https://decidim.barcelona/assets/avatar-866795c99abc33a3160d1f3fa93ada46eb75e54134e777666b9ed16215b26534.png", 
                "erased": false, 
                "hidden": false, 
                "id": 17740, 
                "name": "Suport General2 - Decidim Barcelona", 
                "official": false, 
                "official_level": 0, 
                "role": null, 
                "verified_organization": null
            }, 
            "body": "<p><a href=\"https://decidim.barcelona/proposals/acces-gratuit-als-espais-publics-de-la-ciutat-per-als-ciutadans-de-barcelona\">https://decidim.barcelona/proposals/acces-gratuit-als-espais-publics-de-la-ciutat-per-als-ciutadans-de-barcelona</a></p>", 
            "commentable_id": 2892, 
            "commentable_type": "Proposal", 
            "created_at": "08/04/2016 14:29:42", 
            "flagged": false, 
            "hidden": false, 
            "id": 10931, 
            "moderator_id": null, 
            "permissions": {
                "hide": false, 
                "hide_author": false, 
                "vote": false
            }, 
            "total_dislikes": 0, 
            "total_likes": 0, 
            "total_votes": 0
        }, 
        {
            "administrator_id": null, 
            "alignment": 0, 
            "ancestry": null, 
            "as": null, 
            "author": {
                "avatar_image": "https://decidim.barcelona/assets/avatar-866795c99abc33a3160d1f3fa93ada46eb75e54134e777666b9ed16215b26534.png", 
                "erased": false, 
                "hidden": false, 
                "id": 17740, 
                "name": "Suport General2 - Decidim Barcelona", 
                "official": false, 
                "official_level": 0, 
                "role": null, 
                "verified_organization": null
            }, 
            "body": "<p><a href=\"https://decidim.barcelona/proposals/connectar-la-ciutadania-amb-les-institucions-culturals\">https://decidim.barcelona/proposals/connectar-la-ciutadania-amb-les-institucions-culturals</a></p>", 
            "commentable_id": 2892, 
            "commentable_type": "Proposal", 
            "created_at": "08/04/2016 14:32:22", 
            "flagged": false, 
            "hidden": false, 
            "id": 10941, 
            "moderator_id": null, 
            "permissions": {
                "hide": false, 
                "hide_author": false, 
                "vote": false
            }, 
            "total_dislikes": 0, 
            "total_likes": 0, 
            "total_votes": 0
        }
    ], 
    "meta": {
        "current_page": 1, 
        "next_page": 2, 
        "prev_page": null, 
        "total_count": 29, 
        "total_pages": 2
    }
}