{
    "comments": [
        {
            "administrator_id": null, 
            "alignment": 0, 
            "ancestry": null, 
            "as": null, 
            "author": {
                "avatar_image": "https://decidim.barcelona/assets/avatar-866795c99abc33a3160d1f3fa93ada46eb75e54134e777666b9ed16215b26534.png", 
                "erased": false, 
                "hidden": false, 
                "id": 17740, 
                "name": "Suport General2 - Decidim Barcelona", 
                "official": false, 
                "official_level": 0, 
                "role": null, 
                "verified_organization": null
            }, 
            "body": "<p><a href=\"https://decidim.barcelona/proposals/crear-mes-tallers-familiars-als-centres-civics\">https://decidim.barcelona/proposals/crear-mes-tallers-familiars-als-centres-civics</a></p>", 
            "commentable_id": 2900, 
            "commentable_type": "Proposal", 
            "created_at": "06/04/2016 15:23:44", 
            "flagged": false, 
            "hidden": false, 
            "id": 8658, 
            "moderator_id": null, 
            "permissions": {
                "hide": false, 
                "hide_author": false, 
                "vote": false
            }, 
            "total_dislikes": 0, 
            "total_likes": 0, 
            "total_votes": 0
        }, 
        {
            "administrator_id": null, 
            "alignment": 0, 
            "ancestry": null, 
            "as": null, 
            "author": {
                "avatar_image": "https://decidim.barcelona/assets/avatar-866795c99abc33a3160d1f3fa93ada46eb75e54134e777666b9ed16215b26534.png", 
                "erased": false, 
                "hidden": false, 
                "id": 17740, 
                "name": "Suport General2 - Decidim Barcelona", 
                "official": false, 
                "official_level": 0, 
                "role": null, 
                "verified_organization": null
            }, 
            "body": "<p><a href=\"https://decidim.barcelona/proposals/creacio-de-tallers-de-musica-i-jocs-electronics-als-centres-civics\">https://decidim.barcelona/proposals/creacio-de-tallers-de-musica-i-jocs-electronics-als-centres-civics</a></p>", 
            "commentable_id": 2900, 
            "commentable_type": "Proposal", 
            "created_at": "06/04/2016 15:28:50", 
            "flagged": false, 
            "hidden": false, 
            "id": 8666, 
            "moderator_id": null, 
            "permissions": {
                "hide": false, 
                "hide_author": false, 
                "vote": false
            }, 
            "total_dislikes": 0, 
            "total_likes": 0, 
            "total_votes": 0
        }, 
        {
            "administrator_id": null, 
            "alignment": 0, 
            "ancestry": null, 
            "as": null, 
            "author": {
                "avatar_image": "https://decidim.barcelona/assets/avatar-866795c99abc33a3160d1f3fa93ada46eb75e54134e777666b9ed16215b26534.png", 
                "erased": false, 
                "hidden": false, 
                "id": 17740, 
                "name": "Suport General2 - Decidim Barcelona", 
                "official": false, 
                "official_level": 0, 
                "role": null, 
                "verified_organization": null
            }, 
            "body": "<p><a href=\"https://decidim.barcelona/proposals/mes-tallers-per-potenciar-la-creativitat-dels-infants-als-centres-civics\">https://decidim.barcelona/proposals/mes-tallers-per-potenciar-la-creativitat-dels-infants-als-centres-civics</a></p>", 
            "commentable_id": 2900, 
            "commentable_type": "Proposal", 
            "created_at": "06/04/2016 15:30:42", 
            "flagged": false, 
            "hidden": false, 
            "id": 8668, 
            "moderator_id": null, 
            "permissions": {
                "hide": false, 
                "hide_author": false, 
                "vote": false
            }, 
            "total_dislikes": 0, 
            "total_likes": 0, 
            "total_votes": 0
        }, 
        {
            "administrator_id": null, 
            "alignment": 0, 
            "ancestry": null, 
            "as": null, 
            "author": {
                "avatar_image": "https://decidim.barcelona/assets/avatar-866795c99abc33a3160d1f3fa93ada46eb75e54134e777666b9ed16215b26534.png", 
                "erased": false, 
                "hidden": false, 
                "id": 17740, 
                "name": "Suport General2 - Decidim Barcelona", 
                "official": false, 
                "official_level": 0, 
                "role": null, 
                "verified_organization": null
            }, 
            "body": "<p><a href=\"https://decidim.barcelona/proposals/mes-tallers-relacionats-amb-la-musica-i-el-ball-als-centres-civics\">https://decidim.barcelona/proposals/mes-tallers-relacionats-amb-la-musica-i-el-ball-als-centres-civics</a></p>", 
            "commentable_id": 2900, 
            "commentable_type": "Proposal", 
            "created_at": "06/04/2016 15:31:12", 
            "flagged": false, 
            "hidden": false, 
            "id": 8669, 
            "moderator_id": null, 
            "permissions": {
                "hide": false, 
                "hide_author": false, 
                "vote": false
            }, 
            "total_dislikes": 0, 
            "total_likes": 0, 
            "total_votes": 0
        }, 
        {
            "administrator_id": null, 
            "alignment": 0, 
            "ancestry": null, 
            "as": null, 
            "author": {
                "avatar_image": "https://decidim.barcelona/assets/avatar-866795c99abc33a3160d1f3fa93ada46eb75e54134e777666b9ed16215b26534.png", 
                "erased": false, 
                "hidden": false, 
                "id": 17740, 
                "name": "Suport General2 - Decidim Barcelona", 
                "official": false, 
                "official_level": 0, 
                "role": null, 
                "verified_organization": null
            }, 
            "body": "<p><a href=\"https://decidim.barcelona/proposals/creacio-de-tallers-infantils-de-fotografia-als-centres-civics\">https://decidim.barcelona/proposals/creacio-de-tallers-infantils-de-fotografia-als-centres-civics</a></p>", 
            "commentable_id": 2900, 
            "commentable_type": "Proposal", 
            "created_at": "06/04/2016 15:37:10", 
            "flagged": false, 
            "hidden": false, 
            "id": 8670, 
            "moderator_id": null, 
            "permissions": {
                "hide": false, 
                "hide_author": false, 
                "vote": false
            }, 
            "total_dislikes": 0, 
            "total_likes": 0, 
            "total_votes": 0
        }, 
        {
            "administrator_id": null, 
            "alignment": 0, 
            "ancestry": null, 
            "as": null, 
            "author": {
                "avatar_image": "https://decidim.barcelona/assets/avatar-866795c99abc33a3160d1f3fa93ada46eb75e54134e777666b9ed16215b26534.png", 
                "erased": false, 
                "hidden": false, 
                "id": 17740, 
                "name": "Suport General2 - Decidim Barcelona", 
                "official": false, 
                "official_level": 0, 
                "role": null, 
                "verified_organization": null
            }, 
            "body": "<p><a href=\"https://decidim.barcelona/proposals/els-museus-a-las-escoles\">https://decidim.barcelona/proposals/els-museus-a-las-escoles</a></p>", 
            "commentable_id": 2900, 
            "commentable_type": "Proposal", 
            "created_at": "08/04/2016 13:15:07", 
            "flagged": false, 
            "hidden": false, 
            "id": 10731, 
            "moderator_id": null, 
            "permissions": {
                "hide": false, 
                "hide_author": false, 
                "vote": false
            }, 
            "total_dislikes": 0, 
            "total_likes": 0, 
            "total_votes": 0
        }, 
        {
            "administrator_id": null, 
            "alignment": 0, 
            "ancestry": null, 
            "as": null, 
            "author": {
                "avatar_image": "https://decidim.barcelona/assets/avatar-866795c99abc33a3160d1f3fa93ada46eb75e54134e777666b9ed16215b26534.png", 
                "erased": false, 
                "hidden": false, 
                "id": 17740, 
                "name": "Suport General2 - Decidim Barcelona", 
                "official": false, 
                "official_level": 0, 
                "role": null, 
                "verified_organization": null
            }, 
            "body": "<p><a href=\"https://decidim.barcelona/proposals/inserir-l-activitat-artistica-i-cultural-en-el-curriculum-educatiu-de-la-formacio-reglada\">https://decidim.barcelona/proposals/inserir-l-activitat-artistica-i-cultural-en-el-curriculum-educatiu-de-la-formacio-reglada</a></p>", 
            "commentable_id": 2900, 
            "commentable_type": "Proposal", 
            "created_at": "08/04/2016 13:27:47", 
            "flagged": false, 
            "hidden": false, 
            "id": 10777, 
            "moderator_id": null, 
            "permissions": {
                "hide": false, 
                "hide_author": false, 
                "vote": false
            }, 
            "total_dislikes": 0, 
            "total_likes": 0, 
            "total_votes": 0
        }, 
        {
            "administrator_id": null, 
            "alignment": 0, 
            "ancestry": null, 
            "as": null, 
            "author": {
                "avatar_image": "https://decidim.barcelona/assets/avatar-866795c99abc33a3160d1f3fa93ada46eb75e54134e777666b9ed16215b26534.png", 
                "erased": false, 
                "hidden": false, 
                "id": 17740, 
                "name": "Suport General2 - Decidim Barcelona", 
                "official": false, 
                "official_level": 0, 
                "role": null, 
                "verified_organization": null
            }, 
            "body": "<p><a href=\"https://decidim.barcelona/proposals/facilitar-flexibilitzar-i-fer-mes-permeable-el-funcionament-i-dinamiques-de-les-institucions-culturals-i-educatives\">https://decidim.barcelona/proposals/facilitar-flexibilitzar-i-fer-mes-permeable-el-funcionament-i-dinamiques-de-les-institucions-culturals-i-educatives</a></p>", 
            "commentable_id": 2900, 
            "commentable_type": "Proposal", 
            "created_at": "08/04/2016 13:35:54", 
            "flagged": false, 
            "hidden": false, 
            "id": 10802, 
            "moderator_id": null, 
            "permissions": {
                "hide": false, 
                "hide_author": false, 
                "vote": false
            }, 
            "total_dislikes": 0, 
            "total_likes": 0, 
            "total_votes": 0
        }, 
        {
            "administrator_id": null, 
            "alignment": 0, 
            "ancestry": null, 
            "as": null, 
            "author": {
                "avatar_image": "https://decidim.barcelona/assets/avatar-866795c99abc33a3160d1f3fa93ada46eb75e54134e777666b9ed16215b26534.png", 
                "erased": false, 
                "hidden": false, 
                "id": 17740, 
                "name": "Suport General2 - Decidim Barcelona", 
                "official": false, 
                "official_level": 0, 
                "role": null, 
                "verified_organization": null
            }, 
            "body": "<p><a href=\"https://decidim.barcelona/proposals/portar-la-cultura-a-l-escola\">https://decidim.barcelona/proposals/portar-la-cultura-a-l-escola</a></p>", 
            "commentable_id": 2900, 
            "commentable_type": "Proposal", 
            "created_at": "08/04/2016 13:36:29", 
            "flagged": false, 
            "hidden": false, 
            "id": 10807, 
            "moderator_id": null, 
            "permissions": {
                "hide": false, 
                "hide_author": false, 
                "vote": false
            }, 
            "total_dislikes": 0, 
            "total_likes": 0, 
            "total_votes": 0
        }, 
        {
            "administrator_id": null, 
            "alignment": 0, 
            "ancestry": null, 
            "as": null, 
            "author": {
                "avatar_image": "https://decidim.barcelona/assets/avatar-866795c99abc33a3160d1f3fa93ada46eb75e54134e777666b9ed16215b26534.png", 
                "erased": false, 
                "hidden": false, 
                "id": 17740, 
                "name": "Suport General2 - Decidim Barcelona", 
                "official": false, 
                "official_level": 0, 
                "role": null, 
                "verified_organization": null
            }, 
            "body": "<p><a href=\"https://decidim.barcelona/proposals/construir-una-xarxa-de-relacions-regulars-entre-equipaments-culturals-i-escoles-d-art\">https://decidim.barcelona/proposals/construir-una-xarxa-de-relacions-regulars-entre-equipaments-culturals-i-escoles-d-art</a></p>", 
            "commentable_id": 2900, 
            "commentable_type": "Proposal", 
            "created_at": "08/04/2016 13:36:53", 
            "flagged": false, 
            "hidden": false, 
            "id": 10810, 
            "moderator_id": null, 
            "permissions": {
                "hide": false, 
                "hide_author": false, 
                "vote": false
            }, 
            "total_dislikes": 0, 
            "total_likes": 0, 
            "total_votes": 0
        }, 
        {
            "administrator_id": null, 
            "alignment": 0, 
            "ancestry": null, 
            "as": null, 
            "author": {
                "avatar_image": "https://decidim.barcelona/assets/avatar-866795c99abc33a3160d1f3fa93ada46eb75e54134e777666b9ed16215b26534.png", 
                "erased": false, 
                "hidden": false, 
                "id": 17740, 
                "name": "Suport General2 - Decidim Barcelona", 
                "official": false, 
                "official_level": 0, 
                "role": null, 
                "verified_organization": null
            }, 
            "body": "<p><a href=\"https://decidim.barcelona/proposals/dissenyar-els-programes-educatius-promoguts-des-dels-equipaments-culturals-com-a-propostes-d-innovacio-pedagogica-als-centres-educatius\">https://decidim.barcelona/proposals/dissenyar-els-programes-educatius-promoguts-des-dels-equipaments-culturals-com-a-propostes-d-innovacio-pedagogica-als-centres-educatius</a></p>", 
            "commentable_id": 2900, 
            "commentable_type": "Proposal", 
            "created_at": "08/04/2016 13:40:12", 
            "flagged": false, 
            "hidden": false, 
            "id": 10820, 
            "moderator_id": null, 
            "permissions": {
                "hide": false, 
                "hide_author": false, 
                "vote": false
            }, 
            "total_dislikes": 0, 
            "total_likes": 0, 
            "total_votes": 0
        }, 
        {
            "administrator_id": null, 
            "alignment": 0, 
            "ancestry": null, 
            "as": null, 
            "author": {
                "avatar_image": "https://decidim.barcelona/assets/avatar-866795c99abc33a3160d1f3fa93ada46eb75e54134e777666b9ed16215b26534.png", 
                "erased": false, 
                "hidden": false, 
                "id": 17740, 
                "name": "Suport General2 - Decidim Barcelona", 
                "official": false, 
                "official_level": 0, 
                "role": null, 
                "verified_organization": null
            }, 
            "body": "<p><a href=\"https://decidim.barcelona/proposals/incorporar-la-contemporaneitat-als-plans-educatius\">https://decidim.barcelona/proposals/incorporar-la-contemporaneitat-als-plans-educatius</a></p>", 
            "commentable_id": 2900, 
            "commentable_type": "Proposal", 
            "created_at": "08/04/2016 14:20:15", 
            "flagged": false, 
            "hidden": false, 
            "id": 10908, 
            "moderator_id": null, 
            "permissions": {
                "hide": false, 
                "hide_author": false, 
                "vote": false
            }, 
            "total_dislikes": 0, 
            "total_likes": 0, 
            "total_votes": 0
        }, 
        {
            "administrator_id": null, 
            "alignment": 0, 
            "ancestry": null, 
            "as": null, 
            "author": {
                "avatar_image": "https://decidim.barcelona/assets/avatar-866795c99abc33a3160d1f3fa93ada46eb75e54134e777666b9ed16215b26534.png", 
                "erased": false, 
                "hidden": false, 
                "id": 17740, 
                "name": "Suport General2 - Decidim Barcelona", 
                "official": false, 
                "official_level": 0, 
                "role": null, 
                "verified_organization": null
            }, 
            "body": "<p><a href=\"https://decidim.barcelona/proposals/fer-de-l-educacio-l-eix-central-de-les-institucions-culturals\">https://decidim.barcelona/proposals/fer-de-l-educacio-l-eix-central-de-les-institucions-culturals</a></p>", 
            "commentable_id": 2900, 
            "commentable_type": "Proposal", 
            "created_at": "08/04/2016 14:20:50", 
            "flagged": false, 
            "hidden": false, 
            "id": 10909, 
            "moderator_id": null, 
            "permissions": {
                "hide": false, 
                "hide_author": false, 
                "vote": false
            }, 
            "total_dislikes": 0, 
            "total_likes": 0, 
            "total_votes": 0
        }, 
        {
            "administrator_id": null, 
            "alignment": 0, 
            "ancestry": null, 
            "as": null, 
            "author": {
                "avatar_image": "https://decidim.barcelona/assets/avatar-866795c99abc33a3160d1f3fa93ada46eb75e54134e777666b9ed16215b26534.png", 
                "erased": false, 
                "hidden": false, 
                "id": 17740, 
                "name": "Suport General2 - Decidim Barcelona", 
                "official": false, 
                "official_level": 0, 
                "role": null, 
                "verified_organization": null
            }, 
            "body": "<p><a href=\"https://decidim.barcelona/proposals/grups-de-treball-i-coordinacio-transversal-per-a-equipaments-culturals\">https://decidim.barcelona/proposals/grups-de-treball-i-coordinacio-transversal-per-a-equipaments-culturals</a></p>", 
            "commentable_id": 2900, 
            "commentable_type": "Proposal", 
            "created_at": "08/04/2016 14:23:01", 
            "flagged": false, 
            "hidden": false, 
            "id": 10919, 
            "moderator_id": null, 
            "permissions": {
                "hide": false, 
                "hide_author": false, 
                "vote": false
            }, 
            "total_dislikes": 0, 
            "total_likes": 0, 
            "total_votes": 0
        }, 
        {
            "administrator_id": null, 
            "alignment": 0, 
            "ancestry": null, 
            "as": null, 
            "author": {
                "avatar_image": "https://decidim.barcelona/assets/avatar-866795c99abc33a3160d1f3fa93ada46eb75e54134e777666b9ed16215b26534.png", 
                "erased": false, 
                "hidden": false, 
                "id": 17740, 
                "name": "Suport General2 - Decidim Barcelona", 
                "official": false, 
                "official_level": 0, 
                "role": null, 
                "verified_organization": null
            }, 
            "body": "<p><a href=\"https://decidim.barcelona/proposals/teatre-de-intervencio-social\">https://decidim.barcelona/proposals/teatre-de-intervencio-social</a></p>", 
            "commentable_id": 2900, 
            "commentable_type": "Proposal", 
            "created_at": "08/04/2016 15:47:53", 
            "flagged": false, 
            "hidden": false, 
            "id": 11027, 
            "moderator_id": null, 
            "permissions": {
                "hide": false, 
                "hide_author": false, 
                "vote": false
            }, 
            "total_dislikes": 0, 
            "total_likes": 0, 
            "total_votes": 0
        }, 
        {
            "administrator_id": null, 
            "alignment": 0, 
            "ancestry": null, 
            "as": null, 
            "author": {
                "avatar_image": "https://decidim.barcelona/assets/avatar-866795c99abc33a3160d1f3fa93ada46eb75e54134e777666b9ed16215b26534.png", 
                "erased": false, 
                "hidden": false, 
                "id": 17740, 
                "name": "Suport General2 - Decidim Barcelona", 
                "official": false, 
                "official_level": 0, 
                "role": null, 
                "verified_organization": null
            }, 
            "body": "<p><a href=\"https://decidim.barcelona/proposals/establir-un-espai-de-referencia-per-promoure-la-interseccio-entre-cultura-i-educacio\">https://decidim.barcelona/proposals/establir-un-espai-de-referencia-per-promoure-la-interseccio-entre-cultura-i-educacio</a></p>", 
            "commentable_id": 2900, 
            "commentable_type": "Proposal", 
            "created_at": "08/04/2016 15:52:12", 
            "flagged": false, 
            "hidden": false, 
            "id": 11038, 
            "moderator_id": null, 
            "permissions": {
                "hide": false, 
                "hide_author": false, 
                "vote": false
            }, 
            "total_dislikes": 0, 
            "total_likes": 0, 
            "total_votes": 0
        }, 
        {
            "administrator_id": null, 
            "alignment": 0, 
            "ancestry": null, 
            "as": null, 
            "author": {
                "avatar_image": "https://decidim.barcelona/assets/avatar-866795c99abc33a3160d1f3fa93ada46eb75e54134e777666b9ed16215b26534.png", 
                "erased": false, 
                "hidden": false, 
                "id": 17740, 
                "name": "Suport General2 - Decidim Barcelona", 
                "official": false, 
                "official_level": 0, 
                "role": null, 
                "verified_organization": null
            }, 
            "body": "<p><a href=\"https://decidim.barcelona/proposals/crear-escoles-d-art-publiques\">https://decidim.barcelona/proposals/crear-escoles-d-art-publiques</a></p>", 
            "commentable_id": 2900, 
            "commentable_type": "Proposal", 
            "created_at": "08/04/2016 15:53:03", 
            "flagged": false, 
            "hidden": false, 
            "id": 11039, 
            "moderator_id": null, 
            "permissions": {
                "hide": false, 
                "hide_author": false, 
                "vote": false
            }, 
            "total_dislikes": 0, 
            "total_likes": 0, 
            "total_votes": 0
        }, 
        {
            "administrator_id": null, 
            "alignment": 0, 
            "ancestry": null, 
            "as": null, 
            "author": {
                "avatar_image": "https://decidim.barcelona/assets/avatar-866795c99abc33a3160d1f3fa93ada46eb75e54134e777666b9ed16215b26534.png", 
                "erased": false, 
                "hidden": false, 
                "id": 17740, 
                "name": "Suport General2 - Decidim Barcelona", 
                "official": false, 
                "official_level": 0, 
                "role": null, 
                "verified_organization": null
            }, 
            "body": "<p><a href=\"https://decidim.barcelona/proposals/programes-de-projectes-educatius-entre-equipaments-culturals-i-centres-a-llarg-termini\">https://decidim.barcelona/proposals/programes-de-projectes-educatius-entre-equipaments-culturals-i-centres-a-llarg-termini</a></p>", 
            "commentable_id": 2900, 
            "commentable_type": "Proposal", 
            "created_at": "08/04/2016 15:53:52", 
            "flagged": false, 
            "hidden": false, 
            "id": 11043, 
            "moderator_id": null, 
            "permissions": {
                "hide": false, 
                "hide_author": false, 
                "vote": false
            }, 
            "total_dislikes": 0, 
            "total_likes": 0, 
            "total_votes": 0
        }, 
        {
            "administrator_id": null, 
            "alignment": 0, 
            "ancestry": null, 
            "as": null, 
            "author": {
                "avatar_image": "https://decidim.barcelona/assets/avatar-866795c99abc33a3160d1f3fa93ada46eb75e54134e777666b9ed16215b26534.png", 
                "erased": false, 
                "hidden": false, 
                "id": 17740, 
                "name": "Suport General2 - Decidim Barcelona", 
                "official": false, 
                "official_level": 0, 
                "role": null, 
                "verified_organization": null
            }, 
            "body": "<p><a href=\"https://decidim.barcelona/proposals/oferta-educativa-gratuita-de-museus-i-equipaments-de-ciutat-per-totes-les-escoles\">https://decidim.barcelona/proposals/oferta-educativa-gratuita-de-museus-i-equipaments-de-ciutat-per-totes-les-escoles</a></p>", 
            "commentable_id": 2900, 
            "commentable_type": "Proposal", 
            "created_at": "08/04/2016 15:54:44", 
            "flagged": false, 
            "hidden": false, 
            "id": 11047, 
            "moderator_id": null, 
            "permissions": {
                "hide": false, 
                "hide_author": false, 
                "vote": false
            }, 
            "total_dislikes": 0, 
            "total_likes": 0, 
            "total_votes": 0
        }, 
        {
            "administrator_id": null, 
            "alignment": 0, 
            "ancestry": null, 
            "as": null, 
            "author": {
                "avatar_image": "https://decidim.barcelona/assets/avatar-866795c99abc33a3160d1f3fa93ada46eb75e54134e777666b9ed16215b26534.png", 
                "erased": false, 
                "hidden": false, 
                "id": 17740, 
                "name": "Suport General2 - Decidim Barcelona", 
                "official": false, 
                "official_level": 0, 
                "role": null, 
                "verified_organization": null
            }, 
            "body": "<p><a href=\"https://decidim.barcelona/proposals/els-centres-educatius-i-els-centres-culturals-de-proximitat-han-de-ser-dues-tipologies-d-equipaments-amb-funcions-i-objectius-comuns\">https://decidim.barcelona/proposals/els-centres-educatius-i-els-centres-culturals-de-proximitat-han-de-ser-dues-tipologies-d-equipaments-amb-funcions-i-objectius-comuns</a></p>", 
            "commentable_id": 2900, 
            "commentable_type": "Proposal", 
            "created_at": "08/04/2016 15:56:37", 
            "flagged": false, 
            "hidden": false, 
            "id": 11053, 
            "moderator_id": null, 
            "permissions": {
                "hide": false, 
                "hide_author": false, 
                "vote": false
            }, 
            "total_dislikes": 0, 
            "total_likes": 0, 
            "total_votes": 0
        }
    ], 
    "meta": {
        "current_page": 1, 
        "next_page": 2, 
        "prev_page": null, 
        "total_count": 27, 
        "total_pages": 2
    }
}