{
    "comments": [
        {
            "administrator_id": null, 
            "alignment": 0, 
            "ancestry": null, 
            "as": null, 
            "author": {
                "avatar_image": "https://decidim.barcelona/assets/avatar-866795c99abc33a3160d1f3fa93ada46eb75e54134e777666b9ed16215b26534.png", 
                "erased": false, 
                "hidden": false, 
                "id": 17740, 
                "name": "Suport General2 - Decidim Barcelona", 
                "official": false, 
                "official_level": 0, 
                "role": null, 
                "verified_organization": null
            }, 
            "body": "<p><a href=\"https://decidim.barcelona/proposals/desenvolupar-una-proposta-d-iniciativa-juvenil-a-traves-de-la-creacio-escenica-en-espais-no-convencionals\">https://decidim.barcelona/proposals/desenvolupar-una-proposta-d-iniciativa-juvenil-a-traves-de-la-creacio-escenica-en-espais-no-convencionals</a></p>", 
            "commentable_id": 2900, 
            "commentable_type": "Proposal", 
            "created_at": "08/04/2016 16:02:11", 
            "flagged": false, 
            "hidden": false, 
            "id": 11069, 
            "moderator_id": null, 
            "permissions": {
                "hide": false, 
                "hide_author": false, 
                "vote": false
            }, 
            "total_dislikes": 0, 
            "total_likes": 0, 
            "total_votes": 0
        }, 
        {
            "administrator_id": null, 
            "alignment": 0, 
            "ancestry": null, 
            "as": null, 
            "author": {
                "avatar_image": "https://decidim.barcelona/assets/avatar-866795c99abc33a3160d1f3fa93ada46eb75e54134e777666b9ed16215b26534.png", 
                "erased": false, 
                "hidden": false, 
                "id": 17740, 
                "name": "Suport General2 - Decidim Barcelona", 
                "official": false, 
                "official_level": 0, 
                "role": null, 
                "verified_organization": null
            }, 
            "body": "<p><a href=\"https://decidim.barcelona/proposals/vincular-les-politiques-culturals-i-educatives\">https://decidim.barcelona/proposals/vincular-les-politiques-culturals-i-educatives</a></p>", 
            "commentable_id": 2900, 
            "commentable_type": "Proposal", 
            "created_at": "08/04/2016 16:10:02", 
            "flagged": false, 
            "hidden": false, 
            "id": 11091, 
            "moderator_id": null, 
            "permissions": {
                "hide": false, 
                "hide_author": false, 
                "vote": false
            }, 
            "total_dislikes": 0, 
            "total_likes": 0, 
            "total_votes": 0
        }, 
        {
            "administrator_id": null, 
            "alignment": 0, 
            "ancestry": null, 
            "as": null, 
            "author": {
                "avatar_image": "https://decidim.barcelona/assets/avatar-866795c99abc33a3160d1f3fa93ada46eb75e54134e777666b9ed16215b26534.png", 
                "erased": false, 
                "hidden": false, 
                "id": 17740, 
                "name": "Suport General2 - Decidim Barcelona", 
                "official": false, 
                "official_level": 0, 
                "role": null, 
                "verified_organization": null
            }, 
            "body": "<p><a href=\"https://decidim.barcelona/proposals/crear-espais-de-coordinacio-territorial-entre-centres-educatius-i-centres-culturals\">https://decidim.barcelona/proposals/crear-espais-de-coordinacio-territorial-entre-centres-educatius-i-centres-culturals</a></p>", 
            "commentable_id": 2900, 
            "commentable_type": "Proposal", 
            "created_at": "08/04/2016 16:11:43", 
            "flagged": false, 
            "hidden": false, 
            "id": 11095, 
            "moderator_id": null, 
            "permissions": {
                "hide": false, 
                "hide_author": false, 
                "vote": false
            }, 
            "total_dislikes": 0, 
            "total_likes": 0, 
            "total_votes": 0
        }, 
        {
            "administrator_id": null, 
            "alignment": 0, 
            "ancestry": null, 
            "as": null, 
            "author": {
                "avatar_image": "https://decidim.barcelona/assets/avatar-866795c99abc33a3160d1f3fa93ada46eb75e54134e777666b9ed16215b26534.png", 
                "erased": false, 
                "hidden": false, 
                "id": 17740, 
                "name": "Suport General2 - Decidim Barcelona", 
                "official": false, 
                "official_level": 0, 
                "role": null, 
                "verified_organization": null
            }, 
            "body": "<p><a href=\"https://decidim.barcelona/proposals/revisar-els-programes-d-estudis-i-curriculars-de-les-escoles-d-art-i-d-ensenyaments-artistics-no-superiors\">https://decidim.barcelona/proposals/revisar-els-programes-d-estudis-i-curriculars-de-les-escoles-d-art-i-d-ensenyaments-artistics-no-superiors</a></p>", 
            "commentable_id": 2900, 
            "commentable_type": "Proposal", 
            "created_at": "08/04/2016 16:14:17", 
            "flagged": false, 
            "hidden": false, 
            "id": 11102, 
            "moderator_id": null, 
            "permissions": {
                "hide": false, 
                "hide_author": false, 
                "vote": false
            }, 
            "total_dislikes": 0, 
            "total_likes": 0, 
            "total_votes": 0
        }, 
        {
            "administrator_id": null, 
            "alignment": 0, 
            "ancestry": null, 
            "as": null, 
            "author": {
                "avatar_image": "https://decidim.barcelona/assets/avatar-866795c99abc33a3160d1f3fa93ada46eb75e54134e777666b9ed16215b26534.png", 
                "erased": false, 
                "hidden": false, 
                "id": 17740, 
                "name": "Suport General2 - Decidim Barcelona", 
                "official": false, 
                "official_level": 0, 
                "role": null, 
                "verified_organization": null
            }, 
            "body": "<p><a href=\"https://decidim.barcelona/proposals/promoure-l-educacio-artistica-a-les-escoles-de-primaria-apropant-la-als-projectes-i-agents-culturals-del-barri\">https://decidim.barcelona/proposals/promoure-l-educacio-artistica-a-les-escoles-de-primaria-apropant-la-als-projectes-i-agents-culturals-del-barri</a></p>", 
            "commentable_id": 2900, 
            "commentable_type": "Proposal", 
            "created_at": "08/04/2016 18:25:59", 
            "flagged": false, 
            "hidden": false, 
            "id": 11322, 
            "moderator_id": null, 
            "permissions": {
                "hide": false, 
                "hide_author": false, 
                "vote": false
            }, 
            "total_dislikes": 0, 
            "total_likes": 0, 
            "total_votes": 0
        }, 
        {
            "administrator_id": null, 
            "alignment": 0, 
            "ancestry": null, 
            "as": null, 
            "author": {
                "avatar_image": "https://decidim.barcelona/assets/avatar-866795c99abc33a3160d1f3fa93ada46eb75e54134e777666b9ed16215b26534.png", 
                "erased": false, 
                "hidden": false, 
                "id": 17740, 
                "name": "Suport General2 - Decidim Barcelona", 
                "official": false, 
                "official_level": 0, 
                "role": null, 
                "verified_organization": null
            }, 
            "body": "<p><a href=\"https://decidim.barcelona/proposals/la-cultura-artistica-en-l-educacio-formal\">https://decidim.barcelona/proposals/la-cultura-artistica-en-l-educacio-formal</a></p>", 
            "commentable_id": 2900, 
            "commentable_type": "Proposal", 
            "created_at": "09/04/2016 10:50:56", 
            "flagged": false, 
            "hidden": false, 
            "id": 11660, 
            "moderator_id": null, 
            "permissions": {
                "hide": false, 
                "hide_author": false, 
                "vote": false
            }, 
            "total_dislikes": 0, 
            "total_likes": 0, 
            "total_votes": 0
        }, 
        {
            "administrator_id": null, 
            "alignment": 0, 
            "ancestry": null, 
            "as": null, 
            "author": {
                "avatar_image": "https://decidim.barcelona/assets/avatar-866795c99abc33a3160d1f3fa93ada46eb75e54134e777666b9ed16215b26534.png", 
                "erased": false, 
                "hidden": false, 
                "id": 17740, 
                "name": "Suport General2 - Decidim Barcelona", 
                "official": false, 
                "official_level": 0, 
                "role": null, 
                "verified_organization": null
            }, 
            "body": "<p><a href=\"https://decidim.barcelona/proposals/fomentar-la-connexio-entre-els-espais-de-creacio-cultural-i-a-educacio-formal-i-no-formal\">https://decidim.barcelona/proposals/fomentar-la-connexio-entre-els-espais-de-creacio-cultural-i-a-educacio-formal-i-no-formal</a></p>", 
            "commentable_id": 2900, 
            "commentable_type": "Proposal", 
            "created_at": "09/04/2016 14:41:43", 
            "flagged": false, 
            "hidden": false, 
            "id": 12328, 
            "moderator_id": null, 
            "permissions": {
                "hide": false, 
                "hide_author": false, 
                "vote": false
            }, 
            "total_dislikes": 0, 
            "total_likes": 0, 
            "total_votes": 0
        }
    ], 
    "meta": {
        "current_page": 2, 
        "next_page": null, 
        "prev_page": 1, 
        "total_count": 27, 
        "total_pages": 2
    }
}