{
    "comments": [
        {
            "administrator_id": null, 
            "alignment": 1, 
            "ancestry": null, 
            "as": null, 
            "author": {
                "avatar_image": "https://decidim.barcelona/assets/avatar-866795c99abc33a3160d1f3fa93ada46eb75e54134e777666b9ed16215b26534.png", 
                "erased": false, 
                "hidden": false, 
                "id": 12179, 
                "name": "suport.decidim1", 
                "official": false, 
                "official_level": 0, 
                "role": null, 
                "verified_organization": null
            }, 
            "body": "<p>Proposta debatuda en el Consell de Dones: \"En el Pla per la Just\u00edcia de G\u00e8nere, desvincular l\u2019\u00e0mbit d\u2019esports de l\u2019\u00e0mbit de \u201csalut, drets sexuals i reproductius\u201d. Com alternatives es proposen crear-ne un de \u201cdona i esports\u201d; tenir-lo en compte dins de salut o vincular-ho a \u201cCultura i Mem\u00f2ria Col\u2022lectiva\u201d.</p>", 
            "commentable_id": 2902, 
            "commentable_type": "Proposal", 
            "created_at": "05/04/2016 14:14:30", 
            "flagged": false, 
            "hidden": false, 
            "id": 8013, 
            "moderator_id": null, 
            "permissions": {
                "hide": false, 
                "hide_author": false, 
                "vote": false
            }, 
            "total_dislikes": 0, 
            "total_likes": 0, 
            "total_votes": 0
        }, 
        {
            "administrator_id": null, 
            "alignment": 0, 
            "ancestry": null, 
            "as": null, 
            "author": {
                "avatar_image": "https://decidim.barcelona/assets/avatar-866795c99abc33a3160d1f3fa93ada46eb75e54134e777666b9ed16215b26534.png", 
                "erased": false, 
                "hidden": false, 
                "id": 17740, 
                "name": "Suport General2 - Decidim Barcelona", 
                "official": false, 
                "official_level": 0, 
                "role": null, 
                "verified_organization": null
            }, 
            "body": "<p><a href=\"https://decidim.barcelona/proposals/espais-esportius-oberts-al-vespre-nit-per-a-us-dels-joves\">https://decidim.barcelona/proposals/espais-esportius-oberts-al-vespre-nit-per-a-us-dels-joves</a></p>", 
            "commentable_id": 2902, 
            "commentable_type": "Proposal", 
            "created_at": "06/04/2016 17:12:21", 
            "flagged": false, 
            "hidden": false, 
            "id": 8728, 
            "moderator_id": null, 
            "permissions": {
                "hide": false, 
                "hide_author": false, 
                "vote": false
            }, 
            "total_dislikes": 0, 
            "total_likes": 0, 
            "total_votes": 0
        }, 
        {
            "administrator_id": null, 
            "alignment": 0, 
            "ancestry": null, 
            "as": null, 
            "author": {
                "avatar_image": "https://decidim.barcelona/assets/avatar-866795c99abc33a3160d1f3fa93ada46eb75e54134e777666b9ed16215b26534.png", 
                "erased": false, 
                "hidden": false, 
                "id": 17740, 
                "name": "Suport General2 - Decidim Barcelona", 
                "official": false, 
                "official_level": 0, 
                "role": null, 
                "verified_organization": null
            }, 
            "body": "<p><a href=\"https://decidim.barcelona/proposals/millorar-la-oferta-d-activitats-del-cem-can-toda\">https://decidim.barcelona/proposals/millorar-la-oferta-d-activitats-del-cem-can-toda</a></p>", 
            "commentable_id": 2902, 
            "commentable_type": "Proposal", 
            "created_at": "16/04/2016 11:43:35", 
            "flagged": false, 
            "hidden": false, 
            "id": 17923, 
            "moderator_id": null, 
            "permissions": {
                "hide": false, 
                "hide_author": false, 
                "vote": false
            }, 
            "total_dislikes": 0, 
            "total_likes": 0, 
            "total_votes": 0
        }, 
        {
            "administrator_id": null, 
            "alignment": 0, 
            "ancestry": null, 
            "as": null, 
            "author": {
                "avatar_image": "https://decidim.barcelona/assets/avatar-866795c99abc33a3160d1f3fa93ada46eb75e54134e777666b9ed16215b26534.png", 
                "erased": false, 
                "hidden": false, 
                "id": 17740, 
                "name": "Suport General2 - Decidim Barcelona", 
                "official": false, 
                "official_level": 0, 
                "role": null, 
                "verified_organization": null
            }, 
            "body": "<p><a href=\"https://decidim.barcelona/proposals/dinamitzacio-dels-espais-naturals-amb-activitats-de-lleure-per-promocionar-l-esport-i-la-practica-esportiva-aixi-com-la-practica-del-senderisme\">https://decidim.barcelona/proposals/dinamitzacio-dels-espais-naturals-amb-activitats-de-lleure-per-promocionar-l-esport-i-la-practica-esportiva-aixi-com-la-practica-del-senderisme</a></p>", 
            "commentable_id": 2902, 
            "commentable_type": "Proposal", 
            "created_at": "16/04/2016 11:43:45", 
            "flagged": false, 
            "hidden": false, 
            "id": 17924, 
            "moderator_id": null, 
            "permissions": {
                "hide": false, 
                "hide_author": false, 
                "vote": false
            }, 
            "total_dislikes": 0, 
            "total_likes": 0, 
            "total_votes": 0
        }, 
        {
            "administrator_id": null, 
            "alignment": 0, 
            "ancestry": null, 
            "as": null, 
            "author": {
                "avatar_image": "https://decidim.barcelona/assets/avatar-866795c99abc33a3160d1f3fa93ada46eb75e54134e777666b9ed16215b26534.png", 
                "erased": false, 
                "hidden": false, 
                "id": 17740, 
                "name": "Suport General2 - Decidim Barcelona", 
                "official": false, 
                "official_level": 0, 
                "role": null, 
                "verified_organization": null
            }, 
            "body": "<p><a href=\"https://decidim.barcelona/proposals/millorar-les-instal-lacions-i-recursos-per-a-les-bicicletes\">https://decidim.barcelona/proposals/millorar-les-instal-lacions-i-recursos-per-a-les-bicicletes</a></p>", 
            "commentable_id": 2902, 
            "commentable_type": "Proposal", 
            "created_at": "16/04/2016 11:43:54", 
            "flagged": false, 
            "hidden": false, 
            "id": 17925, 
            "moderator_id": null, 
            "permissions": {
                "hide": false, 
                "hide_author": false, 
                "vote": false
            }, 
            "total_dislikes": 0, 
            "total_likes": 0, 
            "total_votes": 0
        }, 
        {
            "administrator_id": null, 
            "alignment": 0, 
            "ancestry": null, 
            "as": null, 
            "author": {
                "avatar_image": "https://decidim.barcelona/assets/avatar-866795c99abc33a3160d1f3fa93ada46eb75e54134e777666b9ed16215b26534.png", 
                "erased": false, 
                "hidden": false, 
                "id": 17740, 
                "name": "Suport General2 - Decidim Barcelona", 
                "official": false, 
                "official_level": 0, 
                "role": null, 
                "verified_organization": null
            }, 
            "body": "<p><a href=\"https://decidim.barcelona/proposals/fomentar-la-practica-del-voleibol-als-espais-verds\">https://decidim.barcelona/proposals/fomentar-la-practica-del-voleibol-als-espais-verds</a></p>", 
            "commentable_id": 2902, 
            "commentable_type": "Proposal", 
            "created_at": "16/04/2016 11:44:04", 
            "flagged": false, 
            "hidden": false, 
            "id": 17926, 
            "moderator_id": null, 
            "permissions": {
                "hide": false, 
                "hide_author": false, 
                "vote": false
            }, 
            "total_dislikes": 0, 
            "total_likes": 0, 
            "total_votes": 0
        }, 
        {
            "administrator_id": null, 
            "alignment": 0, 
            "ancestry": null, 
            "as": null, 
            "author": {
                "avatar_image": "https://decidim.barcelona/assets/avatar-866795c99abc33a3160d1f3fa93ada46eb75e54134e777666b9ed16215b26534.png", 
                "erased": false, 
                "hidden": false, 
                "id": 17740, 
                "name": "Suport General2 - Decidim Barcelona", 
                "official": false, 
                "official_level": 0, 
                "role": null, 
                "verified_organization": null
            }, 
            "body": "<p><a href=\"https://decidim.barcelona/proposals/mes-circuits-d-aventures-i-tirolines-a-la-ciutat\">https://decidim.barcelona/proposals/mes-circuits-d-aventures-i-tirolines-a-la-ciutat</a></p>", 
            "commentable_id": 2902, 
            "commentable_type": "Proposal", 
            "created_at": "16/04/2016 11:44:15", 
            "flagged": false, 
            "hidden": false, 
            "id": 17927, 
            "moderator_id": null, 
            "permissions": {
                "hide": false, 
                "hide_author": false, 
                "vote": false
            }, 
            "total_dislikes": 0, 
            "total_likes": 0, 
            "total_votes": 0
        }, 
        {
            "administrator_id": null, 
            "alignment": 0, 
            "ancestry": null, 
            "as": null, 
            "author": {
                "avatar_image": "https://decidim.barcelona/assets/avatar-866795c99abc33a3160d1f3fa93ada46eb75e54134e777666b9ed16215b26534.png", 
                "erased": false, 
                "hidden": false, 
                "id": 17740, 
                "name": "Suport General2 - Decidim Barcelona", 
                "official": false, 
                "official_level": 0, 
                "role": null, 
                "verified_organization": null
            }, 
            "body": "<p><a href=\"https://decidim.barcelona/proposals/pistes-de-basquet-amb-canxes-dures-i-reixes\">https://decidim.barcelona/proposals/pistes-de-basquet-amb-canxes-dures-i-reixes</a></p>", 
            "commentable_id": 2902, 
            "commentable_type": "Proposal", 
            "created_at": "16/04/2016 11:44:33", 
            "flagged": false, 
            "hidden": false, 
            "id": 17928, 
            "moderator_id": null, 
            "permissions": {
                "hide": false, 
                "hide_author": false, 
                "vote": false
            }, 
            "total_dislikes": 0, 
            "total_likes": 0, 
            "total_votes": 0
        }, 
        {
            "administrator_id": null, 
            "alignment": 0, 
            "ancestry": null, 
            "as": null, 
            "author": {
                "avatar_image": "https://decidim.barcelona/assets/avatar-866795c99abc33a3160d1f3fa93ada46eb75e54134e777666b9ed16215b26534.png", 
                "erased": false, 
                "hidden": false, 
                "id": 17740, 
                "name": "Suport General2 - Decidim Barcelona", 
                "official": false, 
                "official_level": 0, 
                "role": null, 
                "verified_organization": null
            }, 
            "body": "<p><a href=\"https://decidim.barcelona/proposals/dinamitzadors-a-l-espai-public\">https://decidim.barcelona/proposals/dinamitzadors-a-l-espai-public</a></p>", 
            "commentable_id": 2902, 
            "commentable_type": "Proposal", 
            "created_at": "16/04/2016 11:44:46", 
            "flagged": false, 
            "hidden": false, 
            "id": 17929, 
            "moderator_id": null, 
            "permissions": {
                "hide": false, 
                "hide_author": false, 
                "vote": false
            }, 
            "total_dislikes": 0, 
            "total_likes": 0, 
            "total_votes": 0
        }, 
        {
            "administrator_id": null, 
            "alignment": 0, 
            "ancestry": null, 
            "as": null, 
            "author": {
                "avatar_image": "https://decidim.barcelona/assets/avatar-866795c99abc33a3160d1f3fa93ada46eb75e54134e777666b9ed16215b26534.png", 
                "erased": false, 
                "hidden": false, 
                "id": 17740, 
                "name": "Suport General2 - Decidim Barcelona", 
                "official": false, 
                "official_level": 0, 
                "role": null, 
                "verified_organization": null
            }, 
            "body": "<p><a href=\"https://decidim.barcelona/proposals/potenciar-les-vies-verdes\">https://decidim.barcelona/proposals/potenciar-les-vies-verdes</a></p>", 
            "commentable_id": 2902, 
            "commentable_type": "Proposal", 
            "created_at": "16/04/2016 11:45:03", 
            "flagged": false, 
            "hidden": false, 
            "id": 17930, 
            "moderator_id": null, 
            "permissions": {
                "hide": false, 
                "hide_author": false, 
                "vote": false
            }, 
            "total_dislikes": 0, 
            "total_likes": 0, 
            "total_votes": 0
        }, 
        {
            "administrator_id": null, 
            "alignment": 0, 
            "ancestry": null, 
            "as": null, 
            "author": {
                "avatar_image": "https://decidim.barcelona/assets/avatar-866795c99abc33a3160d1f3fa93ada46eb75e54134e777666b9ed16215b26534.png", 
                "erased": false, 
                "hidden": false, 
                "id": 17740, 
                "name": "Suport General2 - Decidim Barcelona", 
                "official": false, 
                "official_level": 0, 
                "role": null, 
                "verified_organization": null
            }, 
            "body": "<p><a href=\"https://decidim.barcelona/proposals/mes-espais-per-iniciar-se-en-la-practica-esportiva\">https://decidim.barcelona/proposals/mes-espais-per-iniciar-se-en-la-practica-esportiva</a></p>", 
            "commentable_id": 2902, 
            "commentable_type": "Proposal", 
            "created_at": "16/04/2016 11:45:15", 
            "flagged": false, 
            "hidden": false, 
            "id": 17931, 
            "moderator_id": null, 
            "permissions": {
                "hide": false, 
                "hide_author": false, 
                "vote": false
            }, 
            "total_dislikes": 0, 
            "total_likes": 0, 
            "total_votes": 0
        }, 
        {
            "administrator_id": null, 
            "alignment": 0, 
            "ancestry": null, 
            "as": null, 
            "author": {
                "avatar_image": "https://decidim.barcelona/assets/avatar-866795c99abc33a3160d1f3fa93ada46eb75e54134e777666b9ed16215b26534.png", 
                "erased": false, 
                "hidden": false, 
                "id": 17740, 
                "name": "Suport General2 - Decidim Barcelona", 
                "official": false, 
                "official_level": 0, 
                "role": null, 
                "verified_organization": null
            }, 
            "body": "<p><a href=\"https://decidim.barcelona/proposals/informar-a-les-families-dels-equipaments-i-l-oferta-esportiva-existent\">https://decidim.barcelona/proposals/informar-a-les-families-dels-equipaments-i-l-oferta-esportiva-existent</a></p>", 
            "commentable_id": 2902, 
            "commentable_type": "Proposal", 
            "created_at": "16/04/2016 11:45:25", 
            "flagged": false, 
            "hidden": false, 
            "id": 17932, 
            "moderator_id": null, 
            "permissions": {
                "hide": false, 
                "hide_author": false, 
                "vote": false
            }, 
            "total_dislikes": 0, 
            "total_likes": 0, 
            "total_votes": 0
        }, 
        {
            "administrator_id": null, 
            "alignment": 0, 
            "ancestry": null, 
            "as": null, 
            "author": {
                "avatar_image": "https://decidim.barcelona/assets/avatar-866795c99abc33a3160d1f3fa93ada46eb75e54134e777666b9ed16215b26534.png", 
                "erased": false, 
                "hidden": false, 
                "id": 17740, 
                "name": "Suport General2 - Decidim Barcelona", 
                "official": false, 
                "official_level": 0, 
                "role": null, 
                "verified_organization": null
            }, 
            "body": "<p><a href=\"https://decidim.barcelona/proposals/derogacio-dels-articles-de-l-ordenanca-de-civisme-que-prohibeixen-fer-determinades-activitats-esportives-a-l-espai-public\">https://decidim.barcelona/proposals/derogacio-dels-articles-de-l-ordenanca-de-civisme-que-prohibeixen-fer-determinades-activitats-esportives-a-l-espai-public</a></p>", 
            "commentable_id": 2902, 
            "commentable_type": "Proposal", 
            "created_at": "16/04/2016 11:45:34", 
            "flagged": false, 
            "hidden": false, 
            "id": 17933, 
            "moderator_id": null, 
            "permissions": {
                "hide": false, 
                "hide_author": false, 
                "vote": false
            }, 
            "total_dislikes": 0, 
            "total_likes": 0, 
            "total_votes": 0
        }, 
        {
            "administrator_id": null, 
            "alignment": 0, 
            "ancestry": null, 
            "as": null, 
            "author": {
                "avatar_image": "https://decidim.barcelona/assets/avatar-866795c99abc33a3160d1f3fa93ada46eb75e54134e777666b9ed16215b26534.png", 
                "erased": false, 
                "hidden": false, 
                "id": 17740, 
                "name": "Suport General2 - Decidim Barcelona", 
                "official": false, 
                "official_level": 0, 
                "role": null, 
                "verified_organization": null
            }, 
            "body": "<p><a href=\"https://decidim.barcelona/proposals/millorar-la-comunicacio-de-les-activitats-fisiques-esportives-ofertes-de-districte-i-ciutat\">https://decidim.barcelona/proposals/millorar-la-comunicacio-de-les-activitats-fisiques-esportives-ofertes-de-districte-i-ciutat</a></p>", 
            "commentable_id": 2902, 
            "commentable_type": "Proposal", 
            "created_at": "16/04/2016 11:45:43", 
            "flagged": false, 
            "hidden": false, 
            "id": 17934, 
            "moderator_id": null, 
            "permissions": {
                "hide": false, 
                "hide_author": false, 
                "vote": false
            }, 
            "total_dislikes": 0, 
            "total_likes": 0, 
            "total_votes": 0
        }, 
        {
            "administrator_id": null, 
            "alignment": 0, 
            "ancestry": null, 
            "as": null, 
            "author": {
                "avatar_image": "https://decidim.barcelona/assets/avatar-866795c99abc33a3160d1f3fa93ada46eb75e54134e777666b9ed16215b26534.png", 
                "erased": false, 
                "hidden": false, 
                "id": 17740, 
                "name": "Suport General2 - Decidim Barcelona", 
                "official": false, 
                "official_level": 0, 
                "role": null, 
                "verified_organization": null
            }, 
            "body": "<p><a href=\"https://decidim.barcelona/proposals/crear-una-xarxa-esportiva-sense-competicio\">https://decidim.barcelona/proposals/crear-una-xarxa-esportiva-sense-competicio</a></p>", 
            "commentable_id": 2902, 
            "commentable_type": "Proposal", 
            "created_at": "16/04/2016 11:45:53", 
            "flagged": false, 
            "hidden": false, 
            "id": 17935, 
            "moderator_id": null, 
            "permissions": {
                "hide": false, 
                "hide_author": false, 
                "vote": false
            }, 
            "total_dislikes": 0, 
            "total_likes": 0, 
            "total_votes": 0
        }, 
        {
            "administrator_id": null, 
            "alignment": 0, 
            "ancestry": null, 
            "as": null, 
            "author": {
                "avatar_image": "https://decidim.barcelona/assets/avatar-866795c99abc33a3160d1f3fa93ada46eb75e54134e777666b9ed16215b26534.png", 
                "erased": false, 
                "hidden": false, 
                "id": 17740, 
                "name": "Suport General2 - Decidim Barcelona", 
                "official": false, 
                "official_level": 0, 
                "role": null, 
                "verified_organization": null
            }, 
            "body": "<p><a href=\"https://decidim.barcelona/proposals/crear-canxes-de-basquet-i-altres-esports-als-solars-en-desus\">https://decidim.barcelona/proposals/crear-canxes-de-basquet-i-altres-esports-als-solars-en-desus</a></p>", 
            "commentable_id": 2902, 
            "commentable_type": "Proposal", 
            "created_at": "16/04/2016 11:46:02", 
            "flagged": false, 
            "hidden": false, 
            "id": 17936, 
            "moderator_id": null, 
            "permissions": {
                "hide": false, 
                "hide_author": false, 
                "vote": false
            }, 
            "total_dislikes": 0, 
            "total_likes": 0, 
            "total_votes": 0
        }, 
        {
            "administrator_id": null, 
            "alignment": 0, 
            "ancestry": null, 
            "as": null, 
            "author": {
                "avatar_image": "https://decidim.barcelona/assets/avatar-866795c99abc33a3160d1f3fa93ada46eb75e54134e777666b9ed16215b26534.png", 
                "erased": false, 
                "hidden": false, 
                "id": 17740, 
                "name": "Suport General2 - Decidim Barcelona", 
                "official": false, 
                "official_level": 0, 
                "role": null, 
                "verified_organization": null
            }, 
            "body": "<p><a href=\"https://decidim.barcelona/proposals/esport-de-base\">https://decidim.barcelona/proposals/esport-de-base</a></p>", 
            "commentable_id": 2902, 
            "commentable_type": "Proposal", 
            "created_at": "16/04/2016 11:46:13", 
            "flagged": false, 
            "hidden": false, 
            "id": 17937, 
            "moderator_id": null, 
            "permissions": {
                "hide": false, 
                "hide_author": false, 
                "vote": false
            }, 
            "total_dislikes": 0, 
            "total_likes": 0, 
            "total_votes": 0
        }, 
        {
            "administrator_id": null, 
            "alignment": 0, 
            "ancestry": null, 
            "as": null, 
            "author": {
                "avatar_image": "https://decidim.barcelona/assets/avatar-866795c99abc33a3160d1f3fa93ada46eb75e54134e777666b9ed16215b26534.png", 
                "erased": false, 
                "hidden": false, 
                "id": 17740, 
                "name": "Suport General2 - Decidim Barcelona", 
                "official": false, 
                "official_level": 0, 
                "role": null, 
                "verified_organization": null
            }, 
            "body": "<p><a href=\"https://decidim.barcelona/proposals/accessos-lliures-a-mar-per-embarcacions-d-esbarjo\">https://decidim.barcelona/proposals/accessos-lliures-a-mar-per-embarcacions-d-esbarjo</a></p>", 
            "commentable_id": 2902, 
            "commentable_type": "Proposal", 
            "created_at": "16/04/2016 11:46:23", 
            "flagged": false, 
            "hidden": false, 
            "id": 17938, 
            "moderator_id": null, 
            "permissions": {
                "hide": false, 
                "hide_author": false, 
                "vote": false
            }, 
            "total_dislikes": 0, 
            "total_likes": 0, 
            "total_votes": 0
        }, 
        {
            "administrator_id": null, 
            "alignment": 0, 
            "ancestry": null, 
            "as": null, 
            "author": {
                "avatar_image": "https://decidim.barcelona/assets/avatar-866795c99abc33a3160d1f3fa93ada46eb75e54134e777666b9ed16215b26534.png", 
                "erased": false, 
                "hidden": false, 
                "id": 17740, 
                "name": "Suport General2 - Decidim Barcelona", 
                "official": false, 
                "official_level": 0, 
                "role": null, 
                "verified_organization": null
            }, 
            "body": "<p><a href=\"https://decidim.barcelona/proposals/mes-instal-lacions-esportives-gratuites\">https://decidim.barcelona/proposals/mes-instal-lacions-esportives-gratuites</a></p>", 
            "commentable_id": 2902, 
            "commentable_type": "Proposal", 
            "created_at": "16/04/2016 11:46:37", 
            "flagged": false, 
            "hidden": false, 
            "id": 17939, 
            "moderator_id": null, 
            "permissions": {
                "hide": false, 
                "hide_author": false, 
                "vote": false
            }, 
            "total_dislikes": 0, 
            "total_likes": 0, 
            "total_votes": 0
        }, 
        {
            "administrator_id": null, 
            "alignment": 0, 
            "ancestry": null, 
            "as": null, 
            "author": {
                "avatar_image": "https://decidim.barcelona/assets/avatar-866795c99abc33a3160d1f3fa93ada46eb75e54134e777666b9ed16215b26534.png", 
                "erased": false, 
                "hidden": false, 
                "id": 17740, 
                "name": "Suport General2 - Decidim Barcelona", 
                "official": false, 
                "official_level": 0, 
                "role": null, 
                "verified_organization": null
            }, 
            "body": "<p><a href=\"https://decidim.barcelona/proposals/parc-verd-amb-pista-d-atletisme-publica\">https://decidim.barcelona/proposals/parc-verd-amb-pista-d-atletisme-publica</a></p>", 
            "commentable_id": 2902, 
            "commentable_type": "Proposal", 
            "created_at": "16/04/2016 11:46:45", 
            "flagged": false, 
            "hidden": false, 
            "id": 17940, 
            "moderator_id": null, 
            "permissions": {
                "hide": false, 
                "hide_author": false, 
                "vote": false
            }, 
            "total_dislikes": 0, 
            "total_likes": 1, 
            "total_votes": 1
        }
    ], 
    "meta": {
        "current_page": 1, 
        "next_page": 2, 
        "prev_page": null, 
        "total_count": 29, 
        "total_pages": 2
    }
}