{
    "comments": [
        {
            "administrator_id": null, 
            "alignment": 0, 
            "ancestry": null, 
            "as": null, 
            "author": {
                "avatar_image": "https://decidim.barcelona/assets/avatar-866795c99abc33a3160d1f3fa93ada46eb75e54134e777666b9ed16215b26534.png", 
                "erased": false, 
                "hidden": false, 
                "id": 17740, 
                "name": "Suport General2 - Decidim Barcelona", 
                "official": false, 
                "official_level": 0, 
                "role": null, 
                "verified_organization": null
            }, 
            "body": "<p><a href=\"https://decidim.barcelona/proposals/que-barcelona-sigui-una-ciutat-multiesportiva-i-no-nomes-de-grans-esdeveniments\">https://decidim.barcelona/proposals/que-barcelona-sigui-una-ciutat-multiesportiva-i-no-nomes-de-grans-esdeveniments</a></p>", 
            "commentable_id": 2902, 
            "commentable_type": "Proposal", 
            "created_at": "16/04/2016 11:46:55", 
            "flagged": false, 
            "hidden": false, 
            "id": 17941, 
            "moderator_id": null, 
            "permissions": {
                "hide": false, 
                "hide_author": false, 
                "vote": false
            }, 
            "total_dislikes": 0, 
            "total_likes": 1, 
            "total_votes": 1
        }, 
        {
            "administrator_id": null, 
            "alignment": 0, 
            "ancestry": null, 
            "as": null, 
            "author": {
                "avatar_image": "https://decidim.barcelona/assets/avatar-866795c99abc33a3160d1f3fa93ada46eb75e54134e777666b9ed16215b26534.png", 
                "erased": false, 
                "hidden": false, 
                "id": 17740, 
                "name": "Suport General2 - Decidim Barcelona", 
                "official": false, 
                "official_level": 0, 
                "role": null, 
                "verified_organization": null
            }, 
            "body": "<p><a href=\"https://decidim.barcelona/proposals/estimular-l-exercici-fisic-als-parcs-municipals\">https://decidim.barcelona/proposals/estimular-l-exercici-fisic-als-parcs-municipals</a></p>", 
            "commentable_id": 2902, 
            "commentable_type": "Proposal", 
            "created_at": "16/04/2016 11:47:04", 
            "flagged": false, 
            "hidden": false, 
            "id": 17942, 
            "moderator_id": null, 
            "permissions": {
                "hide": false, 
                "hide_author": false, 
                "vote": false
            }, 
            "total_dislikes": 0, 
            "total_likes": 1, 
            "total_votes": 1
        }, 
        {
            "administrator_id": null, 
            "alignment": 0, 
            "ancestry": null, 
            "as": null, 
            "author": {
                "avatar_image": "https://decidim.barcelona/assets/avatar-866795c99abc33a3160d1f3fa93ada46eb75e54134e777666b9ed16215b26534.png", 
                "erased": false, 
                "hidden": false, 
                "id": 17740, 
                "name": "Suport General2 - Decidim Barcelona", 
                "official": false, 
                "official_level": 0, 
                "role": null, 
                "verified_organization": null
            }, 
            "body": "<p><a href=\"https://decidim.barcelona/proposals/permetre-la-practica-del-surf-a-barcelona-sempre\">https://decidim.barcelona/proposals/permetre-la-practica-del-surf-a-barcelona-sempre</a>\n</p>", 
            "commentable_id": 2902, 
            "commentable_type": "Proposal", 
            "created_at": "16/04/2016 11:47:16", 
            "flagged": false, 
            "hidden": false, 
            "id": 17943, 
            "moderator_id": null, 
            "permissions": {
                "hide": false, 
                "hide_author": false, 
                "vote": false
            }, 
            "total_dislikes": 0, 
            "total_likes": 0, 
            "total_votes": 0
        }, 
        {
            "administrator_id": null, 
            "alignment": 0, 
            "ancestry": null, 
            "as": null, 
            "author": {
                "avatar_image": "https://decidim.barcelona/assets/avatar-866795c99abc33a3160d1f3fa93ada46eb75e54134e777666b9ed16215b26534.png", 
                "erased": false, 
                "hidden": false, 
                "id": 17740, 
                "name": "Suport General2 - Decidim Barcelona", 
                "official": false, 
                "official_level": 0, 
                "role": null, 
                "verified_organization": null
            }, 
            "body": "<p><a href=\"https://decidim.barcelona/proposals/creacio-de-zones-esportives-a-tots-els-barris-similar-a-california\">https://decidim.barcelona/proposals/creacio-de-zones-esportives-a-tots-els-barris-similar-a-california</a></p>", 
            "commentable_id": 2902, 
            "commentable_type": "Proposal", 
            "created_at": "16/04/2016 11:47:27", 
            "flagged": false, 
            "hidden": false, 
            "id": 17944, 
            "moderator_id": null, 
            "permissions": {
                "hide": false, 
                "hide_author": false, 
                "vote": false
            }, 
            "total_dislikes": 0, 
            "total_likes": 0, 
            "total_votes": 0
        }, 
        {
            "administrator_id": null, 
            "alignment": 0, 
            "ancestry": null, 
            "as": null, 
            "author": {
                "avatar_image": "https://decidim.barcelona/assets/avatar-866795c99abc33a3160d1f3fa93ada46eb75e54134e777666b9ed16215b26534.png", 
                "erased": false, 
                "hidden": false, 
                "id": 17740, 
                "name": "Suport General2 - Decidim Barcelona", 
                "official": false, 
                "official_level": 0, 
                "role": null, 
                "verified_organization": null
            }, 
            "body": "<p><a href=\"https://decidim.barcelona/proposals/volei-platja-al-vall-d-hebron-al-districte\">https://decidim.barcelona/proposals/volei-platja-al-vall-d-hebron-al-districte</a></p>", 
            "commentable_id": 2902, 
            "commentable_type": "Proposal", 
            "created_at": "16/04/2016 11:47:39", 
            "flagged": false, 
            "hidden": false, 
            "id": 17945, 
            "moderator_id": null, 
            "permissions": {
                "hide": false, 
                "hide_author": false, 
                "vote": false
            }, 
            "total_dislikes": 0, 
            "total_likes": 0, 
            "total_votes": 0
        }, 
        {
            "administrator_id": null, 
            "alignment": 0, 
            "ancestry": null, 
            "as": null, 
            "author": {
                "avatar_image": "https://decidim.barcelona/assets/avatar-866795c99abc33a3160d1f3fa93ada46eb75e54134e777666b9ed16215b26534.png", 
                "erased": false, 
                "hidden": false, 
                "id": 17740, 
                "name": "Suport General2 - Decidim Barcelona", 
                "official": false, 
                "official_level": 0, 
                "role": null, 
                "verified_organization": null
            }, 
            "body": "<p><a href=\"https://decidim.barcelona/proposals/garantir-l-accessibilitat-per-a-tothom-als-equipaments-esportius-municipals\">https://decidim.barcelona/proposals/garantir-l-accessibilitat-per-a-tothom-als-equipaments-esportius-municipals</a></p>", 
            "commentable_id": 2902, 
            "commentable_type": "Proposal", 
            "created_at": "16/04/2016 11:47:49", 
            "flagged": false, 
            "hidden": false, 
            "id": 17946, 
            "moderator_id": null, 
            "permissions": {
                "hide": false, 
                "hide_author": false, 
                "vote": false
            }, 
            "total_dislikes": 0, 
            "total_likes": 0, 
            "total_votes": 0
        }, 
        {
            "administrator_id": null, 
            "alignment": 0, 
            "ancestry": null, 
            "as": null, 
            "author": {
                "avatar_image": "https://decidim.barcelona/assets/avatar-866795c99abc33a3160d1f3fa93ada46eb75e54134e777666b9ed16215b26534.png", 
                "erased": false, 
                "hidden": false, 
                "id": 17740, 
                "name": "Suport General2 - Decidim Barcelona", 
                "official": false, 
                "official_level": 0, 
                "role": null, 
                "verified_organization": null
            }, 
            "body": "<p><a href=\"https://decidim.barcelona/proposals/obrir-espais-esportius-a-la-poblacio-en-general\">https://decidim.barcelona/proposals/obrir-espais-esportius-a-la-poblacio-en-general</a> al districte de sarri\u00e0- sant Gervasi</p>", 
            "commentable_id": 2902, 
            "commentable_type": "Proposal", 
            "created_at": "16/04/2016 11:47:59", 
            "flagged": false, 
            "hidden": false, 
            "id": 17947, 
            "moderator_id": null, 
            "permissions": {
                "hide": false, 
                "hide_author": false, 
                "vote": false
            }, 
            "total_dislikes": 0, 
            "total_likes": 1, 
            "total_votes": 1
        }, 
        {
            "administrator_id": null, 
            "alignment": 0, 
            "ancestry": null, 
            "as": null, 
            "author": {
                "avatar_image": "https://decidim.barcelona/assets/avatar-866795c99abc33a3160d1f3fa93ada46eb75e54134e777666b9ed16215b26534.png", 
                "erased": false, 
                "hidden": false, 
                "id": 17740, 
                "name": "Suport General2 - Decidim Barcelona", 
                "official": false, 
                "official_level": 0, 
                "role": null, 
                "verified_organization": null
            }, 
            "body": "<p><a href=\"https://decidim.barcelona/proposals/creacio-d-una-cistella-de-basquet-al-parc-de-d-alt-del-park-guell\">https://decidim.barcelona/proposals/creacio-d-una-cistella-de-basquet-al-parc-de-d-alt-del-park-guell</a></p>", 
            "commentable_id": 2902, 
            "commentable_type": "Proposal", 
            "created_at": "16/04/2016 11:48:11", 
            "flagged": false, 
            "hidden": false, 
            "id": 17948, 
            "moderator_id": null, 
            "permissions": {
                "hide": false, 
                "hide_author": false, 
                "vote": false
            }, 
            "total_dislikes": 0, 
            "total_likes": 0, 
            "total_votes": 0
        }, 
        {
            "administrator_id": null, 
            "alignment": 0, 
            "ancestry": null, 
            "as": null, 
            "author": {
                "avatar_image": "https://decidim.barcelona/assets/avatar-866795c99abc33a3160d1f3fa93ada46eb75e54134e777666b9ed16215b26534.png", 
                "erased": false, 
                "hidden": false, 
                "id": 17740, 
                "name": "Suport General2 - Decidim Barcelona", 
                "official": false, 
                "official_level": 0, 
                "role": null, 
                "verified_organization": null
            }, 
            "body": "<p><a href=\"https://decidim.barcelona/proposals/promocionar-la-practica-del-joc-de-la-petanca\">https://decidim.barcelona/proposals/promocionar-la-practica-del-joc-de-la-petanca</a> al districte de Gr\u00e0cia</p>", 
            "commentable_id": 2902, 
            "commentable_type": "Proposal", 
            "created_at": "16/04/2016 11:48:26", 
            "flagged": false, 
            "hidden": false, 
            "id": 17949, 
            "moderator_id": null, 
            "permissions": {
                "hide": false, 
                "hide_author": false, 
                "vote": false
            }, 
            "total_dislikes": 0, 
            "total_likes": 0, 
            "total_votes": 0
        }
    ], 
    "meta": {
        "current_page": 2, 
        "next_page": null, 
        "prev_page": 1, 
        "total_count": 29, 
        "total_pages": 2
    }
}