{
    "comments": [
        {
            "administrator_id": null, 
            "alignment": 0, 
            "ancestry": null, 
            "as": null, 
            "author": {
                "avatar_image": "https://decidim.barcelona/assets/avatar-866795c99abc33a3160d1f3fa93ada46eb75e54134e777666b9ed16215b26534.png", 
                "erased": false, 
                "hidden": false, 
                "id": 9262, 
                "name": "Suport General - Decidim Barcelona", 
                "official": false, 
                "official_level": 0, 
                "role": null, 
                "verified_organization": null
            }, 
            "body": "<p><a href=\"https://decidim.barcelona/proposals/canviar-els-circuits-per-on-es-desenvolupen-les-curses-per-no-afectar-el-comerc\">https://decidim.barcelona/proposals/canviar-els-circuits-per-on-es-desenvolupen-les-curses-per-no-afectar-el-comerc</a></p>", 
            "commentable_id": 2915, 
            "commentable_type": "Proposal", 
            "created_at": "07/04/2016 16:40:58", 
            "flagged": false, 
            "hidden": false, 
            "id": 9664, 
            "moderator_id": null, 
            "permissions": {
                "hide": false, 
                "hide_author": false, 
                "vote": false
            }, 
            "total_dislikes": 0, 
            "total_likes": 0, 
            "total_votes": 0
        }, 
        {
            "administrator_id": null, 
            "alignment": 0, 
            "ancestry": null, 
            "as": null, 
            "author": {
                "avatar_image": "https://decidim.barcelona/assets/avatar-866795c99abc33a3160d1f3fa93ada46eb75e54134e777666b9ed16215b26534.png", 
                "erased": false, 
                "hidden": false, 
                "id": 9262, 
                "name": "Suport General - Decidim Barcelona", 
                "official": false, 
                "official_level": 0, 
                "role": null, 
                "verified_organization": null
            }, 
            "body": "<p><a href=\"https://decidim.barcelona/proposals/regulacio-de-centres-comercials\">https://decidim.barcelona/proposals/regulacio-de-centres-comercials</a></p>", 
            "commentable_id": 2915, 
            "commentable_type": "Proposal", 
            "created_at": "07/04/2016 16:41:36", 
            "flagged": false, 
            "hidden": false, 
            "id": 9667, 
            "moderator_id": null, 
            "permissions": {
                "hide": false, 
                "hide_author": false, 
                "vote": false
            }, 
            "total_dislikes": 0, 
            "total_likes": 0, 
            "total_votes": 0
        }, 
        {
            "administrator_id": null, 
            "alignment": 0, 
            "ancestry": null, 
            "as": null, 
            "author": {
                "avatar_image": "https://decidim.barcelona/assets/avatar-866795c99abc33a3160d1f3fa93ada46eb75e54134e777666b9ed16215b26534.png", 
                "erased": false, 
                "hidden": false, 
                "id": 9262, 
                "name": "Suport General - Decidim Barcelona", 
                "official": false, 
                "official_level": 0, 
                "role": null, 
                "verified_organization": null
            }, 
            "body": "<p><a href=\"https://decidim.barcelona/proposals/revisar-els-projectes-de-foment-del-comerc-de-proximitat-fet-anteriorment\">https://decidim.barcelona/proposals/revisar-els-projectes-de-foment-del-comerc-de-proximitat-fet-anteriorment</a></p>", 
            "commentable_id": 2915, 
            "commentable_type": "Proposal", 
            "created_at": "07/04/2016 16:49:48", 
            "flagged": false, 
            "hidden": false, 
            "id": 9696, 
            "moderator_id": null, 
            "permissions": {
                "hide": false, 
                "hide_author": false, 
                "vote": false
            }, 
            "total_dislikes": 0, 
            "total_likes": 0, 
            "total_votes": 0
        }, 
        {
            "administrator_id": null, 
            "alignment": 0, 
            "ancestry": null, 
            "as": null, 
            "author": {
                "avatar_image": "https://decidim.barcelona/assets/avatar-866795c99abc33a3160d1f3fa93ada46eb75e54134e777666b9ed16215b26534.png", 
                "erased": false, 
                "hidden": false, 
                "id": 9262, 
                "name": "Suport General - Decidim Barcelona", 
                "official": false, 
                "official_level": 0, 
                "role": null, 
                "verified_organization": null
            }, 
            "body": "<p><a href=\"https://decidim.barcelona/proposals/agilitat-amb-les-subvencions-al-comerc\">https://decidim.barcelona/proposals/agilitat-amb-les-subvencions-al-comerc</a></p>", 
            "commentable_id": 2915, 
            "commentable_type": "Proposal", 
            "created_at": "07/04/2016 16:53:03", 
            "flagged": false, 
            "hidden": false, 
            "id": 9714, 
            "moderator_id": null, 
            "permissions": {
                "hide": false, 
                "hide_author": false, 
                "vote": false
            }, 
            "total_dislikes": 0, 
            "total_likes": 0, 
            "total_votes": 0
        }, 
        {
            "administrator_id": null, 
            "alignment": 0, 
            "ancestry": null, 
            "as": null, 
            "author": {
                "avatar_image": "https://decidim.barcelona/assets/avatar-866795c99abc33a3160d1f3fa93ada46eb75e54134e777666b9ed16215b26534.png", 
                "erased": false, 
                "hidden": false, 
                "id": 9262, 
                "name": "Suport General - Decidim Barcelona", 
                "official": false, 
                "official_level": 0, 
                "role": null, 
                "verified_organization": null
            }, 
            "body": "<p><a href=\"https://decidim.barcelona/proposals/facilitar-espais-comuns-als-edificis\">https://decidim.barcelona/proposals/facilitar-espais-comuns-als-edificis</a></p>", 
            "commentable_id": 2915, 
            "commentable_type": "Proposal", 
            "created_at": "07/04/2016 16:57:14", 
            "flagged": false, 
            "hidden": false, 
            "id": 9725, 
            "moderator_id": null, 
            "permissions": {
                "hide": false, 
                "hide_author": false, 
                "vote": false
            }, 
            "total_dislikes": 0, 
            "total_likes": 0, 
            "total_votes": 0
        }, 
        {
            "administrator_id": null, 
            "alignment": 0, 
            "ancestry": null, 
            "as": null, 
            "author": {
                "avatar_image": "https://decidim.barcelona/assets/avatar-866795c99abc33a3160d1f3fa93ada46eb75e54134e777666b9ed16215b26534.png", 
                "erased": false, 
                "hidden": false, 
                "id": 9262, 
                "name": "Suport General - Decidim Barcelona", 
                "official": false, 
                "official_level": 0, 
                "role": null, 
                "verified_organization": null
            }, 
            "body": "<p><a href=\"https://decidim.barcelona/proposals/utilitzar-els-espais-de-tmb-per-fer-difusio-del-comerc-de-proximitat\">https://decidim.barcelona/proposals/utilitzar-els-espais-de-tmb-per-fer-difusio-del-comerc-de-proximitat</a></p>", 
            "commentable_id": 2915, 
            "commentable_type": "Proposal", 
            "created_at": "07/04/2016 17:00:23", 
            "flagged": false, 
            "hidden": false, 
            "id": 9733, 
            "moderator_id": null, 
            "permissions": {
                "hide": false, 
                "hide_author": false, 
                "vote": false
            }, 
            "total_dislikes": 0, 
            "total_likes": 0, 
            "total_votes": 0
        }, 
        {
            "administrator_id": null, 
            "alignment": 0, 
            "ancestry": null, 
            "as": null, 
            "author": {
                "avatar_image": "https://decidim.barcelona/assets/avatar-866795c99abc33a3160d1f3fa93ada46eb75e54134e777666b9ed16215b26534.png", 
                "erased": false, 
                "hidden": false, 
                "id": 9262, 
                "name": "Suport General - Decidim Barcelona", 
                "official": false, 
                "official_level": 0, 
                "role": null, 
                "verified_organization": null
            }, 
            "body": "<p><a href=\"https://decidim.barcelona/proposals/suport-a-l-associacionisme-comercial\">https://decidim.barcelona/proposals/suport-a-l-associacionisme-comercial</a></p>", 
            "commentable_id": 2915, 
            "commentable_type": "Proposal", 
            "created_at": "07/04/2016 17:01:35", 
            "flagged": false, 
            "hidden": false, 
            "id": 9738, 
            "moderator_id": null, 
            "permissions": {
                "hide": false, 
                "hide_author": false, 
                "vote": false
            }, 
            "total_dislikes": 0, 
            "total_likes": 0, 
            "total_votes": 0
        }, 
        {
            "administrator_id": null, 
            "alignment": 0, 
            "ancestry": null, 
            "as": null, 
            "author": {
                "avatar_image": "https://decidim.barcelona/assets/avatar-866795c99abc33a3160d1f3fa93ada46eb75e54134e777666b9ed16215b26534.png", 
                "erased": false, 
                "hidden": false, 
                "id": 9262, 
                "name": "Suport General - Decidim Barcelona", 
                "official": false, 
                "official_level": 0, 
                "role": null, 
                "verified_organization": null
            }, 
            "body": "<p><a href=\"https://decidim.barcelona/proposals/prioritzar-el-comerc-de-proximitat-i-els-eixos-comercials-dels-barris-de-la-ciutat\">https://decidim.barcelona/proposals/prioritzar-el-comerc-de-proximitat-i-els-eixos-comercials-dels-barris-de-la-ciutat</a></p>", 
            "commentable_id": 2915, 
            "commentable_type": "Proposal", 
            "created_at": "07/04/2016 17:01:56", 
            "flagged": false, 
            "hidden": false, 
            "id": 9739, 
            "moderator_id": null, 
            "permissions": {
                "hide": false, 
                "hide_author": false, 
                "vote": false
            }, 
            "total_dislikes": 0, 
            "total_likes": 0, 
            "total_votes": 0
        }, 
        {
            "administrator_id": null, 
            "alignment": 0, 
            "ancestry": null, 
            "as": null, 
            "author": {
                "avatar_image": "https://decidim.barcelona/assets/avatar-866795c99abc33a3160d1f3fa93ada46eb75e54134e777666b9ed16215b26534.png", 
                "erased": false, 
                "hidden": false, 
                "id": 9262, 
                "name": "Suport General - Decidim Barcelona", 
                "official": false, 
                "official_level": 0, 
                "role": null, 
                "verified_organization": null
            }, 
            "body": "<p><a href=\"https://decidim.barcelona/proposals/ordenacio-i-regulacio-del-sector-del-comerc\">https://decidim.barcelona/proposals/ordenacio-i-regulacio-del-sector-del-comerc</a></p>", 
            "commentable_id": 2915, 
            "commentable_type": "Proposal", 
            "created_at": "07/04/2016 17:02:24", 
            "flagged": false, 
            "hidden": false, 
            "id": 9741, 
            "moderator_id": null, 
            "permissions": {
                "hide": false, 
                "hide_author": false, 
                "vote": false
            }, 
            "total_dislikes": 0, 
            "total_likes": 0, 
            "total_votes": 0
        }, 
        {
            "administrator_id": null, 
            "alignment": 0, 
            "ancestry": null, 
            "as": null, 
            "author": {
                "avatar_image": "https://decidim.barcelona/assets/avatar-866795c99abc33a3160d1f3fa93ada46eb75e54134e777666b9ed16215b26534.png", 
                "erased": false, 
                "hidden": false, 
                "id": 9262, 
                "name": "Suport General - Decidim Barcelona", 
                "official": false, 
                "official_level": 0, 
                "role": null, 
                "verified_organization": null
            }, 
            "body": "<p><a href=\"https://decidim.barcelona/proposals/pla-de-mobilitat-en-relacio-al-comerc-adequat-a-cada-territori\">https://decidim.barcelona/proposals/pla-de-mobilitat-en-relacio-al-comerc-adequat-a-cada-territori</a></p>", 
            "commentable_id": 2915, 
            "commentable_type": "Proposal", 
            "created_at": "07/04/2016 17:02:42", 
            "flagged": false, 
            "hidden": false, 
            "id": 9744, 
            "moderator_id": null, 
            "permissions": {
                "hide": false, 
                "hide_author": false, 
                "vote": false
            }, 
            "total_dislikes": 0, 
            "total_likes": 0, 
            "total_votes": 0
        }, 
        {
            "administrator_id": null, 
            "alignment": 0, 
            "ancestry": null, 
            "as": null, 
            "author": {
                "avatar_image": "https://decidim.barcelona/assets/avatar-866795c99abc33a3160d1f3fa93ada46eb75e54134e777666b9ed16215b26534.png", 
                "erased": false, 
                "hidden": false, 
                "id": 9262, 
                "name": "Suport General - Decidim Barcelona", 
                "official": false, 
                "official_level": 0, 
                "role": null, 
                "verified_organization": null
            }, 
            "body": "<p><a href=\"https://decidim.barcelona/proposals/defensa-del-comerc-de-proximitat\">https://decidim.barcelona/proposals/defensa-del-comerc-de-proximitat</a></p>", 
            "commentable_id": 2915, 
            "commentable_type": "Proposal", 
            "created_at": "07/04/2016 17:11:01", 
            "flagged": false, 
            "hidden": false, 
            "id": 9762, 
            "moderator_id": null, 
            "permissions": {
                "hide": false, 
                "hide_author": false, 
                "vote": false
            }, 
            "total_dislikes": 0, 
            "total_likes": 0, 
            "total_votes": 0
        }, 
        {
            "administrator_id": null, 
            "alignment": 0, 
            "ancestry": null, 
            "as": null, 
            "author": {
                "avatar_image": "https://decidim.barcelona/assets/avatar-866795c99abc33a3160d1f3fa93ada46eb75e54134e777666b9ed16215b26534.png", 
                "erased": false, 
                "hidden": false, 
                "id": 9262, 
                "name": "Suport General - Decidim Barcelona", 
                "official": false, 
                "official_level": 0, 
                "role": null, 
                "verified_organization": null
            }, 
            "body": "<p><a href=\"https://decidim.barcelona/proposals/comerc-de-qualitat-als-barris\">https://decidim.barcelona/proposals/comerc-de-qualitat-als-barris</a></p>", 
            "commentable_id": 2915, 
            "commentable_type": "Proposal", 
            "created_at": "07/04/2016 17:25:03", 
            "flagged": false, 
            "hidden": false, 
            "id": 9785, 
            "moderator_id": null, 
            "permissions": {
                "hide": false, 
                "hide_author": false, 
                "vote": false
            }, 
            "total_dislikes": 0, 
            "total_likes": 0, 
            "total_votes": 0
        }, 
        {
            "administrator_id": null, 
            "alignment": 0, 
            "ancestry": null, 
            "as": null, 
            "author": {
                "avatar_image": "https://decidim.barcelona/assets/avatar-866795c99abc33a3160d1f3fa93ada46eb75e54134e777666b9ed16215b26534.png", 
                "erased": false, 
                "hidden": false, 
                "id": 9262, 
                "name": "Suport General - Decidim Barcelona", 
                "official": false, 
                "official_level": 0, 
                "role": null, 
                "verified_organization": null
            }, 
            "body": "<p><a href=\"https://decidim.barcelona/proposals/comerc-de-proximitat\">https://decidim.barcelona/proposals/comerc-de-proximitat</a></p>", 
            "commentable_id": 2915, 
            "commentable_type": "Proposal", 
            "created_at": "07/04/2016 17:25:20", 
            "flagged": false, 
            "hidden": false, 
            "id": 9787, 
            "moderator_id": null, 
            "permissions": {
                "hide": false, 
                "hide_author": false, 
                "vote": false
            }, 
            "total_dislikes": 0, 
            "total_likes": 0, 
            "total_votes": 0
        }, 
        {
            "administrator_id": null, 
            "alignment": 0, 
            "ancestry": null, 
            "as": null, 
            "author": {
                "avatar_image": "https://decidim.barcelona/assets/avatar-866795c99abc33a3160d1f3fa93ada46eb75e54134e777666b9ed16215b26534.png", 
                "erased": false, 
                "hidden": false, 
                "id": 9262, 
                "name": "Suport General - Decidim Barcelona", 
                "official": false, 
                "official_level": 0, 
                "role": null, 
                "verified_organization": null
            }, 
            "body": "<p><a href=\"https://decidim.barcelona/proposals/limitar-el-nombre-de-grans-superficies\">https://decidim.barcelona/proposals/limitar-el-nombre-de-grans-superficies</a></p>", 
            "commentable_id": 2915, 
            "commentable_type": "Proposal", 
            "created_at": "07/04/2016 17:25:37", 
            "flagged": false, 
            "hidden": false, 
            "id": 9788, 
            "moderator_id": null, 
            "permissions": {
                "hide": false, 
                "hide_author": false, 
                "vote": false
            }, 
            "total_dislikes": 0, 
            "total_likes": 0, 
            "total_votes": 0
        }, 
        {
            "administrator_id": null, 
            "alignment": 0, 
            "ancestry": null, 
            "as": null, 
            "author": {
                "avatar_image": "https://decidim.barcelona/assets/avatar-866795c99abc33a3160d1f3fa93ada46eb75e54134e777666b9ed16215b26534.png", 
                "erased": false, 
                "hidden": false, 
                "id": 9262, 
                "name": "Suport General - Decidim Barcelona", 
                "official": false, 
                "official_level": 0, 
                "role": null, 
                "verified_organization": null
            }, 
            "body": "<p><a href=\"https://decidim.barcelona/proposals/que-abren-los-supermercados-y-otras-tiendas-los-domingos\">https://decidim.barcelona/proposals/que-abren-los-supermercados-y-otras-tiendas-los-domingos</a></p>", 
            "commentable_id": 2915, 
            "commentable_type": "Proposal", 
            "created_at": "07/04/2016 17:39:54", 
            "flagged": false, 
            "hidden": false, 
            "id": 9816, 
            "moderator_id": null, 
            "permissions": {
                "hide": false, 
                "hide_author": false, 
                "vote": false
            }, 
            "total_dislikes": 0, 
            "total_likes": 0, 
            "total_votes": 0
        }, 
        {
            "administrator_id": null, 
            "alignment": 0, 
            "ancestry": null, 
            "as": null, 
            "author": {
                "avatar_image": "https://decidim.barcelona/assets/avatar-866795c99abc33a3160d1f3fa93ada46eb75e54134e777666b9ed16215b26534.png", 
                "erased": false, 
                "hidden": false, 
                "id": 9262, 
                "name": "Suport General - Decidim Barcelona", 
                "official": false, 
                "official_level": 0, 
                "role": null, 
                "verified_organization": null
            }, 
            "body": "<p><a href=\"https://decidim.barcelona/proposals/promoure-la-cessio-de-locals-pel-llancament-de-nous-productes\">https://decidim.barcelona/proposals/promoure-la-cessio-de-locals-pel-llancament-de-nous-productes</a></p>", 
            "commentable_id": 2915, 
            "commentable_type": "Proposal", 
            "created_at": "07/04/2016 18:00:01", 
            "flagged": false, 
            "hidden": false, 
            "id": 9845, 
            "moderator_id": null, 
            "permissions": {
                "hide": false, 
                "hide_author": false, 
                "vote": false
            }, 
            "total_dislikes": 0, 
            "total_likes": 0, 
            "total_votes": 0
        }, 
        {
            "administrator_id": null, 
            "alignment": 0, 
            "ancestry": null, 
            "as": null, 
            "author": {
                "avatar_image": "https://decidim.barcelona/assets/avatar-866795c99abc33a3160d1f3fa93ada46eb75e54134e777666b9ed16215b26534.png", 
                "erased": false, 
                "hidden": false, 
                "id": 9262, 
                "name": "Suport General - Decidim Barcelona", 
                "official": false, 
                "official_level": 0, 
                "role": null, 
                "verified_organization": null
            }, 
            "body": "<p><a href=\"https://decidim.barcelona/proposals/fomentar-la-rehabilitacio-i-fabricacio-d-equipament-esportiu-artesanal\">https://decidim.barcelona/proposals/fomentar-la-rehabilitacio-i-fabricacio-d-equipament-esportiu-artesanal</a></p>", 
            "commentable_id": 2915, 
            "commentable_type": "Proposal", 
            "created_at": "07/04/2016 18:02:24", 
            "flagged": false, 
            "hidden": false, 
            "id": 9853, 
            "moderator_id": null, 
            "permissions": {
                "hide": false, 
                "hide_author": false, 
                "vote": false
            }, 
            "total_dislikes": 0, 
            "total_likes": 0, 
            "total_votes": 0
        }, 
        {
            "administrator_id": null, 
            "alignment": 0, 
            "ancestry": null, 
            "as": null, 
            "author": {
                "avatar_image": "https://decidim.barcelona/assets/avatar-866795c99abc33a3160d1f3fa93ada46eb75e54134e777666b9ed16215b26534.png", 
                "erased": false, 
                "hidden": false, 
                "id": 9262, 
                "name": "Suport General - Decidim Barcelona", 
                "official": false, 
                "official_level": 0, 
                "role": null, 
                "verified_organization": null
            }, 
            "body": "<p><a href=\"https://decidim.barcelona/proposals/les-noves-tecnologies-com-a-impuls-de-l-economia-dels-districtes\">https://decidim.barcelona/proposals/les-noves-tecnologies-com-a-impuls-de-l-economia-dels-districtes</a></p>", 
            "commentable_id": 2915, 
            "commentable_type": "Proposal", 
            "created_at": "07/04/2016 18:08:29", 
            "flagged": false, 
            "hidden": false, 
            "id": 9864, 
            "moderator_id": null, 
            "permissions": {
                "hide": false, 
                "hide_author": false, 
                "vote": false
            }, 
            "total_dislikes": 0, 
            "total_likes": 0, 
            "total_votes": 0
        }, 
        {
            "administrator_id": null, 
            "alignment": 0, 
            "ancestry": null, 
            "as": null, 
            "author": {
                "avatar_image": "https://decidim.barcelona/assets/avatar-866795c99abc33a3160d1f3fa93ada46eb75e54134e777666b9ed16215b26534.png", 
                "erased": false, 
                "hidden": false, 
                "id": 9262, 
                "name": "Suport General - Decidim Barcelona", 
                "official": false, 
                "official_level": 0, 
                "role": null, 
                "verified_organization": null
            }, 
            "body": "<p><a href=\"https://decidim.barcelona/proposals/unificacio-d-horaris\">https://decidim.barcelona/proposals/unificacio-d-horaris</a></p>", 
            "commentable_id": 2915, 
            "commentable_type": "Proposal", 
            "created_at": "07/04/2016 18:11:45", 
            "flagged": false, 
            "hidden": false, 
            "id": 9868, 
            "moderator_id": null, 
            "permissions": {
                "hide": false, 
                "hide_author": false, 
                "vote": false
            }, 
            "total_dislikes": 0, 
            "total_likes": 0, 
            "total_votes": 0
        }, 
        {
            "administrator_id": null, 
            "alignment": 0, 
            "ancestry": null, 
            "as": null, 
            "author": {
                "avatar_image": "https://decidim.barcelona/assets/avatar-866795c99abc33a3160d1f3fa93ada46eb75e54134e777666b9ed16215b26534.png", 
                "erased": false, 
                "hidden": false, 
                "id": 9262, 
                "name": "Suport General - Decidim Barcelona", 
                "official": false, 
                "official_level": 0, 
                "role": null, 
                "verified_organization": null
            }, 
            "body": "<p><a href=\"https://decidim.barcelona/proposals/agent-desenvolupament-economic-atendre-les-necessitats-del-territori\">https://decidim.barcelona/proposals/agent-desenvolupament-economic-atendre-les-necessitats-del-territori</a></p>", 
            "commentable_id": 2915, 
            "commentable_type": "Proposal", 
            "created_at": "07/04/2016 18:17:35", 
            "flagged": false, 
            "hidden": false, 
            "id": 9873, 
            "moderator_id": null, 
            "permissions": {
                "hide": false, 
                "hide_author": false, 
                "vote": false
            }, 
            "total_dislikes": 0, 
            "total_likes": 0, 
            "total_votes": 0
        }
    ], 
    "meta": {
        "current_page": 2, 
        "next_page": 3, 
        "prev_page": 1, 
        "total_count": 62, 
        "total_pages": 4
    }
}