{
    "comments": [
        {
            "administrator_id": null, 
            "alignment": 0, 
            "ancestry": null, 
            "as": null, 
            "author": {
                "avatar_image": "https://decidim.barcelona/assets/avatar-866795c99abc33a3160d1f3fa93ada46eb75e54134e777666b9ed16215b26534.png", 
                "erased": false, 
                "hidden": false, 
                "id": 3827, 
                "name": "suport decidim.barcelona", 
                "official": false, 
                "official_level": 0, 
                "role": "moderator", 
                "verified_organization": null
            }, 
            "body": "<p>Proposta debatuda en la cita presencial: Debat sobre les pol\u00edtiques d'ocupaci\u00f3 del Raval: \"Enfortir la relaci\u00f3 entre les xarxes d'inserci\u00f3 i el sector comercial local\"</p>", 
            "commentable_id": 2915, 
            "commentable_type": "Proposal", 
            "created_at": "11/03/2016 13:30:55", 
            "flagged": false, 
            "hidden": false, 
            "id": 4505, 
            "moderator_id": null, 
            "permissions": {
                "hide": false, 
                "hide_author": false, 
                "vote": false
            }, 
            "total_dislikes": 0, 
            "total_likes": 0, 
            "total_votes": 0
        }, 
        {
            "administrator_id": null, 
            "alignment": 0, 
            "ancestry": null, 
            "as": null, 
            "author": {
                "avatar_image": "https://decidim.barcelona/assets/avatar-866795c99abc33a3160d1f3fa93ada46eb75e54134e777666b9ed16215b26534.png", 
                "erased": false, 
                "hidden": false, 
                "id": 9262, 
                "name": "Suport General - Decidim Barcelona", 
                "official": false, 
                "official_level": 0, 
                "role": null, 
                "verified_organization": null
            }, 
            "body": "<p><a href=\"https://decidim.barcelona/proposals/impuls-de-l-economia-local\">https://decidim.barcelona/proposals/impuls-de-l-economia-local</a></p>", 
            "commentable_id": 2915, 
            "commentable_type": "Proposal", 
            "created_at": "06/04/2016 15:43:20", 
            "flagged": false, 
            "hidden": false, 
            "id": 8675, 
            "moderator_id": null, 
            "permissions": {
                "hide": false, 
                "hide_author": false, 
                "vote": false
            }, 
            "total_dislikes": 0, 
            "total_likes": 0, 
            "total_votes": 0
        }, 
        {
            "administrator_id": null, 
            "alignment": 0, 
            "ancestry": null, 
            "as": null, 
            "author": {
                "avatar_image": "https://decidim.barcelona/assets/avatar-866795c99abc33a3160d1f3fa93ada46eb75e54134e777666b9ed16215b26534.png", 
                "erased": false, 
                "hidden": false, 
                "id": 9262, 
                "name": "Suport General - Decidim Barcelona", 
                "official": false, 
                "official_level": 0, 
                "role": null, 
                "verified_organization": null
            }, 
            "body": "<p><a href=\"https://decidim.barcelona/proposals/equilibri-i-economia-comparada-pel-barri-del-coll\">https://decidim.barcelona/proposals/equilibri-i-economia-comparada-pel-barri-del-coll</a></p>", 
            "commentable_id": 2915, 
            "commentable_type": "Proposal", 
            "created_at": "06/04/2016 15:45:29", 
            "flagged": false, 
            "hidden": false, 
            "id": 8676, 
            "moderator_id": null, 
            "permissions": {
                "hide": false, 
                "hide_author": false, 
                "vote": false
            }, 
            "total_dislikes": 0, 
            "total_likes": 0, 
            "total_votes": 0
        }, 
        {
            "administrator_id": null, 
            "alignment": 0, 
            "ancestry": null, 
            "as": null, 
            "author": {
                "avatar_image": "https://decidim.barcelona/assets/avatar-866795c99abc33a3160d1f3fa93ada46eb75e54134e777666b9ed16215b26534.png", 
                "erased": false, 
                "hidden": false, 
                "id": 9262, 
                "name": "Suport General - Decidim Barcelona", 
                "official": false, 
                "official_level": 0, 
                "role": null, 
                "verified_organization": null
            }, 
            "body": "<p><a href=\"https://decidim.barcelona/proposals/politiques-actives-d-ocupacio\">https://decidim.barcelona/proposals/politiques-actives-d-ocupacio</a></p>", 
            "commentable_id": 2915, 
            "commentable_type": "Proposal", 
            "created_at": "06/04/2016 15:50:50", 
            "flagged": false, 
            "hidden": false, 
            "id": 8680, 
            "moderator_id": null, 
            "permissions": {
                "hide": false, 
                "hide_author": false, 
                "vote": false
            }, 
            "total_dislikes": 0, 
            "total_likes": 0, 
            "total_votes": 0
        }, 
        {
            "administrator_id": null, 
            "alignment": 0, 
            "ancestry": null, 
            "as": null, 
            "author": {
                "avatar_image": "https://decidim.barcelona/assets/avatar-866795c99abc33a3160d1f3fa93ada46eb75e54134e777666b9ed16215b26534.png", 
                "erased": false, 
                "hidden": false, 
                "id": 9262, 
                "name": "Suport General - Decidim Barcelona", 
                "official": false, 
                "official_level": 0, 
                "role": null, 
                "verified_organization": null
            }, 
            "body": "<p><a href=\"https://decidim.barcelona/proposals/comerc-de-qualitat-i-en-catala\">https://decidim.barcelona/proposals/comerc-de-qualitat-i-en-catala</a></p>", 
            "commentable_id": 2915, 
            "commentable_type": "Proposal", 
            "created_at": "07/04/2016 09:56:57", 
            "flagged": false, 
            "hidden": false, 
            "id": 9067, 
            "moderator_id": null, 
            "permissions": {
                "hide": false, 
                "hide_author": false, 
                "vote": false
            }, 
            "total_dislikes": 0, 
            "total_likes": 0, 
            "total_votes": 0
        }, 
        {
            "administrator_id": null, 
            "alignment": 0, 
            "ancestry": null, 
            "as": null, 
            "author": {
                "avatar_image": "https://decidim.barcelona/assets/avatar-866795c99abc33a3160d1f3fa93ada46eb75e54134e777666b9ed16215b26534.png", 
                "erased": false, 
                "hidden": false, 
                "id": 9262, 
                "name": "Suport General - Decidim Barcelona", 
                "official": false, 
                "official_level": 0, 
                "role": null, 
                "verified_organization": null
            }, 
            "body": "<p><a href=\"https://decidim.barcelona/proposals/impulsar-el-comerc-dels-barris\">https://decidim.barcelona/proposals/impulsar-el-comerc-dels-barris</a></p>", 
            "commentable_id": 2915, 
            "commentable_type": "Proposal", 
            "created_at": "07/04/2016 15:52:53", 
            "flagged": false, 
            "hidden": false, 
            "id": 9563, 
            "moderator_id": null, 
            "permissions": {
                "hide": false, 
                "hide_author": false, 
                "vote": false
            }, 
            "total_dislikes": 0, 
            "total_likes": 0, 
            "total_votes": 0
        }, 
        {
            "administrator_id": null, 
            "alignment": 0, 
            "ancestry": null, 
            "as": null, 
            "author": {
                "avatar_image": "https://decidim.barcelona/assets/avatar-866795c99abc33a3160d1f3fa93ada46eb75e54134e777666b9ed16215b26534.png", 
                "erased": false, 
                "hidden": false, 
                "id": 9262, 
                "name": "Suport General - Decidim Barcelona", 
                "official": false, 
                "official_level": 0, 
                "role": null, 
                "verified_organization": null
            }, 
            "body": "<p><a href=\"https://decidim.barcelona/proposals/foment-del-comerc-de-proximitat\">https://decidim.barcelona/proposals/foment-del-comerc-de-proximitat</a></p>", 
            "commentable_id": 2915, 
            "commentable_type": "Proposal", 
            "created_at": "07/04/2016 15:53:57", 
            "flagged": false, 
            "hidden": false, 
            "id": 9564, 
            "moderator_id": null, 
            "permissions": {
                "hide": false, 
                "hide_author": false, 
                "vote": false
            }, 
            "total_dislikes": 0, 
            "total_likes": 0, 
            "total_votes": 0
        }, 
        {
            "administrator_id": null, 
            "alignment": 0, 
            "ancestry": null, 
            "as": null, 
            "author": {
                "avatar_image": "https://decidim.barcelona/assets/avatar-866795c99abc33a3160d1f3fa93ada46eb75e54134e777666b9ed16215b26534.png", 
                "erased": false, 
                "hidden": false, 
                "id": 9262, 
                "name": "Suport General - Decidim Barcelona", 
                "official": false, 
                "official_level": 0, 
                "role": null, 
                "verified_organization": null
            }, 
            "body": "<p><a href=\"https://decidim.barcelona/proposals/fer-una-campanya-per-promocionar-l-associacionisme-en-el-comerc\">https://decidim.barcelona/proposals/fer-una-campanya-per-promocionar-l-associacionisme-en-el-comerc</a></p>", 
            "commentable_id": 2915, 
            "commentable_type": "Proposal", 
            "created_at": "07/04/2016 15:58:46", 
            "flagged": false, 
            "hidden": false, 
            "id": 9569, 
            "moderator_id": null, 
            "permissions": {
                "hide": false, 
                "hide_author": false, 
                "vote": false
            }, 
            "total_dislikes": 0, 
            "total_likes": 0, 
            "total_votes": 0
        }, 
        {
            "administrator_id": null, 
            "alignment": 0, 
            "ancestry": null, 
            "as": null, 
            "author": {
                "avatar_image": "https://decidim.barcelona/assets/avatar-866795c99abc33a3160d1f3fa93ada46eb75e54134e777666b9ed16215b26534.png", 
                "erased": false, 
                "hidden": false, 
                "id": 9262, 
                "name": "Suport General - Decidim Barcelona", 
                "official": false, 
                "official_level": 0, 
                "role": null, 
                "verified_organization": null
            }, 
            "body": "<p><a href=\"https://decidim.barcelona/proposals/promoure-la-cooperacio-entre-territori-eixos-comercials-i-mercats\">https://decidim.barcelona/proposals/promoure-la-cooperacio-entre-territori-eixos-comercials-i-mercats</a></p>", 
            "commentable_id": 2915, 
            "commentable_type": "Proposal", 
            "created_at": "07/04/2016 16:04:58", 
            "flagged": false, 
            "hidden": false, 
            "id": 9580, 
            "moderator_id": null, 
            "permissions": {
                "hide": false, 
                "hide_author": false, 
                "vote": false
            }, 
            "total_dislikes": 0, 
            "total_likes": 0, 
            "total_votes": 0
        }, 
        {
            "administrator_id": null, 
            "alignment": 0, 
            "ancestry": null, 
            "as": null, 
            "author": {
                "avatar_image": "https://decidim.barcelona/assets/avatar-866795c99abc33a3160d1f3fa93ada46eb75e54134e777666b9ed16215b26534.png", 
                "erased": false, 
                "hidden": false, 
                "id": 9262, 
                "name": "Suport General - Decidim Barcelona", 
                "official": false, 
                "official_level": 0, 
                "role": null, 
                "verified_organization": null
            }, 
            "body": "<p><a href=\"https://decidim.barcelona/proposals/promocio-de-l-associacionisme-comercial\">https://decidim.barcelona/proposals/promocio-de-l-associacionisme-comercial</a></p>", 
            "commentable_id": 2915, 
            "commentable_type": "Proposal", 
            "created_at": "07/04/2016 16:07:24", 
            "flagged": false, 
            "hidden": false, 
            "id": 9583, 
            "moderator_id": null, 
            "permissions": {
                "hide": false, 
                "hide_author": false, 
                "vote": false
            }, 
            "total_dislikes": 0, 
            "total_likes": 0, 
            "total_votes": 0
        }, 
        {
            "administrator_id": null, 
            "alignment": 0, 
            "ancestry": null, 
            "as": null, 
            "author": {
                "avatar_image": "https://decidim.barcelona/assets/avatar-866795c99abc33a3160d1f3fa93ada46eb75e54134e777666b9ed16215b26534.png", 
                "erased": false, 
                "hidden": false, 
                "id": 9262, 
                "name": "Suport General - Decidim Barcelona", 
                "official": false, 
                "official_level": 0, 
                "role": null, 
                "verified_organization": null
            }, 
            "body": "<p><a href=\"https://decidim.barcelona/proposals/bonificacions-a-l-ibi-i-a-la-taxa-d-escombraries-per-als-comercos-ubicats-a-zones-que-es-vulguin-dinamitzar\">https://decidim.barcelona/proposals/bonificacions-a-l-ibi-i-a-la-taxa-d-escombraries-per-als-comercos-ubicats-a-zones-que-es-vulguin-dinamitzar</a></p>", 
            "commentable_id": 2915, 
            "commentable_type": "Proposal", 
            "created_at": "07/04/2016 16:17:07", 
            "flagged": false, 
            "hidden": false, 
            "id": 9605, 
            "moderator_id": null, 
            "permissions": {
                "hide": false, 
                "hide_author": false, 
                "vote": false
            }, 
            "total_dislikes": 0, 
            "total_likes": 0, 
            "total_votes": 0
        }, 
        {
            "administrator_id": null, 
            "alignment": 0, 
            "ancestry": null, 
            "as": null, 
            "author": {
                "avatar_image": "https://decidim.barcelona/assets/avatar-866795c99abc33a3160d1f3fa93ada46eb75e54134e777666b9ed16215b26534.png", 
                "erased": false, 
                "hidden": false, 
                "id": 9262, 
                "name": "Suport General - Decidim Barcelona", 
                "official": false, 
                "official_level": 0, 
                "role": null, 
                "verified_organization": null
            }, 
            "body": "<p><a href=\"https://decidim.barcelona/proposals/fomentar-el-paper-de-les-associacions-comercials-com-a-promotores-socio-economiques\">https://decidim.barcelona/proposals/fomentar-el-paper-de-les-associacions-comercials-com-a-promotores-socio-economiques</a></p>", 
            "commentable_id": 2915, 
            "commentable_type": "Proposal", 
            "created_at": "07/04/2016 16:22:35", 
            "flagged": false, 
            "hidden": false, 
            "id": 9614, 
            "moderator_id": null, 
            "permissions": {
                "hide": false, 
                "hide_author": false, 
                "vote": false
            }, 
            "total_dislikes": 0, 
            "total_likes": 0, 
            "total_votes": 0
        }, 
        {
            "administrator_id": null, 
            "alignment": 0, 
            "ancestry": null, 
            "as": null, 
            "author": {
                "avatar_image": "https://decidim.barcelona/assets/avatar-866795c99abc33a3160d1f3fa93ada46eb75e54134e777666b9ed16215b26534.png", 
                "erased": false, 
                "hidden": false, 
                "id": 9262, 
                "name": "Suport General - Decidim Barcelona", 
                "official": false, 
                "official_level": 0, 
                "role": null, 
                "verified_organization": null
            }, 
            "body": "<p><a href=\"https://decidim.barcelona/proposals/aprofitar-el-pla-de-mobilitat-per-alinear-se-amb-politiques-comercials\">https://decidim.barcelona/proposals/aprofitar-el-pla-de-mobilitat-per-alinear-se-amb-politiques-comercials</a></p>", 
            "commentable_id": 2915, 
            "commentable_type": "Proposal", 
            "created_at": "07/04/2016 16:23:48", 
            "flagged": false, 
            "hidden": false, 
            "id": 9615, 
            "moderator_id": null, 
            "permissions": {
                "hide": false, 
                "hide_author": false, 
                "vote": false
            }, 
            "total_dislikes": 0, 
            "total_likes": 0, 
            "total_votes": 0
        }, 
        {
            "administrator_id": null, 
            "alignment": 0, 
            "ancestry": null, 
            "as": null, 
            "author": {
                "avatar_image": "https://decidim.barcelona/assets/avatar-866795c99abc33a3160d1f3fa93ada46eb75e54134e777666b9ed16215b26534.png", 
                "erased": false, 
                "hidden": false, 
                "id": 9262, 
                "name": "Suport General - Decidim Barcelona", 
                "official": false, 
                "official_level": 0, 
                "role": null, 
                "verified_organization": null
            }, 
            "body": "<p><a href=\"https://decidim.barcelona/proposals/regulacio-del-comerc\">https://decidim.barcelona/proposals/regulacio-del-comerc</a></p>", 
            "commentable_id": 2915, 
            "commentable_type": "Proposal", 
            "created_at": "07/04/2016 16:26:59", 
            "flagged": false, 
            "hidden": false, 
            "id": 9624, 
            "moderator_id": null, 
            "permissions": {
                "hide": false, 
                "hide_author": false, 
                "vote": false
            }, 
            "total_dislikes": 0, 
            "total_likes": 0, 
            "total_votes": 0
        }, 
        {
            "administrator_id": null, 
            "alignment": 0, 
            "ancestry": null, 
            "as": null, 
            "author": {
                "avatar_image": "https://decidim.barcelona/assets/avatar-866795c99abc33a3160d1f3fa93ada46eb75e54134e777666b9ed16215b26534.png", 
                "erased": false, 
                "hidden": false, 
                "id": 9262, 
                "name": "Suport General - Decidim Barcelona", 
                "official": false, 
                "official_level": 0, 
                "role": null, 
                "verified_organization": null
            }, 
            "body": "<p><a href=\"https://decidim.barcelona/proposals/pla-estrategic-de-comerc-per-cada-barri\">https://decidim.barcelona/proposals/pla-estrategic-de-comerc-per-cada-barri</a></p>", 
            "commentable_id": 2915, 
            "commentable_type": "Proposal", 
            "created_at": "07/04/2016 16:30:24", 
            "flagged": false, 
            "hidden": false, 
            "id": 9637, 
            "moderator_id": null, 
            "permissions": {
                "hide": false, 
                "hide_author": false, 
                "vote": false
            }, 
            "total_dislikes": 0, 
            "total_likes": 0, 
            "total_votes": 0
        }, 
        {
            "administrator_id": null, 
            "alignment": 0, 
            "ancestry": null, 
            "as": null, 
            "author": {
                "avatar_image": "https://decidim.barcelona/assets/avatar-866795c99abc33a3160d1f3fa93ada46eb75e54134e777666b9ed16215b26534.png", 
                "erased": false, 
                "hidden": false, 
                "id": 9262, 
                "name": "Suport General - Decidim Barcelona", 
                "official": false, 
                "official_level": 0, 
                "role": null, 
                "verified_organization": null
            }, 
            "body": "<p><a href=\"https://decidim.barcelona/proposals/revaloritzar-el-comerc-dels-barris-amb-mes-precarietat\">https://decidim.barcelona/proposals/revaloritzar-el-comerc-dels-barris-amb-mes-precarietat</a></p>", 
            "commentable_id": 2915, 
            "commentable_type": "Proposal", 
            "created_at": "07/04/2016 16:31:28", 
            "flagged": false, 
            "hidden": false, 
            "id": 9640, 
            "moderator_id": null, 
            "permissions": {
                "hide": false, 
                "hide_author": false, 
                "vote": false
            }, 
            "total_dislikes": 0, 
            "total_likes": 0, 
            "total_votes": 0
        }, 
        {
            "administrator_id": null, 
            "alignment": 0, 
            "ancestry": null, 
            "as": null, 
            "author": {
                "avatar_image": "https://decidim.barcelona/assets/avatar-866795c99abc33a3160d1f3fa93ada46eb75e54134e777666b9ed16215b26534.png", 
                "erased": false, 
                "hidden": false, 
                "id": 9262, 
                "name": "Suport General - Decidim Barcelona", 
                "official": false, 
                "official_level": 0, 
                "role": null, 
                "verified_organization": null
            }, 
            "body": "<p><a href=\"https://decidim.barcelona/proposals/web-de-les-associacions-comercials-de-la-ciutat\">https://decidim.barcelona/proposals/web-de-les-associacions-comercials-de-la-ciutat</a></p>", 
            "commentable_id": 2915, 
            "commentable_type": "Proposal", 
            "created_at": "07/04/2016 16:32:08", 
            "flagged": false, 
            "hidden": false, 
            "id": 9642, 
            "moderator_id": null, 
            "permissions": {
                "hide": false, 
                "hide_author": false, 
                "vote": false
            }, 
            "total_dislikes": 0, 
            "total_likes": 0, 
            "total_votes": 0
        }, 
        {
            "administrator_id": null, 
            "alignment": 0, 
            "ancestry": null, 
            "as": null, 
            "author": {
                "avatar_image": "https://decidim.barcelona/assets/avatar-866795c99abc33a3160d1f3fa93ada46eb75e54134e777666b9ed16215b26534.png", 
                "erased": false, 
                "hidden": false, 
                "id": 9262, 
                "name": "Suport General - Decidim Barcelona", 
                "official": false, 
                "official_level": 0, 
                "role": null, 
                "verified_organization": null
            }, 
            "body": "<p><a href=\"https://decidim.barcelona/proposals/utilitzar-locals-buits-per-altres-usos-no-comercials-donant-millor-imatge\">https://decidim.barcelona/proposals/utilitzar-locals-buits-per-altres-usos-no-comercials-donant-millor-imatge</a></p>", 
            "commentable_id": 2915, 
            "commentable_type": "Proposal", 
            "created_at": "07/04/2016 16:33:57", 
            "flagged": false, 
            "hidden": false, 
            "id": 9647, 
            "moderator_id": null, 
            "permissions": {
                "hide": false, 
                "hide_author": false, 
                "vote": false
            }, 
            "total_dislikes": 0, 
            "total_likes": 0, 
            "total_votes": 0
        }, 
        {
            "administrator_id": null, 
            "alignment": 0, 
            "ancestry": null, 
            "as": null, 
            "author": {
                "avatar_image": "https://decidim.barcelona/assets/avatar-866795c99abc33a3160d1f3fa93ada46eb75e54134e777666b9ed16215b26534.png", 
                "erased": false, 
                "hidden": false, 
                "id": 9262, 
                "name": "Suport General - Decidim Barcelona", 
                "official": false, 
                "official_level": 0, 
                "role": null, 
                "verified_organization": null
            }, 
            "body": "<p><a href=\"https://decidim.barcelona/proposals/suport-de-l-ajuntament-a-convenis-amb-els-bancs-per-atorgar-credits-tous-per-l-arranjament-i-millora-de-les-botigues-de-proximitat\">https://decidim.barcelona/proposals/suport-de-l-ajuntament-a-convenis-amb-els-bancs-per-atorgar-credits-tous-per-l-arranjament-i-millora-de-les-botigues-de-proximitat</a></p>", 
            "commentable_id": 2915, 
            "commentable_type": "Proposal", 
            "created_at": "07/04/2016 16:36:24", 
            "flagged": false, 
            "hidden": false, 
            "id": 9649, 
            "moderator_id": null, 
            "permissions": {
                "hide": false, 
                "hide_author": false, 
                "vote": false
            }, 
            "total_dislikes": 0, 
            "total_likes": 0, 
            "total_votes": 0
        }, 
        {
            "administrator_id": null, 
            "alignment": 0, 
            "ancestry": null, 
            "as": null, 
            "author": {
                "avatar_image": "https://decidim.barcelona/assets/avatar-866795c99abc33a3160d1f3fa93ada46eb75e54134e777666b9ed16215b26534.png", 
                "erased": false, 
                "hidden": false, 
                "id": 9262, 
                "name": "Suport General - Decidim Barcelona", 
                "official": false, 
                "official_level": 0, 
                "role": null, 
                "verified_organization": null
            }, 
            "body": "<p><a href=\"https://decidim.barcelona/proposals/apeus-comercials\">https://decidim.barcelona/proposals/apeus-comercials</a></p>", 
            "commentable_id": 2915, 
            "commentable_type": "Proposal", 
            "created_at": "07/04/2016 16:39:49", 
            "flagged": false, 
            "hidden": false, 
            "id": 9659, 
            "moderator_id": null, 
            "permissions": {
                "hide": false, 
                "hide_author": false, 
                "vote": false
            }, 
            "total_dislikes": 0, 
            "total_likes": 0, 
            "total_votes": 0
        }
    ], 
    "meta": {
        "current_page": 1, 
        "next_page": 2, 
        "prev_page": null, 
        "total_count": 62, 
        "total_pages": 4
    }
}