{
    "comments": [
        {
            "administrator_id": null, 
            "alignment": 0, 
            "ancestry": null, 
            "as": null, 
            "author": {
                "avatar_image": "https://decidim.barcelona/assets/avatar-866795c99abc33a3160d1f3fa93ada46eb75e54134e777666b9ed16215b26534.png", 
                "erased": false, 
                "hidden": false, 
                "id": 9262, 
                "name": "Suport General - Decidim Barcelona", 
                "official": false, 
                "official_level": 0, 
                "role": null, 
                "verified_organization": null
            }, 
            "body": "<p><a href=\"https://decidim.barcelona/proposals/reordenar-els-horaris-comercials-per-tal-de-facilitar-la-conciliacio-de-la-vida-laboral-i-familiar\">https://decidim.barcelona/proposals/reordenar-els-horaris-comercials-per-tal-de-facilitar-la-conciliacio-de-la-vida-laboral-i-familiar</a></p>", 
            "commentable_id": 2915, 
            "commentable_type": "Proposal", 
            "created_at": "08/04/2016 09:37:50", 
            "flagged": false, 
            "hidden": false, 
            "id": 10198, 
            "moderator_id": null, 
            "permissions": {
                "hide": false, 
                "hide_author": false, 
                "vote": false
            }, 
            "total_dislikes": 0, 
            "total_likes": 0, 
            "total_votes": 0
        }, 
        {
            "administrator_id": null, 
            "alignment": 0, 
            "ancestry": null, 
            "as": null, 
            "author": {
                "avatar_image": "https://decidim.barcelona/assets/avatar-866795c99abc33a3160d1f3fa93ada46eb75e54134e777666b9ed16215b26534.png", 
                "erased": false, 
                "hidden": false, 
                "id": 9262, 
                "name": "Suport General - Decidim Barcelona", 
                "official": false, 
                "official_level": 0, 
                "role": null, 
                "verified_organization": null
            }, 
            "body": "<p><a href=\"https://decidim.barcelona/proposals/promoure-la-innovacio-oberta-per-a-millorar-el-territori-i-la-societat\">https://decidim.barcelona/proposals/promoure-la-innovacio-oberta-per-a-millorar-el-territori-i-la-societat</a></p>", 
            "commentable_id": 2915, 
            "commentable_type": "Proposal", 
            "created_at": "08/04/2016 09:41:17", 
            "flagged": false, 
            "hidden": false, 
            "id": 10204, 
            "moderator_id": null, 
            "permissions": {
                "hide": false, 
                "hide_author": false, 
                "vote": false
            }, 
            "total_dislikes": 0, 
            "total_likes": 0, 
            "total_votes": 0
        }, 
        {
            "administrator_id": null, 
            "alignment": 0, 
            "ancestry": null, 
            "as": null, 
            "author": {
                "avatar_image": "https://decidim.barcelona/assets/avatar-866795c99abc33a3160d1f3fa93ada46eb75e54134e777666b9ed16215b26534.png", 
                "erased": false, 
                "hidden": false, 
                "id": 9262, 
                "name": "Suport General - Decidim Barcelona", 
                "official": false, 
                "official_level": 0, 
                "role": null, 
                "verified_organization": null
            }, 
            "body": "<p><a href=\"https://decidim.barcelona/proposals/estructura-que-coordini-de-cada-districte-i-generi-treball-en-xarxa\">https://decidim.barcelona/proposals/estructura-que-coordini-de-cada-districte-i-generi-treball-en-xarxa</a></p>", 
            "commentable_id": 2915, 
            "commentable_type": "Proposal", 
            "created_at": "08/04/2016 09:45:55", 
            "flagged": false, 
            "hidden": false, 
            "id": 10213, 
            "moderator_id": null, 
            "permissions": {
                "hide": false, 
                "hide_author": false, 
                "vote": false
            }, 
            "total_dislikes": 0, 
            "total_likes": 0, 
            "total_votes": 0
        }, 
        {
            "administrator_id": null, 
            "alignment": 0, 
            "ancestry": null, 
            "as": null, 
            "author": {
                "avatar_image": "https://decidim.barcelona/assets/avatar-866795c99abc33a3160d1f3fa93ada46eb75e54134e777666b9ed16215b26534.png", 
                "erased": false, 
                "hidden": false, 
                "id": 9262, 
                "name": "Suport General - Decidim Barcelona", 
                "official": false, 
                "official_level": 0, 
                "role": null, 
                "verified_organization": null
            }, 
            "body": "<p><a href=\"https://decidim.barcelona/proposals/identificar-nous-actius-i-crear-nova-activitat-economica-i-ocupacio\">https://decidim.barcelona/proposals/identificar-nous-actius-i-crear-nova-activitat-economica-i-ocupacio</a></p>", 
            "commentable_id": 2915, 
            "commentable_type": "Proposal", 
            "created_at": "08/04/2016 09:49:50", 
            "flagged": false, 
            "hidden": false, 
            "id": 10223, 
            "moderator_id": null, 
            "permissions": {
                "hide": false, 
                "hide_author": false, 
                "vote": false
            }, 
            "total_dislikes": 0, 
            "total_likes": 0, 
            "total_votes": 0
        }, 
        {
            "administrator_id": null, 
            "alignment": 0, 
            "ancestry": null, 
            "as": null, 
            "author": {
                "avatar_image": "https://decidim.barcelona/assets/avatar-866795c99abc33a3160d1f3fa93ada46eb75e54134e777666b9ed16215b26534.png", 
                "erased": false, 
                "hidden": false, 
                "id": 9262, 
                "name": "Suport General - Decidim Barcelona", 
                "official": false, 
                "official_level": 0, 
                "role": null, 
                "verified_organization": null
            }, 
            "body": "<p><a href=\"https://decidim.barcelona/proposals/remodelacio-de-la-gran-via\">https://decidim.barcelona/proposals/remodelacio-de-la-gran-via</a></p>", 
            "commentable_id": 2915, 
            "commentable_type": "Proposal", 
            "created_at": "08/04/2016 09:51:42", 
            "flagged": false, 
            "hidden": false, 
            "id": 10229, 
            "moderator_id": null, 
            "permissions": {
                "hide": false, 
                "hide_author": false, 
                "vote": false
            }, 
            "total_dislikes": 0, 
            "total_likes": 0, 
            "total_votes": 0
        }, 
        {
            "administrator_id": null, 
            "alignment": 0, 
            "ancestry": null, 
            "as": null, 
            "author": {
                "avatar_image": "https://decidim.barcelona/assets/avatar-866795c99abc33a3160d1f3fa93ada46eb75e54134e777666b9ed16215b26534.png", 
                "erased": false, 
                "hidden": false, 
                "id": 9262, 
                "name": "Suport General - Decidim Barcelona", 
                "official": false, 
                "official_level": 0, 
                "role": null, 
                "verified_organization": null
            }, 
            "body": "<p><a href=\"https://decidim.barcelona/proposals/dotar-el-territori-de-plans-d-usos\">https://decidim.barcelona/proposals/dotar-el-territori-de-plans-d-usos</a></p>", 
            "commentable_id": 2915, 
            "commentable_type": "Proposal", 
            "created_at": "08/04/2016 10:17:49", 
            "flagged": false, 
            "hidden": false, 
            "id": 10285, 
            "moderator_id": null, 
            "permissions": {
                "hide": false, 
                "hide_author": false, 
                "vote": false
            }, 
            "total_dislikes": 0, 
            "total_likes": 0, 
            "total_votes": 0
        }, 
        {
            "administrator_id": null, 
            "alignment": 0, 
            "ancestry": null, 
            "as": null, 
            "author": {
                "avatar_image": "https://decidim.barcelona/assets/avatar-866795c99abc33a3160d1f3fa93ada46eb75e54134e777666b9ed16215b26534.png", 
                "erased": false, 
                "hidden": false, 
                "id": 9262, 
                "name": "Suport General - Decidim Barcelona", 
                "official": false, 
                "official_level": 0, 
                "role": null, 
                "verified_organization": null
            }, 
            "body": "<p><a href=\"https://decidim.barcelona/proposals/que-los-negocios-puedan-abrir-los-domingos\">https://decidim.barcelona/proposals/que-los-negocios-puedan-abrir-los-domingos</a></p>", 
            "commentable_id": 2915, 
            "commentable_type": "Proposal", 
            "created_at": "08/04/2016 10:22:09", 
            "flagged": false, 
            "hidden": false, 
            "id": 10299, 
            "moderator_id": null, 
            "permissions": {
                "hide": false, 
                "hide_author": false, 
                "vote": false
            }, 
            "total_dislikes": 0, 
            "total_likes": 0, 
            "total_votes": 0
        }, 
        {
            "administrator_id": null, 
            "alignment": 0, 
            "ancestry": null, 
            "as": null, 
            "author": {
                "avatar_image": "https://decidim.barcelona/assets/avatar-866795c99abc33a3160d1f3fa93ada46eb75e54134e777666b9ed16215b26534.png", 
                "erased": false, 
                "hidden": false, 
                "id": 9262, 
                "name": "Suport General - Decidim Barcelona", 
                "official": false, 
                "official_level": 0, 
                "role": null, 
                "verified_organization": null
            }, 
            "body": "<p><a href=\"https://decidim.barcelona/proposals/fomentar-la-reduccio-de-trajectes-per-anar-a-treballar\">https://decidim.barcelona/proposals/fomentar-la-reduccio-de-trajectes-per-anar-a-treballar</a></p>", 
            "commentable_id": 2915, 
            "commentable_type": "Proposal", 
            "created_at": "08/04/2016 10:42:47", 
            "flagged": false, 
            "hidden": false, 
            "id": 10351, 
            "moderator_id": null, 
            "permissions": {
                "hide": false, 
                "hide_author": false, 
                "vote": false
            }, 
            "total_dislikes": 0, 
            "total_likes": 0, 
            "total_votes": 0
        }, 
        {
            "administrator_id": null, 
            "alignment": 0, 
            "ancestry": null, 
            "as": null, 
            "author": {
                "avatar_image": "https://decidim.barcelona/assets/avatar-866795c99abc33a3160d1f3fa93ada46eb75e54134e777666b9ed16215b26534.png", 
                "erased": false, 
                "hidden": false, 
                "id": 9262, 
                "name": "Suport General - Decidim Barcelona", 
                "official": false, 
                "official_level": 0, 
                "role": null, 
                "verified_organization": null
            }, 
            "body": "<p><a href=\"https://decidim.barcelona/proposals/incorporar-i-valorar-la-visio-i-el-treball-que-es-fa-des-dels-barris-en-l-impuls-de-l-ecss\">https://decidim.barcelona/proposals/incorporar-i-valorar-la-visio-i-el-treball-que-es-fa-des-dels-barris-en-l-impuls-de-l-ecss</a></p>", 
            "commentable_id": 2915, 
            "commentable_type": "Proposal", 
            "created_at": "08/04/2016 15:57:05", 
            "flagged": false, 
            "hidden": false, 
            "id": 11055, 
            "moderator_id": null, 
            "permissions": {
                "hide": false, 
                "hide_author": false, 
                "vote": false
            }, 
            "total_dislikes": 0, 
            "total_likes": 0, 
            "total_votes": 0
        }, 
        {
            "administrator_id": null, 
            "alignment": 0, 
            "ancestry": null, 
            "as": null, 
            "author": {
                "avatar_image": "https://decidim.barcelona/assets/avatar-866795c99abc33a3160d1f3fa93ada46eb75e54134e777666b9ed16215b26534.png", 
                "erased": false, 
                "hidden": false, 
                "id": 9262, 
                "name": "Suport General - Decidim Barcelona", 
                "official": false, 
                "official_level": 0, 
                "role": null, 
                "verified_organization": null
            }, 
            "body": "<p><a href=\"https://decidim.barcelona/proposals/eixos-comercials-dels-barris\">https://decidim.barcelona/proposals/eixos-comercials-dels-barris</a></p>", 
            "commentable_id": 2915, 
            "commentable_type": "Proposal", 
            "created_at": "08/04/2016 17:26:50", 
            "flagged": false, 
            "hidden": false, 
            "id": 11223, 
            "moderator_id": null, 
            "permissions": {
                "hide": false, 
                "hide_author": false, 
                "vote": false
            }, 
            "total_dislikes": 0, 
            "total_likes": 0, 
            "total_votes": 0
        }, 
        {
            "administrator_id": null, 
            "alignment": 0, 
            "ancestry": null, 
            "as": null, 
            "author": {
                "avatar_image": "https://decidim.barcelona/assets/avatar-866795c99abc33a3160d1f3fa93ada46eb75e54134e777666b9ed16215b26534.png", 
                "erased": false, 
                "hidden": false, 
                "id": 9262, 
                "name": "Suport General - Decidim Barcelona", 
                "official": false, 
                "official_level": 0, 
                "role": null, 
                "verified_organization": null
            }, 
            "body": "<p><a href=\"https://decidim.barcelona/proposals/control-de-les-grans-superficies-comercials\">https://decidim.barcelona/proposals/control-de-les-grans-superficies-comercials</a></p>", 
            "commentable_id": 2915, 
            "commentable_type": "Proposal", 
            "created_at": "08/04/2016 17:35:42", 
            "flagged": false, 
            "hidden": false, 
            "id": 11240, 
            "moderator_id": null, 
            "permissions": {
                "hide": false, 
                "hide_author": false, 
                "vote": false
            }, 
            "total_dislikes": 0, 
            "total_likes": 0, 
            "total_votes": 0
        }, 
        {
            "administrator_id": null, 
            "alignment": 0, 
            "ancestry": null, 
            "as": null, 
            "author": {
                "avatar_image": "https://decidim.barcelona/assets/avatar-866795c99abc33a3160d1f3fa93ada46eb75e54134e777666b9ed16215b26534.png", 
                "erased": false, 
                "hidden": false, 
                "id": 9262, 
                "name": "Suport General - Decidim Barcelona", 
                "official": false, 
                "official_level": 0, 
                "role": null, 
                "verified_organization": null
            }, 
            "body": "<p><a href=\"https://decidim.barcelona/proposals/comerc-solidari\">https://decidim.barcelona/proposals/comerc-solidari</a></p>", 
            "commentable_id": 2915, 
            "commentable_type": "Proposal", 
            "created_at": "08/04/2016 17:39:34", 
            "flagged": false, 
            "hidden": false, 
            "id": 11243, 
            "moderator_id": null, 
            "permissions": {
                "hide": false, 
                "hide_author": false, 
                "vote": false
            }, 
            "total_dislikes": 0, 
            "total_likes": 0, 
            "total_votes": 0
        }, 
        {
            "administrator_id": null, 
            "alignment": 0, 
            "ancestry": null, 
            "as": null, 
            "author": {
                "avatar_image": "https://decidim.barcelona/assets/avatar-866795c99abc33a3160d1f3fa93ada46eb75e54134e777666b9ed16215b26534.png", 
                "erased": false, 
                "hidden": false, 
                "id": 9262, 
                "name": "Suport General - Decidim Barcelona", 
                "official": false, 
                "official_level": 0, 
                "role": null, 
                "verified_organization": null
            }, 
            "body": "<p><a href=\"https://decidim.barcelona/proposals/unio-temporal-de-petites-empreses\">https://decidim.barcelona/proposals/unio-temporal-de-petites-empreses</a></p>", 
            "commentable_id": 2915, 
            "commentable_type": "Proposal", 
            "created_at": "09/04/2016 12:52:05", 
            "flagged": false, 
            "hidden": false, 
            "id": 12017, 
            "moderator_id": null, 
            "permissions": {
                "hide": false, 
                "hide_author": false, 
                "vote": false
            }, 
            "total_dislikes": 0, 
            "total_likes": 0, 
            "total_votes": 0
        }, 
        {
            "administrator_id": null, 
            "alignment": 0, 
            "ancestry": null, 
            "as": null, 
            "author": {
                "avatar_image": "https://decidim.barcelona/assets/avatar-866795c99abc33a3160d1f3fa93ada46eb75e54134e777666b9ed16215b26534.png", 
                "erased": false, 
                "hidden": false, 
                "id": 9262, 
                "name": "Suport General - Decidim Barcelona", 
                "official": false, 
                "official_level": 0, 
                "role": null, 
                "verified_organization": null
            }, 
            "body": "<p><a href=\"https://decidim.barcelona/proposals/fomentar-la-figura-dels-tecnics-d-ocupacio-en-tots-els-barris-principalment-en-els-barris-amb-mes-atur\">https://decidim.barcelona/proposals/fomentar-la-figura-dels-tecnics-d-ocupacio-en-tots-els-barris-principalment-en-els-barris-amb-mes-atur</a></p>", 
            "commentable_id": 2915, 
            "commentable_type": "Proposal", 
            "created_at": "09/04/2016 13:03:25", 
            "flagged": false, 
            "hidden": false, 
            "id": 12040, 
            "moderator_id": null, 
            "permissions": {
                "hide": false, 
                "hide_author": false, 
                "vote": false
            }, 
            "total_dislikes": 0, 
            "total_likes": 0, 
            "total_votes": 0
        }, 
        {
            "administrator_id": null, 
            "alignment": 0, 
            "ancestry": null, 
            "as": null, 
            "author": {
                "avatar_image": "https://decidim.barcelona/assets/avatar-866795c99abc33a3160d1f3fa93ada46eb75e54134e777666b9ed16215b26534.png", 
                "erased": false, 
                "hidden": false, 
                "id": 9262, 
                "name": "Suport General - Decidim Barcelona", 
                "official": false, 
                "official_level": 0, 
                "role": null, 
                "verified_organization": null
            }, 
            "body": "<p><a href=\"https://decidim.barcelona/proposals/facilitar-la-coordinacio-entre-els-agents-dispositius-i-programes-d-ocupacio-de-barcelona-activa-i-el-teixit-social-i-microeconomic-dels-barris\">https://decidim.barcelona/proposals/facilitar-la-coordinacio-entre-els-agents-dispositius-i-programes-d-ocupacio-de-barcelona-activa-i-el-teixit-social-i-microeconomic-dels-barris</a></p>", 
            "commentable_id": 2915, 
            "commentable_type": "Proposal", 
            "created_at": "09/04/2016 13:11:01", 
            "flagged": false, 
            "hidden": false, 
            "id": 12056, 
            "moderator_id": null, 
            "permissions": {
                "hide": false, 
                "hide_author": false, 
                "vote": false
            }, 
            "total_dislikes": 0, 
            "total_likes": 0, 
            "total_votes": 0
        }, 
        {
            "administrator_id": null, 
            "alignment": 0, 
            "ancestry": null, 
            "as": null, 
            "author": {
                "avatar_image": "https://decidim.barcelona/assets/avatar-866795c99abc33a3160d1f3fa93ada46eb75e54134e777666b9ed16215b26534.png", 
                "erased": false, 
                "hidden": false, 
                "id": 9262, 
                "name": "Suport General - Decidim Barcelona", 
                "official": false, 
                "official_level": 0, 
                "role": null, 
                "verified_organization": null
            }, 
            "body": "<p><a href=\"https://decidim.barcelona/proposals/servei-orientacio-i-recerca-feina-segons-necessitats-de-cada-territori\">https://decidim.barcelona/proposals/servei-orientacio-i-recerca-feina-segons-necessitats-de-cada-territori</a></p>", 
            "commentable_id": 2915, 
            "commentable_type": "Proposal", 
            "created_at": "09/04/2016 13:35:55", 
            "flagged": false, 
            "hidden": false, 
            "id": 12109, 
            "moderator_id": null, 
            "permissions": {
                "hide": false, 
                "hide_author": false, 
                "vote": false
            }, 
            "total_dislikes": 0, 
            "total_likes": 0, 
            "total_votes": 0
        }, 
        {
            "administrator_id": null, 
            "alignment": 0, 
            "ancestry": null, 
            "as": null, 
            "author": {
                "avatar_image": "https://decidim.barcelona/assets/avatar-866795c99abc33a3160d1f3fa93ada46eb75e54134e777666b9ed16215b26534.png", 
                "erased": false, 
                "hidden": false, 
                "id": 9262, 
                "name": "Suport General - Decidim Barcelona", 
                "official": false, 
                "official_level": 0, 
                "role": null, 
                "verified_organization": null
            }, 
            "body": "<p><a href=\"https://decidim.barcelona/proposals/noves-accions-desenvolupament-segons-diferents-necessitats\">https://decidim.barcelona/proposals/noves-accions-desenvolupament-segons-diferents-necessitats</a></p>", 
            "commentable_id": 2915, 
            "commentable_type": "Proposal", 
            "created_at": "09/04/2016 13:42:52", 
            "flagged": false, 
            "hidden": false, 
            "id": 12126, 
            "moderator_id": null, 
            "permissions": {
                "hide": false, 
                "hide_author": false, 
                "vote": false
            }, 
            "total_dislikes": 0, 
            "total_likes": 0, 
            "total_votes": 0
        }, 
        {
            "administrator_id": null, 
            "alignment": 0, 
            "ancestry": null, 
            "as": null, 
            "author": {
                "avatar_image": "https://decidim.barcelona/assets/avatar-866795c99abc33a3160d1f3fa93ada46eb75e54134e777666b9ed16215b26534.png", 
                "erased": false, 
                "hidden": false, 
                "id": 9262, 
                "name": "Suport General - Decidim Barcelona", 
                "official": false, 
                "official_level": 0, 
                "role": null, 
                "verified_organization": null
            }, 
            "body": "<p><a href=\"https://decidim.barcelona/proposals/impulsar-un-pla-de-comerc-que-vetlli-pel-comerc-local\">https://decidim.barcelona/proposals/impulsar-un-pla-de-comerc-que-vetlli-pel-comerc-local</a></p>", 
            "commentable_id": 2915, 
            "commentable_type": "Proposal", 
            "created_at": "09/04/2016 14:11:11", 
            "flagged": false, 
            "hidden": false, 
            "id": 12200, 
            "moderator_id": null, 
            "permissions": {
                "hide": false, 
                "hide_author": false, 
                "vote": false
            }, 
            "total_dislikes": 0, 
            "total_likes": 0, 
            "total_votes": 0
        }, 
        {
            "administrator_id": null, 
            "alignment": 0, 
            "ancestry": null, 
            "as": null, 
            "author": {
                "avatar_image": "https://decidim.barcelona/assets/avatar-866795c99abc33a3160d1f3fa93ada46eb75e54134e777666b9ed16215b26534.png", 
                "erased": false, 
                "hidden": false, 
                "id": 9262, 
                "name": "Suport General - Decidim Barcelona", 
                "official": false, 
                "official_level": 0, 
                "role": null, 
                "verified_organization": null
            }, 
            "body": "<p><a href=\"https://decidim.barcelona/proposals/aprofitament-de-les-sinergies-entre-els-diferents-municipis-de-l-area-metropolitana-de-la-provincia-i-de-la-resta-de-catalunya\">https://decidim.barcelona/proposals/aprofitament-de-les-sinergies-entre-els-diferents-municipis-de-l-area-metropolitana-de-la-provincia-i-de-la-resta-de-catalunya</a></p>", 
            "commentable_id": 2915, 
            "commentable_type": "Proposal", 
            "created_at": "11/04/2016 15:42:38", 
            "flagged": false, 
            "hidden": false, 
            "id": 12854, 
            "moderator_id": null, 
            "permissions": {
                "hide": false, 
                "hide_author": false, 
                "vote": false
            }, 
            "total_dislikes": 0, 
            "total_likes": 0, 
            "total_votes": 0
        }, 
        {
            "administrator_id": null, 
            "alignment": 0, 
            "ancestry": null, 
            "as": null, 
            "author": {
                "avatar_image": "https://decidim.barcelona/assets/avatar-866795c99abc33a3160d1f3fa93ada46eb75e54134e777666b9ed16215b26534.png", 
                "erased": false, 
                "hidden": false, 
                "id": 9262, 
                "name": "Suport General - Decidim Barcelona", 
                "official": false, 
                "official_level": 0, 
                "role": null, 
                "verified_organization": null
            }, 
            "body": "<p><a href=\"https://decidim.barcelona/proposals/la-promocio-de-la-innovacio-com-un-dels-elements-mes-importants-i-transversals-per-al-desenvolupament-economic-de-la-ciutat\">https://decidim.barcelona/proposals/la-promocio-de-la-innovacio-com-un-dels-elements-mes-importants-i-transversals-per-al-desenvolupament-economic-de-la-ciutat</a></p>", 
            "commentable_id": 2915, 
            "commentable_type": "Proposal", 
            "created_at": "11/04/2016 15:43:16", 
            "flagged": false, 
            "hidden": false, 
            "id": 12857, 
            "moderator_id": null, 
            "permissions": {
                "hide": false, 
                "hide_author": false, 
                "vote": false
            }, 
            "total_dislikes": 0, 
            "total_likes": 0, 
            "total_votes": 0
        }
    ], 
    "meta": {
        "current_page": 3, 
        "next_page": 4, 
        "prev_page": 2, 
        "total_count": 62, 
        "total_pages": 4
    }
}