{
    "comments": [
        {
            "administrator_id": null, 
            "alignment": 0, 
            "ancestry": null, 
            "as": null, 
            "author": {
                "avatar_image": "https://decidim.barcelona/assets/avatar-866795c99abc33a3160d1f3fa93ada46eb75e54134e777666b9ed16215b26534.png", 
                "erased": false, 
                "hidden": false, 
                "id": 9262, 
                "name": "Suport General - Decidim Barcelona", 
                "official": false, 
                "official_level": 0, 
                "role": null, 
                "verified_organization": null
            }, 
            "body": "<p><a href=\"https://decidim.barcelona/proposals/incrementar-els-convenis-vinculats-a-entitats-per-programes-determinats\">https://decidim.barcelona/proposals/incrementar-els-convenis-vinculats-a-entitats-per-programes-determinats</a></p>", 
            "commentable_id": 2915, 
            "commentable_type": "Proposal", 
            "created_at": "11/04/2016 15:57:13", 
            "flagged": false, 
            "hidden": false, 
            "id": 12911, 
            "moderator_id": null, 
            "permissions": {
                "hide": false, 
                "hide_author": false, 
                "vote": false
            }, 
            "total_dislikes": 0, 
            "total_likes": 0, 
            "total_votes": 0
        }, 
        {
            "administrator_id": null, 
            "alignment": 0, 
            "ancestry": null, 
            "as": null, 
            "author": {
                "avatar_image": "https://decidim.barcelona/assets/avatar-866795c99abc33a3160d1f3fa93ada46eb75e54134e777666b9ed16215b26534.png", 
                "erased": false, 
                "hidden": false, 
                "id": 9262, 
                "name": "Suport General - Decidim Barcelona", 
                "official": false, 
                "official_level": 0, 
                "role": null, 
                "verified_organization": null
            }, 
            "body": "<p><a href=\"https://decidim.barcelona/proposals/posar-un-establiment-de-restauracio-als-parcs-i-jardins-que-gestioni-l-espai-horaris\">https://decidim.barcelona/proposals/posar-un-establiment-de-restauracio-als-parcs-i-jardins-que-gestioni-l-espai-horaris</a></p>", 
            "commentable_id": 2915, 
            "commentable_type": "Proposal", 
            "created_at": "15/04/2016 11:05:16", 
            "flagged": false, 
            "hidden": false, 
            "id": 16604, 
            "moderator_id": null, 
            "permissions": {
                "hide": false, 
                "hide_author": false, 
                "vote": false
            }, 
            "total_dislikes": 0, 
            "total_likes": 0, 
            "total_votes": 0
        }
    ], 
    "meta": {
        "current_page": 4, 
        "next_page": null, 
        "prev_page": 3, 
        "total_count": 62, 
        "total_pages": 4
    }
}