{
    "comments": [
        {
            "administrator_id": null, 
            "alignment": 1, 
            "ancestry": null, 
            "as": null, 
            "author": {
                "avatar_image": "https://decidim.barcelona/assets/avatar-866795c99abc33a3160d1f3fa93ada46eb75e54134e777666b9ed16215b26534.png", 
                "erased": false, 
                "hidden": false, 
                "id": 804, 
                "name": "Joan Rafael Rabasco L\u00f3pez", 
                "official": false, 
                "official_level": 0, 
                "role": null, 
                "verified_organization": null
            }, 
            "body": "<p>L'Ajuntament ha de fer servir la seva capacitat de contractaci\u00f3 per afavorir a les empreses que respectin els drets dels treballadors, els medi ambient i la igualtat de g\u00e8nere entre d'altres. </p>", 
            "commentable_id": 2928, 
            "commentable_type": "Proposal", 
            "created_at": "14/03/2016 14:12:36", 
            "flagged": false, 
            "hidden": false, 
            "id": 4816, 
            "moderator_id": null, 
            "permissions": {
                "hide": false, 
                "hide_author": false, 
                "vote": false
            }, 
            "total_dislikes": 0, 
            "total_likes": 0, 
            "total_votes": 0
        }, 
        {
            "administrator_id": null, 
            "alignment": 0, 
            "ancestry": null, 
            "as": null, 
            "author": {
                "avatar_image": "https://decidim.barcelona/assets/avatar-866795c99abc33a3160d1f3fa93ada46eb75e54134e777666b9ed16215b26534.png", 
                "erased": false, 
                "hidden": false, 
                "id": 9262, 
                "name": "Suport General - Decidim Barcelona", 
                "official": false, 
                "official_level": 0, 
                "role": null, 
                "verified_organization": null
            }, 
            "body": "<p><a href=\"https://decidim.barcelona/proposals/incorporar-criteris-no-economics-i-de-l-economia-social-als-concursos-publics\">https://decidim.barcelona/proposals/incorporar-criteris-no-economics-i-de-l-economia-social-als-concursos-publics</a></p>", 
            "commentable_id": 2928, 
            "commentable_type": "Proposal", 
            "created_at": "08/04/2016 10:49:40", 
            "flagged": false, 
            "hidden": false, 
            "id": 10369, 
            "moderator_id": null, 
            "permissions": {
                "hide": false, 
                "hide_author": false, 
                "vote": false
            }, 
            "total_dislikes": 0, 
            "total_likes": 0, 
            "total_votes": 0
        }, 
        {
            "administrator_id": null, 
            "alignment": 0, 
            "ancestry": null, 
            "as": null, 
            "author": {
                "avatar_image": "https://decidim.barcelona/assets/avatar-866795c99abc33a3160d1f3fa93ada46eb75e54134e777666b9ed16215b26534.png", 
                "erased": false, 
                "hidden": false, 
                "id": 9262, 
                "name": "Suport General - Decidim Barcelona", 
                "official": false, 
                "official_level": 0, 
                "role": null, 
                "verified_organization": null
            }, 
            "body": "<p><a href=\"https://decidim.barcelona/proposals/canviar-la-forma-de-licitacio-del-manteniment-dels-equipaments-esportius-o-especialitzats-introduir-en-els-plecs-clausules-que-incentivin-que-cooperatives-o-altres-iniciatives-d-ecss-puguin-accedir-prioritariament-a-la-gestio\">https://decidim.barcelona/proposals/canviar-la-forma-de-licitacio-del-manteniment-dels-equipaments-esportius-o-especialitzats-introduir-en-els-plecs-clausules-que-incentivin-que-cooperatives-o-altres-iniciatives-d-ecss-puguin-accedir-prioritariament-a-la-gestio</a></p>", 
            "commentable_id": 2928, 
            "commentable_type": "Proposal", 
            "created_at": "08/04/2016 16:03:07", 
            "flagged": false, 
            "hidden": false, 
            "id": 11072, 
            "moderator_id": null, 
            "permissions": {
                "hide": false, 
                "hide_author": false, 
                "vote": false
            }, 
            "total_dislikes": 0, 
            "total_likes": 0, 
            "total_votes": 0
        }, 
        {
            "administrator_id": null, 
            "alignment": 0, 
            "ancestry": null, 
            "as": null, 
            "author": {
                "avatar_image": "https://decidim.barcelona/assets/avatar-866795c99abc33a3160d1f3fa93ada46eb75e54134e777666b9ed16215b26534.png", 
                "erased": false, 
                "hidden": false, 
                "id": 9262, 
                "name": "Suport General - Decidim Barcelona", 
                "official": false, 
                "official_level": 0, 
                "role": null, 
                "verified_organization": null
            }, 
            "body": "<p><a href=\"https://decidim.barcelona/proposals/contractacio-publica-de-serveis-i-productes-de-l-ecss\">https://decidim.barcelona/proposals/contractacio-publica-de-serveis-i-productes-de-l-ecss</a></p>", 
            "commentable_id": 2928, 
            "commentable_type": "Proposal", 
            "created_at": "08/04/2016 17:59:03", 
            "flagged": false, 
            "hidden": false, 
            "id": 11278, 
            "moderator_id": null, 
            "permissions": {
                "hide": false, 
                "hide_author": false, 
                "vote": false
            }, 
            "total_dislikes": 0, 
            "total_likes": 0, 
            "total_votes": 0
        }, 
        {
            "administrator_id": null, 
            "alignment": 0, 
            "ancestry": null, 
            "as": null, 
            "author": {
                "avatar_image": "https://decidim.barcelona/assets/avatar-866795c99abc33a3160d1f3fa93ada46eb75e54134e777666b9ed16215b26534.png", 
                "erased": false, 
                "hidden": false, 
                "id": 9262, 
                "name": "Suport General - Decidim Barcelona", 
                "official": false, 
                "official_level": 0, 
                "role": null, 
                "verified_organization": null
            }, 
            "body": "<p><a href=\"https://decidim.barcelona/proposals/clausules-socials-en-la-contractacio-publica-sobre-flexibilitzacio-del-temps-dels-treballadors-es\">https://decidim.barcelona/proposals/clausules-socials-en-la-contractacio-publica-sobre-flexibilitzacio-del-temps-dels-treballadors-es</a></p>", 
            "commentable_id": 2928, 
            "commentable_type": "Proposal", 
            "created_at": "08/04/2016 18:00:18", 
            "flagged": false, 
            "hidden": false, 
            "id": 11284, 
            "moderator_id": null, 
            "permissions": {
                "hide": false, 
                "hide_author": false, 
                "vote": false
            }, 
            "total_dislikes": 0, 
            "total_likes": 0, 
            "total_votes": 0
        }, 
        {
            "administrator_id": null, 
            "alignment": 0, 
            "ancestry": null, 
            "as": null, 
            "author": {
                "avatar_image": "https://decidim.barcelona/assets/avatar-866795c99abc33a3160d1f3fa93ada46eb75e54134e777666b9ed16215b26534.png", 
                "erased": false, 
                "hidden": false, 
                "id": 9262, 
                "name": "Suport General - Decidim Barcelona", 
                "official": false, 
                "official_level": 0, 
                "role": null, 
                "verified_organization": null
            }, 
            "body": "<p><a href=\"https://decidim.barcelona/proposals/potenciar-clausules-socials-en-la-contractacio-publica-vinculant-a-la-vegada-la-rsc-amb-el-desenvolupament-local\">https://decidim.barcelona/proposals/potenciar-clausules-socials-en-la-contractacio-publica-vinculant-a-la-vegada-la-rsc-amb-el-desenvolupament-local</a></p>", 
            "commentable_id": 2928, 
            "commentable_type": "Proposal", 
            "created_at": "08/04/2016 18:06:45", 
            "flagged": false, 
            "hidden": false, 
            "id": 11302, 
            "moderator_id": null, 
            "permissions": {
                "hide": false, 
                "hide_author": false, 
                "vote": false
            }, 
            "total_dislikes": 0, 
            "total_likes": 0, 
            "total_votes": 0
        }, 
        {
            "administrator_id": null, 
            "alignment": 0, 
            "ancestry": null, 
            "as": null, 
            "author": {
                "avatar_image": "https://decidim.barcelona/assets/avatar-866795c99abc33a3160d1f3fa93ada46eb75e54134e777666b9ed16215b26534.png", 
                "erased": false, 
                "hidden": false, 
                "id": 9262, 
                "name": "Suport General - Decidim Barcelona", 
                "official": false, 
                "official_level": 0, 
                "role": null, 
                "verified_organization": null
            }, 
            "body": "<p><a href=\"https://decidim.barcelona/proposals/compra-publica-etica\">https://decidim.barcelona/proposals/compra-publica-etica</a></p>", 
            "commentable_id": 2928, 
            "commentable_type": "Proposal", 
            "created_at": "08/04/2016 18:09:35", 
            "flagged": false, 
            "hidden": false, 
            "id": 11304, 
            "moderator_id": null, 
            "permissions": {
                "hide": false, 
                "hide_author": false, 
                "vote": false
            }, 
            "total_dislikes": 0, 
            "total_likes": 0, 
            "total_votes": 0
        }, 
        {
            "administrator_id": null, 
            "alignment": 0, 
            "ancestry": null, 
            "as": null, 
            "author": {
                "avatar_image": "https://decidim.barcelona/assets/avatar-866795c99abc33a3160d1f3fa93ada46eb75e54134e777666b9ed16215b26534.png", 
                "erased": false, 
                "hidden": false, 
                "id": 9262, 
                "name": "Suport General - Decidim Barcelona", 
                "official": false, 
                "official_level": 0, 
                "role": null, 
                "verified_organization": null
            }, 
            "body": "<p><a href=\"https://decidim.barcelona/proposals/canviar-com-opera-internament-l-ajuntament-en-alguns-fronts-vinculats-al-procomu-mesures-de-compra-publica-socialment-responsable\">https://decidim.barcelona/proposals/canviar-com-opera-internament-l-ajuntament-en-alguns-fronts-vinculats-al-procomu-mesures-de-compra-publica-socialment-responsable</a></p>", 
            "commentable_id": 2928, 
            "commentable_type": "Proposal", 
            "created_at": "09/04/2016 10:52:29", 
            "flagged": false, 
            "hidden": false, 
            "id": 11666, 
            "moderator_id": null, 
            "permissions": {
                "hide": false, 
                "hide_author": false, 
                "vote": false
            }, 
            "total_dislikes": 0, 
            "total_likes": 0, 
            "total_votes": 0
        }, 
        {
            "administrator_id": null, 
            "alignment": 0, 
            "ancestry": null, 
            "as": null, 
            "author": {
                "avatar_image": "https://decidim.barcelona/assets/avatar-866795c99abc33a3160d1f3fa93ada46eb75e54134e777666b9ed16215b26534.png", 
                "erased": false, 
                "hidden": false, 
                "id": 9262, 
                "name": "Suport General - Decidim Barcelona", 
                "official": false, 
                "official_level": 0, 
                "role": null, 
                "verified_organization": null
            }, 
            "body": "<p><a href=\"https://decidim.barcelona/proposals/canviar-com-opera-internament-l-ajuntament-en-alguns-fronts-vinculats-al-procomu-incorporar-criteris-d-avaluacio-prosocial-dels-concursos-publics\">https://decidim.barcelona/proposals/canviar-com-opera-internament-l-ajuntament-en-alguns-fronts-vinculats-al-procomu-incorporar-criteris-d-avaluacio-prosocial-dels-concursos-publics</a></p>", 
            "commentable_id": 2928, 
            "commentable_type": "Proposal", 
            "created_at": "09/04/2016 11:25:48", 
            "flagged": false, 
            "hidden": false, 
            "id": 11752, 
            "moderator_id": null, 
            "permissions": {
                "hide": false, 
                "hide_author": false, 
                "vote": false
            }, 
            "total_dislikes": 0, 
            "total_likes": 0, 
            "total_votes": 0
        }, 
        {
            "administrator_id": null, 
            "alignment": 0, 
            "ancestry": null, 
            "as": null, 
            "author": {
                "avatar_image": "https://decidim.barcelona/assets/avatar-866795c99abc33a3160d1f3fa93ada46eb75e54134e777666b9ed16215b26534.png", 
                "erased": false, 
                "hidden": false, 
                "id": 9262, 
                "name": "Suport General - Decidim Barcelona", 
                "official": false, 
                "official_level": 0, 
                "role": null, 
                "verified_organization": null
            }, 
            "body": "<p><a href=\"https://decidim.barcelona/proposals/canviar-com-opera-internament-l-ajuntament-en-alguns-fronts-vinculats-al-procomu-replantejar-la-prioritat-en-la-contractacio-per-l-ajuntament-i-la-seva-activitat-de-serveis-del-procomu\">https://decidim.barcelona/proposals/canviar-com-opera-internament-l-ajuntament-en-alguns-fronts-vinculats-al-procomu-replantejar-la-prioritat-en-la-contractacio-per-l-ajuntament-i-la-seva-activitat-de-serveis-del-procomu</a></p>", 
            "commentable_id": 2928, 
            "commentable_type": "Proposal", 
            "created_at": "09/04/2016 12:01:14", 
            "flagged": false, 
            "hidden": false, 
            "id": 11847, 
            "moderator_id": null, 
            "permissions": {
                "hide": false, 
                "hide_author": false, 
                "vote": false
            }, 
            "total_dislikes": 0, 
            "total_likes": 0, 
            "total_votes": 0
        }, 
        {
            "administrator_id": null, 
            "alignment": 0, 
            "ancestry": null, 
            "as": null, 
            "author": {
                "avatar_image": "https://decidim.barcelona/assets/avatar-866795c99abc33a3160d1f3fa93ada46eb75e54134e777666b9ed16215b26534.png", 
                "erased": false, 
                "hidden": false, 
                "id": 9262, 
                "name": "Suport General - Decidim Barcelona", 
                "official": false, 
                "official_level": 0, 
                "role": null, 
                "verified_organization": null
            }, 
            "body": "<p><a href=\"https://decidim.barcelona/proposals/millora-de-regulacions-per-a-l-economia-col-laborativa-procomu-en-materia-de-subjecte-juridic\">https://decidim.barcelona/proposals/millora-de-regulacions-per-a-l-economia-col-laborativa-procomu-en-materia-de-subjecte-juridic</a></p>", 
            "commentable_id": 2928, 
            "commentable_type": "Proposal", 
            "created_at": "09/04/2016 12:05:24", 
            "flagged": false, 
            "hidden": false, 
            "id": 11863, 
            "moderator_id": null, 
            "permissions": {
                "hide": false, 
                "hide_author": false, 
                "vote": false
            }, 
            "total_dislikes": 0, 
            "total_likes": 0, 
            "total_votes": 0
        }, 
        {
            "administrator_id": null, 
            "alignment": 0, 
            "ancestry": null, 
            "as": null, 
            "author": {
                "avatar_image": "https://decidim.barcelona/assets/avatar-866795c99abc33a3160d1f3fa93ada46eb75e54134e777666b9ed16215b26534.png", 
                "erased": false, 
                "hidden": false, 
                "id": 9262, 
                "name": "Suport General - Decidim Barcelona", 
                "official": false, 
                "official_level": 0, 
                "role": null, 
                "verified_organization": null
            }, 
            "body": "<p><a href=\"https://decidim.barcelona/proposals/treure-la-publicitat-de-vodafone-al-bicing-si-cal-canviar-la-per-una-empresa-mes-etica\">https://decidim.barcelona/proposals/treure-la-publicitat-de-vodafone-al-bicing-si-cal-canviar-la-per-una-empresa-mes-etica</a></p>", 
            "commentable_id": 2928, 
            "commentable_type": "Proposal", 
            "created_at": "09/04/2016 12:24:15", 
            "flagged": false, 
            "hidden": false, 
            "id": 11907, 
            "moderator_id": null, 
            "permissions": {
                "hide": false, 
                "hide_author": false, 
                "vote": false
            }, 
            "total_dislikes": 0, 
            "total_likes": 0, 
            "total_votes": 0
        }, 
        {
            "administrator_id": null, 
            "alignment": 0, 
            "ancestry": null, 
            "as": null, 
            "author": {
                "avatar_image": "https://decidim.barcelona/assets/avatar-866795c99abc33a3160d1f3fa93ada46eb75e54134e777666b9ed16215b26534.png", 
                "erased": false, 
                "hidden": false, 
                "id": 9262, 
                "name": "Suport General - Decidim Barcelona", 
                "official": false, 
                "official_level": 0, 
                "role": null, 
                "verified_organization": null
            }, 
            "body": "<p><a href=\"https://decidim.barcelona/proposals/remunicipalitzar-els-serveis-funeraris-per-tenir-enterraments-a-preu-digne\">https://decidim.barcelona/proposals/remunicipalitzar-els-serveis-funeraris-per-tenir-enterraments-a-preu-digne</a></p>", 
            "commentable_id": 2928, 
            "commentable_type": "Proposal", 
            "created_at": "09/04/2016 12:25:37", 
            "flagged": false, 
            "hidden": false, 
            "id": 11910, 
            "moderator_id": null, 
            "permissions": {
                "hide": false, 
                "hide_author": false, 
                "vote": false
            }, 
            "total_dislikes": 0, 
            "total_likes": 0, 
            "total_votes": 0
        }, 
        {
            "administrator_id": null, 
            "alignment": 0, 
            "ancestry": null, 
            "as": null, 
            "author": {
                "avatar_image": "https://decidim.barcelona/assets/avatar-866795c99abc33a3160d1f3fa93ada46eb75e54134e777666b9ed16215b26534.png", 
                "erased": false, 
                "hidden": false, 
                "id": 9262, 
                "name": "Suport General - Decidim Barcelona", 
                "official": false, 
                "official_level": 0, 
                "role": null, 
                "verified_organization": null
            }, 
            "body": "<p><a href=\"https://decidim.barcelona/proposals/municipalitzacio-de-la-xarxa-de-distribucio-electrica\">https://decidim.barcelona/proposals/municipalitzacio-de-la-xarxa-de-distribucio-electrica</a></p>", 
            "commentable_id": 2928, 
            "commentable_type": "Proposal", 
            "created_at": "09/04/2016 12:27:02", 
            "flagged": false, 
            "hidden": false, 
            "id": 11921, 
            "moderator_id": null, 
            "permissions": {
                "hide": false, 
                "hide_author": false, 
                "vote": false
            }, 
            "total_dislikes": 0, 
            "total_likes": 0, 
            "total_votes": 0
        }, 
        {
            "administrator_id": null, 
            "alignment": 0, 
            "ancestry": null, 
            "as": null, 
            "author": {
                "avatar_image": "https://decidim.barcelona/assets/avatar-866795c99abc33a3160d1f3fa93ada46eb75e54134e777666b9ed16215b26534.png", 
                "erased": false, 
                "hidden": false, 
                "id": 9262, 
                "name": "Suport General - Decidim Barcelona", 
                "official": false, 
                "official_level": 0, 
                "role": null, 
                "verified_organization": null
            }, 
            "body": "<p><a href=\"https://decidim.barcelona/proposals/un-ajuntament-etic-per-a-una-barcelona-inspiradora\">https://decidim.barcelona/proposals/un-ajuntament-etic-per-a-una-barcelona-inspiradora</a></p>", 
            "commentable_id": 2928, 
            "commentable_type": "Proposal", 
            "created_at": "09/04/2016 12:28:47", 
            "flagged": false, 
            "hidden": false, 
            "id": 11928, 
            "moderator_id": null, 
            "permissions": {
                "hide": false, 
                "hide_author": false, 
                "vote": false
            }, 
            "total_dislikes": 0, 
            "total_likes": 0, 
            "total_votes": 0
        }, 
        {
            "administrator_id": null, 
            "alignment": 0, 
            "ancestry": null, 
            "as": null, 
            "author": {
                "avatar_image": "https://decidim.barcelona/assets/avatar-866795c99abc33a3160d1f3fa93ada46eb75e54134e777666b9ed16215b26534.png", 
                "erased": false, 
                "hidden": false, 
                "id": 9262, 
                "name": "Suport General - Decidim Barcelona", 
                "official": false, 
                "official_level": 0, 
                "role": null, 
                "verified_organization": null
            }, 
            "body": "<p><a href=\"https://decidim.barcelona/proposals/ajuntament-com-a-tractor-d-ocupacio-socialment-responsable\">https://decidim.barcelona/proposals/ajuntament-com-a-tractor-d-ocupacio-socialment-responsable</a></p>", 
            "commentable_id": 2928, 
            "commentable_type": "Proposal", 
            "created_at": "09/04/2016 12:45:54", 
            "flagged": false, 
            "hidden": false, 
            "id": 11980, 
            "moderator_id": null, 
            "permissions": {
                "hide": false, 
                "hide_author": false, 
                "vote": false
            }, 
            "total_dislikes": 0, 
            "total_likes": 0, 
            "total_votes": 0
        }, 
        {
            "administrator_id": null, 
            "alignment": 0, 
            "ancestry": null, 
            "as": null, 
            "author": {
                "avatar_image": "https://decidim.barcelona/assets/avatar-866795c99abc33a3160d1f3fa93ada46eb75e54134e777666b9ed16215b26534.png", 
                "erased": false, 
                "hidden": false, 
                "id": 9262, 
                "name": "Suport General - Decidim Barcelona", 
                "official": false, 
                "official_level": 0, 
                "role": null, 
                "verified_organization": null
            }, 
            "body": "<p><a href=\"https://decidim.barcelona/proposals/compromis-social-empreses-beneficiaries-de-serveis-i-recursos-publics\">https://decidim.barcelona/proposals/compromis-social-empreses-beneficiaries-de-serveis-i-recursos-publics</a></p>", 
            "commentable_id": 2928, 
            "commentable_type": "Proposal", 
            "created_at": "09/04/2016 13:34:50", 
            "flagged": false, 
            "hidden": false, 
            "id": 12106, 
            "moderator_id": null, 
            "permissions": {
                "hide": false, 
                "hide_author": false, 
                "vote": false
            }, 
            "total_dislikes": 0, 
            "total_likes": 0, 
            "total_votes": 0
        }, 
        {
            "administrator_id": null, 
            "alignment": 0, 
            "ancestry": null, 
            "as": null, 
            "author": {
                "avatar_image": "https://decidim.barcelona/assets/avatar-866795c99abc33a3160d1f3fa93ada46eb75e54134e777666b9ed16215b26534.png", 
                "erased": false, 
                "hidden": false, 
                "id": 9262, 
                "name": "Suport General - Decidim Barcelona", 
                "official": false, 
                "official_level": 0, 
                "role": null, 
                "verified_organization": null
            }, 
            "body": "<p><a href=\"https://decidim.barcelona/proposals/incorporar-clausules-que-assegurin-unes-condicions-laborals-dignes-en-els-contractes-d-externalitzacions-de-serveis-en-el-sector-turistic\">https://decidim.barcelona/proposals/incorporar-clausules-que-assegurin-unes-condicions-laborals-dignes-en-els-contractes-d-externalitzacions-de-serveis-en-el-sector-turistic</a></p>", 
            "commentable_id": 2928, 
            "commentable_type": "Proposal", 
            "created_at": "09/04/2016 14:02:17", 
            "flagged": false, 
            "hidden": false, 
            "id": 12157, 
            "moderator_id": null, 
            "permissions": {
                "hide": false, 
                "hide_author": false, 
                "vote": false
            }, 
            "total_dislikes": 0, 
            "total_likes": 0, 
            "total_votes": 0
        }, 
        {
            "administrator_id": null, 
            "alignment": 0, 
            "ancestry": null, 
            "as": null, 
            "author": {
                "avatar_image": "https://decidim.barcelona/assets/avatar-866795c99abc33a3160d1f3fa93ada46eb75e54134e777666b9ed16215b26534.png", 
                "erased": false, 
                "hidden": false, 
                "id": 9262, 
                "name": "Suport General - Decidim Barcelona", 
                "official": false, 
                "official_level": 0, 
                "role": null, 
                "verified_organization": null
            }, 
            "body": "<p><a href=\"https://decidim.barcelona/proposals/favorecer-la-contratacion-publica-de-empresas-de-economia-social\">https://decidim.barcelona/proposals/favorecer-la-contratacion-publica-de-empresas-de-economia-social</a></p>", 
            "commentable_id": 2928, 
            "commentable_type": "Proposal", 
            "created_at": "11/04/2016 17:00:08", 
            "flagged": false, 
            "hidden": false, 
            "id": 13041, 
            "moderator_id": null, 
            "permissions": {
                "hide": false, 
                "hide_author": false, 
                "vote": false
            }, 
            "total_dislikes": 0, 
            "total_likes": 0, 
            "total_votes": 0
        }, 
        {
            "administrator_id": null, 
            "alignment": 0, 
            "ancestry": null, 
            "as": null, 
            "author": {
                "avatar_image": "https://decidim.barcelona/assets/avatar-866795c99abc33a3160d1f3fa93ada46eb75e54134e777666b9ed16215b26534.png", 
                "erased": false, 
                "hidden": false, 
                "id": 9262, 
                "name": "Suport General - Decidim Barcelona", 
                "official": false, 
                "official_level": 0, 
                "role": null, 
                "verified_organization": null
            }, 
            "body": "<p><a href=\"https://decidim.barcelona/proposals/contracar-serveis-publics-a-l-economia-social\">https://decidim.barcelona/proposals/contracar-serveis-publics-a-l-economia-social</a></p>", 
            "commentable_id": 2928, 
            "commentable_type": "Proposal", 
            "created_at": "12/04/2016 16:27:49", 
            "flagged": false, 
            "hidden": false, 
            "id": 13860, 
            "moderator_id": null, 
            "permissions": {
                "hide": false, 
                "hide_author": false, 
                "vote": false
            }, 
            "total_dislikes": 0, 
            "total_likes": 0, 
            "total_votes": 0
        }
    ], 
    "meta": {
        "current_page": 1, 
        "next_page": 2, 
        "prev_page": null, 
        "total_count": 22, 
        "total_pages": 2
    }
}