{
    "comments": [
        {
            "administrator_id": null, 
            "alignment": 0, 
            "ancestry": null, 
            "as": null, 
            "author": {
                "avatar_image": "https://decidim.barcelona/assets/avatar-866795c99abc33a3160d1f3fa93ada46eb75e54134e777666b9ed16215b26534.png", 
                "erased": false, 
                "hidden": false, 
                "id": 9262, 
                "name": "Suport General - Decidim Barcelona", 
                "official": false, 
                "official_level": 0, 
                "role": null, 
                "verified_organization": null
            }, 
            "body": "<p><a href=\"https://decidim.barcelona/proposals/incentivar-i-donar-suport-a-la-recerca-i-comprensio-de-l-economia-col-laborativa-procomu-grups-de-treball-i-altres-mecanismes-per-a-una-reflexio-en-profunditat-i-d-amplitud-de-mires\">https://decidim.barcelona/proposals/incentivar-i-donar-suport-a-la-recerca-i-comprensio-de-l-economia-col-laborativa-procomu-grups-de-treball-i-altres-mecanismes-per-a-una-reflexio-en-profunditat-i-d-amplitud-de-mires</a></p>", 
            "commentable_id": 2922, 
            "commentable_type": "Proposal", 
            "created_at": "09/04/2016 12:03:20", 
            "flagged": false, 
            "hidden": false, 
            "id": 11853, 
            "moderator_id": null, 
            "permissions": {
                "hide": false, 
                "hide_author": false, 
                "vote": false
            }, 
            "total_dislikes": 0, 
            "total_likes": 0, 
            "total_votes": 0
        }, 
        {
            "administrator_id": null, 
            "alignment": 0, 
            "ancestry": null, 
            "as": null, 
            "author": {
                "avatar_image": "https://decidim.barcelona/assets/avatar-866795c99abc33a3160d1f3fa93ada46eb75e54134e777666b9ed16215b26534.png", 
                "erased": false, 
                "hidden": false, 
                "id": 9262, 
                "name": "Suport General - Decidim Barcelona", 
                "official": false, 
                "official_level": 0, 
                "role": null, 
                "verified_organization": null
            }, 
            "body": "<p><a href=\"https://decidim.barcelona/proposals/us-d-espais-i-altra-infraestructura-municipal-per-a-l-economia-col-laborativa-procomu-biblioteques-d-objectes\">https://decidim.barcelona/proposals/us-d-espais-i-altra-infraestructura-municipal-per-a-l-economia-col-laborativa-procomu-biblioteques-d-objectes</a></p>", 
            "commentable_id": 2922, 
            "commentable_type": "Proposal", 
            "created_at": "15/04/2016 10:32:49", 
            "flagged": false, 
            "hidden": false, 
            "id": 16526, 
            "moderator_id": null, 
            "permissions": {
                "hide": false, 
                "hide_author": false, 
                "vote": false
            }, 
            "total_dislikes": 0, 
            "total_likes": 0, 
            "total_votes": 0
        }
    ], 
    "meta": {
        "current_page": 2, 
        "next_page": null, 
        "prev_page": 1, 
        "total_count": 22, 
        "total_pages": 2
    }
}