{
    "comments": [
        {
            "administrator_id": null, 
            "alignment": 0, 
            "ancestry": null, 
            "as": null, 
            "author": {
                "avatar_image": "https://decidim.barcelona/assets/avatar-866795c99abc33a3160d1f3fa93ada46eb75e54134e777666b9ed16215b26534.png", 
                "erased": false, 
                "hidden": false, 
                "id": 9262, 
                "name": "Suport General - Decidim Barcelona", 
                "official": false, 
                "official_level": 0, 
                "role": null, 
                "verified_organization": null
            }, 
            "body": "<p><a href=\"https://decidim.barcelona/proposals/afavorir-l-us-d-espais-i-equipaments-publics-per-a-iniciatives-comunitaries\">https://decidim.barcelona/proposals/afavorir-l-us-d-espais-i-equipaments-publics-per-a-iniciatives-comunitaries</a></p>", 
            "commentable_id": 2922, 
            "commentable_type": "Proposal", 
            "created_at": "08/04/2016 10:37:01", 
            "flagged": false, 
            "hidden": false, 
            "id": 10339, 
            "moderator_id": null, 
            "permissions": {
                "hide": false, 
                "hide_author": false, 
                "vote": false
            }, 
            "total_dislikes": 0, 
            "total_likes": 0, 
            "total_votes": 0
        }, 
        {
            "administrator_id": null, 
            "alignment": 0, 
            "ancestry": null, 
            "as": null, 
            "author": {
                "avatar_image": "https://decidim.barcelona/assets/avatar-866795c99abc33a3160d1f3fa93ada46eb75e54134e777666b9ed16215b26534.png", 
                "erased": false, 
                "hidden": false, 
                "id": 9262, 
                "name": "Suport General - Decidim Barcelona", 
                "official": false, 
                "official_level": 0, 
                "role": null, 
                "verified_organization": null
            }, 
            "body": "<p><a href=\"https://decidim.barcelona/proposals/aprofitar-els-espais-i-equipaments-fora-de-l-horari-habitual-per-desenvolupar-projectes-i-difondre-l-ecss\">https://decidim.barcelona/proposals/aprofitar-els-espais-i-equipaments-fora-de-l-horari-habitual-per-desenvolupar-projectes-i-difondre-l-ecss</a></p>", 
            "commentable_id": 2922, 
            "commentable_type": "Proposal", 
            "created_at": "08/04/2016 11:09:15", 
            "flagged": false, 
            "hidden": false, 
            "id": 10428, 
            "moderator_id": null, 
            "permissions": {
                "hide": false, 
                "hide_author": false, 
                "vote": false
            }, 
            "total_dislikes": 0, 
            "total_likes": 0, 
            "total_votes": 0
        }, 
        {
            "administrator_id": null, 
            "alignment": 0, 
            "ancestry": null, 
            "as": null, 
            "author": {
                "avatar_image": "https://decidim.barcelona/assets/avatar-866795c99abc33a3160d1f3fa93ada46eb75e54134e777666b9ed16215b26534.png", 
                "erased": false, 
                "hidden": false, 
                "id": 9262, 
                "name": "Suport General - Decidim Barcelona", 
                "official": false, 
                "official_level": 0, 
                "role": null, 
                "verified_organization": null
            }, 
            "body": "<p><a href=\"https://decidim.barcelona/proposals/utilitzar-els-mitjans-de-comunicacio-publics-pantalles-d-equipaments-de-tmb-cares-b-de-les-banderoles-etc-i-la-xarxa-d-equipaments-i-serveis-per-donar-a-coneixer-i-fer-visible-l-ecss\">https://decidim.barcelona/proposals/utilitzar-els-mitjans-de-comunicacio-publics-pantalles-d-equipaments-de-tmb-cares-b-de-les-banderoles-etc-i-la-xarxa-d-equipaments-i-serveis-per-donar-a-coneixer-i-fer-visible-l-ecss</a></p>", 
            "commentable_id": 2922, 
            "commentable_type": "Proposal", 
            "created_at": "08/04/2016 15:49:14", 
            "flagged": false, 
            "hidden": false, 
            "id": 11031, 
            "moderator_id": null, 
            "permissions": {
                "hide": false, 
                "hide_author": false, 
                "vote": false
            }, 
            "total_dislikes": 0, 
            "total_likes": 0, 
            "total_votes": 0
        }, 
        {
            "administrator_id": null, 
            "alignment": 0, 
            "ancestry": null, 
            "as": null, 
            "author": {
                "avatar_image": "https://decidim.barcelona/assets/avatar-866795c99abc33a3160d1f3fa93ada46eb75e54134e777666b9ed16215b26534.png", 
                "erased": false, 
                "hidden": false, 
                "id": 9262, 
                "name": "Suport General - Decidim Barcelona", 
                "official": false, 
                "official_level": 0, 
                "role": null, 
                "verified_organization": null
            }, 
            "body": "<p><a href=\"https://decidim.barcelona/proposals/obrir-i-cedir-espais-dels-equipaments-publics-a-les-iniciatives-d-ecss\">https://decidim.barcelona/proposals/obrir-i-cedir-espais-dels-equipaments-publics-a-les-iniciatives-d-ecss</a></p>", 
            "commentable_id": 2922, 
            "commentable_type": "Proposal", 
            "created_at": "08/04/2016 15:55:02", 
            "flagged": false, 
            "hidden": false, 
            "id": 11048, 
            "moderator_id": null, 
            "permissions": {
                "hide": false, 
                "hide_author": false, 
                "vote": false
            }, 
            "total_dislikes": 0, 
            "total_likes": 0, 
            "total_votes": 0
        }, 
        {
            "administrator_id": null, 
            "alignment": 0, 
            "ancestry": null, 
            "as": null, 
            "author": {
                "avatar_image": "https://decidim.barcelona/assets/avatar-866795c99abc33a3160d1f3fa93ada46eb75e54134e777666b9ed16215b26534.png", 
                "erased": false, 
                "hidden": false, 
                "id": 9262, 
                "name": "Suport General - Decidim Barcelona", 
                "official": false, 
                "official_level": 0, 
                "role": null, 
                "verified_organization": null
            }, 
            "body": "<p><a href=\"https://decidim.barcelona/proposals/observatori-de-l-ecss\">https://decidim.barcelona/proposals/observatori-de-l-ecss</a></p>", 
            "commentable_id": 2922, 
            "commentable_type": "Proposal", 
            "created_at": "08/04/2016 16:05:24", 
            "flagged": false, 
            "hidden": false, 
            "id": 11077, 
            "moderator_id": null, 
            "permissions": {
                "hide": false, 
                "hide_author": false, 
                "vote": false
            }, 
            "total_dislikes": 0, 
            "total_likes": 0, 
            "total_votes": 0
        }, 
        {
            "administrator_id": null, 
            "alignment": 0, 
            "ancestry": null, 
            "as": null, 
            "author": {
                "avatar_image": "https://decidim.barcelona/assets/avatar-866795c99abc33a3160d1f3fa93ada46eb75e54134e777666b9ed16215b26534.png", 
                "erased": false, 
                "hidden": false, 
                "id": 9262, 
                "name": "Suport General - Decidim Barcelona", 
                "official": false, 
                "official_level": 0, 
                "role": null, 
                "verified_organization": null
            }, 
            "body": "<p><a href=\"https://decidim.barcelona/proposals/treballar-des-dels-districtes-per-escoltar-coneixer-coordinar-i-acompanyar-a-les-iniciatives-d-ecss\">https://decidim.barcelona/proposals/treballar-des-dels-districtes-per-escoltar-coneixer-coordinar-i-acompanyar-a-les-iniciatives-d-ecss</a></p>", 
            "commentable_id": 2922, 
            "commentable_type": "Proposal", 
            "created_at": "08/04/2016 16:09:21", 
            "flagged": false, 
            "hidden": false, 
            "id": 11087, 
            "moderator_id": null, 
            "permissions": {
                "hide": false, 
                "hide_author": false, 
                "vote": false
            }, 
            "total_dislikes": 0, 
            "total_likes": 0, 
            "total_votes": 0
        }, 
        {
            "administrator_id": null, 
            "alignment": 0, 
            "ancestry": null, 
            "as": null, 
            "author": {
                "avatar_image": "https://decidim.barcelona/assets/avatar-866795c99abc33a3160d1f3fa93ada46eb75e54134e777666b9ed16215b26534.png", 
                "erased": false, 
                "hidden": false, 
                "id": 9262, 
                "name": "Suport General - Decidim Barcelona", 
                "official": false, 
                "official_level": 0, 
                "role": null, 
                "verified_organization": null
            }, 
            "body": "<p><a href=\"https://decidim.barcelona/proposals/repensar-can-girona\">https://decidim.barcelona/proposals/repensar-can-girona</a></p>", 
            "commentable_id": 2922, 
            "commentable_type": "Proposal", 
            "created_at": "08/04/2016 16:09:56", 
            "flagged": false, 
            "hidden": false, 
            "id": 11090, 
            "moderator_id": null, 
            "permissions": {
                "hide": false, 
                "hide_author": false, 
                "vote": false
            }, 
            "total_dislikes": 0, 
            "total_likes": 0, 
            "total_votes": 0
        }, 
        {
            "administrator_id": null, 
            "alignment": 0, 
            "ancestry": null, 
            "as": null, 
            "author": {
                "avatar_image": "https://decidim.barcelona/assets/avatar-866795c99abc33a3160d1f3fa93ada46eb75e54134e777666b9ed16215b26534.png", 
                "erased": false, 
                "hidden": false, 
                "id": 9262, 
                "name": "Suport General - Decidim Barcelona", 
                "official": false, 
                "official_level": 0, 
                "role": null, 
                "verified_organization": null
            }, 
            "body": "<p><a href=\"https://decidim.barcelona/proposals/treballar-i-col-laborar-amb-el-teixit-associatiu-ja-que-es-un-dels-mes-susceptibles-d-incorporar-experiencies-d-ecss\">https://decidim.barcelona/proposals/treballar-i-col-laborar-amb-el-teixit-associatiu-ja-que-es-un-dels-mes-susceptibles-d-incorporar-experiencies-d-ecss</a></p>", 
            "commentable_id": 2922, 
            "commentable_type": "Proposal", 
            "created_at": "08/04/2016 16:11:22", 
            "flagged": false, 
            "hidden": false, 
            "id": 11094, 
            "moderator_id": null, 
            "permissions": {
                "hide": false, 
                "hide_author": false, 
                "vote": false
            }, 
            "total_dislikes": 0, 
            "total_likes": 0, 
            "total_votes": 0
        }, 
        {
            "administrator_id": null, 
            "alignment": 0, 
            "ancestry": null, 
            "as": null, 
            "author": {
                "avatar_image": "https://decidim.barcelona/assets/avatar-866795c99abc33a3160d1f3fa93ada46eb75e54134e777666b9ed16215b26534.png", 
                "erased": false, 
                "hidden": false, 
                "id": 9262, 
                "name": "Suport General - Decidim Barcelona", 
                "official": false, 
                "official_level": 0, 
                "role": null, 
                "verified_organization": null
            }, 
            "body": "<p><a href=\"https://decidim.barcelona/proposals/crear-espais-de-treball-conjunt-i-intercanvi-d-idees-per-a-dones\">https://decidim.barcelona/proposals/crear-espais-de-treball-conjunt-i-intercanvi-d-idees-per-a-dones</a></p>", 
            "commentable_id": 2922, 
            "commentable_type": "Proposal", 
            "created_at": "08/04/2016 16:43:47", 
            "flagged": false, 
            "hidden": false, 
            "id": 11140, 
            "moderator_id": null, 
            "permissions": {
                "hide": false, 
                "hide_author": false, 
                "vote": false
            }, 
            "total_dislikes": 0, 
            "total_likes": 0, 
            "total_votes": 0
        }, 
        {
            "administrator_id": null, 
            "alignment": 0, 
            "ancestry": null, 
            "as": null, 
            "author": {
                "avatar_image": "https://decidim.barcelona/assets/avatar-866795c99abc33a3160d1f3fa93ada46eb75e54134e777666b9ed16215b26534.png", 
                "erased": false, 
                "hidden": false, 
                "id": 9262, 
                "name": "Suport General - Decidim Barcelona", 
                "official": false, 
                "official_level": 0, 
                "role": null, 
                "verified_organization": null
            }, 
            "body": "<p><a href=\"https://decidim.barcelona/proposals/potenciar-el-coneixement-la-historia-i-el-llegat-cooperatiu-a-barcelona\">https://decidim.barcelona/proposals/potenciar-el-coneixement-la-historia-i-el-llegat-cooperatiu-a-barcelona</a></p>", 
            "commentable_id": 2922, 
            "commentable_type": "Proposal", 
            "created_at": "08/04/2016 17:20:26", 
            "flagged": false, 
            "hidden": false, 
            "id": 11211, 
            "moderator_id": null, 
            "permissions": {
                "hide": false, 
                "hide_author": false, 
                "vote": false
            }, 
            "total_dislikes": 0, 
            "total_likes": 0, 
            "total_votes": 0
        }, 
        {
            "administrator_id": null, 
            "alignment": 0, 
            "ancestry": null, 
            "as": null, 
            "author": {
                "avatar_image": "https://decidim.barcelona/assets/avatar-866795c99abc33a3160d1f3fa93ada46eb75e54134e777666b9ed16215b26534.png", 
                "erased": false, 
                "hidden": false, 
                "id": 9262, 
                "name": "Suport General - Decidim Barcelona", 
                "official": false, 
                "official_level": 0, 
                "role": null, 
                "verified_organization": null
            }, 
            "body": "<p><a href=\"https://decidim.barcelona/proposals/impulsar-la-incubacio-de-nous-projectes-i-iniciatives-d-economia-col-laborativa-procomu-incubadora-amb-infraestructura-fisica-i-tecnologica\">https://decidim.barcelona/proposals/impulsar-la-incubacio-de-nous-projectes-i-iniciatives-d-economia-col-laborativa-procomu-incubadora-amb-infraestructura-fisica-i-tecnologica</a></p>", 
            "commentable_id": 2922, 
            "commentable_type": "Proposal", 
            "created_at": "08/04/2016 18:22:14", 
            "flagged": false, 
            "hidden": false, 
            "id": 11317, 
            "moderator_id": null, 
            "permissions": {
                "hide": false, 
                "hide_author": false, 
                "vote": false
            }, 
            "total_dislikes": 0, 
            "total_likes": 0, 
            "total_votes": 0
        }, 
        {
            "administrator_id": null, 
            "alignment": 0, 
            "ancestry": null, 
            "as": null, 
            "author": {
                "avatar_image": "https://decidim.barcelona/assets/avatar-866795c99abc33a3160d1f3fa93ada46eb75e54134e777666b9ed16215b26534.png", 
                "erased": false, 
                "hidden": false, 
                "id": 9262, 
                "name": "Suport General - Decidim Barcelona", 
                "official": false, 
                "official_level": 0, 
                "role": null, 
                "verified_organization": null
            }, 
            "body": "<p><a href=\"https://decidim.barcelona/proposals/incentivar-i-donar-suport-a-la-recerca-i-comprensio-de-l-economia-col-laborativa-procomu-estudiar-les-cooperatives-en-relacio-als-procomuns\">https://decidim.barcelona/proposals/incentivar-i-donar-suport-a-la-recerca-i-comprensio-de-l-economia-col-laborativa-procomu-estudiar-les-cooperatives-en-relacio-als-procomuns</a></p>", 
            "commentable_id": 2922, 
            "commentable_type": "Proposal", 
            "created_at": "09/04/2016 10:25:23", 
            "flagged": false, 
            "hidden": false, 
            "id": 11601, 
            "moderator_id": null, 
            "permissions": {
                "hide": false, 
                "hide_author": false, 
                "vote": false
            }, 
            "total_dislikes": 0, 
            "total_likes": 0, 
            "total_votes": 0
        }, 
        {
            "administrator_id": null, 
            "alignment": 0, 
            "ancestry": null, 
            "as": null, 
            "author": {
                "avatar_image": "https://decidim.barcelona/assets/avatar-866795c99abc33a3160d1f3fa93ada46eb75e54134e777666b9ed16215b26534.png", 
                "erased": false, 
                "hidden": false, 
                "id": 9262, 
                "name": "Suport General - Decidim Barcelona", 
                "official": false, 
                "official_level": 0, 
                "role": null, 
                "verified_organization": null
            }, 
            "body": "<p><a href=\"https://decidim.barcelona/proposals/us-d-espais-i-altra-infraestructura-municipal-per-a-l-economia-col-laborativa-procomu-usos-ciutadans-d-infraestructura-publica\">https://decidim.barcelona/proposals/us-d-espais-i-altra-infraestructura-municipal-per-a-l-economia-col-laborativa-procomu-usos-ciutadans-d-infraestructura-publica</a></p>", 
            "commentable_id": 2922, 
            "commentable_type": "Proposal", 
            "created_at": "09/04/2016 10:48:39", 
            "flagged": false, 
            "hidden": false, 
            "id": 11652, 
            "moderator_id": null, 
            "permissions": {
                "hide": false, 
                "hide_author": false, 
                "vote": false
            }, 
            "total_dislikes": 0, 
            "total_likes": 0, 
            "total_votes": 0
        }, 
        {
            "administrator_id": null, 
            "alignment": 0, 
            "ancestry": null, 
            "as": null, 
            "author": {
                "avatar_image": "https://decidim.barcelona/assets/avatar-866795c99abc33a3160d1f3fa93ada46eb75e54134e777666b9ed16215b26534.png", 
                "erased": false, 
                "hidden": false, 
                "id": 9262, 
                "name": "Suport General - Decidim Barcelona", 
                "official": false, 
                "official_level": 0, 
                "role": null, 
                "verified_organization": null
            }, 
            "body": "<p><a href=\"https://decidim.barcelona/proposals/canviar-com-opera-internament-l-ajuntament-en-alguns-fronts-vinculats-al-procomu-mapejar-recursos-publics-infrautilitzats\">https://decidim.barcelona/proposals/canviar-com-opera-internament-l-ajuntament-en-alguns-fronts-vinculats-al-procomu-mapejar-recursos-publics-infrautilitzats</a></p>", 
            "commentable_id": 2922, 
            "commentable_type": "Proposal", 
            "created_at": "09/04/2016 11:19:08", 
            "flagged": false, 
            "hidden": false, 
            "id": 11739, 
            "moderator_id": null, 
            "permissions": {
                "hide": false, 
                "hide_author": false, 
                "vote": false
            }, 
            "total_dislikes": 0, 
            "total_likes": 0, 
            "total_votes": 0
        }, 
        {
            "administrator_id": null, 
            "alignment": 0, 
            "ancestry": null, 
            "as": null, 
            "author": {
                "avatar_image": "https://decidim.barcelona/assets/avatar-866795c99abc33a3160d1f3fa93ada46eb75e54134e777666b9ed16215b26534.png", 
                "erased": false, 
                "hidden": false, 
                "id": 9262, 
                "name": "Suport General - Decidim Barcelona", 
                "official": false, 
                "official_level": 0, 
                "role": null, 
                "verified_organization": null
            }, 
            "body": "<p><a href=\"https://decidim.barcelona/proposals/incentivar-i-donar-suport-a-la-recerca-i-comprensio-de-l-economia-col-laborativa-procomu-estudis-demografics-sectorials\">https://decidim.barcelona/proposals/incentivar-i-donar-suport-a-la-recerca-i-comprensio-de-l-economia-col-laborativa-procomu-estudis-demografics-sectorials</a></p>", 
            "commentable_id": 2922, 
            "commentable_type": "Proposal", 
            "created_at": "09/04/2016 11:45:26", 
            "flagged": false, 
            "hidden": false, 
            "id": 11805, 
            "moderator_id": null, 
            "permissions": {
                "hide": false, 
                "hide_author": false, 
                "vote": false
            }, 
            "total_dislikes": 0, 
            "total_likes": 0, 
            "total_votes": 0
        }, 
        {
            "administrator_id": null, 
            "alignment": 0, 
            "ancestry": null, 
            "as": null, 
            "author": {
                "avatar_image": "https://decidim.barcelona/assets/avatar-866795c99abc33a3160d1f3fa93ada46eb75e54134e777666b9ed16215b26534.png", 
                "erased": false, 
                "hidden": false, 
                "id": 9262, 
                "name": "Suport General - Decidim Barcelona", 
                "official": false, 
                "official_level": 0, 
                "role": null, 
                "verified_organization": null
            }, 
            "body": "<p><a href=\"https://decidim.barcelona/proposals/incentivar-i-donar-suport-a-la-recerca-i-comprensio-de-l-economia-col-laborativa-procomu-suport-a-la-recerca-per-informar-de-la-innovacio-al-sector\">https://decidim.barcelona/proposals/incentivar-i-donar-suport-a-la-recerca-i-comprensio-de-l-economia-col-laborativa-procomu-suport-a-la-recerca-per-informar-de-la-innovacio-al-sector</a></p>", 
            "commentable_id": 2922, 
            "commentable_type": "Proposal", 
            "created_at": "09/04/2016 11:45:53", 
            "flagged": false, 
            "hidden": false, 
            "id": 11807, 
            "moderator_id": null, 
            "permissions": {
                "hide": false, 
                "hide_author": false, 
                "vote": false
            }, 
            "total_dislikes": 0, 
            "total_likes": 0, 
            "total_votes": 0
        }, 
        {
            "administrator_id": null, 
            "alignment": 0, 
            "ancestry": null, 
            "as": null, 
            "author": {
                "avatar_image": "https://decidim.barcelona/assets/avatar-866795c99abc33a3160d1f3fa93ada46eb75e54134e777666b9ed16215b26534.png", 
                "erased": false, 
                "hidden": false, 
                "id": 9262, 
                "name": "Suport General - Decidim Barcelona", 
                "official": false, 
                "official_level": 0, 
                "role": null, 
                "verified_organization": null
            }, 
            "body": "<p><a href=\"https://decidim.barcelona/proposals/us-d-espais-i-altra-infraestructura-municipal-per-a-l-economia-col-laborativa-procomu-entramats-col-laboratius-sobre-recursos-infrautilitzats\">https://decidim.barcelona/proposals/us-d-espais-i-altra-infraestructura-municipal-per-a-l-economia-col-laborativa-procomu-entramats-col-laboratius-sobre-recursos-infrautilitzats</a></p>", 
            "commentable_id": 2922, 
            "commentable_type": "Proposal", 
            "created_at": "09/04/2016 11:56:38", 
            "flagged": false, 
            "hidden": false, 
            "id": 11833, 
            "moderator_id": null, 
            "permissions": {
                "hide": false, 
                "hide_author": false, 
                "vote": false
            }, 
            "total_dislikes": 0, 
            "total_likes": 0, 
            "total_votes": 0
        }, 
        {
            "administrator_id": null, 
            "alignment": 0, 
            "ancestry": null, 
            "as": null, 
            "author": {
                "avatar_image": "https://decidim.barcelona/assets/avatar-866795c99abc33a3160d1f3fa93ada46eb75e54134e777666b9ed16215b26534.png", 
                "erased": false, 
                "hidden": false, 
                "id": 9262, 
                "name": "Suport General - Decidim Barcelona", 
                "official": false, 
                "official_level": 0, 
                "role": null, 
                "verified_organization": null
            }, 
            "body": "<p><a href=\"https://decidim.barcelona/proposals/impulsar-la-incubacio-de-nous-projectes-i-iniciatives-d-economia-col-laborativa-procomu-creacio-de-recursos-d-emprenedoria-col-lectiva-procomu-i-de-mediacio-en-conflictes\">https://decidim.barcelona/proposals/impulsar-la-incubacio-de-nous-projectes-i-iniciatives-d-economia-col-laborativa-procomu-creacio-de-recursos-d-emprenedoria-col-lectiva-procomu-i-de-mediacio-en-conflictes</a></p>", 
            "commentable_id": 2922, 
            "commentable_type": "Proposal", 
            "created_at": "09/04/2016 11:57:07", 
            "flagged": false, 
            "hidden": false, 
            "id": 11837, 
            "moderator_id": null, 
            "permissions": {
                "hide": false, 
                "hide_author": false, 
                "vote": false
            }, 
            "total_dislikes": 0, 
            "total_likes": 0, 
            "total_votes": 0
        }, 
        {
            "administrator_id": null, 
            "alignment": 0, 
            "ancestry": null, 
            "as": null, 
            "author": {
                "avatar_image": "https://decidim.barcelona/assets/avatar-866795c99abc33a3160d1f3fa93ada46eb75e54134e777666b9ed16215b26534.png", 
                "erased": false, 
                "hidden": false, 
                "id": 9262, 
                "name": "Suport General - Decidim Barcelona", 
                "official": false, 
                "official_level": 0, 
                "role": null, 
                "verified_organization": null
            }, 
            "body": "<p><a href=\"https://decidim.barcelona/proposals/difusio-local-per-apropar-l-economia-col-laborativa-procomu-a-altres-economies-afins-crear-un-sistema-de-retorn-social-local-per-l-us-dels-recursos-publics\">https://decidim.barcelona/proposals/difusio-local-per-apropar-l-economia-col-laborativa-procomu-a-altres-economies-afins-crear-un-sistema-de-retorn-social-local-per-l-us-dels-recursos-publics</a></p>", 
            "commentable_id": 2922, 
            "commentable_type": "Proposal", 
            "created_at": "09/04/2016 11:59:04", 
            "flagged": false, 
            "hidden": false, 
            "id": 11842, 
            "moderator_id": null, 
            "permissions": {
                "hide": false, 
                "hide_author": false, 
                "vote": false
            }, 
            "total_dislikes": 0, 
            "total_likes": 0, 
            "total_votes": 0
        }, 
        {
            "administrator_id": null, 
            "alignment": 0, 
            "ancestry": null, 
            "as": null, 
            "author": {
                "avatar_image": "https://decidim.barcelona/assets/avatar-866795c99abc33a3160d1f3fa93ada46eb75e54134e777666b9ed16215b26534.png", 
                "erased": false, 
                "hidden": false, 
                "id": 9262, 
                "name": "Suport General - Decidim Barcelona", 
                "official": false, 
                "official_level": 0, 
                "role": null, 
                "verified_organization": null
            }, 
            "body": "<p><a href=\"https://decidim.barcelona/proposals/incentivar-i-donar-suport-a-la-recerca-i-comprensio-de-l-economia-col-laborativa-procomu-recerca-sobre-el-sector-a-la-ciutat-i-les-dades-obertes\">https://decidim.barcelona/proposals/incentivar-i-donar-suport-a-la-recerca-i-comprensio-de-l-economia-col-laborativa-procomu-recerca-sobre-el-sector-a-la-ciutat-i-les-dades-obertes</a></p>", 
            "commentable_id": 2922, 
            "commentable_type": "Proposal", 
            "created_at": "09/04/2016 12:03:08", 
            "flagged": false, 
            "hidden": false, 
            "id": 11851, 
            "moderator_id": null, 
            "permissions": {
                "hide": false, 
                "hide_author": false, 
                "vote": false
            }, 
            "total_dislikes": 0, 
            "total_likes": 0, 
            "total_votes": 0
        }
    ], 
    "meta": {
        "current_page": 1, 
        "next_page": 2, 
        "prev_page": null, 
        "total_count": 22, 
        "total_pages": 2
    }
}