{
    "comments": [
        {
            "administrator_id": null, 
            "alignment": 1, 
            "ancestry": null, 
            "as": null, 
            "author": {
                "avatar_image": "https://decidim.barcelona/assets/avatar-866795c99abc33a3160d1f3fa93ada46eb75e54134e777666b9ed16215b26534.png", 
                "erased": false, 
                "hidden": false, 
                "id": 9343, 
                "name": "decidim sarri\u00e0-sant gervasi", 
                "official": false, 
                "official_level": 0, 
                "role": null, 
                "verified_organization": null
            }, 
            "body": "<p>Proposta complementada en el debat \"Pla de Barris\": Garantir que els contractes que fa l'Ajuntament siguin dignes en condicions i sou.</p>", 
            "commentable_id": 2926, 
            "commentable_type": "Proposal", 
            "created_at": "26/03/2016 12:32:15", 
            "flagged": false, 
            "hidden": false, 
            "id": 6494, 
            "moderator_id": null, 
            "permissions": {
                "hide": false, 
                "hide_author": false, 
                "vote": false
            }, 
            "total_dislikes": 0, 
            "total_likes": 0, 
            "total_votes": 0
        }, 
        {
            "administrator_id": null, 
            "alignment": 1, 
            "ancestry": null, 
            "as": "organization", 
            "author": {
                "avatar_image": "https://decidim.barcelona/assets/avatar-866795c99abc33a3160d1f3fa93ada46eb75e54134e777666b9ed16215b26534.png", 
                "erased": false, 
                "hidden": false, 
                "id": 13078, 
                "name": "D2-Esquerra", 
                "official": false, 
                "official_level": 0, 
                "role": "organization", 
                "verified_organization": false
            }, 
            "body": "<p>que en els plecs de condicions de contrataci\u00f3 tamb\u00e9 es pos\u00e9s que es tinguin en compte els tipus de materials que siguin certificats i sostenibles. \n</p>", 
            "commentable_id": 2926, 
            "commentable_type": "Proposal", 
            "created_at": "31/03/2016 20:41:01", 
            "flagged": false, 
            "hidden": false, 
            "id": 7290, 
            "moderator_id": null, 
            "permissions": {
                "hide": false, 
                "hide_author": false, 
                "vote": false
            }, 
            "total_dislikes": 0, 
            "total_likes": 0, 
            "total_votes": 0
        }, 
        {
            "administrator_id": null, 
            "alignment": 0, 
            "ancestry": null, 
            "as": null, 
            "author": {
                "avatar_image": "https://decidim.barcelona/assets/avatar-866795c99abc33a3160d1f3fa93ada46eb75e54134e777666b9ed16215b26534.png", 
                "erased": false, 
                "hidden": false, 
                "id": 9262, 
                "name": "Suport General - Decidim Barcelona", 
                "official": false, 
                "official_level": 0, 
                "role": null, 
                "verified_organization": null
            }, 
            "body": "<p><a href=\"https://decidim.barcelona/proposals/facilitar-la-flexibilitzacio-horaria-i-l-acces-a-la-reduccio-de-jornada\">https://decidim.barcelona/proposals/facilitar-la-flexibilitzacio-horaria-i-l-acces-a-la-reduccio-de-jornada</a></p>", 
            "commentable_id": 2926, 
            "commentable_type": "Proposal", 
            "created_at": "06/04/2016 17:23:11", 
            "flagged": false, 
            "hidden": false, 
            "id": 8739, 
            "moderator_id": null, 
            "permissions": {
                "hide": false, 
                "hide_author": false, 
                "vote": false
            }, 
            "total_dislikes": 0, 
            "total_likes": 0, 
            "total_votes": 0
        }, 
        {
            "administrator_id": null, 
            "alignment": 0, 
            "ancestry": null, 
            "as": null, 
            "author": {
                "avatar_image": "https://decidim.barcelona/assets/avatar-866795c99abc33a3160d1f3fa93ada46eb75e54134e777666b9ed16215b26534.png", 
                "erased": false, 
                "hidden": false, 
                "id": 9262, 
                "name": "Suport General - Decidim Barcelona", 
                "official": false, 
                "official_level": 0, 
                "role": null, 
                "verified_organization": null
            }, 
            "body": "<p><a href=\"https://decidim.barcelona/proposals/mesures-de-foment-de-la-conciliacio-dins-l-ajuntament-donant-exemple\">https://decidim.barcelona/proposals/mesures-de-foment-de-la-conciliacio-dins-l-ajuntament-donant-exemple</a></p>", 
            "commentable_id": 2926, 
            "commentable_type": "Proposal", 
            "created_at": "06/04/2016 17:28:41", 
            "flagged": false, 
            "hidden": false, 
            "id": 8744, 
            "moderator_id": null, 
            "permissions": {
                "hide": false, 
                "hide_author": false, 
                "vote": false
            }, 
            "total_dislikes": 0, 
            "total_likes": 0, 
            "total_votes": 0
        }, 
        {
            "administrator_id": null, 
            "alignment": 0, 
            "ancestry": null, 
            "as": null, 
            "author": {
                "avatar_image": "https://decidim.barcelona/assets/avatar-866795c99abc33a3160d1f3fa93ada46eb75e54134e777666b9ed16215b26534.png", 
                "erased": false, 
                "hidden": false, 
                "id": 9262, 
                "name": "Suport General - Decidim Barcelona", 
                "official": false, 
                "official_level": 0, 
                "role": null, 
                "verified_organization": null
            }, 
            "body": "<p><a href=\"https://decidim.barcelona/proposals/conciliacio-horaria-de-la-vida-laboral-i-la-social\">https://decidim.barcelona/proposals/conciliacio-horaria-de-la-vida-laboral-i-la-social</a></p>", 
            "commentable_id": 2926, 
            "commentable_type": "Proposal", 
            "created_at": "06/04/2016 17:42:43", 
            "flagged": false, 
            "hidden": false, 
            "id": 8766, 
            "moderator_id": null, 
            "permissions": {
                "hide": false, 
                "hide_author": false, 
                "vote": false
            }, 
            "total_dislikes": 0, 
            "total_likes": 0, 
            "total_votes": 0
        }, 
        {
            "administrator_id": null, 
            "alignment": 0, 
            "ancestry": null, 
            "as": null, 
            "author": {
                "avatar_image": "https://decidim.barcelona/assets/avatar-866795c99abc33a3160d1f3fa93ada46eb75e54134e777666b9ed16215b26534.png", 
                "erased": false, 
                "hidden": false, 
                "id": 9262, 
                "name": "Suport General - Decidim Barcelona", 
                "official": false, 
                "official_level": 0, 
                "role": null, 
                "verified_organization": null
            }, 
            "body": "<p><a href=\"https://decidim.barcelona/proposals/contractacio-publica-amb-un-eix-component-de-territorialitat\">https://decidim.barcelona/proposals/contractacio-publica-amb-un-eix-component-de-territorialitat</a></p>", 
            "commentable_id": 2926, 
            "commentable_type": "Proposal", 
            "created_at": "07/04/2016 16:11:37", 
            "flagged": false, 
            "hidden": false, 
            "id": 9595, 
            "moderator_id": null, 
            "permissions": {
                "hide": false, 
                "hide_author": false, 
                "vote": false
            }, 
            "total_dislikes": 0, 
            "total_likes": 0, 
            "total_votes": 0
        }, 
        {
            "administrator_id": null, 
            "alignment": 0, 
            "ancestry": null, 
            "as": null, 
            "author": {
                "avatar_image": "https://decidim.barcelona/assets/avatar-866795c99abc33a3160d1f3fa93ada46eb75e54134e777666b9ed16215b26534.png", 
                "erased": false, 
                "hidden": false, 
                "id": 9262, 
                "name": "Suport General - Decidim Barcelona", 
                "official": false, 
                "official_level": 0, 
                "role": null, 
                "verified_organization": null
            }, 
            "body": "<p><a href=\"https://decidim.barcelona/proposals/canviar-la-relacio-contractual-amb-les-entitats-de-gestio-com-l-sgae-o-cedro-opsant-se-als-sues-monopolis-per-facilitar-la-distribucio-de-la-cultura-i-el-benefici-dels-autors-i-la-societat\">https://decidim.barcelona/proposals/canviar-la-relacio-contractual-amb-les-entitats-de-gestio-com-l-sgae-o-cedro-opsant-se-als-sues-monopolis-per-facilitar-la-distribucio-de-la-cultura-i-el-benefici-dels-autors-i-la-societat</a></p>", 
            "commentable_id": 2926, 
            "commentable_type": "Proposal", 
            "created_at": "07/04/2016 17:37:21", 
            "flagged": false, 
            "hidden": false, 
            "id": 9815, 
            "moderator_id": null, 
            "permissions": {
                "hide": false, 
                "hide_author": false, 
                "vote": false
            }, 
            "total_dislikes": 0, 
            "total_likes": 0, 
            "total_votes": 0
        }, 
        {
            "administrator_id": null, 
            "alignment": 0, 
            "ancestry": null, 
            "as": null, 
            "author": {
                "avatar_image": "https://decidim.barcelona/assets/avatar-866795c99abc33a3160d1f3fa93ada46eb75e54134e777666b9ed16215b26534.png", 
                "erased": false, 
                "hidden": false, 
                "id": 9262, 
                "name": "Suport General - Decidim Barcelona", 
                "official": false, 
                "official_level": 0, 
                "role": null, 
                "verified_organization": null
            }, 
            "body": "<p><a href=\"https://decidim.barcelona/proposals/canviar-la-llei-de-contractacio-publica-que-prima-el-minim-cost-i-poder-incorporar-valors-socials\">https://decidim.barcelona/proposals/canviar-la-llei-de-contractacio-publica-que-prima-el-minim-cost-i-poder-incorporar-valors-socials</a></p>", 
            "commentable_id": 2926, 
            "commentable_type": "Proposal", 
            "created_at": "08/04/2016 11:00:29", 
            "flagged": false, 
            "hidden": false, 
            "id": 10400, 
            "moderator_id": null, 
            "permissions": {
                "hide": false, 
                "hide_author": false, 
                "vote": false
            }, 
            "total_dislikes": 0, 
            "total_likes": 0, 
            "total_votes": 0
        }, 
        {
            "administrator_id": null, 
            "alignment": 0, 
            "ancestry": null, 
            "as": null, 
            "author": {
                "avatar_image": "https://decidim.barcelona/assets/avatar-866795c99abc33a3160d1f3fa93ada46eb75e54134e777666b9ed16215b26534.png", 
                "erased": false, 
                "hidden": false, 
                "id": 9263, 
                "name": "Suport decidim Activitat Econ\u00f2mica", 
                "official": false, 
                "official_level": 0, 
                "role": null, 
                "verified_organization": null
            }, 
            "body": "<p><a href=\"https://decidim.barcelona/proposals/contractacio-socialment-responsable-c2ca5608-5b74-4973-9594-e85187948694\">https://decidim.barcelona/proposals/contractacio-socialment-responsable-c2ca5608-5b74-4973-9594-e85187948694</a></p>", 
            "commentable_id": 2926, 
            "commentable_type": "Proposal", 
            "created_at": "08/04/2016 14:11:01", 
            "flagged": false, 
            "hidden": false, 
            "id": 10891, 
            "moderator_id": null, 
            "permissions": {
                "hide": false, 
                "hide_author": false, 
                "vote": false
            }, 
            "total_dislikes": 0, 
            "total_likes": 0, 
            "total_votes": 0
        }, 
        {
            "administrator_id": null, 
            "alignment": 0, 
            "ancestry": null, 
            "as": null, 
            "author": {
                "avatar_image": "https://decidim.barcelona/assets/avatar-866795c99abc33a3160d1f3fa93ada46eb75e54134e777666b9ed16215b26534.png", 
                "erased": false, 
                "hidden": false, 
                "id": 9262, 
                "name": "Suport General - Decidim Barcelona", 
                "official": false, 
                "official_level": 0, 
                "role": null, 
                "verified_organization": null
            }, 
            "body": "<p><a href=\"https://decidim.barcelona/proposals/introduir-l-ecss-en-el-propi-funcionament-de-l-ajuntament-reduint-les-hores-de-treball-i-repartint-la-feina\">https://decidim.barcelona/proposals/introduir-l-ecss-en-el-propi-funcionament-de-l-ajuntament-reduint-les-hores-de-treball-i-repartint-la-feina</a></p>", 
            "commentable_id": 2926, 
            "commentable_type": "Proposal", 
            "created_at": "08/04/2016 16:06:49", 
            "flagged": false, 
            "hidden": false, 
            "id": 11081, 
            "moderator_id": null, 
            "permissions": {
                "hide": false, 
                "hide_author": false, 
                "vote": false
            }, 
            "total_dislikes": 0, 
            "total_likes": 0, 
            "total_votes": 0
        }, 
        {
            "administrator_id": null, 
            "alignment": 0, 
            "ancestry": null, 
            "as": null, 
            "author": {
                "avatar_image": "https://decidim.barcelona/assets/avatar-866795c99abc33a3160d1f3fa93ada46eb75e54134e777666b9ed16215b26534.png", 
                "erased": false, 
                "hidden": false, 
                "id": 9262, 
                "name": "Suport General - Decidim Barcelona", 
                "official": false, 
                "official_level": 0, 
                "role": null, 
                "verified_organization": null
            }, 
            "body": "<p><a href=\"https://decidim.barcelona/proposals/anul-lacio-del-contracte-amb-movistar\">https://decidim.barcelona/proposals/anul-lacio-del-contracte-amb-movistar</a></p>", 
            "commentable_id": 2926, 
            "commentable_type": "Proposal", 
            "created_at": "08/04/2016 17:08:59", 
            "flagged": false, 
            "hidden": false, 
            "id": 11195, 
            "moderator_id": null, 
            "permissions": {
                "hide": false, 
                "hide_author": false, 
                "vote": false
            }, 
            "total_dislikes": 0, 
            "total_likes": 0, 
            "total_votes": 0
        }, 
        {
            "administrator_id": null, 
            "alignment": 0, 
            "ancestry": null, 
            "as": null, 
            "author": {
                "avatar_image": "https://decidim.barcelona/assets/avatar-866795c99abc33a3160d1f3fa93ada46eb75e54134e777666b9ed16215b26534.png", 
                "erased": false, 
                "hidden": false, 
                "id": 9262, 
                "name": "Suport General - Decidim Barcelona", 
                "official": false, 
                "official_level": 0, 
                "role": null, 
                "verified_organization": null
            }, 
            "body": "<p><a href=\"https://decidim.barcelona/proposals/contractacio-socialment-responsable-c2ca5608-5b74-4973-9594-e85187948694\">https://decidim.barcelona/proposals/contractacio-socialment-responsable-c2ca5608-5b74-4973-9594-e85187948694</a></p>", 
            "commentable_id": 2926, 
            "commentable_type": "Proposal", 
            "created_at": "08/04/2016 17:57:53", 
            "flagged": false, 
            "hidden": false, 
            "id": 11275, 
            "moderator_id": null, 
            "permissions": {
                "hide": false, 
                "hide_author": false, 
                "vote": false
            }, 
            "total_dislikes": 0, 
            "total_likes": 0, 
            "total_votes": 0
        }, 
        {
            "administrator_id": null, 
            "alignment": 1, 
            "ancestry": null, 
            "as": null, 
            "author": {
                "avatar_image": "https://decidim.barcelona/assets/avatar-866795c99abc33a3160d1f3fa93ada46eb75e54134e777666b9ed16215b26534.png", 
                "erased": false, 
                "hidden": false, 
                "id": 22601, 
                "name": "xcasanovasc", 
                "official": false, 
                "official_level": 0, 
                "role": null, 
                "verified_organization": null
            }, 
            "body": "<p>Caldria afegir tamb\u00e9 com a condici\u00f3 no nom\u00e9s socialment o ambientalment responsable, sin\u00f3 'fiscalment responsable' com s'exposa en la proposta: <a href=\"https://decidim.barcelona/proposals/contractacio-socialment-responsable-c2ca5608-5b74-4973-9594-e85187948694\">https://decidim.barcelona/proposals/contractacio-socialment-responsable-c2ca5608-5b74-4973-9594-e85187948694</a></p>", 
            "commentable_id": 2926, 
            "commentable_type": "Proposal", 
            "created_at": "09/04/2016 08:30:15", 
            "flagged": false, 
            "hidden": false, 
            "id": 11560, 
            "moderator_id": null, 
            "permissions": {
                "hide": false, 
                "hide_author": false, 
                "vote": false
            }, 
            "total_dislikes": 0, 
            "total_likes": 0, 
            "total_votes": 0
        }, 
        {
            "administrator_id": null, 
            "alignment": 0, 
            "ancestry": null, 
            "as": null, 
            "author": {
                "avatar_image": "https://decidim.barcelona/assets/avatar-866795c99abc33a3160d1f3fa93ada46eb75e54134e777666b9ed16215b26534.png", 
                "erased": false, 
                "hidden": false, 
                "id": 9262, 
                "name": "Suport General - Decidim Barcelona", 
                "official": false, 
                "official_level": 0, 
                "role": null, 
                "verified_organization": null
            }, 
            "body": "<p><a href=\"https://decidim.barcelona/proposals/garantia-de-la-contractacio-social-responsable\">https://decidim.barcelona/proposals/garantia-de-la-contractacio-social-responsable</a></p>", 
            "commentable_id": 2926, 
            "commentable_type": "Proposal", 
            "created_at": "09/04/2016 10:33:20", 
            "flagged": false, 
            "hidden": false, 
            "id": 11622, 
            "moderator_id": null, 
            "permissions": {
                "hide": false, 
                "hide_author": false, 
                "vote": false
            }, 
            "total_dislikes": 0, 
            "total_likes": 0, 
            "total_votes": 0
        }, 
        {
            "administrator_id": null, 
            "alignment": 0, 
            "ancestry": null, 
            "as": null, 
            "author": {
                "avatar_image": "https://decidim.barcelona/assets/avatar-866795c99abc33a3160d1f3fa93ada46eb75e54134e777666b9ed16215b26534.png", 
                "erased": false, 
                "hidden": false, 
                "id": 9262, 
                "name": "Suport General - Decidim Barcelona", 
                "official": false, 
                "official_level": 0, 
                "role": null, 
                "verified_organization": null
            }, 
            "body": "<p><a href=\"https://decidim.barcelona/proposals/control-de-compliment-del-5\">https://decidim.barcelona/proposals/control-de-compliment-del-5</a></p>", 
            "commentable_id": 2926, 
            "commentable_type": "Proposal", 
            "created_at": "09/04/2016 12:49:06", 
            "flagged": false, 
            "hidden": false, 
            "id": 12003, 
            "moderator_id": null, 
            "permissions": {
                "hide": false, 
                "hide_author": false, 
                "vote": false
            }, 
            "total_dislikes": 0, 
            "total_likes": 0, 
            "total_votes": 0
        }, 
        {
            "administrator_id": null, 
            "alignment": 0, 
            "ancestry": null, 
            "as": null, 
            "author": {
                "avatar_image": "https://decidim.barcelona/assets/avatar-866795c99abc33a3160d1f3fa93ada46eb75e54134e777666b9ed16215b26534.png", 
                "erased": false, 
                "hidden": false, 
                "id": 9262, 
                "name": "Suport General - Decidim Barcelona", 
                "official": false, 
                "official_level": 0, 
                "role": null, 
                "verified_organization": null
            }, 
            "body": "<p><a href=\"https://decidim.barcelona/proposals/fomentar-l-ocupacio-en-clausules-socials-imprimir-un-segell-de-qualitat-a-empreses-socialment-responsables\">https://decidim.barcelona/proposals/fomentar-l-ocupacio-en-clausules-socials-imprimir-un-segell-de-qualitat-a-empreses-socialment-responsables</a></p>", 
            "commentable_id": 2926, 
            "commentable_type": "Proposal", 
            "created_at": "09/04/2016 12:53:35", 
            "flagged": false, 
            "hidden": false, 
            "id": 12023, 
            "moderator_id": null, 
            "permissions": {
                "hide": false, 
                "hide_author": false, 
                "vote": false
            }, 
            "total_dislikes": 0, 
            "total_likes": 0, 
            "total_votes": 0
        }, 
        {
            "administrator_id": null, 
            "alignment": 0, 
            "ancestry": null, 
            "as": null, 
            "author": {
                "avatar_image": "https://decidim.barcelona/assets/avatar-866795c99abc33a3160d1f3fa93ada46eb75e54134e777666b9ed16215b26534.png", 
                "erased": false, 
                "hidden": false, 
                "id": 9262, 
                "name": "Suport General - Decidim Barcelona", 
                "official": false, 
                "official_level": 0, 
                "role": null, 
                "verified_organization": null
            }, 
            "body": "<p><a href=\"https://decidim.barcelona/proposals/contractacio-publica-justa-i-redistributiva\">https://decidim.barcelona/proposals/contractacio-publica-justa-i-redistributiva</a></p>", 
            "commentable_id": 2926, 
            "commentable_type": "Proposal", 
            "created_at": "09/04/2016 13:01:57", 
            "flagged": false, 
            "hidden": false, 
            "id": 12038, 
            "moderator_id": null, 
            "permissions": {
                "hide": false, 
                "hide_author": false, 
                "vote": false
            }, 
            "total_dislikes": 0, 
            "total_likes": 0, 
            "total_votes": 0
        }, 
        {
            "administrator_id": null, 
            "alignment": 0, 
            "ancestry": null, 
            "as": null, 
            "author": {
                "avatar_image": "https://decidim.barcelona/assets/avatar-866795c99abc33a3160d1f3fa93ada46eb75e54134e777666b9ed16215b26534.png", 
                "erased": false, 
                "hidden": false, 
                "id": 9262, 
                "name": "Suport General - Decidim Barcelona", 
                "official": false, 
                "official_level": 0, 
                "role": null, 
                "verified_organization": null
            }, 
            "body": "<p><a href=\"https://decidim.barcelona/proposals/esdevenir-com-a-ajuntament-de-barcelona-una-institucio-exemplar-pel-que-fa-a-la-contractacio-laboral-de-persones-joves\">https://decidim.barcelona/proposals/esdevenir-com-a-ajuntament-de-barcelona-una-institucio-exemplar-pel-que-fa-a-la-contractacio-laboral-de-persones-joves</a></p>", 
            "commentable_id": 2926, 
            "commentable_type": "Proposal", 
            "created_at": "09/04/2016 13:16:08", 
            "flagged": false, 
            "hidden": false, 
            "id": 12066, 
            "moderator_id": null, 
            "permissions": {
                "hide": false, 
                "hide_author": false, 
                "vote": false
            }, 
            "total_dislikes": 0, 
            "total_likes": 0, 
            "total_votes": 0
        }, 
        {
            "administrator_id": null, 
            "alignment": 0, 
            "ancestry": null, 
            "as": null, 
            "author": {
                "avatar_image": "https://decidim.barcelona/assets/avatar-866795c99abc33a3160d1f3fa93ada46eb75e54134e777666b9ed16215b26534.png", 
                "erased": false, 
                "hidden": false, 
                "id": 9262, 
                "name": "Suport General - Decidim Barcelona", 
                "official": false, 
                "official_level": 0, 
                "role": null, 
                "verified_organization": null
            }, 
            "body": "<p><a href=\"https://decidim.barcelona/proposals/medidas-contra-el-paro-juvenil\">https://decidim.barcelona/proposals/medidas-contra-el-paro-juvenil</a></p>", 
            "commentable_id": 2926, 
            "commentable_type": "Proposal", 
            "created_at": "09/04/2016 13:26:05", 
            "flagged": false, 
            "hidden": false, 
            "id": 12084, 
            "moderator_id": null, 
            "permissions": {
                "hide": false, 
                "hide_author": false, 
                "vote": false
            }, 
            "total_dislikes": 0, 
            "total_likes": 0, 
            "total_votes": 0
        }, 
        {
            "administrator_id": null, 
            "alignment": 0, 
            "ancestry": null, 
            "as": null, 
            "author": {
                "avatar_image": "https://decidim.barcelona/assets/avatar-866795c99abc33a3160d1f3fa93ada46eb75e54134e777666b9ed16215b26534.png", 
                "erased": false, 
                "hidden": false, 
                "id": 9262, 
                "name": "Suport General - Decidim Barcelona", 
                "official": false, 
                "official_level": 0, 
                "role": null, 
                "verified_organization": null
            }, 
            "body": "<p><a href=\"https://decidim.barcelona/proposals/aprofundir-clausules-socials-i-fomentar-l-ocupacio-de-qualitat\">https://decidim.barcelona/proposals/aprofundir-clausules-socials-i-fomentar-l-ocupacio-de-qualitat</a></p>", 
            "commentable_id": 2926, 
            "commentable_type": "Proposal", 
            "created_at": "09/04/2016 13:32:13", 
            "flagged": false, 
            "hidden": false, 
            "id": 12098, 
            "moderator_id": null, 
            "permissions": {
                "hide": false, 
                "hide_author": false, 
                "vote": false
            }, 
            "total_dislikes": 0, 
            "total_likes": 0, 
            "total_votes": 0
        }
    ], 
    "meta": {
        "current_page": 1, 
        "next_page": 2, 
        "prev_page": null, 
        "total_count": 26, 
        "total_pages": 2
    }
}