{
    "comments": [
        {
            "administrator_id": null, 
            "alignment": 0, 
            "ancestry": null, 
            "as": null, 
            "author": {
                "avatar_image": "https://decidim.barcelona/assets/avatar-866795c99abc33a3160d1f3fa93ada46eb75e54134e777666b9ed16215b26534.png", 
                "erased": false, 
                "hidden": false, 
                "id": 9262, 
                "name": "Suport General - Decidim Barcelona", 
                "official": false, 
                "official_level": 0, 
                "role": null, 
                "verified_organization": null
            }, 
            "body": "<p><a href=\"https://decidim.barcelona/proposals/accions-en-l-ambit-de-l-ocupacio\">https://decidim.barcelona/proposals/accions-en-l-ambit-de-l-ocupacio</a></p>", 
            "commentable_id": 2926, 
            "commentable_type": "Proposal", 
            "created_at": "13/04/2016 10:03:14", 
            "flagged": false, 
            "hidden": false, 
            "id": 14234, 
            "moderator_id": null, 
            "permissions": {
                "hide": false, 
                "hide_author": false, 
                "vote": false
            }, 
            "total_dislikes": 0, 
            "total_likes": 0, 
            "total_votes": 0
        }, 
        {
            "administrator_id": null, 
            "alignment": 0, 
            "ancestry": null, 
            "as": null, 
            "author": {
                "avatar_image": "https://decidim.barcelona/assets/avatar-866795c99abc33a3160d1f3fa93ada46eb75e54134e777666b9ed16215b26534.png", 
                "erased": false, 
                "hidden": false, 
                "id": 9262, 
                "name": "Suport General - Decidim Barcelona", 
                "official": false, 
                "official_level": 0, 
                "role": null, 
                "verified_organization": null
            }, 
            "body": "<p><a href=\"https://decidim.barcelona/proposals/que-l-ajuntament-crei-llocs-de-feina-per-als-ciutadans-aturats-de-barcelona\">https://decidim.barcelona/proposals/que-l-ajuntament-crei-llocs-de-feina-per-als-ciutadans-aturats-de-barcelona</a></p>", 
            "commentable_id": 2926, 
            "commentable_type": "Proposal", 
            "created_at": "13/04/2016 10:46:50", 
            "flagged": false, 
            "hidden": false, 
            "id": 14319, 
            "moderator_id": null, 
            "permissions": {
                "hide": false, 
                "hide_author": false, 
                "vote": false
            }, 
            "total_dislikes": 0, 
            "total_likes": 0, 
            "total_votes": 0
        }, 
        {
            "administrator_id": null, 
            "alignment": 0, 
            "ancestry": null, 
            "as": null, 
            "author": {
                "avatar_image": "https://decidim.barcelona/assets/avatar-866795c99abc33a3160d1f3fa93ada46eb75e54134e777666b9ed16215b26534.png", 
                "erased": false, 
                "hidden": false, 
                "id": 9262, 
                "name": "Suport General - Decidim Barcelona", 
                "official": false, 
                "official_level": 0, 
                "role": null, 
                "verified_organization": null
            }, 
            "body": "<p><a href=\"https://decidim.barcelona/proposals/acompliment-de-la-quota-de-reserva-de-treballadors-amb-discapacitat-impulsant-l-especial-dificultat\">https://decidim.barcelona/proposals/acompliment-de-la-quota-de-reserva-de-treballadors-amb-discapacitat-impulsant-l-especial-dificultat</a></p>", 
            "commentable_id": 2926, 
            "commentable_type": "Proposal", 
            "created_at": "15/04/2016 10:40:20", 
            "flagged": false, 
            "hidden": false, 
            "id": 16538, 
            "moderator_id": null, 
            "permissions": {
                "hide": false, 
                "hide_author": false, 
                "vote": false
            }, 
            "total_dislikes": 0, 
            "total_likes": 0, 
            "total_votes": 0
        }, 
        {
            "administrator_id": null, 
            "alignment": 0, 
            "ancestry": null, 
            "as": null, 
            "author": {
                "avatar_image": "https://decidim.barcelona/assets/avatar-866795c99abc33a3160d1f3fa93ada46eb75e54134e777666b9ed16215b26534.png", 
                "erased": false, 
                "hidden": false, 
                "id": 9262, 
                "name": "Suport General - Decidim Barcelona", 
                "official": false, 
                "official_level": 0, 
                "role": null, 
                "verified_organization": null
            }, 
            "body": "<p><a href=\"https://decidim.barcelona/proposals/acompliment-de-la-quota-de-reserva-de-treballadors-amb-discapacitat-impulsant-l-especial-dificultat\">https://decidim.barcelona/proposals/acompliment-de-la-quota-de-reserva-de-treballadors-amb-discapacitat-impulsant-l-especial-dificultat</a></p>", 
            "commentable_id": 2926, 
            "commentable_type": "Proposal", 
            "created_at": "15/04/2016 10:44:54", 
            "flagged": false, 
            "hidden": false, 
            "id": 16547, 
            "moderator_id": null, 
            "permissions": {
                "hide": false, 
                "hide_author": false, 
                "vote": false
            }, 
            "total_dislikes": 0, 
            "total_likes": 0, 
            "total_votes": 0
        }, 
        {
            "administrator_id": null, 
            "alignment": 0, 
            "ancestry": null, 
            "as": null, 
            "author": {
                "avatar_image": "https://decidim.barcelona/assets/avatar-866795c99abc33a3160d1f3fa93ada46eb75e54134e777666b9ed16215b26534.png", 
                "erased": false, 
                "hidden": false, 
                "id": 9262, 
                "name": "Suport General - Decidim Barcelona", 
                "official": false, 
                "official_level": 0, 
                "role": null, 
                "verified_organization": null
            }, 
            "body": "<p><a href=\"https://decidim.barcelona/proposals/organitzar-oposicions-amb-perspectiva-intercultural\">https://decidim.barcelona/proposals/organitzar-oposicions-amb-perspectiva-intercultural</a></p>", 
            "commentable_id": 2926, 
            "commentable_type": "Proposal", 
            "created_at": "15/04/2016 16:45:57", 
            "flagged": false, 
            "hidden": false, 
            "id": 17269, 
            "moderator_id": null, 
            "permissions": {
                "hide": false, 
                "hide_author": false, 
                "vote": false
            }, 
            "total_dislikes": 0, 
            "total_likes": 0, 
            "total_votes": 0
        }, 
        {
            "administrator_id": null, 
            "alignment": 0, 
            "ancestry": null, 
            "as": null, 
            "author": {
                "avatar_image": "https://decidim.barcelona/assets/avatar-866795c99abc33a3160d1f3fa93ada46eb75e54134e777666b9ed16215b26534.png", 
                "erased": false, 
                "hidden": false, 
                "id": 9262, 
                "name": "Suport General - Decidim Barcelona", 
                "official": false, 
                "official_level": 0, 
                "role": null, 
                "verified_organization": null
            }, 
            "body": "<p><a href=\"https://decidim.barcelona/proposals/mes-controls-als-convenis-laborals\">https://decidim.barcelona/proposals/mes-controls-als-convenis-laborals</a></p>", 
            "commentable_id": 2926, 
            "commentable_type": "Proposal", 
            "created_at": "17/04/2016 14:36:46", 
            "flagged": false, 
            "hidden": false, 
            "id": 18622, 
            "moderator_id": null, 
            "permissions": {
                "hide": false, 
                "hide_author": false, 
                "vote": false
            }, 
            "total_dislikes": 0, 
            "total_likes": 0, 
            "total_votes": 0
        }
    ], 
    "meta": {
        "current_page": 2, 
        "next_page": null, 
        "prev_page": 1, 
        "total_count": 26, 
        "total_pages": 2
    }
}