{
    "comments": [
        {
            "administrator_id": null, 
            "alignment": 1, 
            "ancestry": null, 
            "as": null, 
            "author": {
                "avatar_image": "https://decidim.barcelona/assets/avatar-866795c99abc33a3160d1f3fa93ada46eb75e54134e777666b9ed16215b26534.png", 
                "erased": false, 
                "hidden": false, 
                "id": 8701, 
                "name": "Elisabet Juan", 
                "official": false, 
                "official_level": 0, 
                "role": null, 
                "verified_organization": null
            }, 
            "body": "<p>En els criteris potser em falta el client: amb satisfacci\u00f3 pel turista i bon posicionament de barcelona, i els agents: que redundi en benefici econ\u00f2mic per a qui hi interv\u00e9</p>", 
            "commentable_id": 2937, 
            "commentable_type": "Proposal", 
            "created_at": "26/02/2016 15:56:13", 
            "flagged": false, 
            "hidden": false, 
            "id": 2841, 
            "moderator_id": null, 
            "permissions": {
                "hide": false, 
                "hide_author": false, 
                "vote": false
            }, 
            "total_dislikes": 1, 
            "total_likes": 0, 
            "total_votes": 1
        }, 
        {
            "administrator_id": null, 
            "alignment": -1, 
            "ancestry": null, 
            "as": null, 
            "author": {
                "avatar_image": "https://decidim.barcelona/assets/avatar-866795c99abc33a3160d1f3fa93ada46eb75e54134e777666b9ed16215b26534.png", 
                "erased": false, 
                "hidden": false, 
                "id": 8218, 
                "name": "maga", 
                "official": false, 
                "official_level": 0, 
                "role": null, 
                "verified_organization": null
            }, 
            "body": "<p>...ei, no m'agrada que parleu de redistribuci\u00f3 del turisme. ...expliqueu-ho millor. Qu\u00e8 \u00e9s? fer que els turistes vagin arribant a tots els barris?   </p>", 
            "commentable_id": 2937, 
            "commentable_type": "Proposal", 
            "created_at": "08/03/2016 22:40:41", 
            "flagged": false, 
            "hidden": false, 
            "id": 4022, 
            "moderator_id": null, 
            "permissions": {
                "hide": false, 
                "hide_author": false, 
                "vote": false
            }, 
            "total_dislikes": 1, 
            "total_likes": 1, 
            "total_votes": 2
        }, 
        {
            "administrator_id": null, 
            "alignment": 0, 
            "ancestry": null, 
            "as": null, 
            "author": {
                "avatar_image": "https://decidim.barcelona/assets/avatar-866795c99abc33a3160d1f3fa93ada46eb75e54134e777666b9ed16215b26534.png", 
                "erased": false, 
                "hidden": false, 
                "id": 9262, 
                "name": "Suport General - Decidim Barcelona", 
                "official": false, 
                "official_level": 0, 
                "role": null, 
                "verified_organization": null
            }, 
            "body": "<p><a href=\"https://decidim.barcelona/proposals/creacio-targeta-barcelona\">https://decidim.barcelona/proposals/creacio-targeta-barcelona</a></p>", 
            "commentable_id": 2937, 
            "commentable_type": "Proposal", 
            "created_at": "06/04/2016 15:40:02", 
            "flagged": false, 
            "hidden": false, 
            "id": 8673, 
            "moderator_id": null, 
            "permissions": {
                "hide": false, 
                "hide_author": false, 
                "vote": false
            }, 
            "total_dislikes": 0, 
            "total_likes": 0, 
            "total_votes": 0
        }, 
        {
            "administrator_id": null, 
            "alignment": 0, 
            "ancestry": null, 
            "as": null, 
            "author": {
                "avatar_image": "https://decidim.barcelona/assets/avatar-866795c99abc33a3160d1f3fa93ada46eb75e54134e777666b9ed16215b26534.png", 
                "erased": false, 
                "hidden": false, 
                "id": 9262, 
                "name": "Suport General - Decidim Barcelona", 
                "official": false, 
                "official_level": 0, 
                "role": null, 
                "verified_organization": null
            }, 
            "body": "<p><a href=\"https://decidim.barcelona/proposals/protegim-les-botigues-emblematiques-de-barcelona-de-l-especulacio-urbanistica\">https://decidim.barcelona/proposals/protegim-les-botigues-emblematiques-de-barcelona-de-l-especulacio-urbanistica</a></p>", 
            "commentable_id": 2937, 
            "commentable_type": "Proposal", 
            "created_at": "06/04/2016 16:23:25", 
            "flagged": false, 
            "hidden": false, 
            "id": 8696, 
            "moderator_id": null, 
            "permissions": {
                "hide": false, 
                "hide_author": false, 
                "vote": false
            }, 
            "total_dislikes": 0, 
            "total_likes": 0, 
            "total_votes": 0
        }, 
        {
            "administrator_id": null, 
            "alignment": 0, 
            "ancestry": null, 
            "as": null, 
            "author": {
                "avatar_image": "https://decidim.barcelona/assets/avatar-866795c99abc33a3160d1f3fa93ada46eb75e54134e777666b9ed16215b26534.png", 
                "erased": false, 
                "hidden": false, 
                "id": 9262, 
                "name": "Suport General - Decidim Barcelona", 
                "official": false, 
                "official_level": 0, 
                "role": null, 
                "verified_organization": null
            }, 
            "body": "<p><a href=\"https://decidim.barcelona/proposals/desconcentrar-activitat-cultural-i-comercial-per-distribuir-turisme-22fa4406-6aa1-4785-b2fb-57ea34a5bc2f\">https://decidim.barcelona/proposals/desconcentrar-activitat-cultural-i-comercial-per-distribuir-turisme-22fa4406-6aa1-4785-b2fb-57ea34a5bc2f</a></p>", 
            "commentable_id": 2937, 
            "commentable_type": "Proposal", 
            "created_at": "06/04/2016 17:53:25", 
            "flagged": false, 
            "hidden": false, 
            "id": 8781, 
            "moderator_id": null, 
            "permissions": {
                "hide": false, 
                "hide_author": false, 
                "vote": false
            }, 
            "total_dislikes": 0, 
            "total_likes": 0, 
            "total_votes": 0
        }, 
        {
            "administrator_id": null, 
            "alignment": 0, 
            "ancestry": null, 
            "as": null, 
            "author": {
                "avatar_image": "https://decidim.barcelona/assets/avatar-866795c99abc33a3160d1f3fa93ada46eb75e54134e777666b9ed16215b26534.png", 
                "erased": false, 
                "hidden": false, 
                "id": 9262, 
                "name": "Suport General - Decidim Barcelona", 
                "official": false, 
                "official_level": 0, 
                "role": null, 
                "verified_organization": null
            }, 
            "body": "<p><a href=\"https://decidim.barcelona/proposals/instaurar-el-dia-sense-turisme\">https://decidim.barcelona/proposals/instaurar-el-dia-sense-turisme</a></p>", 
            "commentable_id": 2937, 
            "commentable_type": "Proposal", 
            "created_at": "06/04/2016 17:56:49", 
            "flagged": false, 
            "hidden": false, 
            "id": 8784, 
            "moderator_id": null, 
            "permissions": {
                "hide": false, 
                "hide_author": false, 
                "vote": false
            }, 
            "total_dislikes": 0, 
            "total_likes": 0, 
            "total_votes": 0
        }, 
        {
            "administrator_id": null, 
            "alignment": 0, 
            "ancestry": null, 
            "as": null, 
            "author": {
                "avatar_image": "https://decidim.barcelona/assets/avatar-866795c99abc33a3160d1f3fa93ada46eb75e54134e777666b9ed16215b26534.png", 
                "erased": false, 
                "hidden": false, 
                "id": 9262, 
                "name": "Suport General - Decidim Barcelona", 
                "official": false, 
                "official_level": 0, 
                "role": null, 
                "verified_organization": null
            }, 
            "body": "<p><a href=\"https://decidim.barcelona/proposals/impulsar-la-incubacio-de-nous-projectes-i-iniciatives-d-economia-col-laborativa-procomu-crear-una-alternativa-no-extractiva-a-airbnb\">https://decidim.barcelona/proposals/impulsar-la-incubacio-de-nous-projectes-i-iniciatives-d-economia-col-laborativa-procomu-crear-una-alternativa-no-extractiva-a-airbnb</a></p>", 
            "commentable_id": 2937, 
            "commentable_type": "Proposal", 
            "created_at": "09/04/2016 12:17:18", 
            "flagged": false, 
            "hidden": false, 
            "id": 11889, 
            "moderator_id": null, 
            "permissions": {
                "hide": false, 
                "hide_author": false, 
                "vote": false
            }, 
            "total_dislikes": 0, 
            "total_likes": 0, 
            "total_votes": 0
        }, 
        {
            "administrator_id": null, 
            "alignment": 0, 
            "ancestry": null, 
            "as": null, 
            "author": {
                "avatar_image": "https://decidim.barcelona/assets/avatar-866795c99abc33a3160d1f3fa93ada46eb75e54134e777666b9ed16215b26534.png", 
                "erased": false, 
                "hidden": false, 
                "id": 9262, 
                "name": "Suport General - Decidim Barcelona", 
                "official": false, 
                "official_level": 0, 
                "role": null, 
                "verified_organization": null
            }, 
            "body": "<p><a href=\"https://decidim.barcelona/proposals/sotmetre-a-referendum-les-restriccions-a-l-obertura-d-hotels\">https://decidim.barcelona/proposals/sotmetre-a-referendum-les-restriccions-a-l-obertura-d-hotels</a></p>", 
            "commentable_id": 2937, 
            "commentable_type": "Proposal", 
            "created_at": "09/04/2016 13:33:26", 
            "flagged": false, 
            "hidden": false, 
            "id": 12101, 
            "moderator_id": null, 
            "permissions": {
                "hide": false, 
                "hide_author": false, 
                "vote": false
            }, 
            "total_dislikes": 0, 
            "total_likes": 0, 
            "total_votes": 0
        }, 
        {
            "administrator_id": null, 
            "alignment": 0, 
            "ancestry": null, 
            "as": null, 
            "author": {
                "avatar_image": "https://decidim.barcelona/assets/avatar-866795c99abc33a3160d1f3fa93ada46eb75e54134e777666b9ed16215b26534.png", 
                "erased": false, 
                "hidden": false, 
                "id": 9262, 
                "name": "Suport General - Decidim Barcelona", 
                "official": false, 
                "official_level": 0, 
                "role": null, 
                "verified_organization": null
            }, 
            "body": "<p><a href=\"https://decidim.barcelona/proposals/professionalitzar-els-les-guies-turistics-ques\">https://decidim.barcelona/proposals/professionalitzar-els-les-guies-turistics-ques</a></p>", 
            "commentable_id": 2937, 
            "commentable_type": "Proposal", 
            "created_at": "09/04/2016 13:54:16", 
            "flagged": false, 
            "hidden": false, 
            "id": 12139, 
            "moderator_id": null, 
            "permissions": {
                "hide": false, 
                "hide_author": false, 
                "vote": false
            }, 
            "total_dislikes": 0, 
            "total_likes": 0, 
            "total_votes": 0
        }, 
        {
            "administrator_id": null, 
            "alignment": 0, 
            "ancestry": null, 
            "as": null, 
            "author": {
                "avatar_image": "https://decidim.barcelona/assets/avatar-866795c99abc33a3160d1f3fa93ada46eb75e54134e777666b9ed16215b26534.png", 
                "erased": false, 
                "hidden": false, 
                "id": 9262, 
                "name": "Suport General - Decidim Barcelona", 
                "official": false, 
                "official_level": 0, 
                "role": null, 
                "verified_organization": null
            }, 
            "body": "<p><a href=\"https://decidim.barcelona/proposals/impulsar-estrategies-per-tal-que-els-ciutadans-de-barcelona-puguin-gaudir-dels-equipaments-culturals-amb-gran-afluencia-turistica\">https://decidim.barcelona/proposals/impulsar-estrategies-per-tal-que-els-ciutadans-de-barcelona-puguin-gaudir-dels-equipaments-culturals-amb-gran-afluencia-turistica</a></p>", 
            "commentable_id": 2937, 
            "commentable_type": "Proposal", 
            "created_at": "09/04/2016 13:56:16", 
            "flagged": false, 
            "hidden": false, 
            "id": 12145, 
            "moderator_id": null, 
            "permissions": {
                "hide": false, 
                "hide_author": false, 
                "vote": false
            }, 
            "total_dislikes": 0, 
            "total_likes": 0, 
            "total_votes": 0
        }, 
        {
            "administrator_id": null, 
            "alignment": 0, 
            "ancestry": null, 
            "as": null, 
            "author": {
                "avatar_image": "https://decidim.barcelona/assets/avatar-866795c99abc33a3160d1f3fa93ada46eb75e54134e777666b9ed16215b26534.png", 
                "erased": false, 
                "hidden": false, 
                "id": 9262, 
                "name": "Suport General - Decidim Barcelona", 
                "official": false, 
                "official_level": 0, 
                "role": null, 
                "verified_organization": null
            }, 
            "body": "<p><a href=\"https://decidim.barcelona/proposals/posar-en-valor-el-coneixement-dels-guies-turistics\">https://decidim.barcelona/proposals/posar-en-valor-el-coneixement-dels-guies-turistics</a></p>", 
            "commentable_id": 2937, 
            "commentable_type": "Proposal", 
            "created_at": "09/04/2016 13:56:37", 
            "flagged": false, 
            "hidden": false, 
            "id": 12146, 
            "moderator_id": null, 
            "permissions": {
                "hide": false, 
                "hide_author": false, 
                "vote": false
            }, 
            "total_dislikes": 0, 
            "total_likes": 0, 
            "total_votes": 0
        }, 
        {
            "administrator_id": null, 
            "alignment": 0, 
            "ancestry": null, 
            "as": null, 
            "author": {
                "avatar_image": "https://decidim.barcelona/assets/avatar-866795c99abc33a3160d1f3fa93ada46eb75e54134e777666b9ed16215b26534.png", 
                "erased": false, 
                "hidden": false, 
                "id": 9262, 
                "name": "Suport General - Decidim Barcelona", 
                "official": false, 
                "official_level": 0, 
                "role": null, 
                "verified_organization": null
            }, 
            "body": "<p><a href=\"https://decidim.barcelona/proposals/parquings-subterranis-per-a-autobusos-turistics\">https://decidim.barcelona/proposals/parquings-subterranis-per-a-autobusos-turistics</a></p>", 
            "commentable_id": 2937, 
            "commentable_type": "Proposal", 
            "created_at": "09/04/2016 13:57:47", 
            "flagged": false, 
            "hidden": false, 
            "id": 12147, 
            "moderator_id": null, 
            "permissions": {
                "hide": false, 
                "hide_author": false, 
                "vote": false
            }, 
            "total_dislikes": 0, 
            "total_likes": 0, 
            "total_votes": 0
        }, 
        {
            "administrator_id": null, 
            "alignment": 0, 
            "ancestry": null, 
            "as": null, 
            "author": {
                "avatar_image": "https://decidim.barcelona/assets/avatar-866795c99abc33a3160d1f3fa93ada46eb75e54134e777666b9ed16215b26534.png", 
                "erased": false, 
                "hidden": false, 
                "id": 9262, 
                "name": "Suport General - Decidim Barcelona", 
                "official": false, 
                "official_level": 0, 
                "role": null, 
                "verified_organization": null
            }, 
            "body": "<p><a href=\"https://decidim.barcelona/proposals/fer-pedagogia-als-turistes-de-les-normes-de-civisme-de-barcelona\">https://decidim.barcelona/proposals/fer-pedagogia-als-turistes-de-les-normes-de-civisme-de-barcelona</a></p>", 
            "commentable_id": 2937, 
            "commentable_type": "Proposal", 
            "created_at": "09/04/2016 14:01:32", 
            "flagged": false, 
            "hidden": false, 
            "id": 12154, 
            "moderator_id": null, 
            "permissions": {
                "hide": false, 
                "hide_author": false, 
                "vote": false
            }, 
            "total_dislikes": 0, 
            "total_likes": 0, 
            "total_votes": 0
        }, 
        {
            "administrator_id": null, 
            "alignment": 0, 
            "ancestry": null, 
            "as": null, 
            "author": {
                "avatar_image": "https://decidim.barcelona/assets/avatar-866795c99abc33a3160d1f3fa93ada46eb75e54134e777666b9ed16215b26534.png", 
                "erased": false, 
                "hidden": false, 
                "id": 9262, 
                "name": "Suport General - Decidim Barcelona", 
                "official": false, 
                "official_level": 0, 
                "role": null, 
                "verified_organization": null
            }, 
            "body": "<p><a href=\"https://decidim.barcelona/proposals/descongestionar-el-turisme-descentralitzant-lo-i-creant-altres-pols-d-atraccio\">https://decidim.barcelona/proposals/descongestionar-el-turisme-descentralitzant-lo-i-creant-altres-pols-d-atraccio</a></p>", 
            "commentable_id": 2937, 
            "commentable_type": "Proposal", 
            "created_at": "09/04/2016 14:02:34", 
            "flagged": false, 
            "hidden": false, 
            "id": 12159, 
            "moderator_id": null, 
            "permissions": {
                "hide": false, 
                "hide_author": false, 
                "vote": false
            }, 
            "total_dislikes": 0, 
            "total_likes": 0, 
            "total_votes": 0
        }, 
        {
            "administrator_id": null, 
            "alignment": 0, 
            "ancestry": null, 
            "as": null, 
            "author": {
                "avatar_image": "https://decidim.barcelona/assets/avatar-866795c99abc33a3160d1f3fa93ada46eb75e54134e777666b9ed16215b26534.png", 
                "erased": false, 
                "hidden": false, 
                "id": 9262, 
                "name": "Suport General - Decidim Barcelona", 
                "official": false, 
                "official_level": 0, 
                "role": null, 
                "verified_organization": null
            }, 
            "body": "<p><a href=\"https://decidim.barcelona/proposals/contra-l-explotacio-laboral\">https://decidim.barcelona/proposals/contra-l-explotacio-laboral</a></p>", 
            "commentable_id": 2937, 
            "commentable_type": "Proposal", 
            "created_at": "09/04/2016 14:03:15", 
            "flagged": false, 
            "hidden": false, 
            "id": 12162, 
            "moderator_id": null, 
            "permissions": {
                "hide": false, 
                "hide_author": false, 
                "vote": false
            }, 
            "total_dislikes": 0, 
            "total_likes": 0, 
            "total_votes": 0
        }, 
        {
            "administrator_id": null, 
            "alignment": 0, 
            "ancestry": null, 
            "as": null, 
            "author": {
                "avatar_image": "https://decidim.barcelona/assets/avatar-866795c99abc33a3160d1f3fa93ada46eb75e54134e777666b9ed16215b26534.png", 
                "erased": false, 
                "hidden": false, 
                "id": 9262, 
                "name": "Suport General - Decidim Barcelona", 
                "official": false, 
                "official_level": 0, 
                "role": null, 
                "verified_organization": null
            }, 
            "body": "<p><a href=\"https://decidim.barcelona/proposals/control-de-la-mobilitat-turistica\">https://decidim.barcelona/proposals/control-de-la-mobilitat-turistica</a></p>", 
            "commentable_id": 2937, 
            "commentable_type": "Proposal", 
            "created_at": "09/04/2016 14:04:54", 
            "flagged": false, 
            "hidden": false, 
            "id": 12170, 
            "moderator_id": null, 
            "permissions": {
                "hide": false, 
                "hide_author": false, 
                "vote": false
            }, 
            "total_dislikes": 0, 
            "total_likes": 0, 
            "total_votes": 0
        }, 
        {
            "administrator_id": null, 
            "alignment": 0, 
            "ancestry": null, 
            "as": null, 
            "author": {
                "avatar_image": "https://decidim.barcelona/assets/avatar-866795c99abc33a3160d1f3fa93ada46eb75e54134e777666b9ed16215b26534.png", 
                "erased": false, 
                "hidden": false, 
                "id": 9262, 
                "name": "Suport General - Decidim Barcelona", 
                "official": false, 
                "official_level": 0, 
                "role": null, 
                "verified_organization": null
            }, 
            "body": "<p><a href=\"https://decidim.barcelona/proposals/regular-els-nous-fenomens-d-economia-col-laborativa-i-regularitzar-els-negocis-turistics-informals-i-l-economia-submergida\">https://decidim.barcelona/proposals/regular-els-nous-fenomens-d-economia-col-laborativa-i-regularitzar-els-negocis-turistics-informals-i-l-economia-submergida</a></p>", 
            "commentable_id": 2937, 
            "commentable_type": "Proposal", 
            "created_at": "09/04/2016 14:05:57", 
            "flagged": false, 
            "hidden": false, 
            "id": 12176, 
            "moderator_id": null, 
            "permissions": {
                "hide": false, 
                "hide_author": false, 
                "vote": false
            }, 
            "total_dislikes": 0, 
            "total_likes": 0, 
            "total_votes": 0
        }, 
        {
            "administrator_id": null, 
            "alignment": 0, 
            "ancestry": null, 
            "as": null, 
            "author": {
                "avatar_image": "https://decidim.barcelona/assets/avatar-866795c99abc33a3160d1f3fa93ada46eb75e54134e777666b9ed16215b26534.png", 
                "erased": false, 
                "hidden": false, 
                "id": 9262, 
                "name": "Suport General - Decidim Barcelona", 
                "official": false, 
                "official_level": 0, 
                "role": null, 
                "verified_organization": null
            }, 
            "body": "<p><a href=\"https://decidim.barcelona/proposals/posar-condicions-al-creixement-de-la-segona-corona-de-la-ciutat-i-tenir-en-compte-l-impacte-ambiental\">https://decidim.barcelona/proposals/posar-condicions-al-creixement-de-la-segona-corona-de-la-ciutat-i-tenir-en-compte-l-impacte-ambiental</a></p>", 
            "commentable_id": 2937, 
            "commentable_type": "Proposal", 
            "created_at": "09/04/2016 14:11:53", 
            "flagged": false, 
            "hidden": false, 
            "id": 12205, 
            "moderator_id": null, 
            "permissions": {
                "hide": false, 
                "hide_author": false, 
                "vote": false
            }, 
            "total_dislikes": 0, 
            "total_likes": 0, 
            "total_votes": 0
        }, 
        {
            "administrator_id": null, 
            "alignment": 0, 
            "ancestry": null, 
            "as": null, 
            "author": {
                "avatar_image": "https://decidim.barcelona/assets/avatar-866795c99abc33a3160d1f3fa93ada46eb75e54134e777666b9ed16215b26534.png", 
                "erased": false, 
                "hidden": false, 
                "id": 9262, 
                "name": "Suport General - Decidim Barcelona", 
                "official": false, 
                "official_level": 0, 
                "role": null, 
                "verified_organization": null
            }, 
            "body": "<p><a href=\"https://decidim.barcelona/proposals/establir-un-criteri-de-regulacio-segons-la-densitat-de-la-mateixa-manera-que-es-treballa-en-les-previsions-de-l-urbanisme\">https://decidim.barcelona/proposals/establir-un-criteri-de-regulacio-segons-la-densitat-de-la-mateixa-manera-que-es-treballa-en-les-previsions-de-l-urbanisme</a></p>", 
            "commentable_id": 2937, 
            "commentable_type": "Proposal", 
            "created_at": "09/04/2016 14:12:23", 
            "flagged": false, 
            "hidden": false, 
            "id": 12208, 
            "moderator_id": null, 
            "permissions": {
                "hide": false, 
                "hide_author": false, 
                "vote": false
            }, 
            "total_dislikes": 0, 
            "total_likes": 0, 
            "total_votes": 0
        }, 
        {
            "administrator_id": null, 
            "alignment": 0, 
            "ancestry": null, 
            "as": null, 
            "author": {
                "avatar_image": "https://decidim.barcelona/assets/avatar-866795c99abc33a3160d1f3fa93ada46eb75e54134e777666b9ed16215b26534.png", 
                "erased": false, 
                "hidden": false, 
                "id": 9262, 
                "name": "Suport General - Decidim Barcelona", 
                "official": false, 
                "official_level": 0, 
                "role": null, 
                "verified_organization": null
            }, 
            "body": "<p><a href=\"https://decidim.barcelona/proposals/considerar-les-entitats-privades-com-a-col-laboradors-de-l-administracio-en-la-gestio-de-l-eradicacio-de-l-oferta-turistica-il-legal\">https://decidim.barcelona/proposals/considerar-les-entitats-privades-com-a-col-laboradors-de-l-administracio-en-la-gestio-de-l-eradicacio-de-l-oferta-turistica-il-legal</a></p>", 
            "commentable_id": 2937, 
            "commentable_type": "Proposal", 
            "created_at": "09/04/2016 14:17:16", 
            "flagged": false, 
            "hidden": false, 
            "id": 12231, 
            "moderator_id": null, 
            "permissions": {
                "hide": false, 
                "hide_author": false, 
                "vote": false
            }, 
            "total_dislikes": 0, 
            "total_likes": 0, 
            "total_votes": 0
        }, 
        {
            "administrator_id": null, 
            "alignment": null, 
            "ancestry": "2841", 
            "as": null, 
            "author": {
                "avatar_image": "https://decidim.barcelona/assets/avatar-866795c99abc33a3160d1f3fa93ada46eb75e54134e777666b9ed16215b26534.png", 
                "erased": false, 
                "hidden": false, 
                "id": 8218, 
                "name": "maga", 
                "official": false, 
                "official_level": 0, 
                "role": null, 
                "verified_organization": null
            }, 
            "body": "<p>... m\u00e9s que clients \u00e9s potser m\u00e9s interessant pensar en ve\u00efns</p>", 
            "commentable_id": 2937, 
            "commentable_type": "Proposal", 
            "created_at": "08/03/2016 22:36:58", 
            "flagged": false, 
            "hidden": false, 
            "id": 4017, 
            "moderator_id": null, 
            "permissions": {
                "hide": false, 
                "hide_author": false, 
                "vote": false
            }, 
            "total_dislikes": 0, 
            "total_likes": 1, 
            "total_votes": 1
        }
    ], 
    "meta": {
        "current_page": 1, 
        "next_page": 2, 
        "prev_page": null, 
        "total_count": 65, 
        "total_pages": 4
    }
}