{
    "comments": [
        {
            "administrator_id": null, 
            "alignment": 0, 
            "ancestry": null, 
            "as": null, 
            "author": {
                "avatar_image": "https://decidim.barcelona/assets/avatar-866795c99abc33a3160d1f3fa93ada46eb75e54134e777666b9ed16215b26534.png", 
                "erased": false, 
                "hidden": false, 
                "id": 9262, 
                "name": "Suport General - Decidim Barcelona", 
                "official": false, 
                "official_level": 0, 
                "role": null, 
                "verified_organization": null
            }, 
            "body": "<p><a href=\"https://decidim.barcelona/proposals/impulsar-un-pla-de-mobilitat-turistica\">https://decidim.barcelona/proposals/impulsar-un-pla-de-mobilitat-turistica</a></p>", 
            "commentable_id": 2937, 
            "commentable_type": "Proposal", 
            "created_at": "09/04/2016 14:40:36", 
            "flagged": false, 
            "hidden": false, 
            "id": 12324, 
            "moderator_id": null, 
            "permissions": {
                "hide": false, 
                "hide_author": false, 
                "vote": false
            }, 
            "total_dislikes": 0, 
            "total_likes": 0, 
            "total_votes": 0
        }, 
        {
            "administrator_id": null, 
            "alignment": 0, 
            "ancestry": null, 
            "as": null, 
            "author": {
                "avatar_image": "https://decidim.barcelona/assets/avatar-866795c99abc33a3160d1f3fa93ada46eb75e54134e777666b9ed16215b26534.png", 
                "erased": false, 
                "hidden": false, 
                "id": 9262, 
                "name": "Suport General - Decidim Barcelona", 
                "official": false, 
                "official_level": 0, 
                "role": null, 
                "verified_organization": null
            }, 
            "body": "<p><a href=\"https://decidim.barcelona/proposals/implicar-ciutadania-en-campanyes-de-sensibilitzacio-turistes\">https://decidim.barcelona/proposals/implicar-ciutadania-en-campanyes-de-sensibilitzacio-turistes</a></p>", 
            "commentable_id": 2937, 
            "commentable_type": "Proposal", 
            "created_at": "09/04/2016 14:40:48", 
            "flagged": false, 
            "hidden": false, 
            "id": 12325, 
            "moderator_id": null, 
            "permissions": {
                "hide": false, 
                "hide_author": false, 
                "vote": false
            }, 
            "total_dislikes": 0, 
            "total_likes": 0, 
            "total_votes": 0
        }, 
        {
            "administrator_id": null, 
            "alignment": 0, 
            "ancestry": null, 
            "as": null, 
            "author": {
                "avatar_image": "https://decidim.barcelona/assets/avatar-866795c99abc33a3160d1f3fa93ada46eb75e54134e777666b9ed16215b26534.png", 
                "erased": false, 
                "hidden": false, 
                "id": 9262, 
                "name": "Suport General - Decidim Barcelona", 
                "official": false, 
                "official_level": 0, 
                "role": null, 
                "verified_organization": null
            }, 
            "body": "<p><a href=\"https://decidim.barcelona/proposals/crear-uns-premis-anuals-a-la-millor-empresa-del-sector-turistic\">https://decidim.barcelona/proposals/crear-uns-premis-anuals-a-la-millor-empresa-del-sector-turistic</a></p>", 
            "commentable_id": 2937, 
            "commentable_type": "Proposal", 
            "created_at": "09/04/2016 14:42:24", 
            "flagged": false, 
            "hidden": false, 
            "id": 12330, 
            "moderator_id": null, 
            "permissions": {
                "hide": false, 
                "hide_author": false, 
                "vote": false
            }, 
            "total_dislikes": 0, 
            "total_likes": 0, 
            "total_votes": 0
        }, 
        {
            "administrator_id": null, 
            "alignment": 0, 
            "ancestry": null, 
            "as": null, 
            "author": {
                "avatar_image": "https://decidim.barcelona/assets/avatar-866795c99abc33a3160d1f3fa93ada46eb75e54134e777666b9ed16215b26534.png", 
                "erased": false, 
                "hidden": false, 
                "id": 9262, 
                "name": "Suport General - Decidim Barcelona", 
                "official": false, 
                "official_level": 0, 
                "role": null, 
                "verified_organization": null
            }, 
            "body": "<p><a href=\"https://decidim.barcelona/proposals/creacio-d-un-pla-integral-de-sostenibilitat-turistica-per-a-la-ciutat-de-barcelona\">https://decidim.barcelona/proposals/creacio-d-un-pla-integral-de-sostenibilitat-turistica-per-a-la-ciutat-de-barcelona</a></p>", 
            "commentable_id": 2937, 
            "commentable_type": "Proposal", 
            "created_at": "09/04/2016 14:43:47", 
            "flagged": false, 
            "hidden": false, 
            "id": 12334, 
            "moderator_id": null, 
            "permissions": {
                "hide": false, 
                "hide_author": false, 
                "vote": false
            }, 
            "total_dislikes": 0, 
            "total_likes": 0, 
            "total_votes": 0
        }, 
        {
            "administrator_id": null, 
            "alignment": 0, 
            "ancestry": null, 
            "as": null, 
            "author": {
                "avatar_image": "https://decidim.barcelona/assets/avatar-866795c99abc33a3160d1f3fa93ada46eb75e54134e777666b9ed16215b26534.png", 
                "erased": false, 
                "hidden": false, 
                "id": 9262, 
                "name": "Suport General - Decidim Barcelona", 
                "official": false, 
                "official_level": 0, 
                "role": null, 
                "verified_organization": null
            }, 
            "body": "<p><a href=\"https://decidim.barcelona/proposals/treballar-mes-l-acollida-del-turista-abans-i-durant-la-seva-estada\">https://decidim.barcelona/proposals/treballar-mes-l-acollida-del-turista-abans-i-durant-la-seva-estada</a></p>", 
            "commentable_id": 2937, 
            "commentable_type": "Proposal", 
            "created_at": "09/04/2016 14:44:22", 
            "flagged": false, 
            "hidden": false, 
            "id": 12335, 
            "moderator_id": null, 
            "permissions": {
                "hide": false, 
                "hide_author": false, 
                "vote": false
            }, 
            "total_dislikes": 0, 
            "total_likes": 0, 
            "total_votes": 0
        }, 
        {
            "administrator_id": null, 
            "alignment": 0, 
            "ancestry": null, 
            "as": null, 
            "author": {
                "avatar_image": "https://decidim.barcelona/assets/avatar-866795c99abc33a3160d1f3fa93ada46eb75e54134e777666b9ed16215b26534.png", 
                "erased": false, 
                "hidden": false, 
                "id": 9262, 
                "name": "Suport General - Decidim Barcelona", 
                "official": false, 
                "official_level": 0, 
                "role": null, 
                "verified_organization": null
            }, 
            "body": "<p><a href=\"https://decidim.barcelona/proposals/promoure-ofertes-d-allotjament-turistic-que-contribueixin-a-la-promocio-d-un-turisme-veritablement-sostenible\">https://decidim.barcelona/proposals/promoure-ofertes-d-allotjament-turistic-que-contribueixin-a-la-promocio-d-un-turisme-veritablement-sostenible</a></p>", 
            "commentable_id": 2937, 
            "commentable_type": "Proposal", 
            "created_at": "09/04/2016 14:45:32", 
            "flagged": false, 
            "hidden": false, 
            "id": 12338, 
            "moderator_id": null, 
            "permissions": {
                "hide": false, 
                "hide_author": false, 
                "vote": false
            }, 
            "total_dislikes": 0, 
            "total_likes": 0, 
            "total_votes": 0
        }, 
        {
            "administrator_id": null, 
            "alignment": 0, 
            "ancestry": null, 
            "as": null, 
            "author": {
                "avatar_image": "https://decidim.barcelona/assets/avatar-866795c99abc33a3160d1f3fa93ada46eb75e54134e777666b9ed16215b26534.png", 
                "erased": false, 
                "hidden": false, 
                "id": 9262, 
                "name": "Suport General - Decidim Barcelona", 
                "official": false, 
                "official_level": 0, 
                "role": null, 
                "verified_organization": null
            }, 
            "body": "<p><a href=\"https://decidim.barcelona/proposals/informar-els-turistes-del-que-es-pot-i-no-es-pot-fer\">https://decidim.barcelona/proposals/informar-els-turistes-del-que-es-pot-i-no-es-pot-fer</a></p>", 
            "commentable_id": 2937, 
            "commentable_type": "Proposal", 
            "created_at": "09/04/2016 14:45:51", 
            "flagged": false, 
            "hidden": false, 
            "id": 12340, 
            "moderator_id": null, 
            "permissions": {
                "hide": false, 
                "hide_author": false, 
                "vote": false
            }, 
            "total_dislikes": 0, 
            "total_likes": 0, 
            "total_votes": 0
        }, 
        {
            "administrator_id": null, 
            "alignment": 0, 
            "ancestry": null, 
            "as": null, 
            "author": {
                "avatar_image": "https://decidim.barcelona/assets/avatar-866795c99abc33a3160d1f3fa93ada46eb75e54134e777666b9ed16215b26534.png", 
                "erased": false, 
                "hidden": false, 
                "id": 9262, 
                "name": "Suport General - Decidim Barcelona", 
                "official": false, 
                "official_level": 0, 
                "role": null, 
                "verified_organization": null
            }, 
            "body": "<p><a href=\"https://decidim.barcelona/proposals/promoure-i-regular-el-turisme-col-laboratiu-d8ba32e9-a183-4d49-ba9d-a51c1a473654\">https://decidim.barcelona/proposals/promoure-i-regular-el-turisme-col-laboratiu-d8ba32e9-a183-4d49-ba9d-a51c1a473654</a></p>", 
            "commentable_id": 2937, 
            "commentable_type": "Proposal", 
            "created_at": "09/04/2016 14:46:08", 
            "flagged": false, 
            "hidden": false, 
            "id": 12341, 
            "moderator_id": null, 
            "permissions": {
                "hide": false, 
                "hide_author": false, 
                "vote": false
            }, 
            "total_dislikes": 0, 
            "total_likes": 0, 
            "total_votes": 0
        }, 
        {
            "administrator_id": null, 
            "alignment": 0, 
            "ancestry": null, 
            "as": null, 
            "author": {
                "avatar_image": "https://decidim.barcelona/assets/avatar-866795c99abc33a3160d1f3fa93ada46eb75e54134e777666b9ed16215b26534.png", 
                "erased": false, 
                "hidden": false, 
                "id": 9262, 
                "name": "Suport General - Decidim Barcelona", 
                "official": false, 
                "official_level": 0, 
                "role": null, 
                "verified_organization": null
            }, 
            "body": "<p><a href=\"https://decidim.barcelona/proposals/turisme-de-muntanya\">https://decidim.barcelona/proposals/turisme-de-muntanya</a></p>", 
            "commentable_id": 2937, 
            "commentable_type": "Proposal", 
            "created_at": "09/04/2016 14:46:24", 
            "flagged": false, 
            "hidden": false, 
            "id": 12342, 
            "moderator_id": null, 
            "permissions": {
                "hide": false, 
                "hide_author": false, 
                "vote": false
            }, 
            "total_dislikes": 0, 
            "total_likes": 0, 
            "total_votes": 0
        }, 
        {
            "administrator_id": null, 
            "alignment": 0, 
            "ancestry": null, 
            "as": null, 
            "author": {
                "avatar_image": "https://decidim.barcelona/assets/avatar-866795c99abc33a3160d1f3fa93ada46eb75e54134e777666b9ed16215b26534.png", 
                "erased": false, 
                "hidden": false, 
                "id": 9262, 
                "name": "Suport General - Decidim Barcelona", 
                "official": false, 
                "official_level": 0, 
                "role": null, 
                "verified_organization": null
            }, 
            "body": "<p><a href=\"https://decidim.barcelona/proposals/paquets-turistics-per-participar-a-vida-social-i-cultural\">https://decidim.barcelona/proposals/paquets-turistics-per-participar-a-vida-social-i-cultural</a></p>", 
            "commentable_id": 2937, 
            "commentable_type": "Proposal", 
            "created_at": "09/04/2016 14:48:19", 
            "flagged": false, 
            "hidden": false, 
            "id": 12349, 
            "moderator_id": null, 
            "permissions": {
                "hide": false, 
                "hide_author": false, 
                "vote": false
            }, 
            "total_dislikes": 0, 
            "total_likes": 0, 
            "total_votes": 0
        }, 
        {
            "administrator_id": null, 
            "alignment": 0, 
            "ancestry": null, 
            "as": null, 
            "author": {
                "avatar_image": "https://decidim.barcelona/assets/avatar-866795c99abc33a3160d1f3fa93ada46eb75e54134e777666b9ed16215b26534.png", 
                "erased": false, 
                "hidden": false, 
                "id": 9262, 
                "name": "Suport General - Decidim Barcelona", 
                "official": false, 
                "official_level": 0, 
                "role": null, 
                "verified_organization": null
            }, 
            "body": "<p><a href=\"https://decidim.barcelona/proposals/crear-sinergies-entre-entitats-tercer-sector-i-l-activitat-turistica\">https://decidim.barcelona/proposals/crear-sinergies-entre-entitats-tercer-sector-i-l-activitat-turistica</a></p>", 
            "commentable_id": 2937, 
            "commentable_type": "Proposal", 
            "created_at": "09/04/2016 14:48:32", 
            "flagged": false, 
            "hidden": false, 
            "id": 12350, 
            "moderator_id": null, 
            "permissions": {
                "hide": false, 
                "hide_author": false, 
                "vote": false
            }, 
            "total_dislikes": 0, 
            "total_likes": 0, 
            "total_votes": 0
        }, 
        {
            "administrator_id": null, 
            "alignment": 0, 
            "ancestry": null, 
            "as": null, 
            "author": {
                "avatar_image": "https://decidim.barcelona/assets/avatar-866795c99abc33a3160d1f3fa93ada46eb75e54134e777666b9ed16215b26534.png", 
                "erased": false, 
                "hidden": false, 
                "id": 9262, 
                "name": "Suport General - Decidim Barcelona", 
                "official": false, 
                "official_level": 0, 
                "role": null, 
                "verified_organization": null
            }, 
            "body": "<p><a href=\"https://decidim.barcelona/proposals/desconcentrar-activitat-cultural-i-comercial-per-distribuir-turisme-f9c54261-2797-4a39-8ef0-b148a99efa5b\">https://decidim.barcelona/proposals/desconcentrar-activitat-cultural-i-comercial-per-distribuir-turisme-f9c54261-2797-4a39-8ef0-b148a99efa5b</a></p>", 
            "commentable_id": 2937, 
            "commentable_type": "Proposal", 
            "created_at": "09/04/2016 14:49:06", 
            "flagged": false, 
            "hidden": false, 
            "id": 12351, 
            "moderator_id": null, 
            "permissions": {
                "hide": false, 
                "hide_author": false, 
                "vote": false
            }, 
            "total_dislikes": 0, 
            "total_likes": 0, 
            "total_votes": 0
        }, 
        {
            "administrator_id": null, 
            "alignment": 0, 
            "ancestry": null, 
            "as": null, 
            "author": {
                "avatar_image": "https://decidim.barcelona/assets/avatar-866795c99abc33a3160d1f3fa93ada46eb75e54134e777666b9ed16215b26534.png", 
                "erased": false, 
                "hidden": false, 
                "id": 9262, 
                "name": "Suport General - Decidim Barcelona", 
                "official": false, 
                "official_level": 0, 
                "role": null, 
                "verified_organization": null
            }, 
            "body": "<p><a href=\"https://decidim.barcelona/proposals/millorar-la-informacio-turistica\">https://decidim.barcelona/proposals/millorar-la-informacio-turistica</a></p>", 
            "commentable_id": 2937, 
            "commentable_type": "Proposal", 
            "created_at": "09/04/2016 14:49:22", 
            "flagged": false, 
            "hidden": false, 
            "id": 12354, 
            "moderator_id": null, 
            "permissions": {
                "hide": false, 
                "hide_author": false, 
                "vote": false
            }, 
            "total_dislikes": 0, 
            "total_likes": 0, 
            "total_votes": 0
        }, 
        {
            "administrator_id": null, 
            "alignment": 0, 
            "ancestry": null, 
            "as": null, 
            "author": {
                "avatar_image": "https://decidim.barcelona/assets/avatar-866795c99abc33a3160d1f3fa93ada46eb75e54134e777666b9ed16215b26534.png", 
                "erased": false, 
                "hidden": false, 
                "id": 9262, 
                "name": "Suport General - Decidim Barcelona", 
                "official": false, 
                "official_level": 0, 
                "role": null, 
                "verified_organization": null
            }, 
            "body": "<p><a href=\"https://decidim.barcelona/proposals/elaborar-un-pla-de-turisme-de-barcelona\">https://decidim.barcelona/proposals/elaborar-un-pla-de-turisme-de-barcelona</a></p>", 
            "commentable_id": 2937, 
            "commentable_type": "Proposal", 
            "created_at": "09/04/2016 14:50:08", 
            "flagged": false, 
            "hidden": false, 
            "id": 12356, 
            "moderator_id": null, 
            "permissions": {
                "hide": false, 
                "hide_author": false, 
                "vote": false
            }, 
            "total_dislikes": 0, 
            "total_likes": 0, 
            "total_votes": 0
        }, 
        {
            "administrator_id": null, 
            "alignment": 0, 
            "ancestry": null, 
            "as": null, 
            "author": {
                "avatar_image": "https://decidim.barcelona/assets/avatar-866795c99abc33a3160d1f3fa93ada46eb75e54134e777666b9ed16215b26534.png", 
                "erased": false, 
                "hidden": false, 
                "id": 9262, 
                "name": "Suport General - Decidim Barcelona", 
                "official": false, 
                "official_level": 0, 
                "role": null, 
                "verified_organization": null
            }, 
            "body": "<p><a href=\"https://decidim.barcelona/proposals/guies-turistics-amb-auriculars\">https://decidim.barcelona/proposals/guies-turistics-amb-auriculars</a></p>", 
            "commentable_id": 2937, 
            "commentable_type": "Proposal", 
            "created_at": "11/04/2016 16:45:08", 
            "flagged": false, 
            "hidden": false, 
            "id": 13011, 
            "moderator_id": null, 
            "permissions": {
                "hide": false, 
                "hide_author": false, 
                "vote": false
            }, 
            "total_dislikes": 0, 
            "total_likes": 0, 
            "total_votes": 0
        }, 
        {
            "administrator_id": null, 
            "alignment": 0, 
            "ancestry": null, 
            "as": null, 
            "author": {
                "avatar_image": "https://decidim.barcelona/assets/avatar-866795c99abc33a3160d1f3fa93ada46eb75e54134e777666b9ed16215b26534.png", 
                "erased": false, 
                "hidden": false, 
                "id": 9262, 
                "name": "Suport General - Decidim Barcelona", 
                "official": false, 
                "official_level": 0, 
                "role": null, 
                "verified_organization": null
            }, 
            "body": "<p><a href=\"https://decidim.barcelona/proposals/reforcar-la-comunicacio-interna-per-tal-d-interessar-el-public-local\">https://decidim.barcelona/proposals/reforcar-la-comunicacio-interna-per-tal-d-interessar-el-public-local</a></p>", 
            "commentable_id": 2937, 
            "commentable_type": "Proposal", 
            "created_at": "11/04/2016 16:52:15", 
            "flagged": false, 
            "hidden": false, 
            "id": 13020, 
            "moderator_id": null, 
            "permissions": {
                "hide": false, 
                "hide_author": false, 
                "vote": false
            }, 
            "total_dislikes": 0, 
            "total_likes": 0, 
            "total_votes": 0
        }, 
        {
            "administrator_id": null, 
            "alignment": 0, 
            "ancestry": null, 
            "as": null, 
            "author": {
                "avatar_image": "https://decidim.barcelona/assets/avatar-866795c99abc33a3160d1f3fa93ada46eb75e54134e777666b9ed16215b26534.png", 
                "erased": false, 
                "hidden": false, 
                "id": 9262, 
                "name": "Suport General - Decidim Barcelona", 
                "official": false, 
                "official_level": 0, 
                "role": null, 
                "verified_organization": null
            }, 
            "body": "<p><a href=\"https://decidim.barcelona/proposals/alinear-insitucions-per-cercar-estrategies-conjuntes\">https://decidim.barcelona/proposals/alinear-insitucions-per-cercar-estrategies-conjuntes</a></p>", 
            "commentable_id": 2937, 
            "commentable_type": "Proposal", 
            "created_at": "11/04/2016 16:53:34", 
            "flagged": false, 
            "hidden": false, 
            "id": 13022, 
            "moderator_id": null, 
            "permissions": {
                "hide": false, 
                "hide_author": false, 
                "vote": false
            }, 
            "total_dislikes": 0, 
            "total_likes": 0, 
            "total_votes": 0
        }, 
        {
            "administrator_id": null, 
            "alignment": 0, 
            "ancestry": null, 
            "as": null, 
            "author": {
                "avatar_image": "https://decidim.barcelona/assets/avatar-866795c99abc33a3160d1f3fa93ada46eb75e54134e777666b9ed16215b26534.png", 
                "erased": false, 
                "hidden": false, 
                "id": 9262, 
                "name": "Suport General - Decidim Barcelona", 
                "official": false, 
                "official_level": 0, 
                "role": null, 
                "verified_organization": null
            }, 
            "body": "<p><a href=\"https://decidim.barcelona/proposals/programes-de-promocio-en-origen-no-en-destinacio\">https://decidim.barcelona/proposals/programes-de-promocio-en-origen-no-en-destinacio</a></p>", 
            "commentable_id": 2937, 
            "commentable_type": "Proposal", 
            "created_at": "11/04/2016 16:53:57", 
            "flagged": false, 
            "hidden": false, 
            "id": 13023, 
            "moderator_id": null, 
            "permissions": {
                "hide": false, 
                "hide_author": false, 
                "vote": false
            }, 
            "total_dislikes": 0, 
            "total_likes": 0, 
            "total_votes": 0
        }, 
        {
            "administrator_id": null, 
            "alignment": 0, 
            "ancestry": null, 
            "as": null, 
            "author": {
                "avatar_image": "https://decidim.barcelona/assets/avatar-866795c99abc33a3160d1f3fa93ada46eb75e54134e777666b9ed16215b26534.png", 
                "erased": false, 
                "hidden": false, 
                "id": 9262, 
                "name": "Suport General - Decidim Barcelona", 
                "official": false, 
                "official_level": 0, 
                "role": null, 
                "verified_organization": null
            }, 
            "body": "<p><a href=\"https://decidim.barcelona/proposals/reconfigurar-turisme-de-barcelona-com-a-instrument-de-promocio-turistica\">https://decidim.barcelona/proposals/reconfigurar-turisme-de-barcelona-com-a-instrument-de-promocio-turistica</a></p>", 
            "commentable_id": 2937, 
            "commentable_type": "Proposal", 
            "created_at": "11/04/2016 16:54:20", 
            "flagged": false, 
            "hidden": false, 
            "id": 13024, 
            "moderator_id": null, 
            "permissions": {
                "hide": false, 
                "hide_author": false, 
                "vote": false
            }, 
            "total_dislikes": 0, 
            "total_likes": 0, 
            "total_votes": 0
        }, 
        {
            "administrator_id": null, 
            "alignment": 0, 
            "ancestry": null, 
            "as": null, 
            "author": {
                "avatar_image": "https://decidim.barcelona/assets/avatar-866795c99abc33a3160d1f3fa93ada46eb75e54134e777666b9ed16215b26534.png", 
                "erased": false, 
                "hidden": false, 
                "id": 9262, 
                "name": "Suport General - Decidim Barcelona", 
                "official": false, 
                "official_level": 0, 
                "role": null, 
                "verified_organization": null
            }, 
            "body": "<p><a href=\"https://decidim.barcelona/proposals/revisar-les-oficines-d-atencio-al-visitant\">https://decidim.barcelona/proposals/revisar-les-oficines-d-atencio-al-visitant</a></p>", 
            "commentable_id": 2937, 
            "commentable_type": "Proposal", 
            "created_at": "11/04/2016 16:54:33", 
            "flagged": false, 
            "hidden": false, 
            "id": 13026, 
            "moderator_id": null, 
            "permissions": {
                "hide": false, 
                "hide_author": false, 
                "vote": false
            }, 
            "total_dislikes": 0, 
            "total_likes": 0, 
            "total_votes": 0
        }
    ], 
    "meta": {
        "current_page": 3, 
        "next_page": 4, 
        "prev_page": 2, 
        "total_count": 65, 
        "total_pages": 4
    }
}