{
    "comments": [
        {
            "administrator_id": null, 
            "alignment": 0, 
            "ancestry": null, 
            "as": null, 
            "author": {
                "avatar_image": "https://decidim.barcelona/assets/avatar-866795c99abc33a3160d1f3fa93ada46eb75e54134e777666b9ed16215b26534.png", 
                "erased": false, 
                "hidden": false, 
                "id": 9262, 
                "name": "Suport General - Decidim Barcelona", 
                "official": false, 
                "official_level": 0, 
                "role": null, 
                "verified_organization": null
            }, 
            "body": "<p><a href=\"https://decidim.barcelona/proposals/obrir-marcs-estables-de-participacio-concertacio-i-acord-en-materia-d-ocupacio-en-el-sector-turistic\">https://decidim.barcelona/proposals/obrir-marcs-estables-de-participacio-concertacio-i-acord-en-materia-d-ocupacio-en-el-sector-turistic</a></p>", 
            "commentable_id": 2937, 
            "commentable_type": "Proposal", 
            "created_at": "09/04/2016 14:18:14", 
            "flagged": false, 
            "hidden": false, 
            "id": 12236, 
            "moderator_id": null, 
            "permissions": {
                "hide": false, 
                "hide_author": false, 
                "vote": false
            }, 
            "total_dislikes": 0, 
            "total_likes": 0, 
            "total_votes": 0
        }, 
        {
            "administrator_id": null, 
            "alignment": 0, 
            "ancestry": null, 
            "as": null, 
            "author": {
                "avatar_image": "https://decidim.barcelona/assets/avatar-866795c99abc33a3160d1f3fa93ada46eb75e54134e777666b9ed16215b26534.png", 
                "erased": false, 
                "hidden": false, 
                "id": 9262, 
                "name": "Suport General - Decidim Barcelona", 
                "official": false, 
                "official_level": 0, 
                "role": null, 
                "verified_organization": null
            }, 
            "body": "<p><a href=\"https://decidim.barcelona/proposals/posar-en-valor-cert-patrimoni-existent-en-barris-periferics-per-tal-de-captar-l-interes-turistic\">https://decidim.barcelona/proposals/posar-en-valor-cert-patrimoni-existent-en-barris-periferics-per-tal-de-captar-l-interes-turistic</a></p>", 
            "commentable_id": 2937, 
            "commentable_type": "Proposal", 
            "created_at": "09/04/2016 14:18:57", 
            "flagged": false, 
            "hidden": false, 
            "id": 12240, 
            "moderator_id": null, 
            "permissions": {
                "hide": false, 
                "hide_author": false, 
                "vote": false
            }, 
            "total_dislikes": 0, 
            "total_likes": 0, 
            "total_votes": 0
        }, 
        {
            "administrator_id": null, 
            "alignment": 0, 
            "ancestry": null, 
            "as": null, 
            "author": {
                "avatar_image": "https://decidim.barcelona/assets/avatar-866795c99abc33a3160d1f3fa93ada46eb75e54134e777666b9ed16215b26534.png", 
                "erased": false, 
                "hidden": false, 
                "id": 9262, 
                "name": "Suport General - Decidim Barcelona", 
                "official": false, 
                "official_level": 0, 
                "role": null, 
                "verified_organization": null
            }, 
            "body": "<p><a href=\"https://decidim.barcelona/proposals/segell-d-establiment-legal-i-promocio-entre-els-turistes-que-arriben-perque-ho-demanin\">https://decidim.barcelona/proposals/segell-d-establiment-legal-i-promocio-entre-els-turistes-que-arriben-perque-ho-demanin</a></p>", 
            "commentable_id": 2937, 
            "commentable_type": "Proposal", 
            "created_at": "09/04/2016 14:19:22", 
            "flagged": false, 
            "hidden": false, 
            "id": 12242, 
            "moderator_id": null, 
            "permissions": {
                "hide": false, 
                "hide_author": false, 
                "vote": false
            }, 
            "total_dislikes": 0, 
            "total_likes": 0, 
            "total_votes": 0
        }, 
        {
            "administrator_id": null, 
            "alignment": 0, 
            "ancestry": null, 
            "as": null, 
            "author": {
                "avatar_image": "https://decidim.barcelona/assets/avatar-866795c99abc33a3160d1f3fa93ada46eb75e54134e777666b9ed16215b26534.png", 
                "erased": false, 
                "hidden": false, 
                "id": 9262, 
                "name": "Suport General - Decidim Barcelona", 
                "official": false, 
                "official_level": 0, 
                "role": null, 
                "verified_organization": null
            }, 
            "body": "<p><a href=\"https://decidim.barcelona/proposals/pla-de-decreixement-turistic\">https://decidim.barcelona/proposals/pla-de-decreixement-turistic</a></p>", 
            "commentable_id": 2937, 
            "commentable_type": "Proposal", 
            "created_at": "09/04/2016 14:26:02", 
            "flagged": false, 
            "hidden": false, 
            "id": 12264, 
            "moderator_id": null, 
            "permissions": {
                "hide": false, 
                "hide_author": false, 
                "vote": false
            }, 
            "total_dislikes": 0, 
            "total_likes": 0, 
            "total_votes": 0
        }, 
        {
            "administrator_id": null, 
            "alignment": 0, 
            "ancestry": null, 
            "as": null, 
            "author": {
                "avatar_image": "https://decidim.barcelona/assets/avatar-866795c99abc33a3160d1f3fa93ada46eb75e54134e777666b9ed16215b26534.png", 
                "erased": false, 
                "hidden": false, 
                "id": 9262, 
                "name": "Suport General - Decidim Barcelona", 
                "official": false, 
                "official_level": 0, 
                "role": null, 
                "verified_organization": null
            }, 
            "body": "<p><a href=\"https://decidim.barcelona/proposals/inspeccions-serveis-turistics\">https://decidim.barcelona/proposals/inspeccions-serveis-turistics</a></p>", 
            "commentable_id": 2937, 
            "commentable_type": "Proposal", 
            "created_at": "09/04/2016 14:26:29", 
            "flagged": false, 
            "hidden": false, 
            "id": 12267, 
            "moderator_id": null, 
            "permissions": {
                "hide": false, 
                "hide_author": false, 
                "vote": false
            }, 
            "total_dislikes": 0, 
            "total_likes": 0, 
            "total_votes": 0
        }, 
        {
            "administrator_id": null, 
            "alignment": 0, 
            "ancestry": null, 
            "as": null, 
            "author": {
                "avatar_image": "https://decidim.barcelona/assets/avatar-866795c99abc33a3160d1f3fa93ada46eb75e54134e777666b9ed16215b26534.png", 
                "erased": false, 
                "hidden": false, 
                "id": 9262, 
                "name": "Suport General - Decidim Barcelona", 
                "official": false, 
                "official_level": 0, 
                "role": null, 
                "verified_organization": null
            }, 
            "body": "<p><a href=\"https://decidim.barcelona/proposals/impulsar-un-pacte-per-a-l-ocupacio-en-el-sector-turistic\">https://decidim.barcelona/proposals/impulsar-un-pacte-per-a-l-ocupacio-en-el-sector-turistic</a></p>", 
            "commentable_id": 2937, 
            "commentable_type": "Proposal", 
            "created_at": "09/04/2016 14:26:38", 
            "flagged": false, 
            "hidden": false, 
            "id": 12268, 
            "moderator_id": null, 
            "permissions": {
                "hide": false, 
                "hide_author": false, 
                "vote": false
            }, 
            "total_dislikes": 0, 
            "total_likes": 0, 
            "total_votes": 0
        }, 
        {
            "administrator_id": null, 
            "alignment": 0, 
            "ancestry": null, 
            "as": null, 
            "author": {
                "avatar_image": "https://decidim.barcelona/assets/avatar-866795c99abc33a3160d1f3fa93ada46eb75e54134e777666b9ed16215b26534.png", 
                "erased": false, 
                "hidden": false, 
                "id": 9262, 
                "name": "Suport General - Decidim Barcelona", 
                "official": false, 
                "official_level": 0, 
                "role": null, 
                "verified_organization": null
            }, 
            "body": "<p><a href=\"https://decidim.barcelona/proposals/prohibicio-de-l-us-de-global-blue-a-bcn-network-per-a-l-evasio-d-impostos\">https://decidim.barcelona/proposals/prohibicio-de-l-us-de-global-blue-a-bcn-network-per-a-l-evasio-d-impostos</a></p>", 
            "commentable_id": 2937, 
            "commentable_type": "Proposal", 
            "created_at": "09/04/2016 14:27:01", 
            "flagged": false, 
            "hidden": false, 
            "id": 12270, 
            "moderator_id": null, 
            "permissions": {
                "hide": false, 
                "hide_author": false, 
                "vote": false
            }, 
            "total_dislikes": 0, 
            "total_likes": 0, 
            "total_votes": 0
        }, 
        {
            "administrator_id": null, 
            "alignment": 0, 
            "ancestry": null, 
            "as": null, 
            "author": {
                "avatar_image": "https://decidim.barcelona/assets/avatar-866795c99abc33a3160d1f3fa93ada46eb75e54134e777666b9ed16215b26534.png", 
                "erased": false, 
                "hidden": false, 
                "id": 9262, 
                "name": "Suport General - Decidim Barcelona", 
                "official": false, 
                "official_level": 0, 
                "role": null, 
                "verified_organization": null
            }, 
            "body": "<p><a href=\"https://decidim.barcelona/proposals/promocio-turisme-de-compres\">https://decidim.barcelona/proposals/promocio-turisme-de-compres</a></p>", 
            "commentable_id": 2937, 
            "commentable_type": "Proposal", 
            "created_at": "09/04/2016 14:27:48", 
            "flagged": false, 
            "hidden": false, 
            "id": 12275, 
            "moderator_id": null, 
            "permissions": {
                "hide": false, 
                "hide_author": false, 
                "vote": false
            }, 
            "total_dislikes": 0, 
            "total_likes": 0, 
            "total_votes": 0
        }, 
        {
            "administrator_id": null, 
            "alignment": 0, 
            "ancestry": null, 
            "as": null, 
            "author": {
                "avatar_image": "https://decidim.barcelona/assets/avatar-866795c99abc33a3160d1f3fa93ada46eb75e54134e777666b9ed16215b26534.png", 
                "erased": false, 
                "hidden": false, 
                "id": 9262, 
                "name": "Suport General - Decidim Barcelona", 
                "official": false, 
                "official_level": 0, 
                "role": null, 
                "verified_organization": null
            }, 
            "body": "<p><a href=\"https://decidim.barcelona/proposals/reforcar-la-inspeccio-de-l-oferta-turistica-il-legal\">https://decidim.barcelona/proposals/reforcar-la-inspeccio-de-l-oferta-turistica-il-legal</a></p>", 
            "commentable_id": 2937, 
            "commentable_type": "Proposal", 
            "created_at": "09/04/2016 14:28:21", 
            "flagged": false, 
            "hidden": false, 
            "id": 12277, 
            "moderator_id": null, 
            "permissions": {
                "hide": false, 
                "hide_author": false, 
                "vote": false
            }, 
            "total_dislikes": 0, 
            "total_likes": 0, 
            "total_votes": 0
        }, 
        {
            "administrator_id": null, 
            "alignment": 0, 
            "ancestry": null, 
            "as": null, 
            "author": {
                "avatar_image": "https://decidim.barcelona/assets/avatar-866795c99abc33a3160d1f3fa93ada46eb75e54134e777666b9ed16215b26534.png", 
                "erased": false, 
                "hidden": false, 
                "id": 9262, 
                "name": "Suport General - Decidim Barcelona", 
                "official": false, 
                "official_level": 0, 
                "role": null, 
                "verified_organization": null
            }, 
            "body": "<p><a href=\"https://decidim.barcelona/proposals/turisme-per-a-barcelonins\">https://decidim.barcelona/proposals/turisme-per-a-barcelonins</a></p>", 
            "commentable_id": 2937, 
            "commentable_type": "Proposal", 
            "created_at": "09/04/2016 14:28:32", 
            "flagged": false, 
            "hidden": false, 
            "id": 12279, 
            "moderator_id": null, 
            "permissions": {
                "hide": false, 
                "hide_author": false, 
                "vote": false
            }, 
            "total_dislikes": 0, 
            "total_likes": 0, 
            "total_votes": 0
        }, 
        {
            "administrator_id": null, 
            "alignment": 0, 
            "ancestry": null, 
            "as": null, 
            "author": {
                "avatar_image": "https://decidim.barcelona/assets/avatar-866795c99abc33a3160d1f3fa93ada46eb75e54134e777666b9ed16215b26534.png", 
                "erased": false, 
                "hidden": false, 
                "id": 9262, 
                "name": "Suport General - Decidim Barcelona", 
                "official": false, 
                "official_level": 0, 
                "role": null, 
                "verified_organization": null
            }, 
            "body": "<p><a href=\"https://decidim.barcelona/proposals/dissenyar-el-souvenir-oficial-de-la-ciutat\">https://decidim.barcelona/proposals/dissenyar-el-souvenir-oficial-de-la-ciutat</a></p>", 
            "commentable_id": 2937, 
            "commentable_type": "Proposal", 
            "created_at": "09/04/2016 14:29:50", 
            "flagged": false, 
            "hidden": false, 
            "id": 12282, 
            "moderator_id": null, 
            "permissions": {
                "hide": false, 
                "hide_author": false, 
                "vote": false
            }, 
            "total_dislikes": 0, 
            "total_likes": 0, 
            "total_votes": 0
        }, 
        {
            "administrator_id": null, 
            "alignment": 0, 
            "ancestry": null, 
            "as": null, 
            "author": {
                "avatar_image": "https://decidim.barcelona/assets/avatar-866795c99abc33a3160d1f3fa93ada46eb75e54134e777666b9ed16215b26534.png", 
                "erased": false, 
                "hidden": false, 
                "id": 9262, 
                "name": "Suport General - Decidim Barcelona", 
                "official": false, 
                "official_level": 0, 
                "role": null, 
                "verified_organization": null
            }, 
            "body": "<p><a href=\"https://decidim.barcelona/proposals/implicar-al-sector-hoteler-amb-l-entorn-propi\">https://decidim.barcelona/proposals/implicar-al-sector-hoteler-amb-l-entorn-propi</a></p>", 
            "commentable_id": 2937, 
            "commentable_type": "Proposal", 
            "created_at": "09/04/2016 14:30:00", 
            "flagged": false, 
            "hidden": false, 
            "id": 12284, 
            "moderator_id": null, 
            "permissions": {
                "hide": false, 
                "hide_author": false, 
                "vote": false
            }, 
            "total_dislikes": 0, 
            "total_likes": 0, 
            "total_votes": 0
        }, 
        {
            "administrator_id": null, 
            "alignment": 0, 
            "ancestry": null, 
            "as": null, 
            "author": {
                "avatar_image": "https://decidim.barcelona/assets/avatar-866795c99abc33a3160d1f3fa93ada46eb75e54134e777666b9ed16215b26534.png", 
                "erased": false, 
                "hidden": false, 
                "id": 9262, 
                "name": "Suport General - Decidim Barcelona", 
                "official": false, 
                "official_level": 0, 
                "role": null, 
                "verified_organization": null
            }, 
            "body": "<p><a href=\"https://decidim.barcelona/proposals/rutes-turistiques\">https://decidim.barcelona/proposals/rutes-turistiques</a></p>", 
            "commentable_id": 2937, 
            "commentable_type": "Proposal", 
            "created_at": "09/04/2016 14:30:59", 
            "flagged": false, 
            "hidden": false, 
            "id": 12286, 
            "moderator_id": null, 
            "permissions": {
                "hide": false, 
                "hide_author": false, 
                "vote": false
            }, 
            "total_dislikes": 0, 
            "total_likes": 0, 
            "total_votes": 0
        }, 
        {
            "administrator_id": null, 
            "alignment": 0, 
            "ancestry": null, 
            "as": null, 
            "author": {
                "avatar_image": "https://decidim.barcelona/assets/avatar-866795c99abc33a3160d1f3fa93ada46eb75e54134e777666b9ed16215b26534.png", 
                "erased": false, 
                "hidden": false, 
                "id": 9262, 
                "name": "Suport General - Decidim Barcelona", 
                "official": false, 
                "official_level": 0, 
                "role": null, 
                "verified_organization": null
            }, 
            "body": "<p><a href=\"https://decidim.barcelona/proposals/dissenyar-accions-de-sensibilitzacio-dirigides-als-turistes\">https://decidim.barcelona/proposals/dissenyar-accions-de-sensibilitzacio-dirigides-als-turistes</a></p>", 
            "commentable_id": 2937, 
            "commentable_type": "Proposal", 
            "created_at": "09/04/2016 14:31:25", 
            "flagged": false, 
            "hidden": false, 
            "id": 12288, 
            "moderator_id": null, 
            "permissions": {
                "hide": false, 
                "hide_author": false, 
                "vote": false
            }, 
            "total_dislikes": 0, 
            "total_likes": 0, 
            "total_votes": 0
        }, 
        {
            "administrator_id": null, 
            "alignment": 0, 
            "ancestry": null, 
            "as": null, 
            "author": {
                "avatar_image": "https://decidim.barcelona/assets/avatar-866795c99abc33a3160d1f3fa93ada46eb75e54134e777666b9ed16215b26534.png", 
                "erased": false, 
                "hidden": false, 
                "id": 9262, 
                "name": "Suport General - Decidim Barcelona", 
                "official": false, 
                "official_level": 0, 
                "role": null, 
                "verified_organization": null
            }, 
            "body": "<p><a href=\"https://decidim.barcelona/proposals/fomentar-la-innovacio-i-l-emprenedoria-en-el-sector-turistic\">https://decidim.barcelona/proposals/fomentar-la-innovacio-i-l-emprenedoria-en-el-sector-turistic</a></p>", 
            "commentable_id": 2937, 
            "commentable_type": "Proposal", 
            "created_at": "09/04/2016 14:33:31", 
            "flagged": false, 
            "hidden": false, 
            "id": 12295, 
            "moderator_id": null, 
            "permissions": {
                "hide": false, 
                "hide_author": false, 
                "vote": false
            }, 
            "total_dislikes": 0, 
            "total_likes": 0, 
            "total_votes": 0
        }, 
        {
            "administrator_id": null, 
            "alignment": 0, 
            "ancestry": null, 
            "as": null, 
            "author": {
                "avatar_image": "https://decidim.barcelona/assets/avatar-866795c99abc33a3160d1f3fa93ada46eb75e54134e777666b9ed16215b26534.png", 
                "erased": false, 
                "hidden": false, 
                "id": 9262, 
                "name": "Suport General - Decidim Barcelona", 
                "official": false, 
                "official_level": 0, 
                "role": null, 
                "verified_organization": null
            }, 
            "body": "<p><a href=\"https://decidim.barcelona/proposals/promoure-i-regular-el-turisme-col-laboratiu-59ec911e-ef9e-494a-b7d3-cdc2cd746a9d\">https://decidim.barcelona/proposals/promoure-i-regular-el-turisme-col-laboratiu-59ec911e-ef9e-494a-b7d3-cdc2cd746a9d</a></p>", 
            "commentable_id": 2937, 
            "commentable_type": "Proposal", 
            "created_at": "09/04/2016 14:35:02", 
            "flagged": false, 
            "hidden": false, 
            "id": 12304, 
            "moderator_id": null, 
            "permissions": {
                "hide": false, 
                "hide_author": false, 
                "vote": false
            }, 
            "total_dislikes": 0, 
            "total_likes": 0, 
            "total_votes": 0
        }, 
        {
            "administrator_id": null, 
            "alignment": 0, 
            "ancestry": null, 
            "as": null, 
            "author": {
                "avatar_image": "https://decidim.barcelona/assets/avatar-866795c99abc33a3160d1f3fa93ada46eb75e54134e777666b9ed16215b26534.png", 
                "erased": false, 
                "hidden": false, 
                "id": 9262, 
                "name": "Suport General - Decidim Barcelona", 
                "official": false, 
                "official_level": 0, 
                "role": null, 
                "verified_organization": null
            }, 
            "body": "<p><a href=\"https://decidim.barcelona/proposals/promoure-i-regular-el-turisme-col-laboratiu-cb16c3fa-2ea5-48af-bdd6-f0a25bf90c70\">https://decidim.barcelona/proposals/promoure-i-regular-el-turisme-col-laboratiu-cb16c3fa-2ea5-48af-bdd6-f0a25bf90c70</a></p>", 
            "commentable_id": 2937, 
            "commentable_type": "Proposal", 
            "created_at": "09/04/2016 14:36:06", 
            "flagged": false, 
            "hidden": false, 
            "id": 12306, 
            "moderator_id": null, 
            "permissions": {
                "hide": false, 
                "hide_author": false, 
                "vote": false
            }, 
            "total_dislikes": 0, 
            "total_likes": 0, 
            "total_votes": 0
        }, 
        {
            "administrator_id": null, 
            "alignment": 0, 
            "ancestry": null, 
            "as": null, 
            "author": {
                "avatar_image": "https://decidim.barcelona/assets/avatar-866795c99abc33a3160d1f3fa93ada46eb75e54134e777666b9ed16215b26534.png", 
                "erased": false, 
                "hidden": false, 
                "id": 9262, 
                "name": "Suport General - Decidim Barcelona", 
                "official": false, 
                "official_level": 0, 
                "role": null, 
                "verified_organization": null
            }, 
            "body": "<p><a href=\"https://decidim.barcelona/proposals/responsabilitzar-al-ciutada-en-la-politica-turistica\">https://decidim.barcelona/proposals/responsabilitzar-al-ciutada-en-la-politica-turistica</a></p>", 
            "commentable_id": 2937, 
            "commentable_type": "Proposal", 
            "created_at": "09/04/2016 14:37:33", 
            "flagged": false, 
            "hidden": false, 
            "id": 12311, 
            "moderator_id": null, 
            "permissions": {
                "hide": false, 
                "hide_author": false, 
                "vote": false
            }, 
            "total_dislikes": 0, 
            "total_likes": 0, 
            "total_votes": 0
        }, 
        {
            "administrator_id": null, 
            "alignment": 0, 
            "ancestry": null, 
            "as": null, 
            "author": {
                "avatar_image": "https://decidim.barcelona/assets/avatar-866795c99abc33a3160d1f3fa93ada46eb75e54134e777666b9ed16215b26534.png", 
                "erased": false, 
                "hidden": false, 
                "id": 9262, 
                "name": "Suport General - Decidim Barcelona", 
                "official": false, 
                "official_level": 0, 
                "role": null, 
                "verified_organization": null
            }, 
            "body": "<p><a href=\"https://decidim.barcelona/proposals/implicar-els-operadors-privats-en-la-desconcentracio-del-turisme\">https://decidim.barcelona/proposals/implicar-els-operadors-privats-en-la-desconcentracio-del-turisme</a></p>", 
            "commentable_id": 2937, 
            "commentable_type": "Proposal", 
            "created_at": "09/04/2016 14:37:43", 
            "flagged": false, 
            "hidden": false, 
            "id": 12312, 
            "moderator_id": null, 
            "permissions": {
                "hide": false, 
                "hide_author": false, 
                "vote": false
            }, 
            "total_dislikes": 0, 
            "total_likes": 0, 
            "total_votes": 0
        }, 
        {
            "administrator_id": null, 
            "alignment": 0, 
            "ancestry": null, 
            "as": null, 
            "author": {
                "avatar_image": "https://decidim.barcelona/assets/avatar-866795c99abc33a3160d1f3fa93ada46eb75e54134e777666b9ed16215b26534.png", 
                "erased": false, 
                "hidden": false, 
                "id": 9262, 
                "name": "Suport General - Decidim Barcelona", 
                "official": false, 
                "official_level": 0, 
                "role": null, 
                "verified_organization": null
            }, 
            "body": "<p><a href=\"https://decidim.barcelona/proposals/plataformes-de-turisme-col-laboratiu-sense-contraprestacio-economica\">https://decidim.barcelona/proposals/plataformes-de-turisme-col-laboratiu-sense-contraprestacio-economica</a></p>", 
            "commentable_id": 2937, 
            "commentable_type": "Proposal", 
            "created_at": "09/04/2016 14:38:14", 
            "flagged": false, 
            "hidden": false, 
            "id": 12314, 
            "moderator_id": null, 
            "permissions": {
                "hide": false, 
                "hide_author": false, 
                "vote": false
            }, 
            "total_dislikes": 0, 
            "total_likes": 0, 
            "total_votes": 0
        }
    ], 
    "meta": {
        "current_page": 2, 
        "next_page": 3, 
        "prev_page": 1, 
        "total_count": 65, 
        "total_pages": 4
    }
}