{
    "comments": [
        {
            "administrator_id": null, 
            "alignment": 0, 
            "ancestry": null, 
            "as": null, 
            "author": {
                "avatar_image": "https://decidim.barcelona/assets/avatar-866795c99abc33a3160d1f3fa93ada46eb75e54134e777666b9ed16215b26534.png", 
                "erased": false, 
                "hidden": false, 
                "id": 9262, 
                "name": "Suport General - Decidim Barcelona", 
                "official": false, 
                "official_level": 0, 
                "role": null, 
                "verified_organization": null
            }, 
            "body": "<p><a href=\"https://decidim.barcelona/proposals/impulsar-un-bon-desplegament-de-la-garantia-juvenil\">https://decidim.barcelona/proposals/impulsar-un-bon-desplegament-de-la-garantia-juvenil</a></p>", 
            "commentable_id": 2934, 
            "commentable_type": "Proposal", 
            "created_at": "09/04/2016 13:17:28", 
            "flagged": false, 
            "hidden": false, 
            "id": 12068, 
            "moderator_id": null, 
            "permissions": {
                "hide": false, 
                "hide_author": false, 
                "vote": false
            }, 
            "total_dislikes": 0, 
            "total_likes": 0, 
            "total_votes": 0
        }, 
        {
            "administrator_id": null, 
            "alignment": 0, 
            "ancestry": null, 
            "as": null, 
            "author": {
                "avatar_image": "https://decidim.barcelona/assets/avatar-866795c99abc33a3160d1f3fa93ada46eb75e54134e777666b9ed16215b26534.png", 
                "erased": false, 
                "hidden": false, 
                "id": 9262, 
                "name": "Suport General - Decidim Barcelona", 
                "official": false, 
                "official_level": 0, 
                "role": null, 
                "verified_organization": null
            }, 
            "body": "<p><a href=\"https://decidim.barcelona/proposals/acreditar-competencies-a-traves-accio-voluntaria\">https://decidim.barcelona/proposals/acreditar-competencies-a-traves-accio-voluntaria</a></p>", 
            "commentable_id": 2934, 
            "commentable_type": "Proposal", 
            "created_at": "09/04/2016 13:18:58", 
            "flagged": false, 
            "hidden": false, 
            "id": 12072, 
            "moderator_id": null, 
            "permissions": {
                "hide": false, 
                "hide_author": false, 
                "vote": false
            }, 
            "total_dislikes": 0, 
            "total_likes": 0, 
            "total_votes": 0
        }, 
        {
            "administrator_id": null, 
            "alignment": 0, 
            "ancestry": null, 
            "as": null, 
            "author": {
                "avatar_image": "https://decidim.barcelona/assets/avatar-866795c99abc33a3160d1f3fa93ada46eb75e54134e777666b9ed16215b26534.png", 
                "erased": false, 
                "hidden": false, 
                "id": 9262, 
                "name": "Suport General - Decidim Barcelona", 
                "official": false, 
                "official_level": 0, 
                "role": null, 
                "verified_organization": null
            }, 
            "body": "<p><a href=\"https://decidim.barcelona/proposals/participacio-clusters-en-foment-ocupacio-qualitat-i-disseny-politiques\">https://decidim.barcelona/proposals/participacio-clusters-en-foment-ocupacio-qualitat-i-disseny-politiques</a></p>", 
            "commentable_id": 2934, 
            "commentable_type": "Proposal", 
            "created_at": "09/04/2016 13:36:48", 
            "flagged": false, 
            "hidden": false, 
            "id": 12112, 
            "moderator_id": null, 
            "permissions": {
                "hide": false, 
                "hide_author": false, 
                "vote": false
            }, 
            "total_dislikes": 0, 
            "total_likes": 0, 
            "total_votes": 0
        }, 
        {
            "administrator_id": null, 
            "alignment": 0, 
            "ancestry": null, 
            "as": null, 
            "author": {
                "avatar_image": "https://decidim.barcelona/assets/avatar-866795c99abc33a3160d1f3fa93ada46eb75e54134e777666b9ed16215b26534.png", 
                "erased": false, 
                "hidden": false, 
                "id": 9262, 
                "name": "Suport General - Decidim Barcelona", 
                "official": false, 
                "official_level": 0, 
                "role": null, 
                "verified_organization": null
            }, 
            "body": "<p><a href=\"https://decidim.barcelona/proposals/fomentar-l-auto-ocupacio-i-el-coworking\">https://decidim.barcelona/proposals/fomentar-l-auto-ocupacio-i-el-coworking</a></p>", 
            "commentable_id": 2934, 
            "commentable_type": "Proposal", 
            "created_at": "09/04/2016 13:39:09", 
            "flagged": false, 
            "hidden": false, 
            "id": 12118, 
            "moderator_id": null, 
            "permissions": {
                "hide": false, 
                "hide_author": false, 
                "vote": false
            }, 
            "total_dislikes": 0, 
            "total_likes": 0, 
            "total_votes": 0
        }, 
        {
            "administrator_id": null, 
            "alignment": 0, 
            "ancestry": null, 
            "as": null, 
            "author": {
                "avatar_image": "https://decidim.barcelona/assets/avatar-866795c99abc33a3160d1f3fa93ada46eb75e54134e777666b9ed16215b26534.png", 
                "erased": false, 
                "hidden": false, 
                "id": 9262, 
                "name": "Suport General - Decidim Barcelona", 
                "official": false, 
                "official_level": 0, 
                "role": null, 
                "verified_organization": null
            }, 
            "body": "<p><a href=\"https://decidim.barcelona/proposals/generar-acords-associacions-grans-empreses-per-d-ocupacio-de-qualitat\">https://decidim.barcelona/proposals/generar-acords-associacions-grans-empreses-per-d-ocupacio-de-qualitat</a></p>", 
            "commentable_id": 2934, 
            "commentable_type": "Proposal", 
            "created_at": "09/04/2016 13:42:29", 
            "flagged": false, 
            "hidden": false, 
            "id": 12123, 
            "moderator_id": null, 
            "permissions": {
                "hide": false, 
                "hide_author": false, 
                "vote": false
            }, 
            "total_dislikes": 0, 
            "total_likes": 0, 
            "total_votes": 0
        }, 
        {
            "administrator_id": null, 
            "alignment": 0, 
            "ancestry": null, 
            "as": null, 
            "author": {
                "avatar_image": "https://decidim.barcelona/assets/avatar-866795c99abc33a3160d1f3fa93ada46eb75e54134e777666b9ed16215b26534.png", 
                "erased": false, 
                "hidden": false, 
                "id": 9262, 
                "name": "Suport General - Decidim Barcelona", 
                "official": false, 
                "official_level": 0, 
                "role": null, 
                "verified_organization": null
            }, 
            "body": "<p><a href=\"https://decidim.barcelona/proposals/treball-coordinat-amb-el-mercat-laboral-per-garantir-l-acces-a-una-feina-digne\">https://decidim.barcelona/proposals/treball-coordinat-amb-el-mercat-laboral-per-garantir-l-acces-a-una-feina-digne</a></p>", 
            "commentable_id": 2934, 
            "commentable_type": "Proposal", 
            "created_at": "11/04/2016 16:46:20", 
            "flagged": false, 
            "hidden": false, 
            "id": 13012, 
            "moderator_id": null, 
            "permissions": {
                "hide": false, 
                "hide_author": false, 
                "vote": false
            }, 
            "total_dislikes": 0, 
            "total_likes": 0, 
            "total_votes": 0
        }, 
        {
            "administrator_id": null, 
            "alignment": 0, 
            "ancestry": null, 
            "as": null, 
            "author": {
                "avatar_image": "https://decidim.barcelona/assets/avatar-866795c99abc33a3160d1f3fa93ada46eb75e54134e777666b9ed16215b26534.png", 
                "erased": false, 
                "hidden": false, 
                "id": 9262, 
                "name": "Suport General - Decidim Barcelona", 
                "official": false, 
                "official_level": 0, 
                "role": null, 
                "verified_organization": null
            }, 
            "body": "<p><a href=\"https://decidim.barcelona/proposals/incloure-eines-d-avaluacio-de-les-politiques-actives-de-promocio-d-ocupacio-i-veure-quin-impacte-tenen-en-la-salut\">https://decidim.barcelona/proposals/incloure-eines-d-avaluacio-de-les-politiques-actives-de-promocio-d-ocupacio-i-veure-quin-impacte-tenen-en-la-salut</a></p>", 
            "commentable_id": 2934, 
            "commentable_type": "Proposal", 
            "created_at": "11/04/2016 16:55:38", 
            "flagged": false, 
            "hidden": false, 
            "id": 13029, 
            "moderator_id": null, 
            "permissions": {
                "hide": false, 
                "hide_author": false, 
                "vote": false
            }, 
            "total_dislikes": 0, 
            "total_likes": 0, 
            "total_votes": 0
        }, 
        {
            "administrator_id": null, 
            "alignment": 0, 
            "ancestry": null, 
            "as": null, 
            "author": {
                "avatar_image": "https://decidim.barcelona/assets/avatar-866795c99abc33a3160d1f3fa93ada46eb75e54134e777666b9ed16215b26534.png", 
                "erased": false, 
                "hidden": false, 
                "id": 9262, 
                "name": "Suport General - Decidim Barcelona", 
                "official": false, 
                "official_level": 0, 
                "role": null, 
                "verified_organization": null
            }, 
            "body": "<p><a href=\"https://decidim.barcelona/proposals/contractacio-jove\">https://decidim.barcelona/proposals/contractacio-jove</a></p>", 
            "commentable_id": 2934, 
            "commentable_type": "Proposal", 
            "created_at": "12/04/2016 18:10:51", 
            "flagged": false, 
            "hidden": false, 
            "id": 14098, 
            "moderator_id": null, 
            "permissions": {
                "hide": false, 
                "hide_author": false, 
                "vote": false
            }, 
            "total_dislikes": 0, 
            "total_likes": 0, 
            "total_votes": 0
        }, 
        {
            "administrator_id": null, 
            "alignment": 0, 
            "ancestry": null, 
            "as": null, 
            "author": {
                "avatar_image": "https://decidim.barcelona/assets/avatar-866795c99abc33a3160d1f3fa93ada46eb75e54134e777666b9ed16215b26534.png", 
                "erased": false, 
                "hidden": false, 
                "id": 9262, 
                "name": "Suport General - Decidim Barcelona", 
                "official": false, 
                "official_level": 0, 
                "role": null, 
                "verified_organization": null
            }, 
            "body": "<p><a href=\"https://decidim.barcelona/proposals/suport-amb-recursos-al-treball-en-xarxes-xarxa-d-orientacio-laboral\">https://decidim.barcelona/proposals/suport-amb-recursos-al-treball-en-xarxes-xarxa-d-orientacio-laboral</a></p>", 
            "commentable_id": 2934, 
            "commentable_type": "Proposal", 
            "created_at": "13/04/2016 10:08:21", 
            "flagged": false, 
            "hidden": false, 
            "id": 14240, 
            "moderator_id": null, 
            "permissions": {
                "hide": false, 
                "hide_author": false, 
                "vote": false
            }, 
            "total_dislikes": 0, 
            "total_likes": 0, 
            "total_votes": 0
        }, 
        {
            "administrator_id": null, 
            "alignment": 0, 
            "ancestry": null, 
            "as": null, 
            "author": {
                "avatar_image": "https://decidim.barcelona/assets/avatar-866795c99abc33a3160d1f3fa93ada46eb75e54134e777666b9ed16215b26534.png", 
                "erased": false, 
                "hidden": false, 
                "id": 9262, 
                "name": "Suport General - Decidim Barcelona", 
                "official": false, 
                "official_level": 0, 
                "role": null, 
                "verified_organization": null
            }, 
            "body": "<p><a href=\"https://decidim.barcelona/proposals/pla-de-xoc-d-ocupacio-per-a-joves-i-aturats-des-de-llarga-durada\">https://decidim.barcelona/proposals/pla-de-xoc-d-ocupacio-per-a-joves-i-aturats-des-de-llarga-durada</a></p>", 
            "commentable_id": 2934, 
            "commentable_type": "Proposal", 
            "created_at": "13/04/2016 10:13:47", 
            "flagged": false, 
            "hidden": false, 
            "id": 14245, 
            "moderator_id": null, 
            "permissions": {
                "hide": false, 
                "hide_author": false, 
                "vote": false
            }, 
            "total_dislikes": 0, 
            "total_likes": 0, 
            "total_votes": 0
        }, 
        {
            "administrator_id": null, 
            "alignment": 0, 
            "ancestry": null, 
            "as": null, 
            "author": {
                "avatar_image": "https://decidim.barcelona/assets/avatar-866795c99abc33a3160d1f3fa93ada46eb75e54134e777666b9ed16215b26534.png", 
                "erased": false, 
                "hidden": false, 
                "id": 9262, 
                "name": "Suport General - Decidim Barcelona", 
                "official": false, 
                "official_level": 0, 
                "role": null, 
                "verified_organization": null
            }, 
            "body": "<p><a href=\"https://decidim.barcelona/proposals/crear-una-borsa-de-treball-per-als-eixos-comercials\">https://decidim.barcelona/proposals/crear-una-borsa-de-treball-per-als-eixos-comercials</a></p>", 
            "commentable_id": 2934, 
            "commentable_type": "Proposal", 
            "created_at": "13/04/2016 10:19:45", 
            "flagged": false, 
            "hidden": false, 
            "id": 14252, 
            "moderator_id": null, 
            "permissions": {
                "hide": false, 
                "hide_author": false, 
                "vote": false
            }, 
            "total_dislikes": 0, 
            "total_likes": 0, 
            "total_votes": 0
        }
    ], 
    "meta": {
        "current_page": 2, 
        "next_page": null, 
        "prev_page": 1, 
        "total_count": 31, 
        "total_pages": 2
    }
}