{
    "comments": [
        {
            "administrator_id": null, 
            "alignment": 0, 
            "ancestry": null, 
            "as": null, 
            "author": {
                "avatar_image": "https://decidim.barcelona/assets/avatar-866795c99abc33a3160d1f3fa93ada46eb75e54134e777666b9ed16215b26534.png", 
                "erased": false, 
                "hidden": false, 
                "id": 4744, 
                "name": "Francesca Blanch", 
                "official": false, 
                "official_level": 0, 
                "role": null, 
                "verified_organization": null
            }, 
            "body": "<p><a href=\"https://decidim.barcelona/proposals/baixar-impostos-dels-hotels-per-a-reduir-la-diferencia-amb-els-pisos-turistics\">https://decidim.barcelona/proposals/baixar-impostos-dels-hotels-per-a-reduir-la-diferencia-amb-els-pisos-turistics</a></p>", 
            "commentable_id": 2937, 
            "commentable_type": "Proposal", 
            "created_at": "12/04/2016 21:12:42", 
            "flagged": false, 
            "hidden": false, 
            "id": 14182, 
            "moderator_id": null, 
            "permissions": {
                "hide": false, 
                "hide_author": false, 
                "vote": false
            }, 
            "total_dislikes": 0, 
            "total_likes": 0, 
            "total_votes": 0
        }, 
        {
            "administrator_id": null, 
            "alignment": 0, 
            "ancestry": null, 
            "as": null, 
            "author": {
                "avatar_image": "https://decidim.barcelona/assets/avatar-866795c99abc33a3160d1f3fa93ada46eb75e54134e777666b9ed16215b26534.png", 
                "erased": false, 
                "hidden": false, 
                "id": 9262, 
                "name": "Suport General - Decidim Barcelona", 
                "official": false, 
                "official_level": 0, 
                "role": null, 
                "verified_organization": null
            }, 
            "body": "<p><a href=\"https://decidim.barcelona/proposals/desconcentrar-activitat-cultural-i-comercial-per-distribuir-turisme\">https://decidim.barcelona/proposals/desconcentrar-activitat-cultural-i-comercial-per-distribuir-turisme</a></p>", 
            "commentable_id": 2937, 
            "commentable_type": "Proposal", 
            "created_at": "15/04/2016 10:48:47", 
            "flagged": false, 
            "hidden": false, 
            "id": 16556, 
            "moderator_id": null, 
            "permissions": {
                "hide": false, 
                "hide_author": false, 
                "vote": false
            }, 
            "total_dislikes": 0, 
            "total_likes": 0, 
            "total_votes": 0
        }, 
        {
            "administrator_id": null, 
            "alignment": 0, 
            "ancestry": null, 
            "as": null, 
            "author": {
                "avatar_image": "https://decidim.barcelona/assets/avatar-866795c99abc33a3160d1f3fa93ada46eb75e54134e777666b9ed16215b26534.png", 
                "erased": false, 
                "hidden": false, 
                "id": 9262, 
                "name": "Suport General - Decidim Barcelona", 
                "official": false, 
                "official_level": 0, 
                "role": null, 
                "verified_organization": null
            }, 
            "body": "<p><a href=\"https://decidim.barcelona/proposals/turisme-sostenible-i-de-qualitat-al-poblesec\">https://decidim.barcelona/proposals/turisme-sostenible-i-de-qualitat-al-poblesec</a></p>", 
            "commentable_id": 2937, 
            "commentable_type": "Proposal", 
            "created_at": "15/04/2016 16:11:45", 
            "flagged": false, 
            "hidden": false, 
            "id": 17229, 
            "moderator_id": null, 
            "permissions": {
                "hide": false, 
                "hide_author": false, 
                "vote": false
            }, 
            "total_dislikes": 0, 
            "total_likes": 0, 
            "total_votes": 0
        }, 
        {
            "administrator_id": null, 
            "alignment": 0, 
            "ancestry": null, 
            "as": null, 
            "author": {
                "avatar_image": "https://decidim.barcelona/assets/avatar-866795c99abc33a3160d1f3fa93ada46eb75e54134e777666b9ed16215b26534.png", 
                "erased": false, 
                "hidden": false, 
                "id": 9262, 
                "name": "Suport General - Decidim Barcelona", 
                "official": false, 
                "official_level": 0, 
                "role": null, 
                "verified_organization": null
            }, 
            "body": "<p><a href=\"https://decidim.barcelona/proposals/crear-rutes-i-itineraris-alternatius-al-turisme-pels-barris\">https://decidim.barcelona/proposals/crear-rutes-i-itineraris-alternatius-al-turisme-pels-barris</a></p>", 
            "commentable_id": 2937, 
            "commentable_type": "Proposal", 
            "created_at": "15/04/2016 16:13:32", 
            "flagged": false, 
            "hidden": false, 
            "id": 17231, 
            "moderator_id": null, 
            "permissions": {
                "hide": false, 
                "hide_author": false, 
                "vote": false
            }, 
            "total_dislikes": 0, 
            "total_likes": 0, 
            "total_votes": 0
        }, 
        {
            "administrator_id": null, 
            "alignment": 0, 
            "ancestry": null, 
            "as": null, 
            "author": {
                "avatar_image": "https://decidim.barcelona/assets/avatar-866795c99abc33a3160d1f3fa93ada46eb75e54134e777666b9ed16215b26534.png", 
                "erased": false, 
                "hidden": false, 
                "id": 9262, 
                "name": "Suport General - Decidim Barcelona", 
                "official": false, 
                "official_level": 0, 
                "role": null, 
                "verified_organization": null
            }, 
            "body": "<p><a href=\"https://decidim.barcelona/proposals/regular-i-contorlar-el-turisme\">https://decidim.barcelona/proposals/regular-i-contorlar-el-turisme</a></p>", 
            "commentable_id": 2937, 
            "commentable_type": "Proposal", 
            "created_at": "15/04/2016 16:13:50", 
            "flagged": false, 
            "hidden": false, 
            "id": 17232, 
            "moderator_id": null, 
            "permissions": {
                "hide": false, 
                "hide_author": false, 
                "vote": false
            }, 
            "total_dislikes": 0, 
            "total_likes": 0, 
            "total_votes": 0
        }
    ], 
    "meta": {
        "current_page": 4, 
        "next_page": null, 
        "prev_page": 3, 
        "total_count": 65, 
        "total_pages": 4
    }
}