{
    "comments": [
        {
            "administrator_id": null, 
            "alignment": 0, 
            "ancestry": null, 
            "as": null, 
            "author": {
                "avatar_image": "https://decidim.barcelona/assets/avatar-866795c99abc33a3160d1f3fa93ada46eb75e54134e777666b9ed16215b26534.png", 
                "erased": false, 
                "hidden": false, 
                "id": 9262, 
                "name": "Suport General - Decidim Barcelona", 
                "official": false, 
                "official_level": 0, 
                "role": null, 
                "verified_organization": null
            }, 
            "body": "<p><a href=\"https://decidim.barcelona/proposals/impulsar-plataformes-territorials-que-generin-ocupacio\">https://decidim.barcelona/proposals/impulsar-plataformes-territorials-que-generin-ocupacio</a></p>", 
            "commentable_id": 2934, 
            "commentable_type": "Proposal", 
            "created_at": "06/04/2016 17:41:00", 
            "flagged": false, 
            "hidden": false, 
            "id": 8762, 
            "moderator_id": null, 
            "permissions": {
                "hide": false, 
                "hide_author": false, 
                "vote": false
            }, 
            "total_dislikes": 0, 
            "total_likes": 0, 
            "total_votes": 0
        }, 
        {
            "administrator_id": null, 
            "alignment": 0, 
            "ancestry": null, 
            "as": null, 
            "author": {
                "avatar_image": "https://decidim.barcelona/assets/avatar-866795c99abc33a3160d1f3fa93ada46eb75e54134e777666b9ed16215b26534.png", 
                "erased": false, 
                "hidden": false, 
                "id": 9262, 
                "name": "Suport General - Decidim Barcelona", 
                "official": false, 
                "official_level": 0, 
                "role": null, 
                "verified_organization": null
            }, 
            "body": "<p><a href=\"https://decidim.barcelona/proposals/fomentar-les-sortides-laborals-dels-joves\">https://decidim.barcelona/proposals/fomentar-les-sortides-laborals-dels-joves</a></p>", 
            "commentable_id": 2934, 
            "commentable_type": "Proposal", 
            "created_at": "06/04/2016 17:44:27", 
            "flagged": false, 
            "hidden": false, 
            "id": 8767, 
            "moderator_id": null, 
            "permissions": {
                "hide": false, 
                "hide_author": false, 
                "vote": false
            }, 
            "total_dislikes": 0, 
            "total_likes": 0, 
            "total_votes": 0
        }, 
        {
            "administrator_id": null, 
            "alignment": 0, 
            "ancestry": null, 
            "as": null, 
            "author": {
                "avatar_image": "https://decidim.barcelona/assets/avatar-866795c99abc33a3160d1f3fa93ada46eb75e54134e777666b9ed16215b26534.png", 
                "erased": false, 
                "hidden": false, 
                "id": 9262, 
                "name": "Suport General - Decidim Barcelona", 
                "official": false, 
                "official_level": 0, 
                "role": null, 
                "verified_organization": null
            }, 
            "body": "<p><a href=\"https://decidim.barcelona/proposals/garantir-la-vida-digna-de-les-persones\">https://decidim.barcelona/proposals/garantir-la-vida-digna-de-les-persones</a></p>", 
            "commentable_id": 2934, 
            "commentable_type": "Proposal", 
            "created_at": "07/04/2016 14:49:07", 
            "flagged": false, 
            "hidden": false, 
            "id": 9511, 
            "moderator_id": null, 
            "permissions": {
                "hide": false, 
                "hide_author": false, 
                "vote": false
            }, 
            "total_dislikes": 0, 
            "total_likes": 0, 
            "total_votes": 0
        }, 
        {
            "administrator_id": null, 
            "alignment": 0, 
            "ancestry": null, 
            "as": null, 
            "author": {
                "avatar_image": "https://decidim.barcelona/assets/avatar-866795c99abc33a3160d1f3fa93ada46eb75e54134e777666b9ed16215b26534.png", 
                "erased": false, 
                "hidden": false, 
                "id": 9262, 
                "name": "Suport General - Decidim Barcelona", 
                "official": false, 
                "official_level": 0, 
                "role": null, 
                "verified_organization": null
            }, 
            "body": "<p><a href=\"https://decidim.barcelona/proposals/ocupacio-de-qualitat-al-comerc-mitjancant-la-regulacio-d-horaris\">https://decidim.barcelona/proposals/ocupacio-de-qualitat-al-comerc-mitjancant-la-regulacio-d-horaris</a></p>", 
            "commentable_id": 2934, 
            "commentable_type": "Proposal", 
            "created_at": "07/04/2016 16:38:16", 
            "flagged": false, 
            "hidden": false, 
            "id": 9656, 
            "moderator_id": null, 
            "permissions": {
                "hide": false, 
                "hide_author": false, 
                "vote": false
            }, 
            "total_dislikes": 0, 
            "total_likes": 0, 
            "total_votes": 0
        }, 
        {
            "administrator_id": null, 
            "alignment": 0, 
            "ancestry": null, 
            "as": null, 
            "author": {
                "avatar_image": "https://decidim.barcelona/assets/avatar-866795c99abc33a3160d1f3fa93ada46eb75e54134e777666b9ed16215b26534.png", 
                "erased": false, 
                "hidden": false, 
                "id": 9262, 
                "name": "Suport General - Decidim Barcelona", 
                "official": false, 
                "official_level": 0, 
                "role": null, 
                "verified_organization": null
            }, 
            "body": "<p><a href=\"https://decidim.barcelona/proposals/practiques-d-empresa-remunerades-per-a-estudiants-universitaris-i-master\">https://decidim.barcelona/proposals/practiques-d-empresa-remunerades-per-a-estudiants-universitaris-i-master</a></p>", 
            "commentable_id": 2934, 
            "commentable_type": "Proposal", 
            "created_at": "07/04/2016 17:18:27", 
            "flagged": false, 
            "hidden": false, 
            "id": 9775, 
            "moderator_id": null, 
            "permissions": {
                "hide": false, 
                "hide_author": false, 
                "vote": false
            }, 
            "total_dislikes": 0, 
            "total_likes": 0, 
            "total_votes": 0
        }, 
        {
            "administrator_id": null, 
            "alignment": 0, 
            "ancestry": null, 
            "as": null, 
            "author": {
                "avatar_image": "https://decidim.barcelona/assets/avatar-866795c99abc33a3160d1f3fa93ada46eb75e54134e777666b9ed16215b26534.png", 
                "erased": false, 
                "hidden": false, 
                "id": 9262, 
                "name": "Suport General - Decidim Barcelona", 
                "official": false, 
                "official_level": 0, 
                "role": null, 
                "verified_organization": null
            }, 
            "body": "<p><a href=\"https://decidim.barcelona/proposals/promocio-de-l-ocupacio-entre-els-joves\">https://decidim.barcelona/proposals/promocio-de-l-ocupacio-entre-els-joves</a></p>", 
            "commentable_id": 2934, 
            "commentable_type": "Proposal", 
            "created_at": "07/04/2016 17:27:44", 
            "flagged": false, 
            "hidden": false, 
            "id": 9793, 
            "moderator_id": null, 
            "permissions": {
                "hide": false, 
                "hide_author": false, 
                "vote": false
            }, 
            "total_dislikes": 0, 
            "total_likes": 0, 
            "total_votes": 0
        }, 
        {
            "administrator_id": null, 
            "alignment": 0, 
            "ancestry": null, 
            "as": null, 
            "author": {
                "avatar_image": "https://decidim.barcelona/assets/avatar-866795c99abc33a3160d1f3fa93ada46eb75e54134e777666b9ed16215b26534.png", 
                "erased": false, 
                "hidden": false, 
                "id": 9262, 
                "name": "Suport General - Decidim Barcelona", 
                "official": false, 
                "official_level": 0, 
                "role": null, 
                "verified_organization": null
            }, 
            "body": "<p><a href=\"https://decidim.barcelona/proposals/ajudes-beques-i-subvencions-x-treballs-socials-o-que-beneficiin-a-la-comunitat\">https://decidim.barcelona/proposals/ajudes-beques-i-subvencions-x-treballs-socials-o-que-beneficiin-a-la-comunitat</a></p>", 
            "commentable_id": 2934, 
            "commentable_type": "Proposal", 
            "created_at": "07/04/2016 17:56:31", 
            "flagged": false, 
            "hidden": false, 
            "id": 9838, 
            "moderator_id": null, 
            "permissions": {
                "hide": false, 
                "hide_author": false, 
                "vote": false
            }, 
            "total_dislikes": 0, 
            "total_likes": 0, 
            "total_votes": 0
        }, 
        {
            "administrator_id": null, 
            "alignment": 0, 
            "ancestry": null, 
            "as": null, 
            "author": {
                "avatar_image": "https://decidim.barcelona/assets/avatar-866795c99abc33a3160d1f3fa93ada46eb75e54134e777666b9ed16215b26534.png", 
                "erased": false, 
                "hidden": false, 
                "id": 9262, 
                "name": "Suport General - Decidim Barcelona", 
                "official": false, 
                "official_level": 0, 
                "role": null, 
                "verified_organization": null
            }, 
            "body": "<p><a href=\"https://decidim.barcelona/proposals/xarxes-d-insercio-laboral\">https://decidim.barcelona/proposals/xarxes-d-insercio-laboral</a></p>", 
            "commentable_id": 2934, 
            "commentable_type": "Proposal", 
            "created_at": "08/04/2016 16:01:42", 
            "flagged": false, 
            "hidden": false, 
            "id": 11068, 
            "moderator_id": null, 
            "permissions": {
                "hide": false, 
                "hide_author": false, 
                "vote": false
            }, 
            "total_dislikes": 0, 
            "total_likes": 0, 
            "total_votes": 0
        }, 
        {
            "administrator_id": null, 
            "alignment": 0, 
            "ancestry": null, 
            "as": null, 
            "author": {
                "avatar_image": "https://decidim.barcelona/assets/avatar-866795c99abc33a3160d1f3fa93ada46eb75e54134e777666b9ed16215b26534.png", 
                "erased": false, 
                "hidden": false, 
                "id": 9262, 
                "name": "Suport General - Decidim Barcelona", 
                "official": false, 
                "official_level": 0, 
                "role": null, 
                "verified_organization": null
            }, 
            "body": "<p><a href=\"https://decidim.barcelona/proposals/flexibilitat-laboral-i-compliment-de-clausules-socials-de-contractacio\">https://decidim.barcelona/proposals/flexibilitat-laboral-i-compliment-de-clausules-socials-de-contractacio</a></p>", 
            "commentable_id": 2934, 
            "commentable_type": "Proposal", 
            "created_at": "08/04/2016 18:02:37", 
            "flagged": false, 
            "hidden": false, 
            "id": 11292, 
            "moderator_id": null, 
            "permissions": {
                "hide": false, 
                "hide_author": false, 
                "vote": false
            }, 
            "total_dislikes": 0, 
            "total_likes": 0, 
            "total_votes": 0
        }, 
        {
            "administrator_id": null, 
            "alignment": 0, 
            "ancestry": null, 
            "as": null, 
            "author": {
                "avatar_image": "https://decidim.barcelona/assets/avatar-866795c99abc33a3160d1f3fa93ada46eb75e54134e777666b9ed16215b26534.png", 
                "erased": false, 
                "hidden": false, 
                "id": 9262, 
                "name": "Suport General - Decidim Barcelona", 
                "official": false, 
                "official_level": 0, 
                "role": null, 
                "verified_organization": null
            }, 
            "body": "<p><a href=\"https://decidim.barcelona/proposals/accions-de-sensibilitzacio-a-les-empreses-per-fomentar-la-flexibilitzacio-horaria\">https://decidim.barcelona/proposals/accions-de-sensibilitzacio-a-les-empreses-per-fomentar-la-flexibilitzacio-horaria</a></p>", 
            "commentable_id": 2934, 
            "commentable_type": "Proposal", 
            "created_at": "08/04/2016 18:05:57", 
            "flagged": false, 
            "hidden": false, 
            "id": 11299, 
            "moderator_id": null, 
            "permissions": {
                "hide": false, 
                "hide_author": false, 
                "vote": false
            }, 
            "total_dislikes": 0, 
            "total_likes": 0, 
            "total_votes": 0
        }, 
        {
            "administrator_id": null, 
            "alignment": 0, 
            "ancestry": null, 
            "as": null, 
            "author": {
                "avatar_image": "https://decidim.barcelona/assets/avatar-866795c99abc33a3160d1f3fa93ada46eb75e54134e777666b9ed16215b26534.png", 
                "erased": false, 
                "hidden": false, 
                "id": 9262, 
                "name": "Suport General - Decidim Barcelona", 
                "official": false, 
                "official_level": 0, 
                "role": null, 
                "verified_organization": null
            }, 
            "body": "<p><a href=\"https://decidim.barcelona/proposals/difusio-local-per-apropar-l-economia-col-laborativa-procomu-a-altres-economies-afins-plans-d-ocupacio-juvenil-per-formar-ciutadans-en-tecnologies-lliures\">https://decidim.barcelona/proposals/difusio-local-per-apropar-l-economia-col-laborativa-procomu-a-altres-economies-afins-plans-d-ocupacio-juvenil-per-formar-ciutadans-en-tecnologies-lliures</a></p>", 
            "commentable_id": 2934, 
            "commentable_type": "Proposal", 
            "created_at": "09/04/2016 11:21:47", 
            "flagged": false, 
            "hidden": false, 
            "id": 11744, 
            "moderator_id": null, 
            "permissions": {
                "hide": false, 
                "hide_author": false, 
                "vote": false
            }, 
            "total_dislikes": 0, 
            "total_likes": 0, 
            "total_votes": 0
        }, 
        {
            "administrator_id": null, 
            "alignment": 0, 
            "ancestry": null, 
            "as": null, 
            "author": {
                "avatar_image": "https://decidim.barcelona/assets/avatar-866795c99abc33a3160d1f3fa93ada46eb75e54134e777666b9ed16215b26534.png", 
                "erased": false, 
                "hidden": false, 
                "id": 9262, 
                "name": "Suport General - Decidim Barcelona", 
                "official": false, 
                "official_level": 0, 
                "role": null, 
                "verified_organization": null
            }, 
            "body": "<p><a href=\"https://decidim.barcelona/proposals/reconeixer-el-rol-transversal-dels-diferents-ambits-municipals-salut-educacio-etc-en-el-proces-d-ocupacio\">https://decidim.barcelona/proposals/reconeixer-el-rol-transversal-dels-diferents-ambits-municipals-salut-educacio-etc-en-el-proces-d-ocupacio</a></p>", 
            "commentable_id": 2934, 
            "commentable_type": "Proposal", 
            "created_at": "09/04/2016 12:39:38", 
            "flagged": false, 
            "hidden": false, 
            "id": 11952, 
            "moderator_id": null, 
            "permissions": {
                "hide": false, 
                "hide_author": false, 
                "vote": false
            }, 
            "total_dislikes": 0, 
            "total_likes": 0, 
            "total_votes": 0
        }, 
        {
            "administrator_id": null, 
            "alignment": 0, 
            "ancestry": null, 
            "as": null, 
            "author": {
                "avatar_image": "https://decidim.barcelona/assets/avatar-866795c99abc33a3160d1f3fa93ada46eb75e54134e777666b9ed16215b26534.png", 
                "erased": false, 
                "hidden": false, 
                "id": 9262, 
                "name": "Suport General - Decidim Barcelona", 
                "official": false, 
                "official_level": 0, 
                "role": null, 
                "verified_organization": null
            }, 
            "body": "<p><a href=\"https://decidim.barcelona/proposals/millorar-i-optimitzar-els-serveis-juvenils-d-acompanyament-i-insercio-al-mon-laboral-de-l-ajuntament-de-barcelona\">https://decidim.barcelona/proposals/millorar-i-optimitzar-els-serveis-juvenils-d-acompanyament-i-insercio-al-mon-laboral-de-l-ajuntament-de-barcelona</a></p>", 
            "commentable_id": 2934, 
            "commentable_type": "Proposal", 
            "created_at": "09/04/2016 12:40:03", 
            "flagged": false, 
            "hidden": false, 
            "id": 11954, 
            "moderator_id": null, 
            "permissions": {
                "hide": false, 
                "hide_author": false, 
                "vote": false
            }, 
            "total_dislikes": 0, 
            "total_likes": 0, 
            "total_votes": 0
        }, 
        {
            "administrator_id": null, 
            "alignment": 0, 
            "ancestry": null, 
            "as": null, 
            "author": {
                "avatar_image": "https://decidim.barcelona/assets/avatar-866795c99abc33a3160d1f3fa93ada46eb75e54134e777666b9ed16215b26534.png", 
                "erased": false, 
                "hidden": false, 
                "id": 9262, 
                "name": "Suport General - Decidim Barcelona", 
                "official": false, 
                "official_level": 0, 
                "role": null, 
                "verified_organization": null
            }, 
            "body": "<p><a href=\"https://decidim.barcelona/proposals/crear-programes-que-vinculin-la-formacio-i-el-treball\">https://decidim.barcelona/proposals/crear-programes-que-vinculin-la-formacio-i-el-treball</a></p>", 
            "commentable_id": 2934, 
            "commentable_type": "Proposal", 
            "created_at": "09/04/2016 12:46:29", 
            "flagged": false, 
            "hidden": false, 
            "id": 11985, 
            "moderator_id": null, 
            "permissions": {
                "hide": false, 
                "hide_author": false, 
                "vote": false
            }, 
            "total_dislikes": 0, 
            "total_likes": 0, 
            "total_votes": 0
        }, 
        {
            "administrator_id": null, 
            "alignment": 0, 
            "ancestry": null, 
            "as": null, 
            "author": {
                "avatar_image": "https://decidim.barcelona/assets/avatar-866795c99abc33a3160d1f3fa93ada46eb75e54134e777666b9ed16215b26534.png", 
                "erased": false, 
                "hidden": false, 
                "id": 9262, 
                "name": "Suport General - Decidim Barcelona", 
                "official": false, 
                "official_level": 0, 
                "role": null, 
                "verified_organization": null
            }, 
            "body": "<p><a href=\"https://decidim.barcelona/proposals/orientacio-ocupacional-mes-qualitativa-i-menys-quantitativa\">https://decidim.barcelona/proposals/orientacio-ocupacional-mes-qualitativa-i-menys-quantitativa</a></p>", 
            "commentable_id": 2934, 
            "commentable_type": "Proposal", 
            "created_at": "09/04/2016 12:47:22", 
            "flagged": false, 
            "hidden": false, 
            "id": 11992, 
            "moderator_id": null, 
            "permissions": {
                "hide": false, 
                "hide_author": false, 
                "vote": false
            }, 
            "total_dislikes": 0, 
            "total_likes": 0, 
            "total_votes": 0
        }, 
        {
            "administrator_id": null, 
            "alignment": 0, 
            "ancestry": null, 
            "as": null, 
            "author": {
                "avatar_image": "https://decidim.barcelona/assets/avatar-866795c99abc33a3160d1f3fa93ada46eb75e54134e777666b9ed16215b26534.png", 
                "erased": false, 
                "hidden": false, 
                "id": 9262, 
                "name": "Suport General - Decidim Barcelona", 
                "official": false, 
                "official_level": 0, 
                "role": null, 
                "verified_organization": null
            }, 
            "body": "<p><a href=\"https://decidim.barcelona/proposals/coordinacio-i-serveis-compartits-entre-els-diferents-actors-que-treballen-en-temes-d-ocupacio\">https://decidim.barcelona/proposals/coordinacio-i-serveis-compartits-entre-els-diferents-actors-que-treballen-en-temes-d-ocupacio</a></p>", 
            "commentable_id": 2934, 
            "commentable_type": "Proposal", 
            "created_at": "09/04/2016 12:49:42", 
            "flagged": false, 
            "hidden": false, 
            "id": 12009, 
            "moderator_id": null, 
            "permissions": {
                "hide": false, 
                "hide_author": false, 
                "vote": false
            }, 
            "total_dislikes": 0, 
            "total_likes": 0, 
            "total_votes": 0
        }, 
        {
            "administrator_id": null, 
            "alignment": 0, 
            "ancestry": null, 
            "as": null, 
            "author": {
                "avatar_image": "https://decidim.barcelona/assets/avatar-866795c99abc33a3160d1f3fa93ada46eb75e54134e777666b9ed16215b26534.png", 
                "erased": false, 
                "hidden": false, 
                "id": 9262, 
                "name": "Suport General - Decidim Barcelona", 
                "official": false, 
                "official_level": 0, 
                "role": null, 
                "verified_organization": null
            }, 
            "body": "<p><a href=\"https://decidim.barcelona/proposals/individualitzacio-dels-serveis-d-ocupacio\">https://decidim.barcelona/proposals/individualitzacio-dels-serveis-d-ocupacio</a></p>", 
            "commentable_id": 2934, 
            "commentable_type": "Proposal", 
            "created_at": "09/04/2016 12:50:58", 
            "flagged": false, 
            "hidden": false, 
            "id": 12012, 
            "moderator_id": null, 
            "permissions": {
                "hide": false, 
                "hide_author": false, 
                "vote": false
            }, 
            "total_dislikes": 0, 
            "total_likes": 0, 
            "total_votes": 0
        }, 
        {
            "administrator_id": null, 
            "alignment": 0, 
            "ancestry": null, 
            "as": null, 
            "author": {
                "avatar_image": "https://decidim.barcelona/assets/avatar-866795c99abc33a3160d1f3fa93ada46eb75e54134e777666b9ed16215b26534.png", 
                "erased": false, 
                "hidden": false, 
                "id": 9262, 
                "name": "Suport General - Decidim Barcelona", 
                "official": false, 
                "official_level": 0, 
                "role": null, 
                "verified_organization": null
            }, 
            "body": "<p><a href=\"https://decidim.barcelona/proposals/garantir-l-efectivitat-de-les-politiques-d-ocupacio-a-partir-d-un-dialeg-amb-el-sector-empresarial-creadors-d-ocupacio\">https://decidim.barcelona/proposals/garantir-l-efectivitat-de-les-politiques-d-ocupacio-a-partir-d-un-dialeg-amb-el-sector-empresarial-creadors-d-ocupacio</a></p>", 
            "commentable_id": 2934, 
            "commentable_type": "Proposal", 
            "created_at": "09/04/2016 13:10:32", 
            "flagged": false, 
            "hidden": false, 
            "id": 12053, 
            "moderator_id": null, 
            "permissions": {
                "hide": false, 
                "hide_author": false, 
                "vote": false
            }, 
            "total_dislikes": 0, 
            "total_likes": 0, 
            "total_votes": 0
        }, 
        {
            "administrator_id": null, 
            "alignment": 0, 
            "ancestry": null, 
            "as": null, 
            "author": {
                "avatar_image": "https://decidim.barcelona/assets/avatar-866795c99abc33a3160d1f3fa93ada46eb75e54134e777666b9ed16215b26534.png", 
                "erased": false, 
                "hidden": false, 
                "id": 9262, 
                "name": "Suport General - Decidim Barcelona", 
                "official": false, 
                "official_level": 0, 
                "role": null, 
                "verified_organization": null
            }, 
            "body": "<p><a href=\"https://decidim.barcelona/proposals/deteccio-de-les-necessitats-en-ocupacio-per-barris-per-tal-d-adequar-les-politiques-d-ocupacio-en-consequencia\">https://decidim.barcelona/proposals/deteccio-de-les-necessitats-en-ocupacio-per-barris-per-tal-d-adequar-les-politiques-d-ocupacio-en-consequencia</a></p>", 
            "commentable_id": 2934, 
            "commentable_type": "Proposal", 
            "created_at": "09/04/2016 13:11:47", 
            "flagged": false, 
            "hidden": false, 
            "id": 12058, 
            "moderator_id": null, 
            "permissions": {
                "hide": false, 
                "hide_author": false, 
                "vote": false
            }, 
            "total_dislikes": 0, 
            "total_likes": 0, 
            "total_votes": 0
        }, 
        {
            "administrator_id": null, 
            "alignment": 0, 
            "ancestry": null, 
            "as": null, 
            "author": {
                "avatar_image": "https://decidim.barcelona/assets/avatar-866795c99abc33a3160d1f3fa93ada46eb75e54134e777666b9ed16215b26534.png", 
                "erased": false, 
                "hidden": false, 
                "id": 9262, 
                "name": "Suport General - Decidim Barcelona", 
                "official": false, 
                "official_level": 0, 
                "role": null, 
                "verified_organization": null
            }, 
            "body": "<p><a href=\"https://decidim.barcelona/proposals/fomentar-l-empleabilitat-i-l-ocupacio-juvenil-millorant-els-serveis-d-ocupacio-disponibles-i-generant-noves-borses-de-treball-jove\">https://decidim.barcelona/proposals/fomentar-l-empleabilitat-i-l-ocupacio-juvenil-millorant-els-serveis-d-ocupacio-disponibles-i-generant-noves-borses-de-treball-jove</a></p>", 
            "commentable_id": 2934, 
            "commentable_type": "Proposal", 
            "created_at": "09/04/2016 13:17:10", 
            "flagged": false, 
            "hidden": false, 
            "id": 12067, 
            "moderator_id": null, 
            "permissions": {
                "hide": false, 
                "hide_author": false, 
                "vote": false
            }, 
            "total_dislikes": 0, 
            "total_likes": 0, 
            "total_votes": 0
        }
    ], 
    "meta": {
        "current_page": 1, 
        "next_page": 2, 
        "prev_page": null, 
        "total_count": 31, 
        "total_pages": 2
    }
}