{
    "comments": [
        {
            "administrator_id": null, 
            "alignment": 0, 
            "ancestry": null, 
            "as": null, 
            "author": {
                "avatar_image": "https://decidim.barcelona/assets/avatar-866795c99abc33a3160d1f3fa93ada46eb75e54134e777666b9ed16215b26534.png", 
                "erased": false, 
                "hidden": false, 
                "id": 9262, 
                "name": "Suport General - Decidim Barcelona", 
                "official": false, 
                "official_level": 0, 
                "role": null, 
                "verified_organization": null
            }, 
            "body": "<p><a href=\"https://decidim.barcelona/proposals/fer-obligatori-l-aprovacio-de-la-comunitat-de-veins-per-a-obtenir-la-llicencia-de-hut\">https://decidim.barcelona/proposals/fer-obligatori-l-aprovacio-de-la-comunitat-de-veins-per-a-obtenir-la-llicencia-de-hut</a></p>", 
            "commentable_id": 2936, 
            "commentable_type": "Proposal", 
            "created_at": "09/04/2016 14:07:55", 
            "flagged": false, 
            "hidden": false, 
            "id": 12184, 
            "moderator_id": null, 
            "permissions": {
                "hide": false, 
                "hide_author": false, 
                "vote": false
            }, 
            "total_dislikes": 0, 
            "total_likes": 0, 
            "total_votes": 0
        }, 
        {
            "administrator_id": null, 
            "alignment": 0, 
            "ancestry": null, 
            "as": null, 
            "author": {
                "avatar_image": "https://decidim.barcelona/assets/avatar-866795c99abc33a3160d1f3fa93ada46eb75e54134e777666b9ed16215b26534.png", 
                "erased": false, 
                "hidden": false, 
                "id": 9262, 
                "name": "Suport General - Decidim Barcelona", 
                "official": false, 
                "official_level": 0, 
                "role": null, 
                "verified_organization": null
            }, 
            "body": "<p><a href=\"https://decidim.barcelona/proposals/noves-estrategies-de-persecucio-dels-hut-s-il-legals\">https://decidim.barcelona/proposals/noves-estrategies-de-persecucio-dels-hut-s-il-legals</a></p>", 
            "commentable_id": 2936, 
            "commentable_type": "Proposal", 
            "created_at": "09/04/2016 14:09:22", 
            "flagged": false, 
            "hidden": false, 
            "id": 12193, 
            "moderator_id": null, 
            "permissions": {
                "hide": false, 
                "hide_author": false, 
                "vote": false
            }, 
            "total_dislikes": 0, 
            "total_likes": 0, 
            "total_votes": 0
        }, 
        {
            "administrator_id": null, 
            "alignment": 0, 
            "ancestry": null, 
            "as": null, 
            "author": {
                "avatar_image": "https://decidim.barcelona/assets/avatar-866795c99abc33a3160d1f3fa93ada46eb75e54134e777666b9ed16215b26534.png", 
                "erased": false, 
                "hidden": false, 
                "id": 9262, 
                "name": "Suport General - Decidim Barcelona", 
                "official": false, 
                "official_level": 0, 
                "role": null, 
                "verified_organization": null
            }, 
            "body": "<p><a href=\"https://decidim.barcelona/proposals/sancionar-tambe-els-pisos-il-legals-publicitats-a-les-plataformes\">https://decidim.barcelona/proposals/sancionar-tambe-els-pisos-il-legals-publicitats-a-les-plataformes</a></p>", 
            "commentable_id": 2936, 
            "commentable_type": "Proposal", 
            "created_at": "09/04/2016 14:11:27", 
            "flagged": false, 
            "hidden": false, 
            "id": 12202, 
            "moderator_id": null, 
            "permissions": {
                "hide": false, 
                "hide_author": false, 
                "vote": false
            }, 
            "total_dislikes": 0, 
            "total_likes": 0, 
            "total_votes": 0
        }, 
        {
            "administrator_id": null, 
            "alignment": 0, 
            "ancestry": null, 
            "as": null, 
            "author": {
                "avatar_image": "https://decidim.barcelona/assets/avatar-866795c99abc33a3160d1f3fa93ada46eb75e54134e777666b9ed16215b26534.png", 
                "erased": false, 
                "hidden": false, 
                "id": 9262, 
                "name": "Suport General - Decidim Barcelona", 
                "official": false, 
                "official_level": 0, 
                "role": null, 
                "verified_organization": null
            }, 
            "body": "<p><a href=\"https://decidim.barcelona/proposals/preveure-mecanismes-per-comprovar-si-la-ocupacio-per-la-qual-es-donen-les-llicencies-es-real-o-no\">https://decidim.barcelona/proposals/preveure-mecanismes-per-comprovar-si-la-ocupacio-per-la-qual-es-donen-les-llicencies-es-real-o-no</a></p>", 
            "commentable_id": 2936, 
            "commentable_type": "Proposal", 
            "created_at": "09/04/2016 14:12:09", 
            "flagged": false, 
            "hidden": false, 
            "id": 12207, 
            "moderator_id": null, 
            "permissions": {
                "hide": false, 
                "hide_author": false, 
                "vote": false
            }, 
            "total_dislikes": 0, 
            "total_likes": 0, 
            "total_votes": 0
        }, 
        {
            "administrator_id": null, 
            "alignment": 0, 
            "ancestry": null, 
            "as": null, 
            "author": {
                "avatar_image": "https://decidim.barcelona/assets/avatar-866795c99abc33a3160d1f3fa93ada46eb75e54134e777666b9ed16215b26534.png", 
                "erased": false, 
                "hidden": false, 
                "id": 9262, 
                "name": "Suport General - Decidim Barcelona", 
                "official": false, 
                "official_level": 0, 
                "role": null, 
                "verified_organization": null
            }, 
            "body": "<p><a href=\"https://decidim.barcelona/proposals/abordar-la-problematica-del-lloguer-turistic-i-no-el-fet\">https://decidim.barcelona/proposals/abordar-la-problematica-del-lloguer-turistic-i-no-el-fet</a></p>", 
            "commentable_id": 2936, 
            "commentable_type": "Proposal", 
            "created_at": "09/04/2016 14:12:36", 
            "flagged": false, 
            "hidden": false, 
            "id": 12210, 
            "moderator_id": null, 
            "permissions": {
                "hide": false, 
                "hide_author": false, 
                "vote": false
            }, 
            "total_dislikes": 0, 
            "total_likes": 0, 
            "total_votes": 0
        }, 
        {
            "administrator_id": null, 
            "alignment": 0, 
            "ancestry": null, 
            "as": null, 
            "author": {
                "avatar_image": "https://decidim.barcelona/assets/avatar-866795c99abc33a3160d1f3fa93ada46eb75e54134e777666b9ed16215b26534.png", 
                "erased": false, 
                "hidden": false, 
                "id": 9262, 
                "name": "Suport General - Decidim Barcelona", 
                "official": false, 
                "official_level": 0, 
                "role": null, 
                "verified_organization": null
            }, 
            "body": "<p><a href=\"https://decidim.barcelona/proposals/modificacions-legals-que-endureixin-les-sancions-en-cas-de-reiteracio\">https://decidim.barcelona/proposals/modificacions-legals-que-endureixin-les-sancions-en-cas-de-reiteracio</a></p>", 
            "commentable_id": 2936, 
            "commentable_type": "Proposal", 
            "created_at": "09/04/2016 14:13:31", 
            "flagged": false, 
            "hidden": false, 
            "id": 12212, 
            "moderator_id": null, 
            "permissions": {
                "hide": false, 
                "hide_author": false, 
                "vote": false
            }, 
            "total_dislikes": 0, 
            "total_likes": 0, 
            "total_votes": 0
        }, 
        {
            "administrator_id": null, 
            "alignment": 0, 
            "ancestry": null, 
            "as": null, 
            "author": {
                "avatar_image": "https://decidim.barcelona/assets/avatar-866795c99abc33a3160d1f3fa93ada46eb75e54134e777666b9ed16215b26534.png", 
                "erased": false, 
                "hidden": false, 
                "id": 9262, 
                "name": "Suport General - Decidim Barcelona", 
                "official": false, 
                "official_level": 0, 
                "role": null, 
                "verified_organization": null
            }, 
            "body": "<p><a href=\"https://decidim.barcelona/proposals/fer-un-cens-d-allotjaments-il-legals-estimacio-per-estudiar-la-seva-evolucio\">https://decidim.barcelona/proposals/fer-un-cens-d-allotjaments-il-legals-estimacio-per-estudiar-la-seva-evolucio</a></p>", 
            "commentable_id": 2936, 
            "commentable_type": "Proposal", 
            "created_at": "09/04/2016 14:14:32", 
            "flagged": false, 
            "hidden": false, 
            "id": 12214, 
            "moderator_id": null, 
            "permissions": {
                "hide": false, 
                "hide_author": false, 
                "vote": false
            }, 
            "total_dislikes": 0, 
            "total_likes": 0, 
            "total_votes": 0
        }, 
        {
            "administrator_id": null, 
            "alignment": 0, 
            "ancestry": null, 
            "as": null, 
            "author": {
                "avatar_image": "https://decidim.barcelona/assets/avatar-866795c99abc33a3160d1f3fa93ada46eb75e54134e777666b9ed16215b26534.png", 
                "erased": false, 
                "hidden": false, 
                "id": 9262, 
                "name": "Suport General - Decidim Barcelona", 
                "official": false, 
                "official_level": 0, 
                "role": null, 
                "verified_organization": null
            }, 
            "body": "<p><a href=\"https://decidim.barcelona/proposals/exigir-a-les-plataformes-turistiques-comercialitzadores-la-separacio-de-l-oferta-professional-de-les-llars-compartides-no-professional\">https://decidim.barcelona/proposals/exigir-a-les-plataformes-turistiques-comercialitzadores-la-separacio-de-l-oferta-professional-de-les-llars-compartides-no-professional</a></p>", 
            "commentable_id": 2936, 
            "commentable_type": "Proposal", 
            "created_at": "09/04/2016 14:15:59", 
            "flagged": false, 
            "hidden": false, 
            "id": 12225, 
            "moderator_id": null, 
            "permissions": {
                "hide": false, 
                "hide_author": false, 
                "vote": false
            }, 
            "total_dislikes": 0, 
            "total_likes": 0, 
            "total_votes": 0
        }, 
        {
            "administrator_id": null, 
            "alignment": 0, 
            "ancestry": null, 
            "as": null, 
            "author": {
                "avatar_image": "https://decidim.barcelona/assets/avatar-866795c99abc33a3160d1f3fa93ada46eb75e54134e777666b9ed16215b26534.png", 
                "erased": false, 
                "hidden": false, 
                "id": 9262, 
                "name": "Suport General - Decidim Barcelona", 
                "official": false, 
                "official_level": 0, 
                "role": null, 
                "verified_organization": null
            }, 
            "body": "<p><a href=\"https://decidim.barcelona/proposals/ampliar-o-atendre-amb-la-mateixa-immediatesa-altres-canals-de-denuncia-sobre-establiments-turistics-il-legals-no-nomes-les-queixes-veinals\">https://decidim.barcelona/proposals/ampliar-o-atendre-amb-la-mateixa-immediatesa-altres-canals-de-denuncia-sobre-establiments-turistics-il-legals-no-nomes-les-queixes-veinals</a></p>", 
            "commentable_id": 2936, 
            "commentable_type": "Proposal", 
            "created_at": "09/04/2016 14:16:54", 
            "flagged": false, 
            "hidden": false, 
            "id": 12229, 
            "moderator_id": null, 
            "permissions": {
                "hide": false, 
                "hide_author": false, 
                "vote": false
            }, 
            "total_dislikes": 0, 
            "total_likes": 0, 
            "total_votes": 0
        }, 
        {
            "administrator_id": null, 
            "alignment": 0, 
            "ancestry": null, 
            "as": null, 
            "author": {
                "avatar_image": "https://decidim.barcelona/assets/avatar-866795c99abc33a3160d1f3fa93ada46eb75e54134e777666b9ed16215b26534.png", 
                "erased": false, 
                "hidden": false, 
                "id": 9262, 
                "name": "Suport General - Decidim Barcelona", 
                "official": false, 
                "official_level": 0, 
                "role": null, 
                "verified_organization": null
            }, 
            "body": "<p><a href=\"https://decidim.barcelona/proposals/mes-inversions-en-inspeccions-i-duresa-i-continuitat-amb-les-multes-a-allotjaments-turistics-il-legals\">https://decidim.barcelona/proposals/mes-inversions-en-inspeccions-i-duresa-i-continuitat-amb-les-multes-a-allotjaments-turistics-il-legals</a></p>", 
            "commentable_id": 2936, 
            "commentable_type": "Proposal", 
            "created_at": "09/04/2016 14:17:32", 
            "flagged": false, 
            "hidden": false, 
            "id": 12233, 
            "moderator_id": null, 
            "permissions": {
                "hide": false, 
                "hide_author": false, 
                "vote": false
            }, 
            "total_dislikes": 0, 
            "total_likes": 0, 
            "total_votes": 0
        }, 
        {
            "administrator_id": null, 
            "alignment": 0, 
            "ancestry": null, 
            "as": null, 
            "author": {
                "avatar_image": "https://decidim.barcelona/assets/avatar-866795c99abc33a3160d1f3fa93ada46eb75e54134e777666b9ed16215b26534.png", 
                "erased": false, 
                "hidden": false, 
                "id": 9262, 
                "name": "Suport General - Decidim Barcelona", 
                "official": false, 
                "official_level": 0, 
                "role": null, 
                "verified_organization": null
            }, 
            "body": "<p><a href=\"https://decidim.barcelona/proposals/tancar-tots-els-huts-il-legals\">https://decidim.barcelona/proposals/tancar-tots-els-huts-il-legals</a></p>", 
            "commentable_id": 2936, 
            "commentable_type": "Proposal", 
            "created_at": "09/04/2016 14:17:42", 
            "flagged": false, 
            "hidden": false, 
            "id": 12234, 
            "moderator_id": null, 
            "permissions": {
                "hide": false, 
                "hide_author": false, 
                "vote": false
            }, 
            "total_dislikes": 0, 
            "total_likes": 0, 
            "total_votes": 0
        }, 
        {
            "administrator_id": null, 
            "alignment": 0, 
            "ancestry": null, 
            "as": null, 
            "author": {
                "avatar_image": "https://decidim.barcelona/assets/avatar-866795c99abc33a3160d1f3fa93ada46eb75e54134e777666b9ed16215b26534.png", 
                "erased": false, 
                "hidden": false, 
                "id": 9262, 
                "name": "Suport General - Decidim Barcelona", 
                "official": false, 
                "official_level": 0, 
                "role": null, 
                "verified_organization": null
            }, 
            "body": "<p><a href=\"https://decidim.barcelona/proposals/acabar-amb-les-moratories-indiscriminades-que-generen-mes-il-legalitats\">https://decidim.barcelona/proposals/acabar-amb-les-moratories-indiscriminades-que-generen-mes-il-legalitats</a></p>", 
            "commentable_id": 2936, 
            "commentable_type": "Proposal", 
            "created_at": "09/04/2016 14:17:56", 
            "flagged": false, 
            "hidden": false, 
            "id": 12235, 
            "moderator_id": null, 
            "permissions": {
                "hide": false, 
                "hide_author": false, 
                "vote": false
            }, 
            "total_dislikes": 0, 
            "total_likes": 0, 
            "total_votes": 0
        }, 
        {
            "administrator_id": null, 
            "alignment": 0, 
            "ancestry": null, 
            "as": null, 
            "author": {
                "avatar_image": "https://decidim.barcelona/assets/avatar-866795c99abc33a3160d1f3fa93ada46eb75e54134e777666b9ed16215b26534.png", 
                "erased": false, 
                "hidden": false, 
                "id": 9262, 
                "name": "Suport General - Decidim Barcelona", 
                "official": false, 
                "official_level": 0, 
                "role": null, 
                "verified_organization": null
            }, 
            "body": "<p><a href=\"https://decidim.barcelona/proposals/canvis-normatius-per-agilitzar-els-processos-d-inspeccio-de-denuncies-relacionades-amb-allotjaments-turistics-il-legals\">https://decidim.barcelona/proposals/canvis-normatius-per-agilitzar-els-processos-d-inspeccio-de-denuncies-relacionades-amb-allotjaments-turistics-il-legals</a></p>", 
            "commentable_id": 2936, 
            "commentable_type": "Proposal", 
            "created_at": "09/04/2016 14:18:28", 
            "flagged": false, 
            "hidden": false, 
            "id": 12237, 
            "moderator_id": null, 
            "permissions": {
                "hide": false, 
                "hide_author": false, 
                "vote": false
            }, 
            "total_dislikes": 0, 
            "total_likes": 0, 
            "total_votes": 0
        }, 
        {
            "administrator_id": null, 
            "alignment": 0, 
            "ancestry": null, 
            "as": null, 
            "author": {
                "avatar_image": "https://decidim.barcelona/assets/avatar-866795c99abc33a3160d1f3fa93ada46eb75e54134e777666b9ed16215b26534.png", 
                "erased": false, 
                "hidden": false, 
                "id": 9262, 
                "name": "Suport General - Decidim Barcelona", 
                "official": false, 
                "official_level": 0, 
                "role": null, 
                "verified_organization": null
            }, 
            "body": "<p><a href=\"https://decidim.barcelona/proposals/incrementar-la-inspeccio-reactiva-i-proactiva-a-tots-els-tipus-d-allotjaments-turistics-no-nomes-hut-s\">https://decidim.barcelona/proposals/incrementar-la-inspeccio-reactiva-i-proactiva-a-tots-els-tipus-d-allotjaments-turistics-no-nomes-hut-s</a></p>", 
            "commentable_id": 2936, 
            "commentable_type": "Proposal", 
            "created_at": "09/04/2016 14:19:31", 
            "flagged": false, 
            "hidden": false, 
            "id": 12243, 
            "moderator_id": null, 
            "permissions": {
                "hide": false, 
                "hide_author": false, 
                "vote": false
            }, 
            "total_dislikes": 0, 
            "total_likes": 0, 
            "total_votes": 0
        }, 
        {
            "administrator_id": null, 
            "alignment": 0, 
            "ancestry": null, 
            "as": null, 
            "author": {
                "avatar_image": "https://decidim.barcelona/assets/avatar-866795c99abc33a3160d1f3fa93ada46eb75e54134e777666b9ed16215b26534.png", 
                "erased": false, 
                "hidden": false, 
                "id": 9262, 
                "name": "Suport General - Decidim Barcelona", 
                "official": false, 
                "official_level": 0, 
                "role": null, 
                "verified_organization": null
            }, 
            "body": "<p><a href=\"https://decidim.barcelona/proposals/reconsiderar-el-criteri-dels-8m-per-poder-implantar-un-hut\">https://decidim.barcelona/proposals/reconsiderar-el-criteri-dels-8m-per-poder-implantar-un-hut</a></p>", 
            "commentable_id": 2936, 
            "commentable_type": "Proposal", 
            "created_at": "09/04/2016 14:19:41", 
            "flagged": false, 
            "hidden": false, 
            "id": 12244, 
            "moderator_id": null, 
            "permissions": {
                "hide": false, 
                "hide_author": false, 
                "vote": false
            }, 
            "total_dislikes": 0, 
            "total_likes": 0, 
            "total_votes": 0
        }, 
        {
            "administrator_id": null, 
            "alignment": 0, 
            "ancestry": null, 
            "as": null, 
            "author": {
                "avatar_image": "https://decidim.barcelona/assets/avatar-866795c99abc33a3160d1f3fa93ada46eb75e54134e777666b9ed16215b26534.png", 
                "erased": false, 
                "hidden": false, 
                "id": 9262, 
                "name": "Suport General - Decidim Barcelona", 
                "official": false, 
                "official_level": 0, 
                "role": null, 
                "verified_organization": null
            }, 
            "body": "<p><a href=\"https://decidim.barcelona/proposals/no-considerar-una-zona-lliure-els-ambits-del-22-i-la-marina-de-la-zona-franca-ja-que-actualment-ja-hi-existeixen-hotels\">https://decidim.barcelona/proposals/no-considerar-una-zona-lliure-els-ambits-del-22-i-la-marina-de-la-zona-franca-ja-que-actualment-ja-hi-existeixen-hotels</a></p>", 
            "commentable_id": 2936, 
            "commentable_type": "Proposal", 
            "created_at": "09/04/2016 14:19:57", 
            "flagged": false, 
            "hidden": false, 
            "id": 12245, 
            "moderator_id": null, 
            "permissions": {
                "hide": false, 
                "hide_author": false, 
                "vote": false
            }, 
            "total_dislikes": 0, 
            "total_likes": 0, 
            "total_votes": 0
        }, 
        {
            "administrator_id": null, 
            "alignment": 0, 
            "ancestry": null, 
            "as": null, 
            "author": {
                "avatar_image": "https://decidim.barcelona/assets/avatar-866795c99abc33a3160d1f3fa93ada46eb75e54134e777666b9ed16215b26534.png", 
                "erased": false, 
                "hidden": false, 
                "id": 9262, 
                "name": "Suport General - Decidim Barcelona", 
                "official": false, 
                "official_level": 0, 
                "role": null, 
                "verified_organization": null
            }, 
            "body": "<p><a href=\"https://decidim.barcelona/proposals/control-dels-habitatges-d-us-turistic\">https://decidim.barcelona/proposals/control-dels-habitatges-d-us-turistic</a></p>", 
            "commentable_id": 2936, 
            "commentable_type": "Proposal", 
            "created_at": "09/04/2016 14:20:50", 
            "flagged": false, 
            "hidden": false, 
            "id": 12247, 
            "moderator_id": null, 
            "permissions": {
                "hide": false, 
                "hide_author": false, 
                "vote": false
            }, 
            "total_dislikes": 0, 
            "total_likes": 0, 
            "total_votes": 0
        }, 
        {
            "administrator_id": null, 
            "alignment": 0, 
            "ancestry": null, 
            "as": null, 
            "author": {
                "avatar_image": "https://decidim.barcelona/assets/avatar-866795c99abc33a3160d1f3fa93ada46eb75e54134e777666b9ed16215b26534.png", 
                "erased": false, 
                "hidden": false, 
                "id": 9262, 
                "name": "Suport General - Decidim Barcelona", 
                "official": false, 
                "official_level": 0, 
                "role": null, 
                "verified_organization": null
            }, 
            "body": "<p><a href=\"https://decidim.barcelona/proposals/control-dels-habitatges-d-us-turistic-e5e60239-e875-4311-bf71-f06faed8b084\">https://decidim.barcelona/proposals/control-dels-habitatges-d-us-turistic-e5e60239-e875-4311-bf71-f06faed8b084</a></p>", 
            "commentable_id": 2936, 
            "commentable_type": "Proposal", 
            "created_at": "09/04/2016 14:21:02", 
            "flagged": false, 
            "hidden": false, 
            "id": 12248, 
            "moderator_id": null, 
            "permissions": {
                "hide": false, 
                "hide_author": false, 
                "vote": false
            }, 
            "total_dislikes": 0, 
            "total_likes": 0, 
            "total_votes": 0
        }, 
        {
            "administrator_id": null, 
            "alignment": 0, 
            "ancestry": null, 
            "as": null, 
            "author": {
                "avatar_image": "https://decidim.barcelona/assets/avatar-866795c99abc33a3160d1f3fa93ada46eb75e54134e777666b9ed16215b26534.png", 
                "erased": false, 
                "hidden": false, 
                "id": 9262, 
                "name": "Suport General - Decidim Barcelona", 
                "official": false, 
                "official_level": 0, 
                "role": null, 
                "verified_organization": null
            }, 
            "body": "<p><a href=\"https://decidim.barcelona/proposals/volem-un-marc-normatiu-just-i-racional-per-compartir-casa-nostra\">https://decidim.barcelona/proposals/volem-un-marc-normatiu-just-i-racional-per-compartir-casa-nostra</a></p>", 
            "commentable_id": 2936, 
            "commentable_type": "Proposal", 
            "created_at": "09/04/2016 14:23:59", 
            "flagged": false, 
            "hidden": false, 
            "id": 12255, 
            "moderator_id": null, 
            "permissions": {
                "hide": false, 
                "hide_author": false, 
                "vote": false
            }, 
            "total_dislikes": 0, 
            "total_likes": 0, 
            "total_votes": 0
        }, 
        {
            "administrator_id": null, 
            "alignment": 0, 
            "ancestry": null, 
            "as": null, 
            "author": {
                "avatar_image": "https://decidim.barcelona/assets/avatar-866795c99abc33a3160d1f3fa93ada46eb75e54134e777666b9ed16215b26534.png", 
                "erased": false, 
                "hidden": false, 
                "id": 9262, 
                "name": "Suport General - Decidim Barcelona", 
                "official": false, 
                "official_level": 0, 
                "role": null, 
                "verified_organization": null
            }, 
            "body": "<p><a href=\"https://decidim.barcelona/proposals/noves-llicencies-per-a-pisos-turistics\">https://decidim.barcelona/proposals/noves-llicencies-per-a-pisos-turistics</a></p>", 
            "commentable_id": 2936, 
            "commentable_type": "Proposal", 
            "created_at": "09/04/2016 14:24:26", 
            "flagged": false, 
            "hidden": false, 
            "id": 12258, 
            "moderator_id": null, 
            "permissions": {
                "hide": false, 
                "hide_author": false, 
                "vote": false
            }, 
            "total_dislikes": 0, 
            "total_likes": 0, 
            "total_votes": 0
        }
    ], 
    "meta": {
        "current_page": 2, 
        "next_page": 3, 
        "prev_page": 1, 
        "total_count": 61, 
        "total_pages": 4
    }
}