{
    "comments": [
        {
            "administrator_id": null, 
            "alignment": 0, 
            "ancestry": null, 
            "as": null, 
            "author": {
                "avatar_image": "https://decidim.barcelona/assets/avatar-866795c99abc33a3160d1f3fa93ada46eb75e54134e777666b9ed16215b26534.png", 
                "erased": false, 
                "hidden": false, 
                "id": 9262, 
                "name": "Suport General - Decidim Barcelona", 
                "official": false, 
                "official_level": 0, 
                "role": null, 
                "verified_organization": null
            }, 
            "body": "<p><a href=\"https://decidim.barcelona/proposals/prou-pisos-turistics\">https://decidim.barcelona/proposals/prou-pisos-turistics</a></p>", 
            "commentable_id": 2936, 
            "commentable_type": "Proposal", 
            "created_at": "09/04/2016 14:24:58", 
            "flagged": false, 
            "hidden": false, 
            "id": 12259, 
            "moderator_id": null, 
            "permissions": {
                "hide": false, 
                "hide_author": false, 
                "vote": false
            }, 
            "total_dislikes": 0, 
            "total_likes": 0, 
            "total_votes": 0
        }, 
        {
            "administrator_id": null, 
            "alignment": 0, 
            "ancestry": null, 
            "as": null, 
            "author": {
                "avatar_image": "https://decidim.barcelona/assets/avatar-866795c99abc33a3160d1f3fa93ada46eb75e54134e777666b9ed16215b26534.png", 
                "erased": false, 
                "hidden": false, 
                "id": 9262, 
                "name": "Suport General - Decidim Barcelona", 
                "official": false, 
                "official_level": 0, 
                "role": null, 
                "verified_organization": null
            }, 
            "body": "<p><a href=\"https://decidim.barcelona/proposals/legalitzar-els-bed-and-breakfast\">https://decidim.barcelona/proposals/legalitzar-els-bed-and-breakfast</a></p>", 
            "commentable_id": 2936, 
            "commentable_type": "Proposal", 
            "created_at": "09/04/2016 14:27:18", 
            "flagged": false, 
            "hidden": false, 
            "id": 12271, 
            "moderator_id": null, 
            "permissions": {
                "hide": false, 
                "hide_author": false, 
                "vote": false
            }, 
            "total_dislikes": 0, 
            "total_likes": 0, 
            "total_votes": 0
        }, 
        {
            "administrator_id": null, 
            "alignment": 0, 
            "ancestry": null, 
            "as": null, 
            "author": {
                "avatar_image": "https://decidim.barcelona/assets/avatar-866795c99abc33a3160d1f3fa93ada46eb75e54134e777666b9ed16215b26534.png", 
                "erased": false, 
                "hidden": false, 
                "id": 9262, 
                "name": "Suport General - Decidim Barcelona", 
                "official": false, 
                "official_level": 0, 
                "role": null, 
                "verified_organization": null
            }, 
            "body": "<p><a href=\"https://decidim.barcelona/proposals/utilitzar-tv-de-l-aerobus-per-informar-a-turistes-sobre-pisos-turistics-il-legals-i-respecte-a-veins-es-durant-la-seva-estada-a-la-ciutat\">https://decidim.barcelona/proposals/utilitzar-tv-de-l-aerobus-per-informar-a-turistes-sobre-pisos-turistics-il-legals-i-respecte-a-veins-es-durant-la-seva-estada-a-la-ciutat</a></p>", 
            "commentable_id": 2936, 
            "commentable_type": "Proposal", 
            "created_at": "09/04/2016 14:27:30", 
            "flagged": false, 
            "hidden": false, 
            "id": 12273, 
            "moderator_id": null, 
            "permissions": {
                "hide": false, 
                "hide_author": false, 
                "vote": false
            }, 
            "total_dislikes": 0, 
            "total_likes": 0, 
            "total_votes": 0
        }, 
        {
            "administrator_id": null, 
            "alignment": 0, 
            "ancestry": null, 
            "as": null, 
            "author": {
                "avatar_image": "https://decidim.barcelona/assets/avatar-866795c99abc33a3160d1f3fa93ada46eb75e54134e777666b9ed16215b26534.png", 
                "erased": false, 
                "hidden": false, 
                "id": 9262, 
                "name": "Suport General - Decidim Barcelona", 
                "official": false, 
                "official_level": 0, 
                "role": null, 
                "verified_organization": null
            }, 
            "body": "<p><a href=\"https://decidim.barcelona/proposals/llicencies-per-poder-llogar-el-pis-per-a-families-amb-dificultats\">https://decidim.barcelona/proposals/llicencies-per-poder-llogar-el-pis-per-a-families-amb-dificultats</a></p>", 
            "commentable_id": 2936, 
            "commentable_type": "Proposal", 
            "created_at": "09/04/2016 14:28:57", 
            "flagged": false, 
            "hidden": false, 
            "id": 12281, 
            "moderator_id": null, 
            "permissions": {
                "hide": false, 
                "hide_author": false, 
                "vote": false
            }, 
            "total_dislikes": 0, 
            "total_likes": 0, 
            "total_votes": 0
        }, 
        {
            "administrator_id": null, 
            "alignment": 0, 
            "ancestry": null, 
            "as": null, 
            "author": {
                "avatar_image": "https://decidim.barcelona/assets/avatar-866795c99abc33a3160d1f3fa93ada46eb75e54134e777666b9ed16215b26534.png", 
                "erased": false, 
                "hidden": false, 
                "id": 9262, 
                "name": "Suport General - Decidim Barcelona", 
                "official": false, 
                "official_level": 0, 
                "role": null, 
                "verified_organization": null
            }, 
            "body": "<p><a href=\"https://decidim.barcelona/proposals/concentrar-pisos-turistics-en-edificis\">https://decidim.barcelona/proposals/concentrar-pisos-turistics-en-edificis</a></p>", 
            "commentable_id": 2936, 
            "commentable_type": "Proposal", 
            "created_at": "09/04/2016 14:32:57", 
            "flagged": false, 
            "hidden": false, 
            "id": 12293, 
            "moderator_id": null, 
            "permissions": {
                "hide": false, 
                "hide_author": false, 
                "vote": false
            }, 
            "total_dislikes": 0, 
            "total_likes": 0, 
            "total_votes": 0
        }, 
        {
            "administrator_id": null, 
            "alignment": 0, 
            "ancestry": null, 
            "as": null, 
            "author": {
                "avatar_image": "https://decidim.barcelona/assets/avatar-866795c99abc33a3160d1f3fa93ada46eb75e54134e777666b9ed16215b26534.png", 
                "erased": false, 
                "hidden": false, 
                "id": 9262, 
                "name": "Suport General - Decidim Barcelona", 
                "official": false, 
                "official_level": 0, 
                "role": null, 
                "verified_organization": null
            }, 
            "body": "<p><a href=\"https://decidim.barcelona/proposals/promoure-i-regular-el-turisme-col-laboratiu\">https://decidim.barcelona/proposals/promoure-i-regular-el-turisme-col-laboratiu</a></p>", 
            "commentable_id": 2936, 
            "commentable_type": "Proposal", 
            "created_at": "09/04/2016 14:34:10", 
            "flagged": false, 
            "hidden": false, 
            "id": 12298, 
            "moderator_id": null, 
            "permissions": {
                "hide": false, 
                "hide_author": false, 
                "vote": false
            }, 
            "total_dislikes": 0, 
            "total_likes": 0, 
            "total_votes": 0
        }, 
        {
            "administrator_id": null, 
            "alignment": 0, 
            "ancestry": null, 
            "as": null, 
            "author": {
                "avatar_image": "https://decidim.barcelona/assets/avatar-866795c99abc33a3160d1f3fa93ada46eb75e54134e777666b9ed16215b26534.png", 
                "erased": false, 
                "hidden": false, 
                "id": 9262, 
                "name": "Suport General - Decidim Barcelona", 
                "official": false, 
                "official_level": 0, 
                "role": null, 
                "verified_organization": null
            }, 
            "body": "<p><a href=\"https://decidim.barcelona/proposals/reordenar-hut-turisme-per-redistribucio-economica-a-la-gent-enlloc-d-empreses\">https://decidim.barcelona/proposals/reordenar-hut-turisme-per-redistribucio-economica-a-la-gent-enlloc-d-empreses</a></p>", 
            "commentable_id": 2936, 
            "commentable_type": "Proposal", 
            "created_at": "09/04/2016 14:34:18", 
            "flagged": false, 
            "hidden": false, 
            "id": 12299, 
            "moderator_id": null, 
            "permissions": {
                "hide": false, 
                "hide_author": false, 
                "vote": false
            }, 
            "total_dislikes": 0, 
            "total_likes": 0, 
            "total_votes": 0
        }, 
        {
            "administrator_id": null, 
            "alignment": 0, 
            "ancestry": null, 
            "as": null, 
            "author": {
                "avatar_image": "https://decidim.barcelona/assets/avatar-866795c99abc33a3160d1f3fa93ada46eb75e54134e777666b9ed16215b26534.png", 
                "erased": false, 
                "hidden": false, 
                "id": 9262, 
                "name": "Suport General - Decidim Barcelona", 
                "official": false, 
                "official_level": 0, 
                "role": null, 
                "verified_organization": null
            }, 
            "body": "<p><a href=\"https://decidim.barcelona/proposals/limitar-el-nombre-de-llicencies-d-habitatges-d-us-turistic-i-la-seva-vigencia-de-tal-manera-que-quan-caduqui-es-faci-un-sorteig\">https://decidim.barcelona/proposals/limitar-el-nombre-de-llicencies-d-habitatges-d-us-turistic-i-la-seva-vigencia-de-tal-manera-que-quan-caduqui-es-faci-un-sorteig</a></p>", 
            "commentable_id": 2936, 
            "commentable_type": "Proposal", 
            "created_at": "09/04/2016 14:44:37", 
            "flagged": false, 
            "hidden": false, 
            "id": 12336, 
            "moderator_id": null, 
            "permissions": {
                "hide": false, 
                "hide_author": false, 
                "vote": false
            }, 
            "total_dislikes": 0, 
            "total_likes": 0, 
            "total_votes": 0
        }, 
        {
            "administrator_id": null, 
            "alignment": 0, 
            "ancestry": null, 
            "as": null, 
            "author": {
                "avatar_image": "https://decidim.barcelona/assets/avatar-866795c99abc33a3160d1f3fa93ada46eb75e54134e777666b9ed16215b26534.png", 
                "erased": false, 
                "hidden": false, 
                "id": 9262, 
                "name": "Suport General - Decidim Barcelona", 
                "official": false, 
                "official_level": 0, 
                "role": null, 
                "verified_organization": null
            }, 
            "body": "<p><a href=\"https://decidim.barcelona/proposals/potenciar-els-bed-breakfast-com-a-projectes-de-sostenibilitat-socio-economica\">https://decidim.barcelona/proposals/potenciar-els-bed-breakfast-com-a-projectes-de-sostenibilitat-socio-economica</a></p>", 
            "commentable_id": 2936, 
            "commentable_type": "Proposal", 
            "created_at": "09/04/2016 14:50:40", 
            "flagged": false, 
            "hidden": false, 
            "id": 12359, 
            "moderator_id": null, 
            "permissions": {
                "hide": false, 
                "hide_author": false, 
                "vote": false
            }, 
            "total_dislikes": 0, 
            "total_likes": 0, 
            "total_votes": 0
        }, 
        {
            "administrator_id": null, 
            "alignment": 0, 
            "ancestry": null, 
            "as": null, 
            "author": {
                "avatar_image": "https://decidim.barcelona/assets/avatar-866795c99abc33a3160d1f3fa93ada46eb75e54134e777666b9ed16215b26534.png", 
                "erased": false, 
                "hidden": false, 
                "id": 9262, 
                "name": "Suport General - Decidim Barcelona", 
                "official": false, 
                "official_level": 0, 
                "role": null, 
                "verified_organization": null
            }, 
            "body": "<p><a href=\"https://decidim.barcelona/proposals/fomentar-mes-llicencies-d-habitatges-d-us-turistic-perseguint-la-il-legalitat-dels-allotjaments-turistic-furtivisme-turistic\">https://decidim.barcelona/proposals/fomentar-mes-llicencies-d-habitatges-d-us-turistic-perseguint-la-il-legalitat-dels-allotjaments-turistic-furtivisme-turistic</a></p>", 
            "commentable_id": 2936, 
            "commentable_type": "Proposal", 
            "created_at": "13/04/2016 10:56:26", 
            "flagged": false, 
            "hidden": false, 
            "id": 14352, 
            "moderator_id": null, 
            "permissions": {
                "hide": false, 
                "hide_author": false, 
                "vote": false
            }, 
            "total_dislikes": 0, 
            "total_likes": 0, 
            "total_votes": 0
        }, 
        {
            "administrator_id": null, 
            "alignment": 0, 
            "ancestry": null, 
            "as": null, 
            "author": {
                "avatar_image": "https://decidim.barcelona/assets/avatar-866795c99abc33a3160d1f3fa93ada46eb75e54134e777666b9ed16215b26534.png", 
                "erased": false, 
                "hidden": false, 
                "id": 9262, 
                "name": "Suport General - Decidim Barcelona", 
                "official": false, 
                "official_level": 0, 
                "role": null, 
                "verified_organization": null
            }, 
            "body": "<p><a href=\"https://decidim.barcelona/proposals/aprofitar-la-taxa-turistica-per-rescatar-llicencies-d-allotjaments-turistics\">https://decidim.barcelona/proposals/aprofitar-la-taxa-turistica-per-rescatar-llicencies-d-allotjaments-turistics</a></p>", 
            "commentable_id": 2936, 
            "commentable_type": "Proposal", 
            "created_at": "13/04/2016 10:59:57", 
            "flagged": false, 
            "hidden": false, 
            "id": 14357, 
            "moderator_id": null, 
            "permissions": {
                "hide": false, 
                "hide_author": false, 
                "vote": false
            }, 
            "total_dislikes": 0, 
            "total_likes": 0, 
            "total_votes": 0
        }, 
        {
            "administrator_id": null, 
            "alignment": 0, 
            "ancestry": null, 
            "as": null, 
            "author": {
                "avatar_image": "https://decidim.barcelona/assets/avatar-866795c99abc33a3160d1f3fa93ada46eb75e54134e777666b9ed16215b26534.png", 
                "erased": false, 
                "hidden": false, 
                "id": 9262, 
                "name": "Suport General - Decidim Barcelona", 
                "official": false, 
                "official_level": 0, 
                "role": null, 
                "verified_organization": null
            }, 
            "body": "<p><a href=\"https://decidim.barcelona/proposals/marc-normatiu-d-habitatge-turistic\">https://decidim.barcelona/proposals/marc-normatiu-d-habitatge-turistic</a></p>", 
            "commentable_id": 2936, 
            "commentable_type": "Proposal", 
            "created_at": "13/04/2016 11:03:39", 
            "flagged": false, 
            "hidden": false, 
            "id": 14364, 
            "moderator_id": null, 
            "permissions": {
                "hide": false, 
                "hide_author": false, 
                "vote": false
            }, 
            "total_dislikes": 0, 
            "total_likes": 0, 
            "total_votes": 0
        }, 
        {
            "administrator_id": null, 
            "alignment": 0, 
            "ancestry": null, 
            "as": null, 
            "author": {
                "avatar_image": "https://decidim.barcelona/assets/avatar-866795c99abc33a3160d1f3fa93ada46eb75e54134e777666b9ed16215b26534.png", 
                "erased": false, 
                "hidden": false, 
                "id": 9262, 
                "name": "Suport General - Decidim Barcelona", 
                "official": false, 
                "official_level": 0, 
                "role": null, 
                "verified_organization": null
            }, 
            "body": "<p><a href=\"https://decidim.barcelona/proposals/normes-pels-apartaments-turistics-habitatges-d-us-turistics\">https://decidim.barcelona/proposals/normes-pels-apartaments-turistics-habitatges-d-us-turistics</a></p>", 
            "commentable_id": 2936, 
            "commentable_type": "Proposal", 
            "created_at": "13/04/2016 11:15:57", 
            "flagged": false, 
            "hidden": false, 
            "id": 14404, 
            "moderator_id": null, 
            "permissions": {
                "hide": false, 
                "hide_author": false, 
                "vote": false
            }, 
            "total_dislikes": 0, 
            "total_likes": 0, 
            "total_votes": 0
        }, 
        {
            "administrator_id": null, 
            "alignment": 0, 
            "ancestry": null, 
            "as": null, 
            "author": {
                "avatar_image": "https://decidim.barcelona/assets/avatar-866795c99abc33a3160d1f3fa93ada46eb75e54134e777666b9ed16215b26534.png", 
                "erased": false, 
                "hidden": false, 
                "id": 9262, 
                "name": "Suport General - Decidim Barcelona", 
                "official": false, 
                "official_level": 0, 
                "role": null, 
                "verified_organization": null
            }, 
            "body": "<p><a href=\"https://decidim.barcelona/proposals/control-i-tancament-dels-apartaments-turistics-il-legals-a79d3926-9e33-45e3-92bf-d34fb73b0f21\">https://decidim.barcelona/proposals/control-i-tancament-dels-apartaments-turistics-il-legals-a79d3926-9e33-45e3-92bf-d34fb73b0f21</a></p>", 
            "commentable_id": 2936, 
            "commentable_type": "Proposal", 
            "created_at": "13/04/2016 11:18:01", 
            "flagged": false, 
            "hidden": false, 
            "id": 14411, 
            "moderator_id": null, 
            "permissions": {
                "hide": false, 
                "hide_author": false, 
                "vote": false
            }, 
            "total_dislikes": 0, 
            "total_likes": 0, 
            "total_votes": 0
        }, 
        {
            "administrator_id": null, 
            "alignment": 0, 
            "ancestry": null, 
            "as": null, 
            "author": {
                "avatar_image": "https://decidim.barcelona/assets/avatar-866795c99abc33a3160d1f3fa93ada46eb75e54134e777666b9ed16215b26534.png", 
                "erased": false, 
                "hidden": false, 
                "id": 9262, 
                "name": "Suport General - Decidim Barcelona", 
                "official": false, 
                "official_level": 0, 
                "role": null, 
                "verified_organization": null
            }, 
            "body": "<p><a href=\"https://decidim.barcelona/proposals/control-i-tancament-dels-apartaments-turistics-il-legals-0a014f92-eda8-414e-8846-f605c58383f5\">https://decidim.barcelona/proposals/control-i-tancament-dels-apartaments-turistics-il-legals-0a014f92-eda8-414e-8846-f605c58383f5</a></p>", 
            "commentable_id": 2936, 
            "commentable_type": "Proposal", 
            "created_at": "13/04/2016 11:19:03", 
            "flagged": false, 
            "hidden": false, 
            "id": 14417, 
            "moderator_id": null, 
            "permissions": {
                "hide": false, 
                "hide_author": false, 
                "vote": false
            }, 
            "total_dislikes": 0, 
            "total_likes": 0, 
            "total_votes": 0
        }, 
        {
            "administrator_id": null, 
            "alignment": 0, 
            "ancestry": null, 
            "as": null, 
            "author": {
                "avatar_image": "https://decidim.barcelona/assets/avatar-866795c99abc33a3160d1f3fa93ada46eb75e54134e777666b9ed16215b26534.png", 
                "erased": false, 
                "hidden": false, 
                "id": 9262, 
                "name": "Suport General - Decidim Barcelona", 
                "official": false, 
                "official_level": 0, 
                "role": null, 
                "verified_organization": null
            }, 
            "body": "<p><a href=\"https://decidim.barcelona/proposals/pla-d-allotjament-turistic\">https://decidim.barcelona/proposals/pla-d-allotjament-turistic</a></p>", 
            "commentable_id": 2936, 
            "commentable_type": "Proposal", 
            "created_at": "13/04/2016 11:23:36", 
            "flagged": false, 
            "hidden": false, 
            "id": 14431, 
            "moderator_id": null, 
            "permissions": {
                "hide": false, 
                "hide_author": false, 
                "vote": false
            }, 
            "total_dislikes": 0, 
            "total_likes": 0, 
            "total_votes": 0
        }, 
        {
            "administrator_id": null, 
            "alignment": 0, 
            "ancestry": null, 
            "as": null, 
            "author": {
                "avatar_image": "https://decidim.barcelona/assets/avatar-866795c99abc33a3160d1f3fa93ada46eb75e54134e777666b9ed16215b26534.png", 
                "erased": false, 
                "hidden": false, 
                "id": 9262, 
                "name": "Suport General - Decidim Barcelona", 
                "official": false, 
                "official_level": 0, 
                "role": null, 
                "verified_organization": null
            }, 
            "body": "<p><a href=\"https://decidim.barcelona/proposals/pla-d-allotjament-turistic-cc56fb91-67a2-4d08-b865-7ad81a8d8590\">https://decidim.barcelona/proposals/pla-d-allotjament-turistic-cc56fb91-67a2-4d08-b865-7ad81a8d8590</a></p>", 
            "commentable_id": 2936, 
            "commentable_type": "Proposal", 
            "created_at": "13/04/2016 11:24:14", 
            "flagged": false, 
            "hidden": false, 
            "id": 14433, 
            "moderator_id": null, 
            "permissions": {
                "hide": false, 
                "hide_author": false, 
                "vote": false
            }, 
            "total_dislikes": 0, 
            "total_likes": 0, 
            "total_votes": 0
        }, 
        {
            "administrator_id": null, 
            "alignment": 0, 
            "ancestry": null, 
            "as": null, 
            "author": {
                "avatar_image": "https://decidim.barcelona/assets/avatar-866795c99abc33a3160d1f3fa93ada46eb75e54134e777666b9ed16215b26534.png", 
                "erased": false, 
                "hidden": false, 
                "id": 9262, 
                "name": "Suport General - Decidim Barcelona", 
                "official": false, 
                "official_level": 0, 
                "role": null, 
                "verified_organization": null
            }, 
            "body": "<p><a href=\"https://decidim.barcelona/proposals/regular-els-pisos-turistics-al-poblesec\">https://decidim.barcelona/proposals/regular-els-pisos-turistics-al-poblesec</a></p>", 
            "commentable_id": 2936, 
            "commentable_type": "Proposal", 
            "created_at": "15/04/2016 16:07:39", 
            "flagged": false, 
            "hidden": false, 
            "id": 17223, 
            "moderator_id": null, 
            "permissions": {
                "hide": false, 
                "hide_author": false, 
                "vote": false
            }, 
            "total_dislikes": 0, 
            "total_likes": 0, 
            "total_votes": 0
        }, 
        {
            "administrator_id": null, 
            "alignment": 0, 
            "ancestry": null, 
            "as": null, 
            "author": {
                "avatar_image": "https://decidim.barcelona/assets/avatar-866795c99abc33a3160d1f3fa93ada46eb75e54134e777666b9ed16215b26534.png", 
                "erased": false, 
                "hidden": false, 
                "id": 9262, 
                "name": "Suport General - Decidim Barcelona", 
                "official": false, 
                "official_level": 0, 
                "role": null, 
                "verified_organization": null
            }, 
            "body": "<p><a href=\"https://decidim.barcelona/proposals/regular-els-pisos-turistics-a-hostafrancs\">https://decidim.barcelona/proposals/regular-els-pisos-turistics-a-hostafrancs</a></p>", 
            "commentable_id": 2936, 
            "commentable_type": "Proposal", 
            "created_at": "15/04/2016 16:10:38", 
            "flagged": false, 
            "hidden": false, 
            "id": 17227, 
            "moderator_id": null, 
            "permissions": {
                "hide": false, 
                "hide_author": false, 
                "vote": false
            }, 
            "total_dislikes": 0, 
            "total_likes": 0, 
            "total_votes": 0
        }, 
        {
            "administrator_id": null, 
            "alignment": 0, 
            "ancestry": null, 
            "as": null, 
            "author": {
                "avatar_image": "https://decidim.barcelona/assets/avatar-866795c99abc33a3160d1f3fa93ada46eb75e54134e777666b9ed16215b26534.png", 
                "erased": false, 
                "hidden": false, 
                "id": 9262, 
                "name": "Suport General - Decidim Barcelona", 
                "official": false, 
                "official_level": 0, 
                "role": null, 
                "verified_organization": null
            }, 
            "body": "<p><a href=\"https://decidim.barcelona/proposals/regular-i-contorlar-el-turisme-a-la-marina\">https://decidim.barcelona/proposals/regular-i-contorlar-el-turisme-a-la-marina</a></p>", 
            "commentable_id": 2936, 
            "commentable_type": "Proposal", 
            "created_at": "15/04/2016 16:14:01", 
            "flagged": false, 
            "hidden": false, 
            "id": 17234, 
            "moderator_id": null, 
            "permissions": {
                "hide": false, 
                "hide_author": false, 
                "vote": false
            }, 
            "total_dislikes": 0, 
            "total_likes": 0, 
            "total_votes": 0
        }
    ], 
    "meta": {
        "current_page": 3, 
        "next_page": 4, 
        "prev_page": 2, 
        "total_count": 61, 
        "total_pages": 4
    }
}