{
    "comments": [
        {
            "administrator_id": null, 
            "alignment": 0, 
            "ancestry": null, 
            "as": null, 
            "author": {
                "avatar_image": "https://decidim.barcelona/assets/avatar-866795c99abc33a3160d1f3fa93ada46eb75e54134e777666b9ed16215b26534.png", 
                "erased": false, 
                "hidden": false, 
                "id": 9262, 
                "name": "Suport General - Decidim Barcelona", 
                "official": false, 
                "official_level": 0, 
                "role": null, 
                "verified_organization": null
            }, 
            "body": "<p><a href=\"https://decidim.barcelona/proposals/trasllat-de-bancs-per-seure-de-rambla-catalunya-al-c-balmes\">https://decidim.barcelona/proposals/trasllat-de-bancs-per-seure-de-rambla-catalunya-al-c-balmes</a></p>", 
            "commentable_id": 2944, 
            "commentable_type": "Proposal", 
            "created_at": "06/04/2016 18:03:54", 
            "flagged": false, 
            "hidden": false, 
            "id": 8789, 
            "moderator_id": null, 
            "permissions": {
                "hide": false, 
                "hide_author": false, 
                "vote": false
            }, 
            "total_dislikes": 0, 
            "total_likes": 0, 
            "total_votes": 0
        }, 
        {
            "administrator_id": null, 
            "alignment": 0, 
            "ancestry": null, 
            "as": null, 
            "author": {
                "avatar_image": "https://decidim.barcelona/assets/avatar-866795c99abc33a3160d1f3fa93ada46eb75e54134e777666b9ed16215b26534.png", 
                "erased": false, 
                "hidden": false, 
                "id": 9262, 
                "name": "Suport General - Decidim Barcelona", 
                "official": false, 
                "official_level": 0, 
                "role": null, 
                "verified_organization": null
            }, 
            "body": "<p><a href=\"https://decidim.barcelona/proposals/posar-papereres-amb-cendrers-al-carrer-horta-amb-cami-de-l-esglesia\">https://decidim.barcelona/proposals/posar-papereres-amb-cendrers-al-carrer-horta-amb-cami-de-l-esglesia</a></p>", 
            "commentable_id": 2944, 
            "commentable_type": "Proposal", 
            "created_at": "06/04/2016 18:16:24", 
            "flagged": false, 
            "hidden": false, 
            "id": 8804, 
            "moderator_id": null, 
            "permissions": {
                "hide": false, 
                "hide_author": false, 
                "vote": false
            }, 
            "total_dislikes": 0, 
            "total_likes": 0, 
            "total_votes": 0
        }, 
        {
            "administrator_id": null, 
            "alignment": 0, 
            "ancestry": null, 
            "as": null, 
            "author": {
                "avatar_image": "https://decidim.barcelona/assets/avatar-866795c99abc33a3160d1f3fa93ada46eb75e54134e777666b9ed16215b26534.png", 
                "erased": false, 
                "hidden": false, 
                "id": 17740, 
                "name": "Suport General2 - Decidim Barcelona", 
                "official": false, 
                "official_level": 0, 
                "role": null, 
                "verified_organization": null
            }, 
            "body": "<p><a href=\"https://decidim.barcelona/proposals/netejar-pintar-l-estacio-i-vestibuls-del-metro-pl-catalunya\">https://decidim.barcelona/proposals/netejar-pintar-l-estacio-i-vestibuls-del-metro-pl-catalunya</a></p>", 
            "commentable_id": 2944, 
            "commentable_type": "Proposal", 
            "created_at": "06/04/2016 20:28:46", 
            "flagged": false, 
            "hidden": false, 
            "id": 8907, 
            "moderator_id": null, 
            "permissions": {
                "hide": false, 
                "hide_author": false, 
                "vote": false
            }, 
            "total_dislikes": 0, 
            "total_likes": 0, 
            "total_votes": 0
        }, 
        {
            "administrator_id": null, 
            "alignment": 0, 
            "ancestry": null, 
            "as": null, 
            "author": {
                "avatar_image": "https://decidim.barcelona/assets/avatar-866795c99abc33a3160d1f3fa93ada46eb75e54134e777666b9ed16215b26534.png", 
                "erased": false, 
                "hidden": false, 
                "id": 17740, 
                "name": "Suport General2 - Decidim Barcelona", 
                "official": false, 
                "official_level": 0, 
                "role": null, 
                "verified_organization": null
            }, 
            "body": "<p><a href=\"https://decidim.barcelona/proposals/serveis-als-mercats\">https://decidim.barcelona/proposals/serveis-als-mercats</a></p>", 
            "commentable_id": 2944, 
            "commentable_type": "Proposal", 
            "created_at": "06/04/2016 20:33:53", 
            "flagged": false, 
            "hidden": false, 
            "id": 8913, 
            "moderator_id": null, 
            "permissions": {
                "hide": false, 
                "hide_author": false, 
                "vote": false
            }, 
            "total_dislikes": 0, 
            "total_likes": 0, 
            "total_votes": 0
        }, 
        {
            "administrator_id": null, 
            "alignment": 0, 
            "ancestry": null, 
            "as": null, 
            "author": {
                "avatar_image": "https://decidim.barcelona/assets/avatar-866795c99abc33a3160d1f3fa93ada46eb75e54134e777666b9ed16215b26534.png", 
                "erased": false, 
                "hidden": false, 
                "id": 17740, 
                "name": "Suport General2 - Decidim Barcelona", 
                "official": false, 
                "official_level": 0, 
                "role": null, 
                "verified_organization": null
            }, 
            "body": "<p><a href=\"https://decidim.barcelona/proposals/urinaris-publics-818fcf72-5142-4512-aaff-33b2877ee38f\">https://decidim.barcelona/proposals/urinaris-publics-818fcf72-5142-4512-aaff-33b2877ee38f</a></p>", 
            "commentable_id": 2944, 
            "commentable_type": "Proposal", 
            "created_at": "06/04/2016 20:34:14", 
            "flagged": false, 
            "hidden": false, 
            "id": 8914, 
            "moderator_id": null, 
            "permissions": {
                "hide": false, 
                "hide_author": false, 
                "vote": false
            }, 
            "total_dislikes": 0, 
            "total_likes": 0, 
            "total_votes": 0
        }, 
        {
            "administrator_id": null, 
            "alignment": 0, 
            "ancestry": null, 
            "as": null, 
            "author": {
                "avatar_image": "https://decidim.barcelona/assets/avatar-866795c99abc33a3160d1f3fa93ada46eb75e54134e777666b9ed16215b26534.png", 
                "erased": false, 
                "hidden": false, 
                "id": 17740, 
                "name": "Suport General2 - Decidim Barcelona", 
                "official": false, 
                "official_level": 0, 
                "role": null, 
                "verified_organization": null
            }, 
            "body": "<p><a href=\"https://decidim.barcelona/proposals/mas-bancos-para-sentarse-en-la-calle\">https://decidim.barcelona/proposals/mas-bancos-para-sentarse-en-la-calle</a></p>", 
            "commentable_id": 2944, 
            "commentable_type": "Proposal", 
            "created_at": "06/04/2016 20:40:48", 
            "flagged": false, 
            "hidden": false, 
            "id": 8920, 
            "moderator_id": null, 
            "permissions": {
                "hide": false, 
                "hide_author": false, 
                "vote": false
            }, 
            "total_dislikes": 0, 
            "total_likes": 0, 
            "total_votes": 0
        }, 
        {
            "administrator_id": null, 
            "alignment": 0, 
            "ancestry": null, 
            "as": null, 
            "author": {
                "avatar_image": "https://decidim.barcelona/assets/avatar-866795c99abc33a3160d1f3fa93ada46eb75e54134e777666b9ed16215b26534.png", 
                "erased": false, 
                "hidden": false, 
                "id": 17740, 
                "name": "Suport General2 - Decidim Barcelona", 
                "official": false, 
                "official_level": 0, 
                "role": null, 
                "verified_organization": null
            }, 
            "body": "<p><a href=\"https://decidim.barcelona/proposals/habilitacio-de-wc-publics-i-gratuits\">https://decidim.barcelona/proposals/habilitacio-de-wc-publics-i-gratuits</a></p>", 
            "commentable_id": 2944, 
            "commentable_type": "Proposal", 
            "created_at": "06/04/2016 20:45:45", 
            "flagged": false, 
            "hidden": false, 
            "id": 8928, 
            "moderator_id": null, 
            "permissions": {
                "hide": false, 
                "hide_author": false, 
                "vote": false
            }, 
            "total_dislikes": 0, 
            "total_likes": 0, 
            "total_votes": 0
        }, 
        {
            "administrator_id": null, 
            "alignment": 0, 
            "ancestry": null, 
            "as": null, 
            "author": {
                "avatar_image": "https://decidim.barcelona/assets/avatar-866795c99abc33a3160d1f3fa93ada46eb75e54134e777666b9ed16215b26534.png", 
                "erased": false, 
                "hidden": false, 
                "id": 17740, 
                "name": "Suport General2 - Decidim Barcelona", 
                "official": false, 
                "official_level": 0, 
                "role": null, 
                "verified_organization": null
            }, 
            "body": "<p><a href=\"https://decidim.barcelona/proposals/lavabos-publics\">https://decidim.barcelona/proposals/lavabos-publics</a></p>", 
            "commentable_id": 2944, 
            "commentable_type": "Proposal", 
            "created_at": "06/04/2016 20:51:45", 
            "flagged": false, 
            "hidden": false, 
            "id": 8933, 
            "moderator_id": null, 
            "permissions": {
                "hide": false, 
                "hide_author": false, 
                "vote": false
            }, 
            "total_dislikes": 0, 
            "total_likes": 0, 
            "total_votes": 0
        }, 
        {
            "administrator_id": null, 
            "alignment": 0, 
            "ancestry": null, 
            "as": null, 
            "author": {
                "avatar_image": "https://decidim.barcelona/assets/avatar-866795c99abc33a3160d1f3fa93ada46eb75e54134e777666b9ed16215b26534.png", 
                "erased": false, 
                "hidden": false, 
                "id": 17740, 
                "name": "Suport General2 - Decidim Barcelona", 
                "official": false, 
                "official_level": 0, 
                "role": null, 
                "verified_organization": null
            }, 
            "body": "<p><a href=\"https://decidim.barcelona/proposals/fonts\">https://decidim.barcelona/proposals/fonts</a></p>", 
            "commentable_id": 2944, 
            "commentable_type": "Proposal", 
            "created_at": "06/04/2016 20:54:44", 
            "flagged": false, 
            "hidden": false, 
            "id": 8937, 
            "moderator_id": null, 
            "permissions": {
                "hide": false, 
                "hide_author": false, 
                "vote": false
            }, 
            "total_dislikes": 0, 
            "total_likes": 0, 
            "total_votes": 0
        }, 
        {
            "administrator_id": null, 
            "alignment": 0, 
            "ancestry": null, 
            "as": null, 
            "author": {
                "avatar_image": "https://decidim.barcelona/assets/avatar-866795c99abc33a3160d1f3fa93ada46eb75e54134e777666b9ed16215b26534.png", 
                "erased": false, 
                "hidden": false, 
                "id": 17741, 
                "name": "Suport General3 - Decidim Barcelona", 
                "official": false, 
                "official_level": 0, 
                "role": null, 
                "verified_organization": null
            }, 
            "body": "<p><a href=\"https://decidim.barcelona/proposals/fuita-d-aigua-en-parcs-jardins-i-parterres-l-aigua-tambe-ha-de-ser-sostenible\">https://decidim.barcelona/proposals/fuita-d-aigua-en-parcs-jardins-i-parterres-l-aigua-tambe-ha-de-ser-sostenible</a></p>", 
            "commentable_id": 2944, 
            "commentable_type": "Proposal", 
            "created_at": "07/04/2016 14:38:46", 
            "flagged": false, 
            "hidden": false, 
            "id": 9493, 
            "moderator_id": null, 
            "permissions": {
                "hide": false, 
                "hide_author": false, 
                "vote": false
            }, 
            "total_dislikes": 0, 
            "total_likes": 0, 
            "total_votes": 0
        }, 
        {
            "administrator_id": null, 
            "alignment": 0, 
            "ancestry": null, 
            "as": null, 
            "author": {
                "avatar_image": "https://decidim.barcelona/assets/avatar-866795c99abc33a3160d1f3fa93ada46eb75e54134e777666b9ed16215b26534.png", 
                "erased": false, 
                "hidden": false, 
                "id": 17741, 
                "name": "Suport General3 - Decidim Barcelona", 
                "official": false, 
                "official_level": 0, 
                "role": null, 
                "verified_organization": null
            }, 
            "body": "<p><a href=\"https://decidim.barcelona/proposals?filter=scope=city:source=citizenship:reviewer_status=not_reviewed:category_id=3:subcategory_id=14&amp;order=confidence_score&amp;random_seed=-0.27100811452850126\">https://decidim.barcelona/proposals?filter=scope=city:source=citizenship:reviewer_status=not_reviewed:category_id=3:subcategory_id=14&amp;order=confidence_score&amp;random_seed=-0.27100811452850126</a></p>", 
            "commentable_id": 2944, 
            "commentable_type": "Proposal", 
            "created_at": "08/04/2016 14:27:48", 
            "flagged": false, 
            "hidden": false, 
            "id": 10928, 
            "moderator_id": null, 
            "permissions": {
                "hide": false, 
                "hide_author": false, 
                "vote": false
            }, 
            "total_dislikes": 0, 
            "total_likes": 0, 
            "total_votes": 0
        }, 
        {
            "administrator_id": null, 
            "alignment": 0, 
            "ancestry": null, 
            "as": null, 
            "author": {
                "avatar_image": "https://decidim.barcelona/assets/avatar-866795c99abc33a3160d1f3fa93ada46eb75e54134e777666b9ed16215b26534.png", 
                "erased": false, 
                "hidden": false, 
                "id": 17741, 
                "name": "Suport General3 - Decidim Barcelona", 
                "official": false, 
                "official_level": 0, 
                "role": null, 
                "verified_organization": null
            }, 
            "body": "<p><a href=\"https://decidim.barcelona/proposals/anivellar-escocells-de-les-voreres-amb-asfalt-de-drenatje\">https://decidim.barcelona/proposals/anivellar-escocells-de-les-voreres-amb-asfalt-de-drenatje</a></p>", 
            "commentable_id": 2944, 
            "commentable_type": "Proposal", 
            "created_at": "08/04/2016 14:33:28", 
            "flagged": false, 
            "hidden": false, 
            "id": 10945, 
            "moderator_id": null, 
            "permissions": {
                "hide": false, 
                "hide_author": false, 
                "vote": false
            }, 
            "total_dislikes": 0, 
            "total_likes": 0, 
            "total_votes": 0
        }, 
        {
            "administrator_id": null, 
            "alignment": 0, 
            "ancestry": null, 
            "as": null, 
            "author": {
                "avatar_image": "https://decidim.barcelona/assets/avatar-866795c99abc33a3160d1f3fa93ada46eb75e54134e777666b9ed16215b26534.png", 
                "erased": false, 
                "hidden": false, 
                "id": 9262, 
                "name": "Suport General - Decidim Barcelona", 
                "official": false, 
                "official_level": 0, 
                "role": null, 
                "verified_organization": null
            }, 
            "body": "<p><a href=\"https://decidim.barcelona/proposals/millorar-l-espai-public-amb-mes-inversio\">https://decidim.barcelona/proposals/millorar-l-espai-public-amb-mes-inversio</a></p>", 
            "commentable_id": 2944, 
            "commentable_type": "Proposal", 
            "created_at": "09/04/2016 10:35:31", 
            "flagged": false, 
            "hidden": false, 
            "id": 11626, 
            "moderator_id": null, 
            "permissions": {
                "hide": false, 
                "hide_author": false, 
                "vote": false
            }, 
            "total_dislikes": 0, 
            "total_likes": 0, 
            "total_votes": 0
        }, 
        {
            "administrator_id": null, 
            "alignment": 0, 
            "ancestry": null, 
            "as": null, 
            "author": {
                "avatar_image": "https://decidim.barcelona/assets/avatar-866795c99abc33a3160d1f3fa93ada46eb75e54134e777666b9ed16215b26534.png", 
                "erased": false, 
                "hidden": false, 
                "id": 17741, 
                "name": "Suport General3 - Decidim Barcelona", 
                "official": false, 
                "official_level": 0, 
                "role": null, 
                "verified_organization": null
            }, 
            "body": "<p><a href=\"https://decidim.barcelona/proposals/homogenitzacio-dels-procesos-d-ordenacio-de-l-espai-public\">https://decidim.barcelona/proposals/homogenitzacio-dels-procesos-d-ordenacio-de-l-espai-public</a></p>", 
            "commentable_id": 2944, 
            "commentable_type": "Proposal", 
            "created_at": "09/04/2016 11:47:18", 
            "flagged": false, 
            "hidden": false, 
            "id": 11815, 
            "moderator_id": null, 
            "permissions": {
                "hide": false, 
                "hide_author": false, 
                "vote": false
            }, 
            "total_dislikes": 0, 
            "total_likes": 0, 
            "total_votes": 0
        }, 
        {
            "administrator_id": null, 
            "alignment": 0, 
            "ancestry": null, 
            "as": null, 
            "author": {
                "avatar_image": "https://decidim.barcelona/assets/avatar-866795c99abc33a3160d1f3fa93ada46eb75e54134e777666b9ed16215b26534.png", 
                "erased": false, 
                "hidden": false, 
                "id": 17741, 
                "name": "Suport General3 - Decidim Barcelona", 
                "official": false, 
                "official_level": 0, 
                "role": null, 
                "verified_organization": null
            }, 
            "body": "<p><a href=\"https://decidim.barcelona/proposals/adecentar-racons-de-la-ciutat\">https://decidim.barcelona/proposals/adecentar-racons-de-la-ciutat</a></p>", 
            "commentable_id": 2944, 
            "commentable_type": "Proposal", 
            "created_at": "09/04/2016 11:55:31", 
            "flagged": false, 
            "hidden": false, 
            "id": 11828, 
            "moderator_id": null, 
            "permissions": {
                "hide": false, 
                "hide_author": false, 
                "vote": false
            }, 
            "total_dislikes": 0, 
            "total_likes": 0, 
            "total_votes": 0
        }, 
        {
            "administrator_id": null, 
            "alignment": 0, 
            "ancestry": null, 
            "as": null, 
            "author": {
                "avatar_image": "https://decidim.barcelona/assets/avatar-866795c99abc33a3160d1f3fa93ada46eb75e54134e777666b9ed16215b26534.png", 
                "erased": false, 
                "hidden": false, 
                "id": 17741, 
                "name": "Suport General3 - Decidim Barcelona", 
                "official": false, 
                "official_level": 0, 
                "role": null, 
                "verified_organization": null
            }, 
            "body": "<p><a href=\"https://decidim.barcelona/proposals/semafors-amb-boto-per-activar-pas-peatons\">https://decidim.barcelona/proposals/semafors-amb-boto-per-activar-pas-peatons</a></p>", 
            "commentable_id": 2944, 
            "commentable_type": "Proposal", 
            "created_at": "09/04/2016 12:05:19", 
            "flagged": false, 
            "hidden": false, 
            "id": 11862, 
            "moderator_id": null, 
            "permissions": {
                "hide": false, 
                "hide_author": false, 
                "vote": false
            }, 
            "total_dislikes": 0, 
            "total_likes": 0, 
            "total_votes": 0
        }, 
        {
            "administrator_id": null, 
            "alignment": 0, 
            "ancestry": null, 
            "as": null, 
            "author": {
                "avatar_image": "https://decidim.barcelona/assets/avatar-866795c99abc33a3160d1f3fa93ada46eb75e54134e777666b9ed16215b26534.png", 
                "erased": false, 
                "hidden": false, 
                "id": 17741, 
                "name": "Suport General3 - Decidim Barcelona", 
                "official": false, 
                "official_level": 0, 
                "role": null, 
                "verified_organization": null
            }, 
            "body": "<p><a href=\"https://decidim.barcelona/proposals/reparar-els-desperfectes-del-paviment-de-carrers-i-places-8bff7429-219b-4e9f-a0e2-fca41b48a344\">https://decidim.barcelona/proposals/reparar-els-desperfectes-del-paviment-de-carrers-i-places-8bff7429-219b-4e9f-a0e2-fca41b48a344</a></p>", 
            "commentable_id": 2944, 
            "commentable_type": "Proposal", 
            "created_at": "09/04/2016 13:04:06", 
            "flagged": false, 
            "hidden": false, 
            "id": 12042, 
            "moderator_id": null, 
            "permissions": {
                "hide": false, 
                "hide_author": false, 
                "vote": false
            }, 
            "total_dislikes": 0, 
            "total_likes": 0, 
            "total_votes": 0
        }, 
        {
            "administrator_id": null, 
            "alignment": 0, 
            "ancestry": null, 
            "as": null, 
            "author": {
                "avatar_image": "https://decidim.barcelona/assets/avatar-866795c99abc33a3160d1f3fa93ada46eb75e54134e777666b9ed16215b26534.png", 
                "erased": false, 
                "hidden": false, 
                "id": 9262, 
                "name": "Suport General - Decidim Barcelona", 
                "official": false, 
                "official_level": 0, 
                "role": null, 
                "verified_organization": null
            }, 
            "body": "<p><a href=\"https://decidim.barcelona/proposals/voreres-lliures-de-motos\">https://decidim.barcelona/proposals/voreres-lliures-de-motos</a></p>", 
            "commentable_id": 2944, 
            "commentable_type": "Proposal", 
            "created_at": "12/04/2016 10:10:32", 
            "flagged": false, 
            "hidden": false, 
            "id": 13359, 
            "moderator_id": null, 
            "permissions": {
                "hide": false, 
                "hide_author": false, 
                "vote": false
            }, 
            "total_dislikes": 0, 
            "total_likes": 0, 
            "total_votes": 0
        }, 
        {
            "administrator_id": null, 
            "alignment": 0, 
            "ancestry": null, 
            "as": null, 
            "author": {
                "avatar_image": "https://decidim.barcelona/assets/avatar-866795c99abc33a3160d1f3fa93ada46eb75e54134e777666b9ed16215b26534.png", 
                "erased": false, 
                "hidden": false, 
                "id": 9262, 
                "name": "Suport General - Decidim Barcelona", 
                "official": false, 
                "official_level": 0, 
                "role": null, 
                "verified_organization": null
            }, 
            "body": "<p><a href=\"https://decidim.barcelona/proposals/les-voreres-pels-vianants\">https://decidim.barcelona/proposals/les-voreres-pels-vianants</a></p>", 
            "commentable_id": 2944, 
            "commentable_type": "Proposal", 
            "created_at": "12/04/2016 10:12:25", 
            "flagged": false, 
            "hidden": false, 
            "id": 13363, 
            "moderator_id": null, 
            "permissions": {
                "hide": false, 
                "hide_author": false, 
                "vote": false
            }, 
            "total_dislikes": 0, 
            "total_likes": 0, 
            "total_votes": 0
        }, 
        {
            "administrator_id": null, 
            "alignment": 0, 
            "ancestry": null, 
            "as": null, 
            "author": {
                "avatar_image": "https://decidim.barcelona/assets/avatar-866795c99abc33a3160d1f3fa93ada46eb75e54134e777666b9ed16215b26534.png", 
                "erased": false, 
                "hidden": false, 
                "id": 9262, 
                "name": "Suport General - Decidim Barcelona", 
                "official": false, 
                "official_level": 0, 
                "role": null, 
                "verified_organization": null
            }, 
            "body": "<p><a href=\"https://decidim.barcelona/proposals/suport-juridic-per-fer-complir-les-normatives\">https://decidim.barcelona/proposals/suport-juridic-per-fer-complir-les-normatives</a></p>", 
            "commentable_id": 2944, 
            "commentable_type": "Proposal", 
            "created_at": "14/04/2016 15:47:16", 
            "flagged": false, 
            "hidden": false, 
            "id": 15832, 
            "moderator_id": null, 
            "permissions": {
                "hide": false, 
                "hide_author": false, 
                "vote": false
            }, 
            "total_dislikes": 0, 
            "total_likes": 0, 
            "total_votes": 0
        }
    ], 
    "meta": {
        "current_page": 1, 
        "next_page": 2, 
        "prev_page": null, 
        "total_count": 28, 
        "total_pages": 2
    }
}