{
    "comments": [
        {
            "administrator_id": null, 
            "alignment": 0, 
            "ancestry": null, 
            "as": null, 
            "author": {
                "avatar_image": "https://decidim.barcelona/assets/avatar-866795c99abc33a3160d1f3fa93ada46eb75e54134e777666b9ed16215b26534.png", 
                "erased": false, 
                "hidden": false, 
                "id": 17740, 
                "name": "Suport General2 - Decidim Barcelona", 
                "official": false, 
                "official_level": 0, 
                "role": null, 
                "verified_organization": null
            }, 
            "body": "<p><a href=\"https://decidim.barcelona/proposals/millorar-el-disseny-de-les-cadires-de-les-terrasses-perque-no-despertin-als-veins-al-apilar-les\">https://decidim.barcelona/proposals/millorar-el-disseny-de-les-cadires-de-les-terrasses-perque-no-despertin-als-veins-al-apilar-les</a></p>", 
            "commentable_id": 2942, 
            "commentable_type": "Proposal", 
            "created_at": "06/04/2016 20:45:01", 
            "flagged": false, 
            "hidden": false, 
            "id": 8927, 
            "moderator_id": null, 
            "permissions": {
                "hide": false, 
                "hide_author": false, 
                "vote": false
            }, 
            "total_dislikes": 0, 
            "total_likes": 0, 
            "total_votes": 0
        }, 
        {
            "administrator_id": null, 
            "alignment": 0, 
            "ancestry": null, 
            "as": null, 
            "author": {
                "avatar_image": "https://decidim.barcelona/assets/avatar-866795c99abc33a3160d1f3fa93ada46eb75e54134e777666b9ed16215b26534.png", 
                "erased": false, 
                "hidden": false, 
                "id": 17740, 
                "name": "Suport General2 - Decidim Barcelona", 
                "official": false, 
                "official_level": 0, 
                "role": null, 
                "verified_organization": null
            }, 
            "body": "<p><a href=\"https://decidim.barcelona/proposals/unes-nits-mes-silencioses\">https://decidim.barcelona/proposals/unes-nits-mes-silencioses</a></p>", 
            "commentable_id": 2942, 
            "commentable_type": "Proposal", 
            "created_at": "06/04/2016 20:46:33", 
            "flagged": false, 
            "hidden": false, 
            "id": 8929, 
            "moderator_id": null, 
            "permissions": {
                "hide": false, 
                "hide_author": false, 
                "vote": false
            }, 
            "total_dislikes": 0, 
            "total_likes": 0, 
            "total_votes": 0
        }, 
        {
            "administrator_id": null, 
            "alignment": 0, 
            "ancestry": null, 
            "as": null, 
            "author": {
                "avatar_image": "https://decidim.barcelona/assets/avatar-866795c99abc33a3160d1f3fa93ada46eb75e54134e777666b9ed16215b26534.png", 
                "erased": false, 
                "hidden": false, 
                "id": 17740, 
                "name": "Suport General2 - Decidim Barcelona", 
                "official": false, 
                "official_level": 0, 
                "role": null, 
                "verified_organization": null
            }, 
            "body": "<p><a href=\"https://decidim.barcelona/proposals/acabar-amb-les-harley-davidson-que-circulen-sense-silenciador\">https://decidim.barcelona/proposals/acabar-amb-les-harley-davidson-que-circulen-sense-silenciador</a></p>", 
            "commentable_id": 2942, 
            "commentable_type": "Proposal", 
            "created_at": "06/04/2016 20:53:14", 
            "flagged": false, 
            "hidden": false, 
            "id": 8935, 
            "moderator_id": null, 
            "permissions": {
                "hide": false, 
                "hide_author": false, 
                "vote": false
            }, 
            "total_dislikes": 0, 
            "total_likes": 0, 
            "total_votes": 0
        }, 
        {
            "administrator_id": null, 
            "alignment": 0, 
            "ancestry": null, 
            "as": null, 
            "author": {
                "avatar_image": "https://decidim.barcelona/assets/avatar-866795c99abc33a3160d1f3fa93ada46eb75e54134e777666b9ed16215b26534.png", 
                "erased": false, 
                "hidden": false, 
                "id": 17740, 
                "name": "Suport General2 - Decidim Barcelona", 
                "official": false, 
                "official_level": 0, 
                "role": null, 
                "verified_organization": null
            }, 
            "body": "<p><a href=\"https://decidim.barcelona/proposals/reduccio-de-soroll-dels-camions-de-recollida-de-brossa-a-la-matinada\">https://decidim.barcelona/proposals/reduccio-de-soroll-dels-camions-de-recollida-de-brossa-a-la-matinada</a></p>", 
            "commentable_id": 2942, 
            "commentable_type": "Proposal", 
            "created_at": "06/04/2016 20:55:25", 
            "flagged": false, 
            "hidden": false, 
            "id": 8938, 
            "moderator_id": null, 
            "permissions": {
                "hide": false, 
                "hide_author": false, 
                "vote": false
            }, 
            "total_dislikes": 0, 
            "total_likes": 0, 
            "total_votes": 0
        }, 
        {
            "administrator_id": null, 
            "alignment": 0, 
            "ancestry": null, 
            "as": null, 
            "author": {
                "avatar_image": "https://decidim.barcelona/assets/avatar-866795c99abc33a3160d1f3fa93ada46eb75e54134e777666b9ed16215b26534.png", 
                "erased": false, 
                "hidden": false, 
                "id": 17740, 
                "name": "Suport General2 - Decidim Barcelona", 
                "official": false, 
                "official_level": 0, 
                "role": null, 
                "verified_organization": null
            }, 
            "body": "<p><a href=\"https://decidim.barcelona/proposals/reduim-l-hora-de-pas-dels-escombriaries\">https://decidim.barcelona/proposals/reduim-l-hora-de-pas-dels-escombriaries</a></p>", 
            "commentable_id": 2942, 
            "commentable_type": "Proposal", 
            "created_at": "06/04/2016 20:55:47", 
            "flagged": false, 
            "hidden": false, 
            "id": 8939, 
            "moderator_id": null, 
            "permissions": {
                "hide": false, 
                "hide_author": false, 
                "vote": false
            }, 
            "total_dislikes": 0, 
            "total_likes": 0, 
            "total_votes": 0
        }, 
        {
            "administrator_id": null, 
            "alignment": 0, 
            "ancestry": null, 
            "as": null, 
            "author": {
                "avatar_image": "https://decidim.barcelona/assets/avatar-866795c99abc33a3160d1f3fa93ada46eb75e54134e777666b9ed16215b26534.png", 
                "erased": false, 
                "hidden": false, 
                "id": 17740, 
                "name": "Suport General2 - Decidim Barcelona", 
                "official": false, 
                "official_level": 0, 
                "role": null, 
                "verified_organization": null
            }, 
            "body": "<p><a href=\"https://decidim.barcelona/proposals/campanya-per-sensibilitzar-sobre-el-descans-nocturn-del-veinat\">https://decidim.barcelona/proposals/campanya-per-sensibilitzar-sobre-el-descans-nocturn-del-veinat</a></p>", 
            "commentable_id": 2942, 
            "commentable_type": "Proposal", 
            "created_at": "06/04/2016 20:56:23", 
            "flagged": false, 
            "hidden": false, 
            "id": 8940, 
            "moderator_id": null, 
            "permissions": {
                "hide": false, 
                "hide_author": false, 
                "vote": false
            }, 
            "total_dislikes": 0, 
            "total_likes": 0, 
            "total_votes": 0
        }, 
        {
            "administrator_id": null, 
            "alignment": 0, 
            "ancestry": null, 
            "as": null, 
            "author": {
                "avatar_image": "https://decidim.barcelona/assets/avatar-866795c99abc33a3160d1f3fa93ada46eb75e54134e777666b9ed16215b26534.png", 
                "erased": false, 
                "hidden": false, 
                "id": 17740, 
                "name": "Suport General2 - Decidim Barcelona", 
                "official": false, 
                "official_level": 0, 
                "role": null, 
                "verified_organization": null
            }, 
            "body": "<p><a href=\"https://decidim.barcelona/proposals/bars-i-restaurants-sense-estridencies\">https://decidim.barcelona/proposals/bars-i-restaurants-sense-estridencies</a></p>", 
            "commentable_id": 2942, 
            "commentable_type": "Proposal", 
            "created_at": "06/04/2016 20:56:49", 
            "flagged": false, 
            "hidden": false, 
            "id": 8942, 
            "moderator_id": null, 
            "permissions": {
                "hide": false, 
                "hide_author": false, 
                "vote": false
            }, 
            "total_dislikes": 0, 
            "total_likes": 0, 
            "total_votes": 0
        }, 
        {
            "administrator_id": null, 
            "alignment": 0, 
            "ancestry": null, 
            "as": null, 
            "author": {
                "avatar_image": "https://decidim.barcelona/assets/avatar-866795c99abc33a3160d1f3fa93ada46eb75e54134e777666b9ed16215b26534.png", 
                "erased": false, 
                "hidden": false, 
                "id": 17741, 
                "name": "Suport General3 - Decidim Barcelona", 
                "official": false, 
                "official_level": 0, 
                "role": null, 
                "verified_organization": null
            }, 
            "body": "<p><a href=\"https://decidim.barcelona/proposals/menys-soroll-a-la-ciutat\">https://decidim.barcelona/proposals/menys-soroll-a-la-ciutat</a></p>", 
            "commentable_id": 2942, 
            "commentable_type": "Proposal", 
            "created_at": "07/04/2016 17:03:27", 
            "flagged": false, 
            "hidden": false, 
            "id": 9747, 
            "moderator_id": null, 
            "permissions": {
                "hide": false, 
                "hide_author": false, 
                "vote": false
            }, 
            "total_dislikes": 0, 
            "total_likes": 0, 
            "total_votes": 0
        }, 
        {
            "administrator_id": null, 
            "alignment": 0, 
            "ancestry": null, 
            "as": null, 
            "author": {
                "avatar_image": "https://decidim.barcelona/assets/avatar-866795c99abc33a3160d1f3fa93ada46eb75e54134e777666b9ed16215b26534.png", 
                "erased": false, 
                "hidden": false, 
                "id": 17741, 
                "name": "Suport General3 - Decidim Barcelona", 
                "official": false, 
                "official_level": 0, 
                "role": null, 
                "verified_organization": null
            }, 
            "body": "<p><a href=\"https://decidim.barcelona/proposals/aparells-d-aire-condicionat-trasllat-dels-motors-als-terrats\">https://decidim.barcelona/proposals/aparells-d-aire-condicionat-trasllat-dels-motors-als-terrats</a></p>", 
            "commentable_id": 2942, 
            "commentable_type": "Proposal", 
            "created_at": "07/04/2016 17:26:30", 
            "flagged": false, 
            "hidden": false, 
            "id": 9790, 
            "moderator_id": null, 
            "permissions": {
                "hide": false, 
                "hide_author": false, 
                "vote": false
            }, 
            "total_dislikes": 0, 
            "total_likes": 0, 
            "total_votes": 0
        }, 
        {
            "administrator_id": null, 
            "alignment": 0, 
            "ancestry": null, 
            "as": null, 
            "author": {
                "avatar_image": "https://decidim.barcelona/assets/avatar-866795c99abc33a3160d1f3fa93ada46eb75e54134e777666b9ed16215b26534.png", 
                "erased": false, 
                "hidden": false, 
                "id": 17741, 
                "name": "Suport General3 - Decidim Barcelona", 
                "official": false, 
                "official_level": 0, 
                "role": null, 
                "verified_organization": null
            }, 
            "body": "<p><a href=\"https://decidim.barcelona/proposals/prou-sorolls-amb-els-butaneros-canvi-de-model\">https://decidim.barcelona/proposals/prou-sorolls-amb-els-butaneros-canvi-de-model</a></p>", 
            "commentable_id": 2942, 
            "commentable_type": "Proposal", 
            "created_at": "08/04/2016 14:22:40", 
            "flagged": false, 
            "hidden": false, 
            "id": 10917, 
            "moderator_id": null, 
            "permissions": {
                "hide": false, 
                "hide_author": false, 
                "vote": false
            }, 
            "total_dislikes": 0, 
            "total_likes": 0, 
            "total_votes": 0
        }, 
        {
            "administrator_id": null, 
            "alignment": 0, 
            "ancestry": null, 
            "as": null, 
            "author": {
                "avatar_image": "https://decidim.barcelona/assets/avatar-866795c99abc33a3160d1f3fa93ada46eb75e54134e777666b9ed16215b26534.png", 
                "erased": false, 
                "hidden": false, 
                "id": 17741, 
                "name": "Suport General3 - Decidim Barcelona", 
                "official": false, 
                "official_level": 0, 
                "role": null, 
                "verified_organization": null
            }, 
            "body": "<p><a href=\"https://decidim.barcelona/proposals/focs-artificials-sense-soroll\">https://decidim.barcelona/proposals/focs-artificials-sense-soroll</a></p>", 
            "commentable_id": 2942, 
            "commentable_type": "Proposal", 
            "created_at": "08/04/2016 14:32:18", 
            "flagged": false, 
            "hidden": false, 
            "id": 10940, 
            "moderator_id": null, 
            "permissions": {
                "hide": false, 
                "hide_author": false, 
                "vote": false
            }, 
            "total_dislikes": 0, 
            "total_likes": 0, 
            "total_votes": 0
        }, 
        {
            "administrator_id": null, 
            "alignment": 0, 
            "ancestry": null, 
            "as": null, 
            "author": {
                "avatar_image": "https://decidim.barcelona/assets/avatar-866795c99abc33a3160d1f3fa93ada46eb75e54134e777666b9ed16215b26534.png", 
                "erased": false, 
                "hidden": false, 
                "id": 9262, 
                "name": "Suport General - Decidim Barcelona", 
                "official": false, 
                "official_level": 0, 
                "role": null, 
                "verified_organization": null
            }, 
            "body": "<p><a href=\"https://decidim.barcelona/proposals/musica-en-viu-si-pero-amb-seny-i-respecte\">https://decidim.barcelona/proposals/musica-en-viu-si-pero-amb-seny-i-respecte</a></p>", 
            "commentable_id": 2942, 
            "commentable_type": "Proposal", 
            "created_at": "09/04/2016 10:37:49", 
            "flagged": false, 
            "hidden": false, 
            "id": 11630, 
            "moderator_id": null, 
            "permissions": {
                "hide": false, 
                "hide_author": false, 
                "vote": false
            }, 
            "total_dislikes": 0, 
            "total_likes": 0, 
            "total_votes": 0
        }, 
        {
            "administrator_id": null, 
            "alignment": 0, 
            "ancestry": null, 
            "as": null, 
            "author": {
                "avatar_image": "https://decidim.barcelona/assets/avatar-866795c99abc33a3160d1f3fa93ada46eb75e54134e777666b9ed16215b26534.png", 
                "erased": false, 
                "hidden": false, 
                "id": 9262, 
                "name": "Suport General - Decidim Barcelona", 
                "official": false, 
                "official_level": 0, 
                "role": null, 
                "verified_organization": null
            }, 
            "body": "<p><a href=\"https://decidim.barcelona/proposals/control-dels-vehicles-que-circulen-per-la-ciutat-i-incompleixen-els-limits-d-emissio-acustica\">https://decidim.barcelona/proposals/control-dels-vehicles-que-circulen-per-la-ciutat-i-incompleixen-els-limits-d-emissio-acustica</a></p>", 
            "commentable_id": 2942, 
            "commentable_type": "Proposal", 
            "created_at": "09/04/2016 10:56:27", 
            "flagged": false, 
            "hidden": false, 
            "id": 11678, 
            "moderator_id": null, 
            "permissions": {
                "hide": false, 
                "hide_author": false, 
                "vote": false
            }, 
            "total_dislikes": 0, 
            "total_likes": 0, 
            "total_votes": 0
        }, 
        {
            "administrator_id": null, 
            "alignment": 0, 
            "ancestry": null, 
            "as": null, 
            "author": {
                "avatar_image": "https://decidim.barcelona/assets/avatar-866795c99abc33a3160d1f3fa93ada46eb75e54134e777666b9ed16215b26534.png", 
                "erased": false, 
                "hidden": false, 
                "id": 9262, 
                "name": "Suport General - Decidim Barcelona", 
                "official": false, 
                "official_level": 0, 
                "role": null, 
                "verified_organization": null
            }, 
            "body": "<p><a href=\"https://decidim.barcelona/proposals/reduir-el-soroll-de-les-motos\">https://decidim.barcelona/proposals/reduir-el-soroll-de-les-motos</a></p>", 
            "commentable_id": 2942, 
            "commentable_type": "Proposal", 
            "created_at": "12/04/2016 10:17:24", 
            "flagged": false, 
            "hidden": false, 
            "id": 13373, 
            "moderator_id": null, 
            "permissions": {
                "hide": false, 
                "hide_author": false, 
                "vote": false
            }, 
            "total_dislikes": 0, 
            "total_likes": 0, 
            "total_votes": 0
        }, 
        {
            "administrator_id": null, 
            "alignment": 0, 
            "ancestry": null, 
            "as": null, 
            "author": {
                "avatar_image": "https://decidim.barcelona/assets/avatar-866795c99abc33a3160d1f3fa93ada46eb75e54134e777666b9ed16215b26534.png", 
                "erased": false, 
                "hidden": false, 
                "id": 9262, 
                "name": "Suport General - Decidim Barcelona", 
                "official": false, 
                "official_level": 0, 
                "role": null, 
                "verified_organization": null
            }, 
            "body": "<p><a href=\"https://decidim.barcelona/proposals/millores-clausules-plecs-de-condicions-aportant-mes-transparencia\">https://decidim.barcelona/proposals/millores-clausules-plecs-de-condicions-aportant-mes-transparencia</a></p>", 
            "commentable_id": 2942, 
            "commentable_type": "Proposal", 
            "created_at": "12/04/2016 10:21:19", 
            "flagged": false, 
            "hidden": false, 
            "id": 13379, 
            "moderator_id": null, 
            "permissions": {
                "hide": false, 
                "hide_author": false, 
                "vote": false
            }, 
            "total_dislikes": 0, 
            "total_likes": 0, 
            "total_votes": 0
        }, 
        {
            "administrator_id": null, 
            "alignment": 0, 
            "ancestry": null, 
            "as": null, 
            "author": {
                "avatar_image": "https://decidim.barcelona/assets/avatar-866795c99abc33a3160d1f3fa93ada46eb75e54134e777666b9ed16215b26534.png", 
                "erased": false, 
                "hidden": false, 
                "id": 9262, 
                "name": "Suport General - Decidim Barcelona", 
                "official": false, 
                "official_level": 0, 
                "role": null, 
                "verified_organization": null
            }, 
            "body": "<p><a href=\"https://decidim.barcelona/proposals/no-a-las-agressions-de-soroll-als-veins\">https://decidim.barcelona/proposals/no-a-las-agressions-de-soroll-als-veins</a></p>", 
            "commentable_id": 2942, 
            "commentable_type": "Proposal", 
            "created_at": "14/04/2016 13:57:14", 
            "flagged": false, 
            "hidden": false, 
            "id": 15686, 
            "moderator_id": null, 
            "permissions": {
                "hide": false, 
                "hide_author": false, 
                "vote": false
            }, 
            "total_dislikes": 0, 
            "total_likes": 0, 
            "total_votes": 0
        }, 
        {
            "administrator_id": null, 
            "alignment": 0, 
            "ancestry": null, 
            "as": null, 
            "author": {
                "avatar_image": "https://decidim.barcelona/assets/avatar-866795c99abc33a3160d1f3fa93ada46eb75e54134e777666b9ed16215b26534.png", 
                "erased": false, 
                "hidden": false, 
                "id": 9262, 
                "name": "Suport General - Decidim Barcelona", 
                "official": false, 
                "official_level": 0, 
                "role": null, 
                "verified_organization": null
            }, 
            "body": "<p><a href=\"https://decidim.barcelona/proposals/instal-lar-sensors-de-soroll-als-llocs-mes-problematics\">https://decidim.barcelona/proposals/instal-lar-sensors-de-soroll-als-llocs-mes-problematics</a></p>", 
            "commentable_id": 2942, 
            "commentable_type": "Proposal", 
            "created_at": "14/04/2016 15:42:05", 
            "flagged": false, 
            "hidden": false, 
            "id": 15817, 
            "moderator_id": null, 
            "permissions": {
                "hide": false, 
                "hide_author": false, 
                "vote": false
            }, 
            "total_dislikes": 0, 
            "total_likes": 0, 
            "total_votes": 0
        }, 
        {
            "administrator_id": null, 
            "alignment": 0, 
            "ancestry": null, 
            "as": null, 
            "author": {
                "avatar_image": "https://decidim.barcelona/assets/avatar-866795c99abc33a3160d1f3fa93ada46eb75e54134e777666b9ed16215b26534.png", 
                "erased": false, 
                "hidden": false, 
                "id": 9262, 
                "name": "Suport General - Decidim Barcelona", 
                "official": false, 
                "official_level": 0, 
                "role": null, 
                "verified_organization": null
            }, 
            "body": "<p><a href=\"https://decidim.barcelona/proposals/reduir-el-sorroll-causat-pels-clients-de-bars-al-carrer\">https://decidim.barcelona/proposals/reduir-el-sorroll-causat-pels-clients-de-bars-al-carrer</a></p>", 
            "commentable_id": 2942, 
            "commentable_type": "Proposal", 
            "created_at": "14/04/2016 15:43:22", 
            "flagged": false, 
            "hidden": false, 
            "id": 15818, 
            "moderator_id": null, 
            "permissions": {
                "hide": false, 
                "hide_author": false, 
                "vote": false
            }, 
            "total_dislikes": 0, 
            "total_likes": 0, 
            "total_votes": 0
        }, 
        {
            "administrator_id": null, 
            "alignment": 0, 
            "ancestry": null, 
            "as": null, 
            "author": {
                "avatar_image": "https://decidim.barcelona/assets/avatar-866795c99abc33a3160d1f3fa93ada46eb75e54134e777666b9ed16215b26534.png", 
                "erased": false, 
                "hidden": false, 
                "id": 9262, 
                "name": "Suport General - Decidim Barcelona", 
                "official": false, 
                "official_level": 0, 
                "role": null, 
                "verified_organization": null
            }, 
            "body": "<p><a href=\"https://decidim.barcelona/proposals/mediacio-en-problemes-de-soroll\">https://decidim.barcelona/proposals/mediacio-en-problemes-de-soroll</a></p>", 
            "commentable_id": 2942, 
            "commentable_type": "Proposal", 
            "created_at": "14/04/2016 15:43:34", 
            "flagged": false, 
            "hidden": false, 
            "id": 15819, 
            "moderator_id": null, 
            "permissions": {
                "hide": false, 
                "hide_author": false, 
                "vote": false
            }, 
            "total_dislikes": 0, 
            "total_likes": 0, 
            "total_votes": 0
        }, 
        {
            "administrator_id": null, 
            "alignment": 0, 
            "ancestry": null, 
            "as": null, 
            "author": {
                "avatar_image": "https://decidim.barcelona/assets/avatar-866795c99abc33a3160d1f3fa93ada46eb75e54134e777666b9ed16215b26534.png", 
                "erased": false, 
                "hidden": false, 
                "id": 9262, 
                "name": "Suport General - Decidim Barcelona", 
                "official": false, 
                "official_level": 0, 
                "role": null, 
                "verified_organization": null
            }, 
            "body": "<p><a href=\"https://decidim.barcelona/proposals/instal-lacio-de-sistemes-i-mesures-d-atenuacio-acustica-del-trafic-rodat\">https://decidim.barcelona/proposals/instal-lacio-de-sistemes-i-mesures-d-atenuacio-acustica-del-trafic-rodat</a></p>", 
            "commentable_id": 2942, 
            "commentable_type": "Proposal", 
            "created_at": "14/04/2016 15:43:43", 
            "flagged": false, 
            "hidden": false, 
            "id": 15820, 
            "moderator_id": null, 
            "permissions": {
                "hide": false, 
                "hide_author": false, 
                "vote": false
            }, 
            "total_dislikes": 0, 
            "total_likes": 0, 
            "total_votes": 0
        }
    ], 
    "meta": {
        "current_page": 2, 
        "next_page": 3, 
        "prev_page": 1, 
        "total_count": 49, 
        "total_pages": 3
    }
}