{
    "comments": [
        {
            "administrator_id": null, 
            "alignment": 0, 
            "ancestry": null, 
            "as": null, 
            "author": {
                "avatar_image": "https://decidim.barcelona/assets/avatar-866795c99abc33a3160d1f3fa93ada46eb75e54134e777666b9ed16215b26534.png", 
                "erased": false, 
                "hidden": false, 
                "id": 9262, 
                "name": "Suport General - Decidim Barcelona", 
                "official": false, 
                "official_level": 0, 
                "role": null, 
                "verified_organization": null
            }, 
            "body": "<p><a href=\"https://decidim.barcelona/proposals/substitucio-del-paviment-per-reduir-sorolls\">https://decidim.barcelona/proposals/substitucio-del-paviment-per-reduir-sorolls</a></p>", 
            "commentable_id": 2942, 
            "commentable_type": "Proposal", 
            "created_at": "14/04/2016 15:43:55", 
            "flagged": false, 
            "hidden": false, 
            "id": 15821, 
            "moderator_id": null, 
            "permissions": {
                "hide": false, 
                "hide_author": false, 
                "vote": false
            }, 
            "total_dislikes": 0, 
            "total_likes": 0, 
            "total_votes": 0
        }, 
        {
            "administrator_id": null, 
            "alignment": 0, 
            "ancestry": null, 
            "as": null, 
            "author": {
                "avatar_image": "https://decidim.barcelona/assets/avatar-866795c99abc33a3160d1f3fa93ada46eb75e54134e777666b9ed16215b26534.png", 
                "erased": false, 
                "hidden": false, 
                "id": 9262, 
                "name": "Suport General - Decidim Barcelona", 
                "official": false, 
                "official_level": 0, 
                "role": null, 
                "verified_organization": null
            }, 
            "body": "<p><a href=\"https://decidim.barcelona/proposals/substitucio-del-paviment-per-reduir-sorolls\">https://decidim.barcelona/proposals/substitucio-del-paviment-per-reduir-sorolls</a></p>", 
            "commentable_id": 2942, 
            "commentable_type": "Proposal", 
            "created_at": "14/04/2016 15:44:03", 
            "flagged": false, 
            "hidden": false, 
            "id": 15822, 
            "moderator_id": null, 
            "permissions": {
                "hide": false, 
                "hide_author": false, 
                "vote": false
            }, 
            "total_dislikes": 0, 
            "total_likes": 0, 
            "total_votes": 0
        }, 
        {
            "administrator_id": null, 
            "alignment": 0, 
            "ancestry": null, 
            "as": null, 
            "author": {
                "avatar_image": "https://decidim.barcelona/assets/avatar-866795c99abc33a3160d1f3fa93ada46eb75e54134e777666b9ed16215b26534.png", 
                "erased": false, 
                "hidden": false, 
                "id": 9262, 
                "name": "Suport General - Decidim Barcelona", 
                "official": false, 
                "official_level": 0, 
                "role": null, 
                "verified_organization": null
            }, 
            "body": "<p><a href=\"https://decidim.barcelona/proposals/repensar-com-abordar-la-problematica-del-soroll-sense-retirar-bancs-publics\">https://decidim.barcelona/proposals/repensar-com-abordar-la-problematica-del-soroll-sense-retirar-bancs-publics</a></p>", 
            "commentable_id": 2942, 
            "commentable_type": "Proposal", 
            "created_at": "14/04/2016 15:44:16", 
            "flagged": false, 
            "hidden": false, 
            "id": 15823, 
            "moderator_id": null, 
            "permissions": {
                "hide": false, 
                "hide_author": false, 
                "vote": false
            }, 
            "total_dislikes": 0, 
            "total_likes": 0, 
            "total_votes": 0
        }, 
        {
            "administrator_id": null, 
            "alignment": 0, 
            "ancestry": null, 
            "as": null, 
            "author": {
                "avatar_image": "https://decidim.barcelona/assets/avatar-866795c99abc33a3160d1f3fa93ada46eb75e54134e777666b9ed16215b26534.png", 
                "erased": false, 
                "hidden": false, 
                "id": 9262, 
                "name": "Suport General - Decidim Barcelona", 
                "official": false, 
                "official_level": 0, 
                "role": null, 
                "verified_organization": null
            }, 
            "body": "<p><a href=\"https://decidim.barcelona/proposals/donar-a-coneixer-l-activitat-i-el-suport-que-pot-oferir-l-associacio-catalana-contra-la-contaminacio-acustica-www-sorolls-org\">https://decidim.barcelona/proposals/donar-a-coneixer-l-activitat-i-el-suport-que-pot-oferir-l-associacio-catalana-contra-la-contaminacio-acustica-www-sorolls-org</a></p>", 
            "commentable_id": 2942, 
            "commentable_type": "Proposal", 
            "created_at": "14/04/2016 15:44:25", 
            "flagged": false, 
            "hidden": false, 
            "id": 15824, 
            "moderator_id": null, 
            "permissions": {
                "hide": false, 
                "hide_author": false, 
                "vote": false
            }, 
            "total_dislikes": 0, 
            "total_likes": 0, 
            "total_votes": 0
        }, 
        {
            "administrator_id": null, 
            "alignment": 0, 
            "ancestry": null, 
            "as": null, 
            "author": {
                "avatar_image": "https://decidim.barcelona/assets/avatar-866795c99abc33a3160d1f3fa93ada46eb75e54134e777666b9ed16215b26534.png", 
                "erased": false, 
                "hidden": false, 
                "id": 9262, 
                "name": "Suport General - Decidim Barcelona", 
                "official": false, 
                "official_level": 0, 
                "role": null, 
                "verified_organization": null
            }, 
            "body": "<p><a href=\"https://decidim.barcelona/proposals/fer-reserves-lliures-de-soroll\">https://decidim.barcelona/proposals/fer-reserves-lliures-de-soroll</a></p>", 
            "commentable_id": 2942, 
            "commentable_type": "Proposal", 
            "created_at": "14/04/2016 15:44:33", 
            "flagged": false, 
            "hidden": false, 
            "id": 15825, 
            "moderator_id": null, 
            "permissions": {
                "hide": false, 
                "hide_author": false, 
                "vote": false
            }, 
            "total_dislikes": 0, 
            "total_likes": 0, 
            "total_votes": 0
        }, 
        {
            "administrator_id": null, 
            "alignment": 0, 
            "ancestry": null, 
            "as": null, 
            "author": {
                "avatar_image": "https://decidim.barcelona/assets/avatar-866795c99abc33a3160d1f3fa93ada46eb75e54134e777666b9ed16215b26534.png", 
                "erased": false, 
                "hidden": false, 
                "id": 9262, 
                "name": "Suport General - Decidim Barcelona", 
                "official": false, 
                "official_level": 0, 
                "role": null, 
                "verified_organization": null
            }, 
            "body": "<p><a href=\"https://decidim.barcelona/proposals/revision-del-pla-d-usos-horari-locals\">https://decidim.barcelona/proposals/revision-del-pla-d-usos-horari-locals</a></p>", 
            "commentable_id": 2942, 
            "commentable_type": "Proposal", 
            "created_at": "14/04/2016 15:46:25", 
            "flagged": false, 
            "hidden": false, 
            "id": 15830, 
            "moderator_id": null, 
            "permissions": {
                "hide": false, 
                "hide_author": false, 
                "vote": false
            }, 
            "total_dislikes": 0, 
            "total_likes": 0, 
            "total_votes": 0
        }, 
        {
            "administrator_id": null, 
            "alignment": 0, 
            "ancestry": null, 
            "as": null, 
            "author": {
                "avatar_image": "https://decidim.barcelona/assets/avatar-866795c99abc33a3160d1f3fa93ada46eb75e54134e777666b9ed16215b26534.png", 
                "erased": false, 
                "hidden": false, 
                "id": 9262, 
                "name": "Suport General - Decidim Barcelona", 
                "official": false, 
                "official_level": 0, 
                "role": null, 
                "verified_organization": null
            }, 
            "body": "<p><a href=\"https://decidim.barcelona/proposals/suport-juridic-per-fer-complir-les-normatives\">https://decidim.barcelona/proposals/suport-juridic-per-fer-complir-les-normatives</a></p>", 
            "commentable_id": 2942, 
            "commentable_type": "Proposal", 
            "created_at": "14/04/2016 15:46:37", 
            "flagged": false, 
            "hidden": false, 
            "id": 15831, 
            "moderator_id": null, 
            "permissions": {
                "hide": false, 
                "hide_author": false, 
                "vote": false
            }, 
            "total_dislikes": 0, 
            "total_likes": 0, 
            "total_votes": 0
        }, 
        {
            "administrator_id": null, 
            "alignment": 0, 
            "ancestry": null, 
            "as": null, 
            "author": {
                "avatar_image": "https://decidim.barcelona/assets/avatar-866795c99abc33a3160d1f3fa93ada46eb75e54134e777666b9ed16215b26534.png", 
                "erased": false, 
                "hidden": false, 
                "id": 17741, 
                "name": "Suport General3 - Decidim Barcelona", 
                "official": false, 
                "official_level": 0, 
                "role": null, 
                "verified_organization": null
            }, 
            "body": "<p><a href=\"https://decidim.barcelona/proposals/recompensa-als-ciutadans-victimes-d-obres-llargues-que-afecten-al-descans\">https://decidim.barcelona/proposals/recompensa-als-ciutadans-victimes-d-obres-llargues-que-afecten-al-descans</a></p>", 
            "commentable_id": 2942, 
            "commentable_type": "Proposal", 
            "created_at": "16/04/2016 15:23:56", 
            "flagged": false, 
            "hidden": false, 
            "id": 18286, 
            "moderator_id": null, 
            "permissions": {
                "hide": false, 
                "hide_author": false, 
                "vote": false
            }, 
            "total_dislikes": 0, 
            "total_likes": 0, 
            "total_votes": 0
        }, 
        {
            "administrator_id": null, 
            "alignment": 0, 
            "ancestry": null, 
            "as": null, 
            "author": {
                "avatar_image": "https://decidim.barcelona/assets/avatar-866795c99abc33a3160d1f3fa93ada46eb75e54134e777666b9ed16215b26534.png", 
                "erased": false, 
                "hidden": false, 
                "id": 17741, 
                "name": "Suport General3 - Decidim Barcelona", 
                "official": false, 
                "official_level": 0, 
                "role": null, 
                "verified_organization": null
            }, 
            "body": "<p><a href=\"https://decidim.barcelona/proposals/millores-clausules-plecs-de-condicions-aportant-mes-transparencia\">https://decidim.barcelona/proposals/millores-clausules-plecs-de-condicions-aportant-mes-transparencia</a></p>", 
            "commentable_id": 2942, 
            "commentable_type": "Proposal", 
            "created_at": "16/04/2016 15:24:39", 
            "flagged": false, 
            "hidden": false, 
            "id": 18289, 
            "moderator_id": null, 
            "permissions": {
                "hide": false, 
                "hide_author": false, 
                "vote": false
            }, 
            "total_dislikes": 0, 
            "total_likes": 0, 
            "total_votes": 0
        }
    ], 
    "meta": {
        "current_page": 3, 
        "next_page": null, 
        "prev_page": 2, 
        "total_count": 49, 
        "total_pages": 3
    }
}