{
    "comments": [
        {
            "administrator_id": null, 
            "alignment": 0, 
            "ancestry": null, 
            "as": null, 
            "author": {
                "avatar_image": "https://decidim.barcelona/assets/avatar-866795c99abc33a3160d1f3fa93ada46eb75e54134e777666b9ed16215b26534.png", 
                "erased": false, 
                "hidden": false, 
                "id": 6504, 
                "name": "Nivalis", 
                "official": false, 
                "official_level": 0, 
                "role": null, 
                "verified_organization": null
            }, 
            "body": "<p>Per mi el tema de la contaminaci\u00f3 de l'aire \u00e9s una de les grans prioritats i alhora el gran repte del segle XXI. Tinc un nen petit i em fa por que li pugui afectar a la salut. \u00c9s el principal motiu pel qual em plantejaria marxar d'aquesta ciutat que tant m'agrada, per\u00f2 en la que cada cop em sembla m\u00e9s dif\u00edcil viure.</p>", 
            "commentable_id": 2941, 
            "commentable_type": "Proposal", 
            "created_at": "19/02/2016 13:54:01", 
            "flagged": false, 
            "hidden": false, 
            "id": 2163, 
            "moderator_id": null, 
            "permissions": {
                "hide": false, 
                "hide_author": false, 
                "vote": false
            }, 
            "total_dislikes": 0, 
            "total_likes": 0, 
            "total_votes": 0
        }, 
        {
            "administrator_id": null, 
            "alignment": 1, 
            "ancestry": null, 
            "as": null, 
            "author": {
                "avatar_image": "https://decidim.barcelona/assets/avatar-866795c99abc33a3160d1f3fa93ada46eb75e54134e777666b9ed16215b26534.png", 
                "erased": false, 
                "hidden": false, 
                "id": 9624, 
                "name": "MerceB", 
                "official": false, 
                "official_level": 0, 
                "role": null, 
                "verified_organization": null
            }, 
            "body": "<p>Vivim a l'eixample, l'escola de la meva nena est\u00e0 al carrer Enten\u00e7a prop de la Gran Via, la correlaci\u00f3 entre les seves crisis asm\u00e0tiques i els index de di\u00f2xid de nitrogen es clara. Ha coincidit que els dos cursos que la seva aula era al primer pis amb finestres al carrer d'Enten\u00e7a ha agafat Pneum\u00f2nia. quan la seva aula ha donat al pati no.... Evidentment tots els nens de la seva classe no es posen malalts, per\u00f2 nosaltres ...ens canviem de barri! Al comen\u00e7ament de curs, que varem estar dos dies a Sant Joan de D\u00e9u  ingressada amb problemes respiratoris...la nena del costat era del barri, amb col\u00b7legi al carre Arag\u00f3... Casualitat?</p>", 
            "commentable_id": 2941, 
            "commentable_type": "Proposal", 
            "created_at": "01/03/2016 11:50:33", 
            "flagged": false, 
            "hidden": false, 
            "id": 3152, 
            "moderator_id": null, 
            "permissions": {
                "hide": false, 
                "hide_author": false, 
                "vote": false
            }, 
            "total_dislikes": 1, 
            "total_likes": 1, 
            "total_votes": 2
        }, 
        {
            "administrator_id": null, 
            "alignment": 1, 
            "ancestry": null, 
            "as": null, 
            "author": {
                "avatar_image": "https://decidim.barcelona/assets/avatar-866795c99abc33a3160d1f3fa93ada46eb75e54134e777666b9ed16215b26534.png", 
                "erased": false, 
                "hidden": false, 
                "id": 9947, 
                "name": "Irene_M", 
                "official": false, 
                "official_level": 0, 
                "role": null, 
                "verified_organization": null
            }, 
            "body": "<p>La reducci\u00f3 de la contaminaci\u00f3 a Barcelona ha de ser priorit\u00e0ria per tal d'assegurar una millora de la salut de les persones de la ciutat.</p>", 
            "commentable_id": 2941, 
            "commentable_type": "Proposal", 
            "created_at": "02/03/2016 11:56:22", 
            "flagged": false, 
            "hidden": false, 
            "id": 3312, 
            "moderator_id": null, 
            "permissions": {
                "hide": false, 
                "hide_author": false, 
                "vote": false
            }, 
            "total_dislikes": 0, 
            "total_likes": 2, 
            "total_votes": 2
        }, 
        {
            "administrator_id": null, 
            "alignment": 1, 
            "ancestry": null, 
            "as": null, 
            "author": {
                "avatar_image": "https://decidim.barcelona/assets/avatar-866795c99abc33a3160d1f3fa93ada46eb75e54134e777666b9ed16215b26534.png", 
                "erased": false, 
                "hidden": false, 
                "id": 11058, 
                "name": "qrtega", 
                "official": false, 
                "official_level": 0, 
                "role": null, 
                "verified_organization": null
            }, 
            "body": "<p>Caldria revisar el text que diu \"... risc elevat per a la salut de les persones.\"  Hauria de dir \"... risc per a la salut de les persones\". Quan es tracta de salut, l'objectiu de les propostes ha de ser de m\u00e0xims.</p>", 
            "commentable_id": 2941, 
            "commentable_type": "Proposal", 
            "created_at": "09/03/2016 09:08:53", 
            "flagged": false, 
            "hidden": false, 
            "id": 4081, 
            "moderator_id": null, 
            "permissions": {
                "hide": false, 
                "hide_author": false, 
                "vote": false
            }, 
            "total_dislikes": 0, 
            "total_likes": 2, 
            "total_votes": 2
        }, 
        {
            "administrator_id": null, 
            "alignment": 1, 
            "ancestry": null, 
            "as": null, 
            "author": {
                "avatar_image": "https://decidim.barcelona/assets/avatar-866795c99abc33a3160d1f3fa93ada46eb75e54134e777666b9ed16215b26534.png", 
                "erased": false, 
                "hidden": false, 
                "id": 4744, 
                "name": "Francesca Blanch", 
                "official": false, 
                "official_level": 0, 
                "role": null, 
                "verified_organization": null
            }, 
            "body": "<p>L'ajuntament podria oferir beneficis fiscals municipals als ve\u00efns i ve\u00efnes, comerciants,  repartidors, etc. que substitueixin vehicles benzina / gasoil per vehicles el\u00e8ctrics.</p>", 
            "commentable_id": 2941, 
            "commentable_type": "Proposal", 
            "created_at": "09/03/2016 10:05:07", 
            "flagged": false, 
            "hidden": false, 
            "id": 4098, 
            "moderator_id": null, 
            "permissions": {
                "hide": false, 
                "hide_author": false, 
                "vote": false
            }, 
            "total_dislikes": 1, 
            "total_likes": 1, 
            "total_votes": 2
        }, 
        {
            "administrator_id": null, 
            "alignment": 1, 
            "ancestry": null, 
            "as": null, 
            "author": {
                "avatar_image": "https://decidim.barcelona/assets/avatar-866795c99abc33a3160d1f3fa93ada46eb75e54134e777666b9ed16215b26534.png", 
                "erased": false, 
                "hidden": false, 
                "id": 11417, 
                "name": "felixale", 
                "official": false, 
                "official_level": 0, 
                "role": null, 
                "verified_organization": null
            }, 
            "body": "<p>Creo que la medida que debe quedar m\u00e1s claramente expuesta es la necesaria e inmediata aceptaci\u00f3n del hecho que hay que reducir muy dr\u00e1sticamnete la circulaci\u00f3n y el espacio para los coches en favor del transporte p\u00fablico, pero esto trae \"alergias de votantes\" y se marea la perdiz hasta el hartazgo...</p>", 
            "commentable_id": 2941, 
            "commentable_type": "Proposal", 
            "created_at": "10/03/2016 15:47:13", 
            "flagged": false, 
            "hidden": false, 
            "id": 4392, 
            "moderator_id": null, 
            "permissions": {
                "hide": false, 
                "hide_author": false, 
                "vote": false
            }, 
            "total_dislikes": 0, 
            "total_likes": 1, 
            "total_votes": 1
        }, 
        {
            "administrator_id": null, 
            "alignment": 1, 
            "ancestry": null, 
            "as": null, 
            "author": {
                "avatar_image": "https://decidim.barcelona/assets/avatar-866795c99abc33a3160d1f3fa93ada46eb75e54134e777666b9ed16215b26534.png", 
                "erased": false, 
                "hidden": false, 
                "id": 8923, 
                "name": "b.carreras", 
                "official": false, 
                "official_level": 0, 
                "role": null, 
                "verified_organization": null
            }, 
            "body": "<p>Estaria b\u00e9 que els dies en contaminaci\u00f3 elevada, no es realitzecin vagues en el transport p\u00fablic. (MWC)</p>", 
            "commentable_id": 2941, 
            "commentable_type": "Proposal", 
            "created_at": "10/03/2016 22:16:29", 
            "flagged": false, 
            "hidden": false, 
            "id": 4454, 
            "moderator_id": null, 
            "permissions": {
                "hide": false, 
                "hide_author": false, 
                "vote": false
            }, 
            "total_dislikes": 1, 
            "total_likes": 0, 
            "total_votes": 1
        }, 
        {
            "administrator_id": null, 
            "alignment": 0, 
            "ancestry": null, 
            "as": null, 
            "author": {
                "avatar_image": "https://decidim.barcelona/assets/avatar-866795c99abc33a3160d1f3fa93ada46eb75e54134e777666b9ed16215b26534.png", 
                "erased": false, 
                "hidden": false, 
                "id": 17741, 
                "name": "Suport General3 - Decidim Barcelona", 
                "official": false, 
                "official_level": 0, 
                "role": null, 
                "verified_organization": null
            }, 
            "body": "<p><a href=\"https://decidim.barcelona/proposals/limites-contaminantes-mas-restrictivos-en-linea-de-la-oms\">https://decidim.barcelona/proposals/limites-contaminantes-mas-restrictivos-en-linea-de-la-oms</a>\n</p>", 
            "commentable_id": 2941, 
            "commentable_type": "Proposal", 
            "created_at": "07/04/2016 16:23:58", 
            "flagged": false, 
            "hidden": false, 
            "id": 9616, 
            "moderator_id": null, 
            "permissions": {
                "hide": false, 
                "hide_author": false, 
                "vote": false
            }, 
            "total_dislikes": 0, 
            "total_likes": 0, 
            "total_votes": 0
        }, 
        {
            "administrator_id": null, 
            "alignment": 0, 
            "ancestry": null, 
            "as": null, 
            "author": {
                "avatar_image": "https://decidim.barcelona/assets/avatar-866795c99abc33a3160d1f3fa93ada46eb75e54134e777666b9ed16215b26534.png", 
                "erased": false, 
                "hidden": false, 
                "id": 17741, 
                "name": "Suport General3 - Decidim Barcelona", 
                "official": false, 
                "official_level": 0, 
                "role": null, 
                "verified_organization": null
            }, 
            "body": "<p><a href=\"https://decidim.barcelona/proposals/pla-de-xoc-urgent-contra-la-contaminacio-atmosferica\">https://decidim.barcelona/proposals/pla-de-xoc-urgent-contra-la-contaminacio-atmosferica</a></p>", 
            "commentable_id": 2941, 
            "commentable_type": "Proposal", 
            "created_at": "07/04/2016 16:26:18", 
            "flagged": false, 
            "hidden": false, 
            "id": 9622, 
            "moderator_id": null, 
            "permissions": {
                "hide": false, 
                "hide_author": false, 
                "vote": false
            }, 
            "total_dislikes": 0, 
            "total_likes": 0, 
            "total_votes": 0
        }, 
        {
            "administrator_id": null, 
            "alignment": 0, 
            "ancestry": null, 
            "as": null, 
            "author": {
                "avatar_image": "https://decidim.barcelona/assets/avatar-866795c99abc33a3160d1f3fa93ada46eb75e54134e777666b9ed16215b26534.png", 
                "erased": false, 
                "hidden": false, 
                "id": 17741, 
                "name": "Suport General3 - Decidim Barcelona", 
                "official": false, 
                "official_level": 0, 
                "role": null, 
                "verified_organization": null
            }, 
            "body": "<p><a href=\"https://decidim.barcelona/proposals/obligar-als-creuers-a-apagar-els-motors-mentre-estiguin-aturats-al-port\">https://decidim.barcelona/proposals/obligar-als-creuers-a-apagar-els-motors-mentre-estiguin-aturats-al-port</a></p>", 
            "commentable_id": 2941, 
            "commentable_type": "Proposal", 
            "created_at": "07/04/2016 16:31:12", 
            "flagged": false, 
            "hidden": false, 
            "id": 9639, 
            "moderator_id": null, 
            "permissions": {
                "hide": false, 
                "hide_author": false, 
                "vote": false
            }, 
            "total_dislikes": 0, 
            "total_likes": 0, 
            "total_votes": 0
        }, 
        {
            "administrator_id": null, 
            "alignment": 0, 
            "ancestry": null, 
            "as": null, 
            "author": {
                "avatar_image": "https://decidim.barcelona/assets/avatar-866795c99abc33a3160d1f3fa93ada46eb75e54134e777666b9ed16215b26534.png", 
                "erased": false, 
                "hidden": false, 
                "id": 17741, 
                "name": "Suport General3 - Decidim Barcelona", 
                "official": false, 
                "official_level": 0, 
                "role": null, 
                "verified_organization": null
            }, 
            "body": "<p><a href=\"https://decidim.barcelona/proposals/estudi-ampli-sobre-l-impacte-que-te-el-port-de-barcelona-mercaderies-i-passatgers-en-la-contaminacio-de-la-ciutat\">https://decidim.barcelona/proposals/estudi-ampli-sobre-l-impacte-que-te-el-port-de-barcelona-mercaderies-i-passatgers-en-la-contaminacio-de-la-ciutat</a></p>", 
            "commentable_id": 2941, 
            "commentable_type": "Proposal", 
            "created_at": "07/04/2016 16:32:57", 
            "flagged": false, 
            "hidden": false, 
            "id": 9644, 
            "moderator_id": null, 
            "permissions": {
                "hide": false, 
                "hide_author": false, 
                "vote": false
            }, 
            "total_dislikes": 0, 
            "total_likes": 0, 
            "total_votes": 0
        }, 
        {
            "administrator_id": null, 
            "alignment": 0, 
            "ancestry": null, 
            "as": null, 
            "author": {
                "avatar_image": "https://decidim.barcelona/assets/avatar-866795c99abc33a3160d1f3fa93ada46eb75e54134e777666b9ed16215b26534.png", 
                "erased": false, 
                "hidden": false, 
                "id": 17741, 
                "name": "Suport General3 - Decidim Barcelona", 
                "official": false, 
                "official_level": 0, 
                "role": null, 
                "verified_organization": null
            }, 
            "body": "<p><a href=\"https://decidim.barcelona/proposals/fibromialgia-politiques-adrecades-al-control-d-emissio-de-gasos\">https://decidim.barcelona/proposals/fibromialgia-politiques-adrecades-al-control-d-emissio-de-gasos</a></p>", 
            "commentable_id": 2941, 
            "commentable_type": "Proposal", 
            "created_at": "08/04/2016 13:26:00", 
            "flagged": false, 
            "hidden": false, 
            "id": 10768, 
            "moderator_id": null, 
            "permissions": {
                "hide": false, 
                "hide_author": false, 
                "vote": false
            }, 
            "total_dislikes": 0, 
            "total_likes": 0, 
            "total_votes": 0
        }, 
        {
            "administrator_id": null, 
            "alignment": 0, 
            "ancestry": null, 
            "as": null, 
            "author": {
                "avatar_image": "https://decidim.barcelona/assets/avatar-866795c99abc33a3160d1f3fa93ada46eb75e54134e777666b9ed16215b26534.png", 
                "erased": false, 
                "hidden": false, 
                "id": 17741, 
                "name": "Suport General3 - Decidim Barcelona", 
                "official": false, 
                "official_level": 0, 
                "role": null, 
                "verified_organization": null
            }, 
            "body": "<p><a href=\"https://decidim.barcelona/proposals/eliminar-o-disminuir-la-contaminacio-ambiental\">https://decidim.barcelona/proposals/eliminar-o-disminuir-la-contaminacio-ambiental</a></p>", 
            "commentable_id": 2941, 
            "commentable_type": "Proposal", 
            "created_at": "08/04/2016 13:26:36", 
            "flagged": false, 
            "hidden": false, 
            "id": 10772, 
            "moderator_id": null, 
            "permissions": {
                "hide": false, 
                "hide_author": false, 
                "vote": false
            }, 
            "total_dislikes": 0, 
            "total_likes": 0, 
            "total_votes": 0
        }, 
        {
            "administrator_id": null, 
            "alignment": 0, 
            "ancestry": null, 
            "as": null, 
            "author": {
                "avatar_image": "https://decidim.barcelona/assets/avatar-866795c99abc33a3160d1f3fa93ada46eb75e54134e777666b9ed16215b26534.png", 
                "erased": false, 
                "hidden": false, 
                "id": 17741, 
                "name": "Suport General3 - Decidim Barcelona", 
                "official": false, 
                "official_level": 0, 
                "role": null, 
                "verified_organization": null
            }, 
            "body": "<p><a href=\"https://decidim.barcelona/proposals/aire-sa-nous-projectes-de-neteja-i-sanejament-del-aire-beques-ajudes-etc\">https://decidim.barcelona/proposals/aire-sa-nous-projectes-de-neteja-i-sanejament-del-aire-beques-ajudes-etc</a></p>", 
            "commentable_id": 2941, 
            "commentable_type": "Proposal", 
            "created_at": "08/04/2016 13:41:10", 
            "flagged": false, 
            "hidden": false, 
            "id": 10823, 
            "moderator_id": null, 
            "permissions": {
                "hide": false, 
                "hide_author": false, 
                "vote": false
            }, 
            "total_dislikes": 0, 
            "total_likes": 0, 
            "total_votes": 0
        }, 
        {
            "administrator_id": null, 
            "alignment": 0, 
            "ancestry": null, 
            "as": null, 
            "author": {
                "avatar_image": "https://decidim.barcelona/assets/avatar-866795c99abc33a3160d1f3fa93ada46eb75e54134e777666b9ed16215b26534.png", 
                "erased": false, 
                "hidden": false, 
                "id": 17741, 
                "name": "Suport General3 - Decidim Barcelona", 
                "official": false, 
                "official_level": 0, 
                "role": null, 
                "verified_organization": null
            }, 
            "body": "<p><a href=\"https://decidim.barcelona/proposals/reduir-drasticament-la-contaminacio\">https://decidim.barcelona/proposals/reduir-drasticament-la-contaminacio</a></p>", 
            "commentable_id": 2941, 
            "commentable_type": "Proposal", 
            "created_at": "08/04/2016 14:14:23", 
            "flagged": false, 
            "hidden": false, 
            "id": 10898, 
            "moderator_id": null, 
            "permissions": {
                "hide": false, 
                "hide_author": false, 
                "vote": false
            }, 
            "total_dislikes": 0, 
            "total_likes": 0, 
            "total_votes": 0
        }, 
        {
            "administrator_id": null, 
            "alignment": 0, 
            "ancestry": null, 
            "as": null, 
            "author": {
                "avatar_image": "https://decidim.barcelona/assets/avatar-866795c99abc33a3160d1f3fa93ada46eb75e54134e777666b9ed16215b26534.png", 
                "erased": false, 
                "hidden": false, 
                "id": 17741, 
                "name": "Suport General3 - Decidim Barcelona", 
                "official": false, 
                "official_level": 0, 
                "role": null, 
                "verified_organization": null
            }, 
            "body": "<p><a href=\"https://decidim.barcelona/proposals/aire-limpio\">https://decidim.barcelona/proposals/aire-limpio</a></p>", 
            "commentable_id": 2941, 
            "commentable_type": "Proposal", 
            "created_at": "08/04/2016 14:30:27", 
            "flagged": false, 
            "hidden": false, 
            "id": 10934, 
            "moderator_id": null, 
            "permissions": {
                "hide": false, 
                "hide_author": false, 
                "vote": false
            }, 
            "total_dislikes": 0, 
            "total_likes": 0, 
            "total_votes": 0
        }, 
        {
            "administrator_id": null, 
            "alignment": 0, 
            "ancestry": null, 
            "as": null, 
            "author": {
                "avatar_image": "https://decidim.barcelona/assets/avatar-866795c99abc33a3160d1f3fa93ada46eb75e54134e777666b9ed16215b26534.png", 
                "erased": false, 
                "hidden": false, 
                "id": 9262, 
                "name": "Suport General - Decidim Barcelona", 
                "official": false, 
                "official_level": 0, 
                "role": null, 
                "verified_organization": null
            }, 
            "body": "<p><a href=\"https://decidim.barcelona/proposals/reduir-la-circulacio-de-vehicles-al-centre-de-barcelona\">https://decidim.barcelona/proposals/reduir-la-circulacio-de-vehicles-al-centre-de-barcelona</a></p>", 
            "commentable_id": 2941, 
            "commentable_type": "Proposal", 
            "created_at": "09/04/2016 10:41:33", 
            "flagged": false, 
            "hidden": false, 
            "id": 11636, 
            "moderator_id": null, 
            "permissions": {
                "hide": false, 
                "hide_author": false, 
                "vote": false
            }, 
            "total_dislikes": 0, 
            "total_likes": 0, 
            "total_votes": 0
        }, 
        {
            "administrator_id": null, 
            "alignment": 0, 
            "ancestry": null, 
            "as": null, 
            "author": {
                "avatar_image": "https://decidim.barcelona/assets/avatar-866795c99abc33a3160d1f3fa93ada46eb75e54134e777666b9ed16215b26534.png", 
                "erased": false, 
                "hidden": false, 
                "id": 9262, 
                "name": "Suport General - Decidim Barcelona", 
                "official": false, 
                "official_level": 0, 
                "role": null, 
                "verified_organization": null
            }, 
            "body": "<p><a href=\"https://decidim.barcelona/proposals/parar-el-motor-dels-vehicles-aparcats-per-tal-de-millorar-la-qualitat-de-l-aire\">https://decidim.barcelona/proposals/parar-el-motor-dels-vehicles-aparcats-per-tal-de-millorar-la-qualitat-de-l-aire</a></p>", 
            "commentable_id": 2941, 
            "commentable_type": "Proposal", 
            "created_at": "09/04/2016 10:55:43", 
            "flagged": false, 
            "hidden": false, 
            "id": 11675, 
            "moderator_id": null, 
            "permissions": {
                "hide": false, 
                "hide_author": false, 
                "vote": false
            }, 
            "total_dislikes": 0, 
            "total_likes": 0, 
            "total_votes": 0
        }, 
        {
            "administrator_id": null, 
            "alignment": 0, 
            "ancestry": null, 
            "as": null, 
            "author": {
                "avatar_image": "https://decidim.barcelona/assets/avatar-866795c99abc33a3160d1f3fa93ada46eb75e54134e777666b9ed16215b26534.png", 
                "erased": false, 
                "hidden": false, 
                "id": 17741, 
                "name": "Suport General3 - Decidim Barcelona", 
                "official": false, 
                "official_level": 0, 
                "role": null, 
                "verified_organization": null
            }, 
            "body": "<p><a href=\"https://decidim.barcelona/proposals/transit-i-contaminants-nox-i-particules-pm-2-5\">https://decidim.barcelona/proposals/transit-i-contaminants-nox-i-particules-pm-2-5</a></p>", 
            "commentable_id": 2941, 
            "commentable_type": "Proposal", 
            "created_at": "09/04/2016 12:00:22", 
            "flagged": false, 
            "hidden": false, 
            "id": 11844, 
            "moderator_id": null, 
            "permissions": {
                "hide": false, 
                "hide_author": false, 
                "vote": false
            }, 
            "total_dislikes": 0, 
            "total_likes": 0, 
            "total_votes": 0
        }, 
        {
            "administrator_id": null, 
            "alignment": 0, 
            "ancestry": null, 
            "as": null, 
            "author": {
                "avatar_image": "https://decidim.barcelona/assets/avatar-866795c99abc33a3160d1f3fa93ada46eb75e54134e777666b9ed16215b26534.png", 
                "erased": false, 
                "hidden": false, 
                "id": 17741, 
                "name": "Suport General3 - Decidim Barcelona", 
                "official": false, 
                "official_level": 0, 
                "role": null, 
                "verified_organization": null
            }, 
            "body": "<p><a href=\"https://decidim.barcelona/proposals/penalitzar-l-us-de-productes-contaminants\">https://decidim.barcelona/proposals/penalitzar-l-us-de-productes-contaminants</a></p>", 
            "commentable_id": 2941, 
            "commentable_type": "Proposal", 
            "created_at": "09/04/2016 15:24:53", 
            "flagged": false, 
            "hidden": false, 
            "id": 12412, 
            "moderator_id": null, 
            "permissions": {
                "hide": false, 
                "hide_author": false, 
                "vote": false
            }, 
            "total_dislikes": 0, 
            "total_likes": 0, 
            "total_votes": 0
        }
    ], 
    "meta": {
        "current_page": 1, 
        "next_page": 2, 
        "prev_page": null, 
        "total_count": 23, 
        "total_pages": 2
    }
}