{
    "comments": [
        {
            "administrator_id": null, 
            "alignment": 0, 
            "ancestry": null, 
            "as": null, 
            "author": {
                "avatar_image": "https://decidim.barcelona/assets/avatar-866795c99abc33a3160d1f3fa93ada46eb75e54134e777666b9ed16215b26534.png", 
                "erased": false, 
                "hidden": false, 
                "id": 9262, 
                "name": "Suport General - Decidim Barcelona", 
                "official": false, 
                "official_level": 0, 
                "role": null, 
                "verified_organization": null
            }, 
            "body": "<p><a href=\"https://decidim.barcelona/proposals/rehabilitat-el-pabinent-de-les-ramblrs\">https://decidim.barcelona/proposals/rehabilitat-el-pabinent-de-les-ramblrs</a></p>", 
            "commentable_id": 2944, 
            "commentable_type": "Proposal", 
            "created_at": "14/04/2016 15:47:48", 
            "flagged": false, 
            "hidden": false, 
            "id": 15833, 
            "moderator_id": null, 
            "permissions": {
                "hide": false, 
                "hide_author": false, 
                "vote": false
            }, 
            "total_dislikes": 0, 
            "total_likes": 0, 
            "total_votes": 0
        }, 
        {
            "administrator_id": null, 
            "alignment": 0, 
            "ancestry": null, 
            "as": null, 
            "author": {
                "avatar_image": "https://decidim.barcelona/assets/avatar-866795c99abc33a3160d1f3fa93ada46eb75e54134e777666b9ed16215b26534.png", 
                "erased": false, 
                "hidden": false, 
                "id": 9262, 
                "name": "Suport General - Decidim Barcelona", 
                "official": false, 
                "official_level": 0, 
                "role": null, 
                "verified_organization": null
            }, 
            "body": "<p><a href=\"https://decidim.barcelona/proposals/instalacion-de-bancos-en-plazas-y-paseos\">https://decidim.barcelona/proposals/instalacion-de-bancos-en-plazas-y-paseos</a></p>", 
            "commentable_id": 2944, 
            "commentable_type": "Proposal", 
            "created_at": "14/04/2016 15:47:56", 
            "flagged": false, 
            "hidden": false, 
            "id": 15834, 
            "moderator_id": null, 
            "permissions": {
                "hide": false, 
                "hide_author": false, 
                "vote": false
            }, 
            "total_dislikes": 0, 
            "total_likes": 0, 
            "total_votes": 0
        }, 
        {
            "administrator_id": null, 
            "alignment": 0, 
            "ancestry": null, 
            "as": null, 
            "author": {
                "avatar_image": "https://decidim.barcelona/assets/avatar-866795c99abc33a3160d1f3fa93ada46eb75e54134e777666b9ed16215b26534.png", 
                "erased": false, 
                "hidden": false, 
                "id": 9262, 
                "name": "Suport General - Decidim Barcelona", 
                "official": false, 
                "official_level": 0, 
                "role": null, 
                "verified_organization": null
            }, 
            "body": "<p><a href=\"https://decidim.barcelona/proposals/posar-mes-bancs-pero-del-tipus-cadira-els-altres-els-ocupen-els-sensesostre\">https://decidim.barcelona/proposals/posar-mes-bancs-pero-del-tipus-cadira-els-altres-els-ocupen-els-sensesostre</a></p>", 
            "commentable_id": 2944, 
            "commentable_type": "Proposal", 
            "created_at": "14/04/2016 15:48:05", 
            "flagged": false, 
            "hidden": false, 
            "id": 15835, 
            "moderator_id": null, 
            "permissions": {
                "hide": false, 
                "hide_author": false, 
                "vote": false
            }, 
            "total_dislikes": 0, 
            "total_likes": 0, 
            "total_votes": 0
        }, 
        {
            "administrator_id": null, 
            "alignment": 0, 
            "ancestry": null, 
            "as": null, 
            "author": {
                "avatar_image": "https://decidim.barcelona/assets/avatar-866795c99abc33a3160d1f3fa93ada46eb75e54134e777666b9ed16215b26534.png", 
                "erased": false, 
                "hidden": false, 
                "id": 9262, 
                "name": "Suport General - Decidim Barcelona", 
                "official": false, 
                "official_level": 0, 
                "role": null, 
                "verified_organization": null
            }, 
            "body": "<p><a href=\"https://decidim.barcelona/proposals/humanitzar-els-espais-publics-per-relacionar-se\">https://decidim.barcelona/proposals/humanitzar-els-espais-publics-per-relacionar-se</a></p>", 
            "commentable_id": 2944, 
            "commentable_type": "Proposal", 
            "created_at": "14/04/2016 15:48:14", 
            "flagged": false, 
            "hidden": false, 
            "id": 15836, 
            "moderator_id": null, 
            "permissions": {
                "hide": false, 
                "hide_author": false, 
                "vote": false
            }, 
            "total_dislikes": 0, 
            "total_likes": 0, 
            "total_votes": 0
        }, 
        {
            "administrator_id": null, 
            "alignment": 0, 
            "ancestry": null, 
            "as": null, 
            "author": {
                "avatar_image": "https://decidim.barcelona/assets/avatar-866795c99abc33a3160d1f3fa93ada46eb75e54134e777666b9ed16215b26534.png", 
                "erased": false, 
                "hidden": false, 
                "id": 9262, 
                "name": "Suport General - Decidim Barcelona", 
                "official": false, 
                "official_level": 0, 
                "role": null, 
                "verified_organization": null
            }, 
            "body": "<p><a href=\"https://decidim.barcelona/proposals/obertura-i-utilitzacio-d-espais-publics-2bca2653-0aad-4b34-abf8-ddd53f01410d\">https://decidim.barcelona/proposals/obertura-i-utilitzacio-d-espais-publics-2bca2653-0aad-4b34-abf8-ddd53f01410d</a></p>", 
            "commentable_id": 2944, 
            "commentable_type": "Proposal", 
            "created_at": "14/04/2016 15:48:25", 
            "flagged": false, 
            "hidden": false, 
            "id": 15837, 
            "moderator_id": null, 
            "permissions": {
                "hide": false, 
                "hide_author": false, 
                "vote": false
            }, 
            "total_dislikes": 0, 
            "total_likes": 0, 
            "total_votes": 0
        }, 
        {
            "administrator_id": null, 
            "alignment": 0, 
            "ancestry": null, 
            "as": null, 
            "author": {
                "avatar_image": "https://decidim.barcelona/assets/avatar-866795c99abc33a3160d1f3fa93ada46eb75e54134e777666b9ed16215b26534.png", 
                "erased": false, 
                "hidden": false, 
                "id": 9262, 
                "name": "Suport General - Decidim Barcelona", 
                "official": false, 
                "official_level": 0, 
                "role": null, 
                "verified_organization": null
            }, 
            "body": "<p><a href=\"https://decidim.barcelona/proposals?filter=reviewer_status=not_reviewed:scope=city:category_id=3:subcategory_id=14:source=citizenship&amp;order=random&amp;random_seed=-0.6799051599102466\">https://decidim.barcelona/proposals?filter=reviewer_status=not_reviewed:scope=city:category_id=3:subcategory_id=14:source=citizenship&amp;order=random&amp;random_seed=-0.6799051599102466</a></p>", 
            "commentable_id": 2944, 
            "commentable_type": "Proposal", 
            "created_at": "15/04/2016 09:38:59", 
            "flagged": false, 
            "hidden": false, 
            "id": 16382, 
            "moderator_id": null, 
            "permissions": {
                "hide": false, 
                "hide_author": false, 
                "vote": false
            }, 
            "total_dislikes": 0, 
            "total_likes": 0, 
            "total_votes": 0
        }, 
        {
            "administrator_id": null, 
            "alignment": 0, 
            "ancestry": null, 
            "as": null, 
            "author": {
                "avatar_image": "https://decidim.barcelona/assets/avatar-866795c99abc33a3160d1f3fa93ada46eb75e54134e777666b9ed16215b26534.png", 
                "erased": false, 
                "hidden": false, 
                "id": 9262, 
                "name": "Suport General - Decidim Barcelona", 
                "official": false, 
                "official_level": 0, 
                "role": null, 
                "verified_organization": null
            }, 
            "body": "<p><a href=\"https://decidim.barcelona/proposals/revision-del-mobiliario-urbano-con-adecuacion-a-usuarios-vulnerables-absorcion-del-impacto-sin-aristas-etc\">https://decidim.barcelona/proposals/revision-del-mobiliario-urbano-con-adecuacion-a-usuarios-vulnerables-absorcion-del-impacto-sin-aristas-etc</a></p>", 
            "commentable_id": 2944, 
            "commentable_type": "Proposal", 
            "created_at": "15/04/2016 09:39:07", 
            "flagged": false, 
            "hidden": false, 
            "id": 16384, 
            "moderator_id": null, 
            "permissions": {
                "hide": false, 
                "hide_author": false, 
                "vote": false
            }, 
            "total_dislikes": 0, 
            "total_likes": 0, 
            "total_votes": 0
        }, 
        {
            "administrator_id": null, 
            "alignment": 0, 
            "ancestry": null, 
            "as": null, 
            "author": {
                "avatar_image": "https://decidim.barcelona/assets/avatar-866795c99abc33a3160d1f3fa93ada46eb75e54134e777666b9ed16215b26534.png", 
                "erased": false, 
                "hidden": false, 
                "id": 9262, 
                "name": "Suport General - Decidim Barcelona", 
                "official": false, 
                "official_level": 0, 
                "role": null, 
                "verified_organization": null
            }, 
            "body": "<p><a href=\"https://decidim.barcelona/proposals/papereres-de-colors\">https://decidim.barcelona/proposals/papereres-de-colors</a></p>", 
            "commentable_id": 2944, 
            "commentable_type": "Proposal", 
            "created_at": "15/04/2016 17:12:47", 
            "flagged": false, 
            "hidden": false, 
            "id": 17304, 
            "moderator_id": null, 
            "permissions": {
                "hide": false, 
                "hide_author": false, 
                "vote": false
            }, 
            "total_dislikes": 0, 
            "total_likes": 0, 
            "total_votes": 0
        }
    ], 
    "meta": {
        "current_page": 2, 
        "next_page": null, 
        "prev_page": 1, 
        "total_count": 28, 
        "total_pages": 2
    }
}