{
    "comments": [
        {
            "administrator_id": null, 
            "alignment": 1, 
            "ancestry": null, 
            "as": null, 
            "author": {
                "avatar_image": "https://decidim.barcelona/assets/avatar-866795c99abc33a3160d1f3fa93ada46eb75e54134e777666b9ed16215b26534.png", 
                "erased": false, 
                "hidden": false, 
                "id": 7669, 
                "name": "Zeta Zigs", 
                "official": false, 
                "official_level": 0, 
                "role": null, 
                "verified_organization": null
            }, 
            "body": "<p>Vincular els descomptes escolars al tipus de centre escolar. A l'alumnat de centres p\u00fablics menors de 18 anys estentre els descomptes fins els 18 anys i els alumnes de centres concertats deixar els descomptes igual que fins ara. </p>", 
            "commentable_id": 2951, 
            "commentable_type": "Proposal", 
            "created_at": "23/02/2016 19:39:51", 
            "flagged": false, 
            "hidden": false, 
            "id": 2494, 
            "moderator_id": null, 
            "permissions": {
                "hide": false, 
                "hide_author": false, 
                "vote": false
            }, 
            "total_dislikes": 0, 
            "total_likes": 0, 
            "total_votes": 0
        }, 
        {
            "administrator_id": null, 
            "alignment": 1, 
            "ancestry": null, 
            "as": null, 
            "author": {
                "avatar_image": "https://decidim.barcelona/assets/avatar-866795c99abc33a3160d1f3fa93ada46eb75e54134e777666b9ed16215b26534.png", 
                "erased": false, 
                "hidden": false, 
                "id": 13405, 
                "name": "Dsoriano ", 
                "official": false, 
                "official_level": 0, 
                "role": null, 
                "verified_organization": null
            }, 
            "body": "<p>Al debat que va tenir lloc a l\u2019Escola Bet\u00e0nia \u2013 Patmos, els estudiants de 3r d\u2019ESO B van proposar l\u2019extensi\u00f3 de la T-12 fins els 16 anys per tal de facilitar la mobilitat adolescent. </p>", 
            "commentable_id": 2951, 
            "commentable_type": "Proposal", 
            "created_at": "04/04/2016 11:00:17", 
            "flagged": false, 
            "hidden": false, 
            "id": 7679, 
            "moderator_id": null, 
            "permissions": {
                "hide": false, 
                "hide_author": false, 
                "vote": false
            }, 
            "total_dislikes": 0, 
            "total_likes": 0, 
            "total_votes": 0
        }, 
        {
            "administrator_id": null, 
            "alignment": 0, 
            "ancestry": null, 
            "as": null, 
            "author": {
                "avatar_image": "https://decidim.barcelona/assets/avatar-866795c99abc33a3160d1f3fa93ada46eb75e54134e777666b9ed16215b26534.png", 
                "erased": false, 
                "hidden": false, 
                "id": 17741, 
                "name": "Suport General3 - Decidim Barcelona", 
                "official": false, 
                "official_level": 0, 
                "role": null, 
                "verified_organization": null
            }, 
            "body": "<p><a href=\"https://decidim.barcelona/proposals/preus-de-tmb\">https://decidim.barcelona/proposals/preus-de-tmb</a></p>", 
            "commentable_id": 2951, 
            "commentable_type": "Proposal", 
            "created_at": "07/04/2016 14:08:11", 
            "flagged": false, 
            "hidden": false, 
            "id": 9447, 
            "moderator_id": null, 
            "permissions": {
                "hide": false, 
                "hide_author": false, 
                "vote": false
            }, 
            "total_dislikes": 0, 
            "total_likes": 0, 
            "total_votes": 0
        }, 
        {
            "administrator_id": null, 
            "alignment": 0, 
            "ancestry": null, 
            "as": null, 
            "author": {
                "avatar_image": "https://decidim.barcelona/assets/avatar-866795c99abc33a3160d1f3fa93ada46eb75e54134e777666b9ed16215b26534.png", 
                "erased": false, 
                "hidden": false, 
                "id": 17741, 
                "name": "Suport General3 - Decidim Barcelona", 
                "official": false, 
                "official_level": 0, 
                "role": null, 
                "verified_organization": null
            }, 
            "body": "<p><a href=\"https://decidim.barcelona/proposals/baixar-el-preu-de-la-t-10-i-fomentar-el-us-del-transport-public\">https://decidim.barcelona/proposals/baixar-el-preu-de-la-t-10-i-fomentar-el-us-del-transport-public</a></p>", 
            "commentable_id": 2951, 
            "commentable_type": "Proposal", 
            "created_at": "07/04/2016 14:16:25", 
            "flagged": false, 
            "hidden": false, 
            "id": 9459, 
            "moderator_id": null, 
            "permissions": {
                "hide": false, 
                "hide_author": false, 
                "vote": false
            }, 
            "total_dislikes": 0, 
            "total_likes": 0, 
            "total_votes": 0
        }, 
        {
            "administrator_id": null, 
            "alignment": 0, 
            "ancestry": null, 
            "as": null, 
            "author": {
                "avatar_image": "https://decidim.barcelona/assets/avatar-866795c99abc33a3160d1f3fa93ada46eb75e54134e777666b9ed16215b26534.png", 
                "erased": false, 
                "hidden": false, 
                "id": 9262, 
                "name": "Suport General - Decidim Barcelona", 
                "official": false, 
                "official_level": 0, 
                "role": null, 
                "verified_organization": null
            }, 
            "body": "<p><a href=\"https://decidim.barcelona/proposals/bitllet-de-mobilitat-eco-integrat\">https://decidim.barcelona/proposals/bitllet-de-mobilitat-eco-integrat</a></p>", 
            "commentable_id": 2951, 
            "commentable_type": "Proposal", 
            "created_at": "08/04/2016 10:53:26", 
            "flagged": false, 
            "hidden": false, 
            "id": 10376, 
            "moderator_id": null, 
            "permissions": {
                "hide": false, 
                "hide_author": false, 
                "vote": false
            }, 
            "total_dislikes": 0, 
            "total_likes": 0, 
            "total_votes": 0
        }, 
        {
            "administrator_id": null, 
            "alignment": 0, 
            "ancestry": null, 
            "as": null, 
            "author": {
                "avatar_image": "https://decidim.barcelona/assets/avatar-866795c99abc33a3160d1f3fa93ada46eb75e54134e777666b9ed16215b26534.png", 
                "erased": false, 
                "hidden": false, 
                "id": 9262, 
                "name": "Suport General - Decidim Barcelona", 
                "official": false, 
                "official_level": 0, 
                "role": null, 
                "verified_organization": null
            }, 
            "body": "<p><a href=\"https://decidim.barcelona/proposals/que-les-t12-estiguin-fetes-de-cartro-com-les-altres-targetes\">https://decidim.barcelona/proposals/que-les-t12-estiguin-fetes-de-cartro-com-les-altres-targetes</a></p>", 
            "commentable_id": 2951, 
            "commentable_type": "Proposal", 
            "created_at": "09/04/2016 10:57:28", 
            "flagged": false, 
            "hidden": false, 
            "id": 11681, 
            "moderator_id": null, 
            "permissions": {
                "hide": false, 
                "hide_author": false, 
                "vote": false
            }, 
            "total_dislikes": 0, 
            "total_likes": 0, 
            "total_votes": 0
        }, 
        {
            "administrator_id": null, 
            "alignment": 0, 
            "ancestry": null, 
            "as": null, 
            "author": {
                "avatar_image": "https://decidim.barcelona/assets/avatar-866795c99abc33a3160d1f3fa93ada46eb75e54134e777666b9ed16215b26534.png", 
                "erased": false, 
                "hidden": false, 
                "id": 9262, 
                "name": "Suport General - Decidim Barcelona", 
                "official": false, 
                "official_level": 0, 
                "role": null, 
                "verified_organization": null
            }, 
            "body": "<p><a href=\"https://decidim.barcelona/proposals/facilitar-l-us-del-transport-public-a-les-persones-grans\">https://decidim.barcelona/proposals/facilitar-l-us-del-transport-public-a-les-persones-grans</a></p>", 
            "commentable_id": 2951, 
            "commentable_type": "Proposal", 
            "created_at": "13/04/2016 16:46:26", 
            "flagged": false, 
            "hidden": false, 
            "id": 14937, 
            "moderator_id": null, 
            "permissions": {
                "hide": false, 
                "hide_author": false, 
                "vote": false
            }, 
            "total_dislikes": 0, 
            "total_likes": 0, 
            "total_votes": 0
        }, 
        {
            "administrator_id": null, 
            "alignment": 0, 
            "ancestry": null, 
            "as": null, 
            "author": {
                "avatar_image": "https://decidim.barcelona/assets/avatar-866795c99abc33a3160d1f3fa93ada46eb75e54134e777666b9ed16215b26534.png", 
                "erased": false, 
                "hidden": false, 
                "id": 9262, 
                "name": "Suport General - Decidim Barcelona", 
                "official": false, 
                "official_level": 0, 
                "role": null, 
                "verified_organization": null
            }, 
            "body": "<p><a href=\"https://decidim.barcelona/proposals/donar-a-coneixer-els-ajuts-que-hi-ha-en-transport\">https://decidim.barcelona/proposals/donar-a-coneixer-els-ajuts-que-hi-ha-en-transport</a></p>", 
            "commentable_id": 2951, 
            "commentable_type": "Proposal", 
            "created_at": "13/04/2016 16:47:24", 
            "flagged": false, 
            "hidden": false, 
            "id": 14939, 
            "moderator_id": null, 
            "permissions": {
                "hide": false, 
                "hide_author": false, 
                "vote": false
            }, 
            "total_dislikes": 0, 
            "total_likes": 0, 
            "total_votes": 0
        }, 
        {
            "administrator_id": null, 
            "alignment": 0, 
            "ancestry": null, 
            "as": null, 
            "author": {
                "avatar_image": "https://decidim.barcelona/assets/avatar-866795c99abc33a3160d1f3fa93ada46eb75e54134e777666b9ed16215b26534.png", 
                "erased": false, 
                "hidden": false, 
                "id": 9262, 
                "name": "Suport General - Decidim Barcelona", 
                "official": false, 
                "official_level": 0, 
                "role": null, 
                "verified_organization": null
            }, 
            "body": "<p><a href=\"https://decidim.barcelona/proposals/targetes-transport-public-allargar-la-t-12-fins-la-t-18\">https://decidim.barcelona/proposals/targetes-transport-public-allargar-la-t-12-fins-la-t-18</a></p>", 
            "commentable_id": 2951, 
            "commentable_type": "Proposal", 
            "created_at": "13/04/2016 17:01:00", 
            "flagged": false, 
            "hidden": false, 
            "id": 14952, 
            "moderator_id": null, 
            "permissions": {
                "hide": false, 
                "hide_author": false, 
                "vote": false
            }, 
            "total_dislikes": 0, 
            "total_likes": 0, 
            "total_votes": 0
        }, 
        {
            "administrator_id": null, 
            "alignment": 0, 
            "ancestry": null, 
            "as": null, 
            "author": {
                "avatar_image": "https://decidim.barcelona/assets/avatar-866795c99abc33a3160d1f3fa93ada46eb75e54134e777666b9ed16215b26534.png", 
                "erased": false, 
                "hidden": false, 
                "id": 9262, 
                "name": "Suport General - Decidim Barcelona", 
                "official": false, 
                "official_level": 0, 
                "role": null, 
                "verified_organization": null
            }, 
            "body": "<p><a href=\"https://decidim.barcelona/proposals/ampliacio-hores-de-transbord-gratuites-del-transport-public\">https://decidim.barcelona/proposals/ampliacio-hores-de-transbord-gratuites-del-transport-public</a></p>", 
            "commentable_id": 2951, 
            "commentable_type": "Proposal", 
            "created_at": "13/04/2016 17:14:58", 
            "flagged": false, 
            "hidden": false, 
            "id": 14957, 
            "moderator_id": null, 
            "permissions": {
                "hide": false, 
                "hide_author": false, 
                "vote": false
            }, 
            "total_dislikes": 0, 
            "total_likes": 0, 
            "total_votes": 0
        }, 
        {
            "administrator_id": null, 
            "alignment": 0, 
            "ancestry": null, 
            "as": null, 
            "author": {
                "avatar_image": "https://decidim.barcelona/assets/avatar-866795c99abc33a3160d1f3fa93ada46eb75e54134e777666b9ed16215b26534.png", 
                "erased": false, 
                "hidden": false, 
                "id": 9262, 
                "name": "Suport General - Decidim Barcelona", 
                "official": false, 
                "official_level": 0, 
                "role": null, 
                "verified_organization": null
            }, 
            "body": "<p><a href=\"https://decidim.barcelona/proposals/crear-beques-de-mobilitat-per-estudiants-a-les-escoles\">https://decidim.barcelona/proposals/crear-beques-de-mobilitat-per-estudiants-a-les-escoles</a></p>", 
            "commentable_id": 2951, 
            "commentable_type": "Proposal", 
            "created_at": "13/04/2016 17:48:56", 
            "flagged": false, 
            "hidden": false, 
            "id": 14999, 
            "moderator_id": null, 
            "permissions": {
                "hide": false, 
                "hide_author": false, 
                "vote": false
            }, 
            "total_dislikes": 0, 
            "total_likes": 0, 
            "total_votes": 0
        }, 
        {
            "administrator_id": null, 
            "alignment": 0, 
            "ancestry": null, 
            "as": null, 
            "author": {
                "avatar_image": "https://decidim.barcelona/assets/avatar-866795c99abc33a3160d1f3fa93ada46eb75e54134e777666b9ed16215b26534.png", 
                "erased": false, 
                "hidden": false, 
                "id": 9262, 
                "name": "Suport General - Decidim Barcelona", 
                "official": false, 
                "official_level": 0, 
                "role": null, 
                "verified_organization": null
            }, 
            "body": "<p><a href=\"https://decidim.barcelona/proposals/possibilitat-de-comprar-t10-als-autobusos\">https://decidim.barcelona/proposals/possibilitat-de-comprar-t10-als-autobusos</a></p>", 
            "commentable_id": 2951, 
            "commentable_type": "Proposal", 
            "created_at": "14/04/2016 10:20:26", 
            "flagged": false, 
            "hidden": false, 
            "id": 15190, 
            "moderator_id": null, 
            "permissions": {
                "hide": false, 
                "hide_author": false, 
                "vote": false
            }, 
            "total_dislikes": 0, 
            "total_likes": 0, 
            "total_votes": 0
        }, 
        {
            "administrator_id": null, 
            "alignment": 0, 
            "ancestry": null, 
            "as": null, 
            "author": {
                "avatar_image": "https://decidim.barcelona/assets/avatar-866795c99abc33a3160d1f3fa93ada46eb75e54134e777666b9ed16215b26534.png", 
                "erased": false, 
                "hidden": false, 
                "id": 9262, 
                "name": "Suport General - Decidim Barcelona", 
                "official": false, 
                "official_level": 0, 
                "role": null, 
                "verified_organization": null
            }, 
            "body": "<p><a href=\"https://decidim.barcelona/proposals/baixar-el-preu-de-la-t-10-i-fomentar-el-us-del-transport-public\">https://decidim.barcelona/proposals/baixar-el-preu-de-la-t-10-i-fomentar-el-us-del-transport-public</a></p>", 
            "commentable_id": 2951, 
            "commentable_type": "Proposal", 
            "created_at": "14/04/2016 10:25:56", 
            "flagged": false, 
            "hidden": false, 
            "id": 15192, 
            "moderator_id": null, 
            "permissions": {
                "hide": false, 
                "hide_author": false, 
                "vote": false
            }, 
            "total_dislikes": 0, 
            "total_likes": 0, 
            "total_votes": 0
        }, 
        {
            "administrator_id": null, 
            "alignment": 0, 
            "ancestry": null, 
            "as": null, 
            "author": {
                "avatar_image": "https://decidim.barcelona/assets/avatar-866795c99abc33a3160d1f3fa93ada46eb75e54134e777666b9ed16215b26534.png", 
                "erased": false, 
                "hidden": false, 
                "id": 9262, 
                "name": "Suport General - Decidim Barcelona", 
                "official": false, 
                "official_level": 0, 
                "role": null, 
                "verified_organization": null
            }, 
            "body": "<p><a href=\"https://decidim.barcelona/proposals/t-aturat-transport-public-gratuit-per-a-aturats-que-no-rebin-prestacio-o-rebi\">https://decidim.barcelona/proposals/t-aturat-transport-public-gratuit-per-a-aturats-que-no-rebin-prestacio-o-rebi</a></p>", 
            "commentable_id": 2951, 
            "commentable_type": "Proposal", 
            "created_at": "14/04/2016 10:30:53", 
            "flagged": false, 
            "hidden": false, 
            "id": 15201, 
            "moderator_id": null, 
            "permissions": {
                "hide": false, 
                "hide_author": false, 
                "vote": false
            }, 
            "total_dislikes": 0, 
            "total_likes": 0, 
            "total_votes": 0
        }, 
        {
            "administrator_id": null, 
            "alignment": 0, 
            "ancestry": null, 
            "as": null, 
            "author": {
                "avatar_image": "https://decidim.barcelona/assets/avatar-866795c99abc33a3160d1f3fa93ada46eb75e54134e777666b9ed16215b26534.png", 
                "erased": false, 
                "hidden": false, 
                "id": 9262, 
                "name": "Suport General - Decidim Barcelona", 
                "official": false, 
                "official_level": 0, 
                "role": null, 
                "verified_organization": null
            }, 
            "body": "<p><a href=\"https://decidim.barcelona/proposals/baixada-de-preus-del-billet-de-metro\">https://decidim.barcelona/proposals/baixada-de-preus-del-billet-de-metro</a></p>", 
            "commentable_id": 2951, 
            "commentable_type": "Proposal", 
            "created_at": "14/04/2016 10:32:04", 
            "flagged": false, 
            "hidden": false, 
            "id": 15205, 
            "moderator_id": null, 
            "permissions": {
                "hide": false, 
                "hide_author": false, 
                "vote": false
            }, 
            "total_dislikes": 0, 
            "total_likes": 0, 
            "total_votes": 0
        }, 
        {
            "administrator_id": null, 
            "alignment": 0, 
            "ancestry": null, 
            "as": null, 
            "author": {
                "avatar_image": "https://decidim.barcelona/assets/avatar-866795c99abc33a3160d1f3fa93ada46eb75e54134e777666b9ed16215b26534.png", 
                "erased": false, 
                "hidden": false, 
                "id": 9262, 
                "name": "Suport General - Decidim Barcelona", 
                "official": false, 
                "official_level": 0, 
                "role": null, 
                "verified_organization": null
            }, 
            "body": "<p><a href=\"https://decidim.barcelona/proposals/t-trimestre-de-zona-1-gratuita-per-gent-sense-ingressos\">https://decidim.barcelona/proposals/t-trimestre-de-zona-1-gratuita-per-gent-sense-ingressos</a></p>", 
            "commentable_id": 2951, 
            "commentable_type": "Proposal", 
            "created_at": "14/04/2016 10:49:58", 
            "flagged": false, 
            "hidden": false, 
            "id": 15251, 
            "moderator_id": null, 
            "permissions": {
                "hide": false, 
                "hide_author": false, 
                "vote": false
            }, 
            "total_dislikes": 0, 
            "total_likes": 0, 
            "total_votes": 0
        }, 
        {
            "administrator_id": null, 
            "alignment": 0, 
            "ancestry": null, 
            "as": null, 
            "author": {
                "avatar_image": "https://decidim.barcelona/assets/avatar-866795c99abc33a3160d1f3fa93ada46eb75e54134e777666b9ed16215b26534.png", 
                "erased": false, 
                "hidden": false, 
                "id": 9262, 
                "name": "Suport General - Decidim Barcelona", 
                "official": false, 
                "official_level": 0, 
                "role": null, 
                "verified_organization": null
            }, 
            "body": "<p><a href=\"https://decidim.barcelona/proposals/titol-de-transport-public-recarregable\">https://decidim.barcelona/proposals/titol-de-transport-public-recarregable</a></p>", 
            "commentable_id": 2951, 
            "commentable_type": "Proposal", 
            "created_at": "14/04/2016 10:50:08", 
            "flagged": false, 
            "hidden": false, 
            "id": 15253, 
            "moderator_id": null, 
            "permissions": {
                "hide": false, 
                "hide_author": false, 
                "vote": false
            }, 
            "total_dislikes": 0, 
            "total_likes": 0, 
            "total_votes": 0
        }, 
        {
            "administrator_id": null, 
            "alignment": 0, 
            "ancestry": null, 
            "as": null, 
            "author": {
                "avatar_image": "https://decidim.barcelona/assets/avatar-866795c99abc33a3160d1f3fa93ada46eb75e54134e777666b9ed16215b26534.png", 
                "erased": false, 
                "hidden": false, 
                "id": 9262, 
                "name": "Suport General - Decidim Barcelona", 
                "official": false, 
                "official_level": 0, 
                "role": null, 
                "verified_organization": null
            }, 
            "body": "<p><a href=\"https://decidim.barcelona/proposals/bitllet-senzill-mes-economic-i-possibilitat-de-transbord\">https://decidim.barcelona/proposals/bitllet-senzill-mes-economic-i-possibilitat-de-transbord</a></p>", 
            "commentable_id": 2951, 
            "commentable_type": "Proposal", 
            "created_at": "14/04/2016 10:55:53", 
            "flagged": false, 
            "hidden": false, 
            "id": 15263, 
            "moderator_id": null, 
            "permissions": {
                "hide": false, 
                "hide_author": false, 
                "vote": false
            }, 
            "total_dislikes": 0, 
            "total_likes": 0, 
            "total_votes": 0
        }, 
        {
            "administrator_id": null, 
            "alignment": 0, 
            "ancestry": null, 
            "as": null, 
            "author": {
                "avatar_image": "https://decidim.barcelona/assets/avatar-866795c99abc33a3160d1f3fa93ada46eb75e54134e777666b9ed16215b26534.png", 
                "erased": false, 
                "hidden": false, 
                "id": 9262, 
                "name": "Suport General - Decidim Barcelona", 
                "official": false, 
                "official_level": 0, 
                "role": null, 
                "verified_organization": null
            }, 
            "body": "<p><a href=\"https://decidim.barcelona/proposals/tarjetes-de-plastic-recarregables-pel-transport-public\">https://decidim.barcelona/proposals/tarjetes-de-plastic-recarregables-pel-transport-public</a></p>", 
            "commentable_id": 2951, 
            "commentable_type": "Proposal", 
            "created_at": "14/04/2016 10:57:21", 
            "flagged": false, 
            "hidden": false, 
            "id": 15264, 
            "moderator_id": null, 
            "permissions": {
                "hide": false, 
                "hide_author": false, 
                "vote": false
            }, 
            "total_dislikes": 0, 
            "total_likes": 0, 
            "total_votes": 0
        }, 
        {
            "administrator_id": null, 
            "alignment": 0, 
            "ancestry": null, 
            "as": null, 
            "author": {
                "avatar_image": "https://decidim.barcelona/assets/avatar-866795c99abc33a3160d1f3fa93ada46eb75e54134e777666b9ed16215b26534.png", 
                "erased": false, 
                "hidden": false, 
                "id": 9262, 
                "name": "Suport General - Decidim Barcelona", 
                "official": false, 
                "official_level": 0, 
                "role": null, 
                "verified_organization": null
            }, 
            "body": "<p><a href=\"https://decidim.barcelona/proposals/tb-10-la-targeta-de-transport-per-les-persones-que-vieuen-a-barcelona\">https://decidim.barcelona/proposals/tb-10-la-targeta-de-transport-per-les-persones-que-vieuen-a-barcelona</a></p>", 
            "commentable_id": 2951, 
            "commentable_type": "Proposal", 
            "created_at": "14/04/2016 10:59:29", 
            "flagged": false, 
            "hidden": false, 
            "id": 15267, 
            "moderator_id": null, 
            "permissions": {
                "hide": false, 
                "hide_author": false, 
                "vote": false
            }, 
            "total_dislikes": 0, 
            "total_likes": 0, 
            "total_votes": 0
        }
    ], 
    "meta": {
        "current_page": 1, 
        "next_page": 2, 
        "prev_page": null, 
        "total_count": 47, 
        "total_pages": 3
    }
}