{
    "comments": [
        {
            "administrator_id": null, 
            "alignment": 0, 
            "ancestry": null, 
            "as": null, 
            "author": {
                "avatar_image": "https://decidim.barcelona/assets/avatar-866795c99abc33a3160d1f3fa93ada46eb75e54134e777666b9ed16215b26534.png", 
                "erased": false, 
                "hidden": false, 
                "id": 9262, 
                "name": "Suport General - Decidim Barcelona", 
                "official": false, 
                "official_level": 0, 
                "role": null, 
                "verified_organization": null
            }, 
            "body": "<p><a href=\"https://decidim.barcelona/proposals/targeta-t12-de-plastic-renovacio-gratuita-per-perdua-o-robatori\">https://decidim.barcelona/proposals/targeta-t12-de-plastic-renovacio-gratuita-per-perdua-o-robatori</a></p>", 
            "commentable_id": 2951, 
            "commentable_type": "Proposal", 
            "created_at": "14/04/2016 11:05:35", 
            "flagged": false, 
            "hidden": false, 
            "id": 15290, 
            "moderator_id": null, 
            "permissions": {
                "hide": false, 
                "hide_author": false, 
                "vote": false
            }, 
            "total_dislikes": 0, 
            "total_likes": 0, 
            "total_votes": 0
        }, 
        {
            "administrator_id": null, 
            "alignment": 0, 
            "ancestry": null, 
            "as": null, 
            "author": {
                "avatar_image": "https://decidim.barcelona/assets/avatar-866795c99abc33a3160d1f3fa93ada46eb75e54134e777666b9ed16215b26534.png", 
                "erased": false, 
                "hidden": false, 
                "id": 9262, 
                "name": "Suport General - Decidim Barcelona", 
                "official": false, 
                "official_level": 0, 
                "role": null, 
                "verified_organization": null
            }, 
            "body": "<p><a href=\"https://decidim.barcelona/proposals/zona-1-de-barcelona-fins-a-s-cugat-i-rubi-o-fins-a-cerdanyola-i-ripollet\">https://decidim.barcelona/proposals/zona-1-de-barcelona-fins-a-s-cugat-i-rubi-o-fins-a-cerdanyola-i-ripollet</a></p>", 
            "commentable_id": 2951, 
            "commentable_type": "Proposal", 
            "created_at": "14/04/2016 11:13:16", 
            "flagged": false, 
            "hidden": false, 
            "id": 15308, 
            "moderator_id": null, 
            "permissions": {
                "hide": false, 
                "hide_author": false, 
                "vote": false
            }, 
            "total_dislikes": 0, 
            "total_likes": 0, 
            "total_votes": 0
        }, 
        {
            "administrator_id": null, 
            "alignment": 0, 
            "ancestry": null, 
            "as": null, 
            "author": {
                "avatar_image": "https://decidim.barcelona/assets/avatar-866795c99abc33a3160d1f3fa93ada46eb75e54134e777666b9ed16215b26534.png", 
                "erased": false, 
                "hidden": false, 
                "id": 9262, 
                "name": "Suport General - Decidim Barcelona", 
                "official": false, 
                "official_level": 0, 
                "role": null, 
                "verified_organization": null
            }, 
            "body": "<p><a href=\"https://decidim.barcelona/proposals/extendra-la-validessa-de-la-tarjeta-rosa-als-trens-entrants-a-barcelon\">https://decidim.barcelona/proposals/extendra-la-validessa-de-la-tarjeta-rosa-als-trens-entrants-a-barcelon</a></p>", 
            "commentable_id": 2951, 
            "commentable_type": "Proposal", 
            "created_at": "14/04/2016 11:15:01", 
            "flagged": false, 
            "hidden": false, 
            "id": 15318, 
            "moderator_id": null, 
            "permissions": {
                "hide": false, 
                "hide_author": false, 
                "vote": false
            }, 
            "total_dislikes": 0, 
            "total_likes": 0, 
            "total_votes": 0
        }, 
        {
            "administrator_id": null, 
            "alignment": 0, 
            "ancestry": null, 
            "as": null, 
            "author": {
                "avatar_image": "https://decidim.barcelona/assets/avatar-866795c99abc33a3160d1f3fa93ada46eb75e54134e777666b9ed16215b26534.png", 
                "erased": false, 
                "hidden": false, 
                "id": 9262, 
                "name": "Suport General - Decidim Barcelona", 
                "official": false, 
                "official_level": 0, 
                "role": null, 
                "verified_organization": null
            }, 
            "body": "<p><a href=\"https://decidim.barcelona/proposals/una-t12-mes-justa-i-eficient\">https://decidim.barcelona/proposals/una-t12-mes-justa-i-eficient</a></p>", 
            "commentable_id": 2951, 
            "commentable_type": "Proposal", 
            "created_at": "14/04/2016 14:01:26", 
            "flagged": false, 
            "hidden": false, 
            "id": 15704, 
            "moderator_id": null, 
            "permissions": {
                "hide": false, 
                "hide_author": false, 
                "vote": false
            }, 
            "total_dislikes": 0, 
            "total_likes": 0, 
            "total_votes": 0
        }, 
        {
            "administrator_id": null, 
            "alignment": 0, 
            "ancestry": null, 
            "as": null, 
            "author": {
                "avatar_image": "https://decidim.barcelona/assets/avatar-866795c99abc33a3160d1f3fa93ada46eb75e54134e777666b9ed16215b26534.png", 
                "erased": false, 
                "hidden": false, 
                "id": 9262, 
                "name": "Suport General - Decidim Barcelona", 
                "official": false, 
                "official_level": 0, 
                "role": null, 
                "verified_organization": null
            }, 
            "body": "<p><a href=\"https://decidim.barcelona/proposals/que-la-t12-sigui-per-als-nens-escolaritzats-a-barcelona-encara-que-visquin-fora-de-la-zona-1\">https://decidim.barcelona/proposals/que-la-t12-sigui-per-als-nens-escolaritzats-a-barcelona-encara-que-visquin-fora-de-la-zona-1</a></p>", 
            "commentable_id": 2951, 
            "commentable_type": "Proposal", 
            "created_at": "14/04/2016 14:02:00", 
            "flagged": false, 
            "hidden": false, 
            "id": 15706, 
            "moderator_id": null, 
            "permissions": {
                "hide": false, 
                "hide_author": false, 
                "vote": false
            }, 
            "total_dislikes": 0, 
            "total_likes": 0, 
            "total_votes": 0
        }, 
        {
            "administrator_id": null, 
            "alignment": 0, 
            "ancestry": null, 
            "as": null, 
            "author": {
                "avatar_image": "https://decidim.barcelona/assets/avatar-866795c99abc33a3160d1f3fa93ada46eb75e54134e777666b9ed16215b26534.png", 
                "erased": false, 
                "hidden": false, 
                "id": 9262, 
                "name": "Suport General - Decidim Barcelona", 
                "official": false, 
                "official_level": 0, 
                "role": null, 
                "verified_organization": null
            }, 
            "body": "<p><a href=\"https://decidim.barcelona/proposals/tarjeta-de-transporte-t4-para-jubilados-renovable\">https://decidim.barcelona/proposals/tarjeta-de-transporte-t4-para-jubilados-renovable</a></p>", 
            "commentable_id": 2951, 
            "commentable_type": "Proposal", 
            "created_at": "14/04/2016 14:44:19", 
            "flagged": false, 
            "hidden": false, 
            "id": 15758, 
            "moderator_id": null, 
            "permissions": {
                "hide": false, 
                "hide_author": false, 
                "vote": false
            }, 
            "total_dislikes": 0, 
            "total_likes": 0, 
            "total_votes": 0
        }, 
        {
            "administrator_id": null, 
            "alignment": 0, 
            "ancestry": null, 
            "as": null, 
            "author": {
                "avatar_image": "https://decidim.barcelona/assets/avatar-866795c99abc33a3160d1f3fa93ada46eb75e54134e777666b9ed16215b26534.png", 
                "erased": false, 
                "hidden": false, 
                "id": 9262, 
                "name": "Suport General - Decidim Barcelona", 
                "official": false, 
                "official_level": 0, 
                "role": null, 
                "verified_organization": null
            }, 
            "body": "<p><a href=\"https://decidim.barcelona/proposals/augmentar-punts-de-venda-de-titols-de-transport-fm-fn\">https://decidim.barcelona/proposals/augmentar-punts-de-venda-de-titols-de-transport-fm-fn</a></p>", 
            "commentable_id": 2951, 
            "commentable_type": "Proposal", 
            "created_at": "14/04/2016 14:45:31", 
            "flagged": false, 
            "hidden": false, 
            "id": 15761, 
            "moderator_id": null, 
            "permissions": {
                "hide": false, 
                "hide_author": false, 
                "vote": false
            }, 
            "total_dislikes": 0, 
            "total_likes": 0, 
            "total_votes": 0
        }, 
        {
            "administrator_id": null, 
            "alignment": 0, 
            "ancestry": null, 
            "as": null, 
            "author": {
                "avatar_image": "https://decidim.barcelona/assets/avatar-866795c99abc33a3160d1f3fa93ada46eb75e54134e777666b9ed16215b26534.png", 
                "erased": false, 
                "hidden": false, 
                "id": 9262, 
                "name": "Suport General - Decidim Barcelona", 
                "official": false, 
                "official_level": 0, 
                "role": null, 
                "verified_organization": null
            }, 
            "body": "<p><a href=\"https://decidim.barcelona/proposals/tarjetas-con-descuento-de-tmb-para-todos-los-jubilados\">https://decidim.barcelona/proposals/tarjetas-con-descuento-de-tmb-para-todos-los-jubilados</a></p>", 
            "commentable_id": 2951, 
            "commentable_type": "Proposal", 
            "created_at": "14/04/2016 14:46:00", 
            "flagged": false, 
            "hidden": false, 
            "id": 15763, 
            "moderator_id": null, 
            "permissions": {
                "hide": false, 
                "hide_author": false, 
                "vote": false
            }, 
            "total_dislikes": 0, 
            "total_likes": 0, 
            "total_votes": 0
        }, 
        {
            "administrator_id": null, 
            "alignment": 0, 
            "ancestry": null, 
            "as": null, 
            "author": {
                "avatar_image": "https://decidim.barcelona/assets/avatar-866795c99abc33a3160d1f3fa93ada46eb75e54134e777666b9ed16215b26534.png", 
                "erased": false, 
                "hidden": false, 
                "id": 9262, 
                "name": "Suport General - Decidim Barcelona", 
                "official": false, 
                "official_level": 0, 
                "role": null, 
                "verified_organization": null
            }, 
            "body": "<p><a href=\"https://decidim.barcelona/proposals/reduccio-de-les-tarifes-de-tmb\">https://decidim.barcelona/proposals/reduccio-de-les-tarifes-de-tmb</a></p>", 
            "commentable_id": 2951, 
            "commentable_type": "Proposal", 
            "created_at": "14/04/2016 14:46:40", 
            "flagged": false, 
            "hidden": false, 
            "id": 15765, 
            "moderator_id": null, 
            "permissions": {
                "hide": false, 
                "hide_author": false, 
                "vote": false
            }, 
            "total_dislikes": 0, 
            "total_likes": 0, 
            "total_votes": 0
        }, 
        {
            "administrator_id": null, 
            "alignment": 0, 
            "ancestry": null, 
            "as": null, 
            "author": {
                "avatar_image": "https://decidim.barcelona/assets/avatar-866795c99abc33a3160d1f3fa93ada46eb75e54134e777666b9ed16215b26534.png", 
                "erased": false, 
                "hidden": false, 
                "id": 9262, 
                "name": "Suport General - Decidim Barcelona", 
                "official": false, 
                "official_level": 0, 
                "role": null, 
                "verified_organization": null
            }, 
            "body": "<p><a href=\"https://decidim.barcelona/proposals/el-titol-de-transport-hauria-de-permetre-utilitzar-durant-el-temps-establert-actualment-qualsevol-mitja-de-transport-encara-que-es-repeteixi\">https://decidim.barcelona/proposals/el-titol-de-transport-hauria-de-permetre-utilitzar-durant-el-temps-establert-actualment-qualsevol-mitja-de-transport-encara-que-es-repeteixi</a></p>", 
            "commentable_id": 2951, 
            "commentable_type": "Proposal", 
            "created_at": "14/04/2016 14:51:20", 
            "flagged": false, 
            "hidden": false, 
            "id": 15774, 
            "moderator_id": null, 
            "permissions": {
                "hide": false, 
                "hide_author": false, 
                "vote": false
            }, 
            "total_dislikes": 0, 
            "total_likes": 0, 
            "total_votes": 0
        }, 
        {
            "administrator_id": null, 
            "alignment": 0, 
            "ancestry": null, 
            "as": null, 
            "author": {
                "avatar_image": "https://decidim.barcelona/assets/avatar-866795c99abc33a3160d1f3fa93ada46eb75e54134e777666b9ed16215b26534.png", 
                "erased": false, 
                "hidden": false, 
                "id": 9262, 
                "name": "Suport General - Decidim Barcelona", 
                "official": false, 
                "official_level": 0, 
                "role": null, 
                "verified_organization": null
            }, 
            "body": "<p><a href=\"https://decidim.barcelona/proposals/de-t-12-a-t-16-transport-gratuit-per-escolars-fins-els-16-anys-o-fi-de-la-eso\">https://decidim.barcelona/proposals/de-t-12-a-t-16-transport-gratuit-per-escolars-fins-els-16-anys-o-fi-de-la-eso</a></p>", 
            "commentable_id": 2951, 
            "commentable_type": "Proposal", 
            "created_at": "14/04/2016 14:57:55", 
            "flagged": false, 
            "hidden": false, 
            "id": 15782, 
            "moderator_id": null, 
            "permissions": {
                "hide": false, 
                "hide_author": false, 
                "vote": false
            }, 
            "total_dislikes": 0, 
            "total_likes": 0, 
            "total_votes": 0
        }, 
        {
            "administrator_id": null, 
            "alignment": 0, 
            "ancestry": null, 
            "as": null, 
            "author": {
                "avatar_image": "https://decidim.barcelona/assets/avatar-866795c99abc33a3160d1f3fa93ada46eb75e54134e777666b9ed16215b26534.png", 
                "erased": false, 
                "hidden": false, 
                "id": 9262, 
                "name": "Suport General - Decidim Barcelona", 
                "official": false, 
                "official_level": 0, 
                "role": null, 
                "verified_organization": null
            }, 
            "body": "<p><a href=\"https://decidim.barcelona/proposals/reduccions-de-preus-de-transports-per-aturats-barcelonins\">https://decidim.barcelona/proposals/reduccions-de-preus-de-transports-per-aturats-barcelonins</a></p>", 
            "commentable_id": 2951, 
            "commentable_type": "Proposal", 
            "created_at": "14/04/2016 14:58:14", 
            "flagged": false, 
            "hidden": false, 
            "id": 15783, 
            "moderator_id": null, 
            "permissions": {
                "hide": false, 
                "hide_author": false, 
                "vote": false
            }, 
            "total_dislikes": 0, 
            "total_likes": 0, 
            "total_votes": 0
        }, 
        {
            "administrator_id": null, 
            "alignment": 0, 
            "ancestry": null, 
            "as": null, 
            "author": {
                "avatar_image": "https://decidim.barcelona/assets/avatar-866795c99abc33a3160d1f3fa93ada46eb75e54134e777666b9ed16215b26534.png", 
                "erased": false, 
                "hidden": false, 
                "id": 9262, 
                "name": "Suport General - Decidim Barcelona", 
                "official": false, 
                "official_level": 0, 
                "role": null, 
                "verified_organization": null
            }, 
            "body": "<p><a href=\"https://decidim.barcelona/proposals/t-12-el-duplicat-molt-mes-economic-gratuit-i-que-no-fos-necessaria-fins-als-10-o-12-anys\">https://decidim.barcelona/proposals/t-12-el-duplicat-molt-mes-economic-gratuit-i-que-no-fos-necessaria-fins-als-10-o-12-anys</a></p>", 
            "commentable_id": 2951, 
            "commentable_type": "Proposal", 
            "created_at": "14/04/2016 14:58:29", 
            "flagged": false, 
            "hidden": false, 
            "id": 15784, 
            "moderator_id": null, 
            "permissions": {
                "hide": false, 
                "hide_author": false, 
                "vote": false
            }, 
            "total_dislikes": 0, 
            "total_likes": 0, 
            "total_votes": 0
        }, 
        {
            "administrator_id": null, 
            "alignment": 0, 
            "ancestry": null, 
            "as": null, 
            "author": {
                "avatar_image": "https://decidim.barcelona/assets/avatar-866795c99abc33a3160d1f3fa93ada46eb75e54134e777666b9ed16215b26534.png", 
                "erased": false, 
                "hidden": false, 
                "id": 9262, 
                "name": "Suport General - Decidim Barcelona", 
                "official": false, 
                "official_level": 0, 
                "role": null, 
                "verified_organization": null
            }, 
            "body": "<p><a href=\"https://decidim.barcelona/proposals/t-12-de-mas-de-una-zona\">https://decidim.barcelona/proposals/t-12-de-mas-de-una-zona</a></p>", 
            "commentable_id": 2951, 
            "commentable_type": "Proposal", 
            "created_at": "14/04/2016 14:58:47", 
            "flagged": false, 
            "hidden": false, 
            "id": 15785, 
            "moderator_id": null, 
            "permissions": {
                "hide": false, 
                "hide_author": false, 
                "vote": false
            }, 
            "total_dislikes": 0, 
            "total_likes": 0, 
            "total_votes": 0
        }, 
        {
            "administrator_id": null, 
            "alignment": 0, 
            "ancestry": null, 
            "as": null, 
            "author": {
                "avatar_image": "https://decidim.barcelona/assets/avatar-866795c99abc33a3160d1f3fa93ada46eb75e54134e777666b9ed16215b26534.png", 
                "erased": false, 
                "hidden": false, 
                "id": 9262, 
                "name": "Suport General - Decidim Barcelona", 
                "official": false, 
                "official_level": 0, 
                "role": null, 
                "verified_organization": null
            }, 
            "body": "<p><a href=\"https://decidim.barcelona/proposals/tarjetes-de-plastic-recarregables-pel-transport-public\">https://decidim.barcelona/proposals/tarjetes-de-plastic-recarregables-pel-transport-public</a></p>", 
            "commentable_id": 2951, 
            "commentable_type": "Proposal", 
            "created_at": "14/04/2016 15:41:12", 
            "flagged": false, 
            "hidden": false, 
            "id": 15816, 
            "moderator_id": null, 
            "permissions": {
                "hide": false, 
                "hide_author": false, 
                "vote": false
            }, 
            "total_dislikes": 0, 
            "total_likes": 0, 
            "total_votes": 0
        }, 
        {
            "administrator_id": null, 
            "alignment": 0, 
            "ancestry": null, 
            "as": null, 
            "author": {
                "avatar_image": "https://decidim.barcelona/assets/avatar-866795c99abc33a3160d1f3fa93ada46eb75e54134e777666b9ed16215b26534.png", 
                "erased": false, 
                "hidden": false, 
                "id": 9262, 
                "name": "Suport General - Decidim Barcelona", 
                "official": false, 
                "official_level": 0, 
                "role": null, 
                "verified_organization": null
            }, 
            "body": "<p><a href=\"https://decidim.barcelona/proposals/barcelonins-puguin-anar-amb-metro-a-aeroport-l9-sense-pagament-suplement\">https://decidim.barcelona/proposals/barcelonins-puguin-anar-amb-metro-a-aeroport-l9-sense-pagament-suplement</a></p>", 
            "commentable_id": 2951, 
            "commentable_type": "Proposal", 
            "created_at": "14/04/2016 15:48:41", 
            "flagged": false, 
            "hidden": false, 
            "id": 15838, 
            "moderator_id": null, 
            "permissions": {
                "hide": false, 
                "hide_author": false, 
                "vote": false
            }, 
            "total_dislikes": 0, 
            "total_likes": 0, 
            "total_votes": 0
        }, 
        {
            "administrator_id": null, 
            "alignment": 0, 
            "ancestry": null, 
            "as": null, 
            "author": {
                "avatar_image": "https://decidim.barcelona/assets/avatar-866795c99abc33a3160d1f3fa93ada46eb75e54134e777666b9ed16215b26534.png", 
                "erased": false, 
                "hidden": false, 
                "id": 9262, 
                "name": "Suport General - Decidim Barcelona", 
                "official": false, 
                "official_level": 0, 
                "role": null, 
                "verified_organization": null
            }, 
            "body": "<p><a href=\"https://decidim.barcelona/proposals/rebaixa-preu-t-jove\">https://decidim.barcelona/proposals/rebaixa-preu-t-jove</a></p>", 
            "commentable_id": 2951, 
            "commentable_type": "Proposal", 
            "created_at": "14/04/2016 16:05:16", 
            "flagged": false, 
            "hidden": false, 
            "id": 15862, 
            "moderator_id": null, 
            "permissions": {
                "hide": false, 
                "hide_author": false, 
                "vote": false
            }, 
            "total_dislikes": 0, 
            "total_likes": 0, 
            "total_votes": 0
        }, 
        {
            "administrator_id": null, 
            "alignment": 0, 
            "ancestry": null, 
            "as": null, 
            "author": {
                "avatar_image": "https://decidim.barcelona/assets/avatar-866795c99abc33a3160d1f3fa93ada46eb75e54134e777666b9ed16215b26534.png", 
                "erased": false, 
                "hidden": false, 
                "id": 9262, 
                "name": "Suport General - Decidim Barcelona", 
                "official": false, 
                "official_level": 0, 
                "role": null, 
                "verified_organization": null
            }, 
            "body": "<p><a href=\"https://decidim.barcelona/proposals/reforma-del-sistema-de-los-titulos-de-transporte\">https://decidim.barcelona/proposals/reforma-del-sistema-de-los-titulos-de-transporte</a></p>", 
            "commentable_id": 2951, 
            "commentable_type": "Proposal", 
            "created_at": "14/04/2016 16:07:05", 
            "flagged": false, 
            "hidden": false, 
            "id": 15865, 
            "moderator_id": null, 
            "permissions": {
                "hide": false, 
                "hide_author": false, 
                "vote": false
            }, 
            "total_dislikes": 0, 
            "total_likes": 0, 
            "total_votes": 0
        }, 
        {
            "administrator_id": null, 
            "alignment": 0, 
            "ancestry": null, 
            "as": null, 
            "author": {
                "avatar_image": "https://decidim.barcelona/assets/avatar-866795c99abc33a3160d1f3fa93ada46eb75e54134e777666b9ed16215b26534.png", 
                "erased": false, 
                "hidden": false, 
                "id": 9262, 
                "name": "Suport General - Decidim Barcelona", 
                "official": false, 
                "official_level": 0, 
                "role": null, 
                "verified_organization": null
            }, 
            "body": "<p><a href=\"https://decidim.barcelona/proposals/millorar-transport-public-a7561da8-11e1-4cd8-bfe3-db237698c21b\">https://decidim.barcelona/proposals/millorar-transport-public-a7561da8-11e1-4cd8-bfe3-db237698c21b</a></p>", 
            "commentable_id": 2951, 
            "commentable_type": "Proposal", 
            "created_at": "14/04/2016 16:22:08", 
            "flagged": false, 
            "hidden": false, 
            "id": 15909, 
            "moderator_id": null, 
            "permissions": {
                "hide": false, 
                "hide_author": false, 
                "vote": false
            }, 
            "total_dislikes": 0, 
            "total_likes": 0, 
            "total_votes": 0
        }, 
        {
            "administrator_id": null, 
            "alignment": 0, 
            "ancestry": null, 
            "as": null, 
            "author": {
                "avatar_image": "https://decidim.barcelona/assets/avatar-866795c99abc33a3160d1f3fa93ada46eb75e54134e777666b9ed16215b26534.png", 
                "erased": false, 
                "hidden": false, 
                "id": 9262, 
                "name": "Suport General - Decidim Barcelona", 
                "official": false, 
                "official_level": 0, 
                "role": null, 
                "verified_organization": null
            }, 
            "body": "<p><a href=\"https://decidim.barcelona/proposals/promocio-del-transport-public-mitjancant-campanyes-de-sensibilitzacio-i-reduccio-dels-preus\">https://decidim.barcelona/proposals/promocio-del-transport-public-mitjancant-campanyes-de-sensibilitzacio-i-reduccio-dels-preus</a></p>", 
            "commentable_id": 2951, 
            "commentable_type": "Proposal", 
            "created_at": "14/04/2016 16:22:24", 
            "flagged": false, 
            "hidden": false, 
            "id": 15911, 
            "moderator_id": null, 
            "permissions": {
                "hide": false, 
                "hide_author": false, 
                "vote": false
            }, 
            "total_dislikes": 0, 
            "total_likes": 0, 
            "total_votes": 0
        }
    ], 
    "meta": {
        "current_page": 2, 
        "next_page": 3, 
        "prev_page": 1, 
        "total_count": 47, 
        "total_pages": 3
    }
}