{
    "comments": [
        {
            "administrator_id": null, 
            "alignment": 0, 
            "ancestry": null, 
            "as": null, 
            "author": {
                "avatar_image": "https://decidim.barcelona/assets/avatar-866795c99abc33a3160d1f3fa93ada46eb75e54134e777666b9ed16215b26534.png", 
                "erased": false, 
                "hidden": false, 
                "id": 17741, 
                "name": "Suport General3 - Decidim Barcelona", 
                "official": false, 
                "official_level": 0, 
                "role": null, 
                "verified_organization": null
            }, 
            "body": "<p><a href=\"https://decidim.barcelona/proposals/refer-el-carril-bici-a-diagonal-desde-glories-a-passeig-de-gracia\">https://decidim.barcelona/proposals/refer-el-carril-bici-a-diagonal-desde-glories-a-passeig-de-gracia</a></p>", 
            "commentable_id": 2952, 
            "commentable_type": "Proposal", 
            "created_at": "09/04/2016 16:15:08", 
            "flagged": false, 
            "hidden": false, 
            "id": 12493, 
            "moderator_id": null, 
            "permissions": {
                "hide": false, 
                "hide_author": false, 
                "vote": false
            }, 
            "total_dislikes": 0, 
            "total_likes": 0, 
            "total_votes": 0
        }, 
        {
            "administrator_id": null, 
            "alignment": 0, 
            "ancestry": null, 
            "as": null, 
            "author": {
                "avatar_image": "https://decidim.barcelona/assets/avatar-866795c99abc33a3160d1f3fa93ada46eb75e54134e777666b9ed16215b26534.png", 
                "erased": false, 
                "hidden": false, 
                "id": 17741, 
                "name": "Suport General3 - Decidim Barcelona", 
                "official": false, 
                "official_level": 0, 
                "role": null, 
                "verified_organization": null
            }, 
            "body": "<p><a href=\"https://decidim.barcelona/proposals/articular-millor-la-convivencia-entre-bicicletes-i-vianants\">https://decidim.barcelona/proposals/articular-millor-la-convivencia-entre-bicicletes-i-vianants</a></p>", 
            "commentable_id": 2952, 
            "commentable_type": "Proposal", 
            "created_at": "09/04/2016 16:15:29", 
            "flagged": false, 
            "hidden": false, 
            "id": 12494, 
            "moderator_id": null, 
            "permissions": {
                "hide": false, 
                "hide_author": false, 
                "vote": false
            }, 
            "total_dislikes": 0, 
            "total_likes": 0, 
            "total_votes": 0
        }, 
        {
            "administrator_id": null, 
            "alignment": 0, 
            "ancestry": null, 
            "as": null, 
            "author": {
                "avatar_image": "https://decidim.barcelona/assets/avatar-866795c99abc33a3160d1f3fa93ada46eb75e54134e777666b9ed16215b26534.png", 
                "erased": false, 
                "hidden": false, 
                "id": 17741, 
                "name": "Suport General3 - Decidim Barcelona", 
                "official": false, 
                "official_level": 0, 
                "role": null, 
                "verified_organization": null
            }, 
            "body": "<p><a href=\"https://decidim.barcelona/proposals/senyalitzacio-d-itineraris-per-la-bicicleta\">https://decidim.barcelona/proposals/senyalitzacio-d-itineraris-per-la-bicicleta</a></p>", 
            "commentable_id": 2952, 
            "commentable_type": "Proposal", 
            "created_at": "09/04/2016 16:15:41", 
            "flagged": false, 
            "hidden": false, 
            "id": 12496, 
            "moderator_id": null, 
            "permissions": {
                "hide": false, 
                "hide_author": false, 
                "vote": false
            }, 
            "total_dislikes": 0, 
            "total_likes": 0, 
            "total_votes": 0
        }, 
        {
            "administrator_id": null, 
            "alignment": 0, 
            "ancestry": null, 
            "as": null, 
            "author": {
                "avatar_image": "https://decidim.barcelona/assets/avatar-866795c99abc33a3160d1f3fa93ada46eb75e54134e777666b9ed16215b26534.png", 
                "erased": false, 
                "hidden": false, 
                "id": 17741, 
                "name": "Suport General3 - Decidim Barcelona", 
                "official": false, 
                "official_level": 0, 
                "role": null, 
                "verified_organization": null
            }, 
            "body": "<p><a href=\"https://decidim.barcelona/proposals/dotacio-d-un-parc-de-bicicletes-a-disposicio-de-tots-els-treballadors-municipals\">https://decidim.barcelona/proposals/dotacio-d-un-parc-de-bicicletes-a-disposicio-de-tots-els-treballadors-municipals</a></p>", 
            "commentable_id": 2952, 
            "commentable_type": "Proposal", 
            "created_at": "09/04/2016 16:16:09", 
            "flagged": false, 
            "hidden": false, 
            "id": 12497, 
            "moderator_id": null, 
            "permissions": {
                "hide": false, 
                "hide_author": false, 
                "vote": false
            }, 
            "total_dislikes": 0, 
            "total_likes": 0, 
            "total_votes": 0
        }, 
        {
            "administrator_id": null, 
            "alignment": 0, 
            "ancestry": null, 
            "as": null, 
            "author": {
                "avatar_image": "https://decidim.barcelona/assets/avatar-866795c99abc33a3160d1f3fa93ada46eb75e54134e777666b9ed16215b26534.png", 
                "erased": false, 
                "hidden": false, 
                "id": 17741, 
                "name": "Suport General3 - Decidim Barcelona", 
                "official": false, 
                "official_level": 0, 
                "role": null, 
                "verified_organization": null
            }, 
            "body": "<p><a href=\"https://decidim.barcelona/proposals/evitar-ocupacio-carril-bici-a-les-cruilles-impedint-el-pas-de-les-bicicletes\">https://decidim.barcelona/proposals/evitar-ocupacio-carril-bici-a-les-cruilles-impedint-el-pas-de-les-bicicletes</a></p>", 
            "commentable_id": 2952, 
            "commentable_type": "Proposal", 
            "created_at": "09/04/2016 16:16:28", 
            "flagged": false, 
            "hidden": false, 
            "id": 12498, 
            "moderator_id": null, 
            "permissions": {
                "hide": false, 
                "hide_author": false, 
                "vote": false
            }, 
            "total_dislikes": 0, 
            "total_likes": 0, 
            "total_votes": 0
        }, 
        {
            "administrator_id": null, 
            "alignment": 0, 
            "ancestry": null, 
            "as": null, 
            "author": {
                "avatar_image": "https://decidim.barcelona/assets/avatar-866795c99abc33a3160d1f3fa93ada46eb75e54134e777666b9ed16215b26534.png", 
                "erased": false, 
                "hidden": false, 
                "id": 17741, 
                "name": "Suport General3 - Decidim Barcelona", 
                "official": false, 
                "official_level": 0, 
                "role": null, 
                "verified_organization": null
            }, 
            "body": "<p><a href=\"https://decidim.barcelona/proposals/afegir-anclatges-per-a-bicicletes-en-totes-les-cruilles\">https://decidim.barcelona/proposals/afegir-anclatges-per-a-bicicletes-en-totes-les-cruilles</a></p>", 
            "commentable_id": 2952, 
            "commentable_type": "Proposal", 
            "created_at": "09/04/2016 16:16:44", 
            "flagged": false, 
            "hidden": false, 
            "id": 12499, 
            "moderator_id": null, 
            "permissions": {
                "hide": false, 
                "hide_author": false, 
                "vote": false
            }, 
            "total_dislikes": 0, 
            "total_likes": 0, 
            "total_votes": 0
        }, 
        {
            "administrator_id": null, 
            "alignment": 0, 
            "ancestry": null, 
            "as": null, 
            "author": {
                "avatar_image": "https://decidim.barcelona/assets/avatar-866795c99abc33a3160d1f3fa93ada46eb75e54134e777666b9ed16215b26534.png", 
                "erased": false, 
                "hidden": false, 
                "id": 17741, 
                "name": "Suport General3 - Decidim Barcelona", 
                "official": false, 
                "official_level": 0, 
                "role": null, 
                "verified_organization": null
            }, 
            "body": "<p><a href=\"https://decidim.barcelona/proposals/pacificacio-carill-bici-de-passeig-de-gracia-prohibicio-cotxes-circulacio\">https://decidim.barcelona/proposals/pacificacio-carill-bici-de-passeig-de-gracia-prohibicio-cotxes-circulacio</a></p>", 
            "commentable_id": 2952, 
            "commentable_type": "Proposal", 
            "created_at": "09/04/2016 16:17:05", 
            "flagged": false, 
            "hidden": false, 
            "id": 12500, 
            "moderator_id": null, 
            "permissions": {
                "hide": false, 
                "hide_author": false, 
                "vote": false
            }, 
            "total_dislikes": 0, 
            "total_likes": 0, 
            "total_votes": 0
        }, 
        {
            "administrator_id": null, 
            "alignment": 0, 
            "ancestry": null, 
            "as": null, 
            "author": {
                "avatar_image": "https://decidim.barcelona/assets/avatar-866795c99abc33a3160d1f3fa93ada46eb75e54134e777666b9ed16215b26534.png", 
                "erased": false, 
                "hidden": false, 
                "id": 17741, 
                "name": "Suport General3 - Decidim Barcelona", 
                "official": false, 
                "official_level": 0, 
                "role": null, 
                "verified_organization": null
            }, 
            "body": "<p><a href=\"https://decidim.barcelona/proposals/aparcaments-per-a-bicicletes-a-edificis-publics\">https://decidim.barcelona/proposals/aparcaments-per-a-bicicletes-a-edificis-publics</a></p>", 
            "commentable_id": 2952, 
            "commentable_type": "Proposal", 
            "created_at": "09/04/2016 16:17:23", 
            "flagged": false, 
            "hidden": false, 
            "id": 12501, 
            "moderator_id": null, 
            "permissions": {
                "hide": false, 
                "hide_author": false, 
                "vote": false
            }, 
            "total_dislikes": 0, 
            "total_likes": 0, 
            "total_votes": 0
        }, 
        {
            "administrator_id": null, 
            "alignment": 0, 
            "ancestry": null, 
            "as": null, 
            "author": {
                "avatar_image": "https://decidim.barcelona/assets/avatar-866795c99abc33a3160d1f3fa93ada46eb75e54134e777666b9ed16215b26534.png", 
                "erased": false, 
                "hidden": false, 
                "id": 17741, 
                "name": "Suport General3 - Decidim Barcelona", 
                "official": false, 
                "official_level": 0, 
                "role": null, 
                "verified_organization": null
            }, 
            "body": "<p><a href=\"https://decidim.barcelona/proposals/implantar-la-onada-verda-semafors-per-a-bicis\">https://decidim.barcelona/proposals/implantar-la-onada-verda-semafors-per-a-bicis</a></p>", 
            "commentable_id": 2952, 
            "commentable_type": "Proposal", 
            "created_at": "09/04/2016 16:19:05", 
            "flagged": false, 
            "hidden": false, 
            "id": 12503, 
            "moderator_id": null, 
            "permissions": {
                "hide": false, 
                "hide_author": false, 
                "vote": false
            }, 
            "total_dislikes": 0, 
            "total_likes": 0, 
            "total_votes": 0
        }, 
        {
            "administrator_id": null, 
            "alignment": 0, 
            "ancestry": null, 
            "as": null, 
            "author": {
                "avatar_image": "https://decidim.barcelona/assets/avatar-866795c99abc33a3160d1f3fa93ada46eb75e54134e777666b9ed16215b26534.png", 
                "erased": false, 
                "hidden": false, 
                "id": 17741, 
                "name": "Suport General3 - Decidim Barcelona", 
                "official": false, 
                "official_level": 0, 
                "role": null, 
                "verified_organization": null
            }, 
            "body": "<p><a href=\"https://decidim.barcelona/proposals/carrils-bici-de-qualitat\">https://decidim.barcelona/proposals/carrils-bici-de-qualitat</a></p>", 
            "commentable_id": 2952, 
            "commentable_type": "Proposal", 
            "created_at": "09/04/2016 16:19:18", 
            "flagged": false, 
            "hidden": false, 
            "id": 12504, 
            "moderator_id": null, 
            "permissions": {
                "hide": false, 
                "hide_author": false, 
                "vote": false
            }, 
            "total_dislikes": 0, 
            "total_likes": 0, 
            "total_votes": 0
        }, 
        {
            "administrator_id": null, 
            "alignment": 0, 
            "ancestry": null, 
            "as": null, 
            "author": {
                "avatar_image": "https://decidim.barcelona/assets/avatar-866795c99abc33a3160d1f3fa93ada46eb75e54134e777666b9ed16215b26534.png", 
                "erased": false, 
                "hidden": false, 
                "id": 17741, 
                "name": "Suport General3 - Decidim Barcelona", 
                "official": false, 
                "official_level": 0, 
                "role": null, 
                "verified_organization": null
            }, 
            "body": "<p><a href=\"https://decidim.barcelona/proposals/considerar-infraccio-greu-ocupacio-carril-bici-per-aturar-se-o-estacionar\">https://decidim.barcelona/proposals/considerar-infraccio-greu-ocupacio-carril-bici-per-aturar-se-o-estacionar</a></p>", 
            "commentable_id": 2952, 
            "commentable_type": "Proposal", 
            "created_at": "09/04/2016 16:19:34", 
            "flagged": false, 
            "hidden": false, 
            "id": 12505, 
            "moderator_id": null, 
            "permissions": {
                "hide": false, 
                "hide_author": false, 
                "vote": false
            }, 
            "total_dislikes": 0, 
            "total_likes": 0, 
            "total_votes": 0
        }, 
        {
            "administrator_id": null, 
            "alignment": 0, 
            "ancestry": null, 
            "as": null, 
            "author": {
                "avatar_image": "https://decidim.barcelona/assets/avatar-866795c99abc33a3160d1f3fa93ada46eb75e54134e777666b9ed16215b26534.png", 
                "erased": false, 
                "hidden": false, 
                "id": 17741, 
                "name": "Suport General3 - Decidim Barcelona", 
                "official": false, 
                "official_level": 0, 
                "role": null, 
                "verified_organization": null
            }, 
            "body": "<p><a href=\"https://decidim.barcelona/proposals/recicla-bicis\">https://decidim.barcelona/proposals/recicla-bicis</a></p>", 
            "commentable_id": 2952, 
            "commentable_type": "Proposal", 
            "created_at": "09/04/2016 16:20:32", 
            "flagged": false, 
            "hidden": false, 
            "id": 12507, 
            "moderator_id": null, 
            "permissions": {
                "hide": false, 
                "hide_author": false, 
                "vote": false
            }, 
            "total_dislikes": 0, 
            "total_likes": 0, 
            "total_votes": 0
        }, 
        {
            "administrator_id": null, 
            "alignment": 0, 
            "ancestry": null, 
            "as": null, 
            "author": {
                "avatar_image": "https://decidim.barcelona/assets/avatar-866795c99abc33a3160d1f3fa93ada46eb75e54134e777666b9ed16215b26534.png", 
                "erased": false, 
                "hidden": false, 
                "id": 17741, 
                "name": "Suport General3 - Decidim Barcelona", 
                "official": false, 
                "official_level": 0, 
                "role": null, 
                "verified_organization": null
            }, 
            "body": "<p><a href=\"https://decidim.barcelona/proposals/pintar-a-l-asfalt-advertencia-prioritat-bicis-al-carril-bici-al-girar\">https://decidim.barcelona/proposals/pintar-a-l-asfalt-advertencia-prioritat-bicis-al-carril-bici-al-girar</a></p>", 
            "commentable_id": 2952, 
            "commentable_type": "Proposal", 
            "created_at": "09/04/2016 16:34:20", 
            "flagged": false, 
            "hidden": false, 
            "id": 12535, 
            "moderator_id": null, 
            "permissions": {
                "hide": false, 
                "hide_author": false, 
                "vote": false
            }, 
            "total_dislikes": 0, 
            "total_likes": 0, 
            "total_votes": 0
        }, 
        {
            "administrator_id": null, 
            "alignment": 0, 
            "ancestry": null, 
            "as": null, 
            "author": {
                "avatar_image": "https://decidim.barcelona/assets/avatar-866795c99abc33a3160d1f3fa93ada46eb75e54134e777666b9ed16215b26534.png", 
                "erased": false, 
                "hidden": false, 
                "id": 9262, 
                "name": "Suport General - Decidim Barcelona", 
                "official": false, 
                "official_level": 0, 
                "role": null, 
                "verified_organization": null
            }, 
            "body": "<p><a href=\"https://decidim.barcelona/proposals/bonificacions-per-aquelles-persones-que-van-a-la-feina-en-bicicleta\">https://decidim.barcelona/proposals/bonificacions-per-aquelles-persones-que-van-a-la-feina-en-bicicleta</a></p>", 
            "commentable_id": 2952, 
            "commentable_type": "Proposal", 
            "created_at": "13/04/2016 16:55:36", 
            "flagged": false, 
            "hidden": false, 
            "id": 14948, 
            "moderator_id": null, 
            "permissions": {
                "hide": false, 
                "hide_author": false, 
                "vote": false
            }, 
            "total_dislikes": 0, 
            "total_likes": 0, 
            "total_votes": 0
        }, 
        {
            "administrator_id": null, 
            "alignment": 0, 
            "ancestry": null, 
            "as": null, 
            "author": {
                "avatar_image": "https://decidim.barcelona/assets/avatar-866795c99abc33a3160d1f3fa93ada46eb75e54134e777666b9ed16215b26534.png", 
                "erased": false, 
                "hidden": false, 
                "id": 9262, 
                "name": "Suport General - Decidim Barcelona", 
                "official": false, 
                "official_level": 0, 
                "role": null, 
                "verified_organization": null
            }, 
            "body": "<p><a href=\"https://decidim.barcelona/proposals/compromis-de-la-despesa-per-la-bicicleta\">https://decidim.barcelona/proposals/compromis-de-la-despesa-per-la-bicicleta</a></p>", 
            "commentable_id": 2952, 
            "commentable_type": "Proposal", 
            "created_at": "14/04/2016 09:59:40", 
            "flagged": false, 
            "hidden": false, 
            "id": 15145, 
            "moderator_id": null, 
            "permissions": {
                "hide": false, 
                "hide_author": false, 
                "vote": false
            }, 
            "total_dislikes": 0, 
            "total_likes": 0, 
            "total_votes": 0
        }, 
        {
            "administrator_id": null, 
            "alignment": 0, 
            "ancestry": null, 
            "as": null, 
            "author": {
                "avatar_image": "https://decidim.barcelona/assets/avatar-866795c99abc33a3160d1f3fa93ada46eb75e54134e777666b9ed16215b26534.png", 
                "erased": false, 
                "hidden": false, 
                "id": 9262, 
                "name": "Suport General - Decidim Barcelona", 
                "official": false, 
                "official_level": 0, 
                "role": null, 
                "verified_organization": null
            }, 
            "body": "<p><a href=\"https://decidim.barcelona/proposals/tallers-gratuits-manteniment-biciletes\">https://decidim.barcelona/proposals/tallers-gratuits-manteniment-biciletes</a></p>", 
            "commentable_id": 2952, 
            "commentable_type": "Proposal", 
            "created_at": "14/04/2016 17:42:36", 
            "flagged": false, 
            "hidden": false, 
            "id": 16113, 
            "moderator_id": null, 
            "permissions": {
                "hide": false, 
                "hide_author": false, 
                "vote": false
            }, 
            "total_dislikes": 0, 
            "total_likes": 0, 
            "total_votes": 0
        }, 
        {
            "administrator_id": null, 
            "alignment": 0, 
            "ancestry": null, 
            "as": null, 
            "author": {
                "avatar_image": "https://decidim.barcelona/assets/avatar-866795c99abc33a3160d1f3fa93ada46eb75e54134e777666b9ed16215b26534.png", 
                "erased": false, 
                "hidden": false, 
                "id": 9262, 
                "name": "Suport General - Decidim Barcelona", 
                "official": false, 
                "official_level": 0, 
                "role": null, 
                "verified_organization": null
            }, 
            "body": "<p><a href=\"https://decidim.barcelona/proposals/promocio-del-transport-amb-transports-sostenibles\">https://decidim.barcelona/proposals/promocio-del-transport-amb-transports-sostenibles</a></p>", 
            "commentable_id": 2952, 
            "commentable_type": "Proposal", 
            "created_at": "14/04/2016 17:47:40", 
            "flagged": false, 
            "hidden": false, 
            "id": 16123, 
            "moderator_id": null, 
            "permissions": {
                "hide": false, 
                "hide_author": false, 
                "vote": false
            }, 
            "total_dislikes": 0, 
            "total_likes": 0, 
            "total_votes": 0
        }
    ], 
    "meta": {
        "current_page": 4, 
        "next_page": null, 
        "prev_page": 3, 
        "total_count": 77, 
        "total_pages": 4
    }
}