{
    "comments": [
        {
            "administrator_id": null, 
            "alignment": 0, 
            "ancestry": null, 
            "as": null, 
            "author": {
                "avatar_image": "https://decidim.barcelona/assets/avatar-866795c99abc33a3160d1f3fa93ada46eb75e54134e777666b9ed16215b26534.png", 
                "erased": false, 
                "hidden": false, 
                "id": 17741, 
                "name": "Suport General3 - Decidim Barcelona", 
                "official": false, 
                "official_level": 0, 
                "role": null, 
                "verified_organization": null
            }, 
            "body": "<p><a href=\"https://decidim.barcelona/proposals/xarxa-de-carrils-bici-bb15e92e-f8cc-4b32-b5d8-7a69da71a8de\">https://decidim.barcelona/proposals/xarxa-de-carrils-bici-bb15e92e-f8cc-4b32-b5d8-7a69da71a8de</a></p>", 
            "commentable_id": 2952, 
            "commentable_type": "Proposal", 
            "created_at": "09/04/2016 15:42:58", 
            "flagged": false, 
            "hidden": false, 
            "id": 12428, 
            "moderator_id": null, 
            "permissions": {
                "hide": false, 
                "hide_author": false, 
                "vote": false
            }, 
            "total_dislikes": 0, 
            "total_likes": 0, 
            "total_votes": 0
        }, 
        {
            "administrator_id": null, 
            "alignment": 0, 
            "ancestry": null, 
            "as": null, 
            "author": {
                "avatar_image": "https://decidim.barcelona/assets/avatar-866795c99abc33a3160d1f3fa93ada46eb75e54134e777666b9ed16215b26534.png", 
                "erased": false, 
                "hidden": false, 
                "id": 17741, 
                "name": "Suport General3 - Decidim Barcelona", 
                "official": false, 
                "official_level": 0, 
                "role": null, 
                "verified_organization": null
            }, 
            "body": "<p><a href=\"https://decidim.barcelona/proposals/nous-carrils-bici\">https://decidim.barcelona/proposals/nous-carrils-bici</a></p>", 
            "commentable_id": 2952, 
            "commentable_type": "Proposal", 
            "created_at": "09/04/2016 15:43:20", 
            "flagged": false, 
            "hidden": false, 
            "id": 12429, 
            "moderator_id": null, 
            "permissions": {
                "hide": false, 
                "hide_author": false, 
                "vote": false
            }, 
            "total_dislikes": 0, 
            "total_likes": 0, 
            "total_votes": 0
        }, 
        {
            "administrator_id": null, 
            "alignment": 0, 
            "ancestry": null, 
            "as": null, 
            "author": {
                "avatar_image": "https://decidim.barcelona/assets/avatar-866795c99abc33a3160d1f3fa93ada46eb75e54134e777666b9ed16215b26534.png", 
                "erased": false, 
                "hidden": false, 
                "id": 17741, 
                "name": "Suport General3 - Decidim Barcelona", 
                "official": false, 
                "official_level": 0, 
                "role": null, 
                "verified_organization": null
            }, 
            "body": "<p><a href=\"https://decidim.barcelona/proposals/prioritzar-3-grans-corones-de-carrils-bici-que-tanquin-la-xarxa\">https://decidim.barcelona/proposals/prioritzar-3-grans-corones-de-carrils-bici-que-tanquin-la-xarxa</a></p>", 
            "commentable_id": 2952, 
            "commentable_type": "Proposal", 
            "created_at": "09/04/2016 15:44:20", 
            "flagged": false, 
            "hidden": false, 
            "id": 12430, 
            "moderator_id": null, 
            "permissions": {
                "hide": false, 
                "hide_author": false, 
                "vote": false
            }, 
            "total_dislikes": 0, 
            "total_likes": 0, 
            "total_votes": 0
        }, 
        {
            "administrator_id": null, 
            "alignment": 0, 
            "ancestry": null, 
            "as": null, 
            "author": {
                "avatar_image": "https://decidim.barcelona/assets/avatar-866795c99abc33a3160d1f3fa93ada46eb75e54134e777666b9ed16215b26534.png", 
                "erased": false, 
                "hidden": false, 
                "id": 17741, 
                "name": "Suport General3 - Decidim Barcelona", 
                "official": false, 
                "official_level": 0, 
                "role": null, 
                "verified_organization": null
            }, 
            "body": "<p><a href=\"https://decidim.barcelona/proposals/canvi-de-criteri-dels-carrils-bici-un-sol-sentit-de-circulacio-en-cada-carrer-disponible-per-evitar-accidents-amb-els-vianants\">https://decidim.barcelona/proposals/canvi-de-criteri-dels-carrils-bici-un-sol-sentit-de-circulacio-en-cada-carrer-disponible-per-evitar-accidents-amb-els-vianants</a></p>", 
            "commentable_id": 2952, 
            "commentable_type": "Proposal", 
            "created_at": "09/04/2016 15:50:06", 
            "flagged": false, 
            "hidden": false, 
            "id": 12431, 
            "moderator_id": null, 
            "permissions": {
                "hide": false, 
                "hide_author": false, 
                "vote": false
            }, 
            "total_dislikes": 0, 
            "total_likes": 0, 
            "total_votes": 0
        }, 
        {
            "administrator_id": null, 
            "alignment": 0, 
            "ancestry": null, 
            "as": null, 
            "author": {
                "avatar_image": "https://decidim.barcelona/assets/avatar-866795c99abc33a3160d1f3fa93ada46eb75e54134e777666b9ed16215b26534.png", 
                "erased": false, 
                "hidden": false, 
                "id": 17741, 
                "name": "Suport General3 - Decidim Barcelona", 
                "official": false, 
                "official_level": 0, 
                "role": null, 
                "verified_organization": null
            }, 
            "body": "<p><a href=\"https://decidim.barcelona/proposals/carril-bici-vertical-des-de-la-platja-fins-al-guinardo\">https://decidim.barcelona/proposals/carril-bici-vertical-des-de-la-platja-fins-al-guinardo</a></p>", 
            "commentable_id": 2952, 
            "commentable_type": "Proposal", 
            "created_at": "09/04/2016 15:52:19", 
            "flagged": false, 
            "hidden": false, 
            "id": 12432, 
            "moderator_id": null, 
            "permissions": {
                "hide": false, 
                "hide_author": false, 
                "vote": false
            }, 
            "total_dislikes": 0, 
            "total_likes": 0, 
            "total_votes": 0
        }, 
        {
            "administrator_id": null, 
            "alignment": 0, 
            "ancestry": null, 
            "as": null, 
            "author": {
                "avatar_image": "https://decidim.barcelona/assets/avatar-866795c99abc33a3160d1f3fa93ada46eb75e54134e777666b9ed16215b26534.png", 
                "erased": false, 
                "hidden": false, 
                "id": 17741, 
                "name": "Suport General3 - Decidim Barcelona", 
                "official": false, 
                "official_level": 0, 
                "role": null, 
                "verified_organization": null
            }, 
            "body": "<p><a href=\"https://decidim.barcelona/proposals/crear-rutes-en-bicicleta-per-als-les-ciclistes-que-volen-fer-esport\">https://decidim.barcelona/proposals/crear-rutes-en-bicicleta-per-als-les-ciclistes-que-volen-fer-esport</a></p>", 
            "commentable_id": 2952, 
            "commentable_type": "Proposal", 
            "created_at": "09/04/2016 15:54:20", 
            "flagged": false, 
            "hidden": false, 
            "id": 12433, 
            "moderator_id": null, 
            "permissions": {
                "hide": false, 
                "hide_author": false, 
                "vote": false
            }, 
            "total_dislikes": 0, 
            "total_likes": 0, 
            "total_votes": 0
        }, 
        {
            "administrator_id": null, 
            "alignment": 0, 
            "ancestry": null, 
            "as": null, 
            "author": {
                "avatar_image": "https://decidim.barcelona/assets/avatar-866795c99abc33a3160d1f3fa93ada46eb75e54134e777666b9ed16215b26534.png", 
                "erased": false, 
                "hidden": false, 
                "id": 17741, 
                "name": "Suport General3 - Decidim Barcelona", 
                "official": false, 
                "official_level": 0, 
                "role": null, 
                "verified_organization": null
            }, 
            "body": "<p><a href=\"https://decidim.barcelona/proposals/rebaixar-l-edat-d-us-del-bicing-als-14-anys\">https://decidim.barcelona/proposals/rebaixar-l-edat-d-us-del-bicing-als-14-anys</a></p>", 
            "commentable_id": 2952, 
            "commentable_type": "Proposal", 
            "created_at": "09/04/2016 15:54:37", 
            "flagged": false, 
            "hidden": false, 
            "id": 12434, 
            "moderator_id": null, 
            "permissions": {
                "hide": false, 
                "hide_author": false, 
                "vote": false
            }, 
            "total_dislikes": 0, 
            "total_likes": 0, 
            "total_votes": 0
        }, 
        {
            "administrator_id": null, 
            "alignment": 0, 
            "ancestry": null, 
            "as": null, 
            "author": {
                "avatar_image": "https://decidim.barcelona/assets/avatar-866795c99abc33a3160d1f3fa93ada46eb75e54134e777666b9ed16215b26534.png", 
                "erased": false, 
                "hidden": false, 
                "id": 17741, 
                "name": "Suport General3 - Decidim Barcelona", 
                "official": false, 
                "official_level": 0, 
                "role": null, 
                "verified_organization": null
            }, 
            "body": "<p><a href=\"https://decidim.barcelona/proposals/repensar-el-servei-de-bicing\">https://decidim.barcelona/proposals/repensar-el-servei-de-bicing</a></p>", 
            "commentable_id": 2952, 
            "commentable_type": "Proposal", 
            "created_at": "09/04/2016 15:55:04", 
            "flagged": false, 
            "hidden": false, 
            "id": 12435, 
            "moderator_id": null, 
            "permissions": {
                "hide": false, 
                "hide_author": false, 
                "vote": false
            }, 
            "total_dislikes": 0, 
            "total_likes": 0, 
            "total_votes": 0
        }, 
        {
            "administrator_id": null, 
            "alignment": 0, 
            "ancestry": null, 
            "as": null, 
            "author": {
                "avatar_image": "https://decidim.barcelona/assets/avatar-866795c99abc33a3160d1f3fa93ada46eb75e54134e777666b9ed16215b26534.png", 
                "erased": false, 
                "hidden": false, 
                "id": 17741, 
                "name": "Suport General3 - Decidim Barcelona", 
                "official": false, 
                "official_level": 0, 
                "role": null, 
                "verified_organization": null
            }, 
            "body": "<p><a href=\"https://decidim.barcelona/proposals/crear-un-bicing-amb-bicicletes-electriques\">https://decidim.barcelona/proposals/crear-un-bicing-amb-bicicletes-electriques</a></p>", 
            "commentable_id": 2952, 
            "commentable_type": "Proposal", 
            "created_at": "09/04/2016 15:55:19", 
            "flagged": false, 
            "hidden": false, 
            "id": 12436, 
            "moderator_id": null, 
            "permissions": {
                "hide": false, 
                "hide_author": false, 
                "vote": false
            }, 
            "total_dislikes": 0, 
            "total_likes": 0, 
            "total_votes": 0
        }, 
        {
            "administrator_id": null, 
            "alignment": 0, 
            "ancestry": null, 
            "as": null, 
            "author": {
                "avatar_image": "https://decidim.barcelona/assets/avatar-866795c99abc33a3160d1f3fa93ada46eb75e54134e777666b9ed16215b26534.png", 
                "erased": false, 
                "hidden": false, 
                "id": 17741, 
                "name": "Suport General3 - Decidim Barcelona", 
                "official": false, 
                "official_level": 0, 
                "role": null, 
                "verified_organization": null
            }, 
            "body": "<p><a href=\"https://decidim.barcelona/proposals/carril-bici-3ee9ffd5-7287-495d-907c-33a4c327d3ba\">https://decidim.barcelona/proposals/carril-bici-3ee9ffd5-7287-495d-907c-33a4c327d3ba</a></p>", 
            "commentable_id": 2952, 
            "commentable_type": "Proposal", 
            "created_at": "09/04/2016 15:55:44", 
            "flagged": false, 
            "hidden": false, 
            "id": 12437, 
            "moderator_id": null, 
            "permissions": {
                "hide": false, 
                "hide_author": false, 
                "vote": false
            }, 
            "total_dislikes": 0, 
            "total_likes": 0, 
            "total_votes": 0
        }, 
        {
            "administrator_id": null, 
            "alignment": 0, 
            "ancestry": null, 
            "as": null, 
            "author": {
                "avatar_image": "https://decidim.barcelona/assets/avatar-866795c99abc33a3160d1f3fa93ada46eb75e54134e777666b9ed16215b26534.png", 
                "erased": false, 
                "hidden": false, 
                "id": 17741, 
                "name": "Suport General3 - Decidim Barcelona", 
                "official": false, 
                "official_level": 0, 
                "role": null, 
                "verified_organization": null
            }, 
            "body": "<p><a href=\"https://decidim.barcelona/proposals/modificar-el-sistema-de-separacion-de-carriles-bici-por-otros-menos-peligrosos-para-vehiculos-de-dos-ruedas-caida-por-choque\">https://decidim.barcelona/proposals/modificar-el-sistema-de-separacion-de-carriles-bici-por-otros-menos-peligrosos-para-vehiculos-de-dos-ruedas-caida-por-choque</a></p>", 
            "commentable_id": 2952, 
            "commentable_type": "Proposal", 
            "created_at": "09/04/2016 15:56:19", 
            "flagged": false, 
            "hidden": false, 
            "id": 12438, 
            "moderator_id": null, 
            "permissions": {
                "hide": false, 
                "hide_author": false, 
                "vote": false
            }, 
            "total_dislikes": 0, 
            "total_likes": 0, 
            "total_votes": 0
        }, 
        {
            "administrator_id": null, 
            "alignment": 0, 
            "ancestry": null, 
            "as": null, 
            "author": {
                "avatar_image": "https://decidim.barcelona/assets/avatar-866795c99abc33a3160d1f3fa93ada46eb75e54134e777666b9ed16215b26534.png", 
                "erased": false, 
                "hidden": false, 
                "id": 17741, 
                "name": "Suport General3 - Decidim Barcelona", 
                "official": false, 
                "official_level": 0, 
                "role": null, 
                "verified_organization": null
            }, 
            "body": "<p><a href=\"https://decidim.barcelona/proposals/rebaixar-l-edat-d-us-del-bicing-als-16-anys\">https://decidim.barcelona/proposals/rebaixar-l-edat-d-us-del-bicing-als-16-anys</a></p>", 
            "commentable_id": 2952, 
            "commentable_type": "Proposal", 
            "created_at": "09/04/2016 15:56:35", 
            "flagged": false, 
            "hidden": false, 
            "id": 12439, 
            "moderator_id": null, 
            "permissions": {
                "hide": false, 
                "hide_author": false, 
                "vote": false
            }, 
            "total_dislikes": 0, 
            "total_likes": 0, 
            "total_votes": 0
        }, 
        {
            "administrator_id": null, 
            "alignment": 0, 
            "ancestry": null, 
            "as": null, 
            "author": {
                "avatar_image": "https://decidim.barcelona/assets/avatar-866795c99abc33a3160d1f3fa93ada46eb75e54134e777666b9ed16215b26534.png", 
                "erased": false, 
                "hidden": false, 
                "id": 17741, 
                "name": "Suport General3 - Decidim Barcelona", 
                "official": false, 
                "official_level": 0, 
                "role": null, 
                "verified_organization": null
            }, 
            "body": "<p><a href=\"https://decidim.barcelona/proposals/implantacio-d-estacions-de-bicing-a-prop-de-totes-les-estacions-de-metro\">https://decidim.barcelona/proposals/implantacio-d-estacions-de-bicing-a-prop-de-totes-les-estacions-de-metro</a></p>", 
            "commentable_id": 2952, 
            "commentable_type": "Proposal", 
            "created_at": "09/04/2016 15:56:56", 
            "flagged": false, 
            "hidden": false, 
            "id": 12440, 
            "moderator_id": null, 
            "permissions": {
                "hide": false, 
                "hide_author": false, 
                "vote": false
            }, 
            "total_dislikes": 0, 
            "total_likes": 0, 
            "total_votes": 0
        }, 
        {
            "administrator_id": null, 
            "alignment": 0, 
            "ancestry": null, 
            "as": null, 
            "author": {
                "avatar_image": "https://decidim.barcelona/assets/avatar-866795c99abc33a3160d1f3fa93ada46eb75e54134e777666b9ed16215b26534.png", 
                "erased": false, 
                "hidden": false, 
                "id": 17741, 
                "name": "Suport General3 - Decidim Barcelona", 
                "official": false, 
                "official_level": 0, 
                "role": null, 
                "verified_organization": null
            }, 
            "body": "<p><a href=\"https://decidim.barcelona/proposals/impulsar-l-us-de-la-bici\">https://decidim.barcelona/proposals/impulsar-l-us-de-la-bici</a></p>", 
            "commentable_id": 2952, 
            "commentable_type": "Proposal", 
            "created_at": "09/04/2016 15:57:17", 
            "flagged": false, 
            "hidden": false, 
            "id": 12441, 
            "moderator_id": null, 
            "permissions": {
                "hide": false, 
                "hide_author": false, 
                "vote": false
            }, 
            "total_dislikes": 0, 
            "total_likes": 0, 
            "total_votes": 0
        }, 
        {
            "administrator_id": null, 
            "alignment": 0, 
            "ancestry": null, 
            "as": null, 
            "author": {
                "avatar_image": "https://decidim.barcelona/assets/avatar-866795c99abc33a3160d1f3fa93ada46eb75e54134e777666b9ed16215b26534.png", 
                "erased": false, 
                "hidden": false, 
                "id": 17741, 
                "name": "Suport General3 - Decidim Barcelona", 
                "official": false, 
                "official_level": 0, 
                "role": null, 
                "verified_organization": null
            }, 
            "body": "<p><a href=\"https://decidim.barcelona/proposals/aparcament-per-bicis-davant-dels-equipaments-publics\">https://decidim.barcelona/proposals/aparcament-per-bicis-davant-dels-equipaments-publics</a></p>", 
            "commentable_id": 2952, 
            "commentable_type": "Proposal", 
            "created_at": "09/04/2016 15:57:40", 
            "flagged": false, 
            "hidden": false, 
            "id": 12442, 
            "moderator_id": null, 
            "permissions": {
                "hide": false, 
                "hide_author": false, 
                "vote": false
            }, 
            "total_dislikes": 0, 
            "total_likes": 0, 
            "total_votes": 0
        }, 
        {
            "administrator_id": null, 
            "alignment": 0, 
            "ancestry": null, 
            "as": null, 
            "author": {
                "avatar_image": "https://decidim.barcelona/assets/avatar-866795c99abc33a3160d1f3fa93ada46eb75e54134e777666b9ed16215b26534.png", 
                "erased": false, 
                "hidden": false, 
                "id": 17741, 
                "name": "Suport General3 - Decidim Barcelona", 
                "official": false, 
                "official_level": 0, 
                "role": null, 
                "verified_organization": null
            }, 
            "body": "<p><a href=\"https://decidim.barcelona/proposals/ubicacio-de-parquings-per-bicicletes-a-espais-publics-parades-de-metro-etc\">https://decidim.barcelona/proposals/ubicacio-de-parquings-per-bicicletes-a-espais-publics-parades-de-metro-etc</a></p>", 
            "commentable_id": 2952, 
            "commentable_type": "Proposal", 
            "created_at": "09/04/2016 15:57:55", 
            "flagged": false, 
            "hidden": false, 
            "id": 12443, 
            "moderator_id": null, 
            "permissions": {
                "hide": false, 
                "hide_author": false, 
                "vote": false
            }, 
            "total_dislikes": 0, 
            "total_likes": 0, 
            "total_votes": 0
        }, 
        {
            "administrator_id": null, 
            "alignment": 0, 
            "ancestry": null, 
            "as": null, 
            "author": {
                "avatar_image": "https://decidim.barcelona/assets/avatar-866795c99abc33a3160d1f3fa93ada46eb75e54134e777666b9ed16215b26534.png", 
                "erased": false, 
                "hidden": false, 
                "id": 17741, 
                "name": "Suport General3 - Decidim Barcelona", 
                "official": false, 
                "official_level": 0, 
                "role": null, 
                "verified_organization": null
            }, 
            "body": "<p><a href=\"https://decidim.barcelona/proposals/creacio-de-parquings-de-bicicletes-a-les-escoles\">https://decidim.barcelona/proposals/creacio-de-parquings-de-bicicletes-a-les-escoles</a></p>", 
            "commentable_id": 2952, 
            "commentable_type": "Proposal", 
            "created_at": "09/04/2016 15:58:23", 
            "flagged": false, 
            "hidden": false, 
            "id": 12444, 
            "moderator_id": null, 
            "permissions": {
                "hide": false, 
                "hide_author": false, 
                "vote": false
            }, 
            "total_dislikes": 0, 
            "total_likes": 0, 
            "total_votes": 0
        }, 
        {
            "administrator_id": null, 
            "alignment": 0, 
            "ancestry": null, 
            "as": null, 
            "author": {
                "avatar_image": "https://decidim.barcelona/assets/avatar-866795c99abc33a3160d1f3fa93ada46eb75e54134e777666b9ed16215b26534.png", 
                "erased": false, 
                "hidden": false, 
                "id": 17741, 
                "name": "Suport General3 - Decidim Barcelona", 
                "official": false, 
                "official_level": 0, 
                "role": null, 
                "verified_organization": null
            }, 
            "body": "<p><a href=\"https://decidim.barcelona/proposals/carrils-bici-de-doble-direccio\">https://decidim.barcelona/proposals/carrils-bici-de-doble-direccio</a></p>", 
            "commentable_id": 2952, 
            "commentable_type": "Proposal", 
            "created_at": "09/04/2016 15:58:46", 
            "flagged": false, 
            "hidden": false, 
            "id": 12445, 
            "moderator_id": null, 
            "permissions": {
                "hide": false, 
                "hide_author": false, 
                "vote": false
            }, 
            "total_dislikes": 0, 
            "total_likes": 0, 
            "total_votes": 0
        }, 
        {
            "administrator_id": null, 
            "alignment": 0, 
            "ancestry": null, 
            "as": null, 
            "author": {
                "avatar_image": "https://decidim.barcelona/assets/avatar-866795c99abc33a3160d1f3fa93ada46eb75e54134e777666b9ed16215b26534.png", 
                "erased": false, 
                "hidden": false, 
                "id": 17741, 
                "name": "Suport General3 - Decidim Barcelona", 
                "official": false, 
                "official_level": 0, 
                "role": null, 
                "verified_organization": null
            }, 
            "body": "<p><a href=\"https://decidim.barcelona/proposals/instal-lacio-d-aparcaments-segurs-de-bicicleta-en-intercanviadors-de-transport\">https://decidim.barcelona/proposals/instal-lacio-d-aparcaments-segurs-de-bicicleta-en-intercanviadors-de-transport</a></p>", 
            "commentable_id": 2952, 
            "commentable_type": "Proposal", 
            "created_at": "09/04/2016 15:59:08", 
            "flagged": false, 
            "hidden": false, 
            "id": 12446, 
            "moderator_id": null, 
            "permissions": {
                "hide": false, 
                "hide_author": false, 
                "vote": false
            }, 
            "total_dislikes": 0, 
            "total_likes": 0, 
            "total_votes": 0
        }, 
        {
            "administrator_id": null, 
            "alignment": 0, 
            "ancestry": null, 
            "as": null, 
            "author": {
                "avatar_image": "https://decidim.barcelona/assets/avatar-866795c99abc33a3160d1f3fa93ada46eb75e54134e777666b9ed16215b26534.png", 
                "erased": false, 
                "hidden": false, 
                "id": 17741, 
                "name": "Suport General3 - Decidim Barcelona", 
                "official": false, 
                "official_level": 0, 
                "role": null, 
                "verified_organization": null
            }, 
            "body": "<p><a href=\"https://decidim.barcelona/proposals/distribucion-justa-del-bicing-ya-en-los-barrios-altos-de-barcelona\">https://decidim.barcelona/proposals/distribucion-justa-del-bicing-ya-en-los-barrios-altos-de-barcelona</a></p>", 
            "commentable_id": 2952, 
            "commentable_type": "Proposal", 
            "created_at": "09/04/2016 15:59:41", 
            "flagged": false, 
            "hidden": false, 
            "id": 12447, 
            "moderator_id": null, 
            "permissions": {
                "hide": false, 
                "hide_author": false, 
                "vote": false
            }, 
            "total_dislikes": 0, 
            "total_likes": 0, 
            "total_votes": 0
        }
    ], 
    "meta": {
        "current_page": 2, 
        "next_page": 3, 
        "prev_page": 1, 
        "total_count": 77, 
        "total_pages": 4
    }
}