{
    "comments": [
        {
            "administrator_id": null, 
            "alignment": 1, 
            "ancestry": null, 
            "as": null, 
            "author": {
                "avatar_image": "https://decidim.barcelona/assets/avatar-866795c99abc33a3160d1f3fa93ada46eb75e54134e777666b9ed16215b26534.png", 
                "erased": false, 
                "hidden": false, 
                "id": 6213, 
                "name": "Jordi Art\u00e9s Puy", 
                "official": false, 
                "official_level": 0, 
                "role": null, 
                "verified_organization": null
            }, 
            "body": "<p>Cal una sensibilitat especial en els barris de muntanya amb poblaci\u00f3 de m\u00e9s edat:  autobusos de barri amb suficient freq\u00fc\u00e8ncia de pas i que tamb\u00e9 funcionin diumenges i festius, que enllacin si pot ser amb els serveis essencials (CAPs, etc) i les xarxes de metro i autobusos convencionals.</p>", 
            "commentable_id": 3043, 
            "commentable_type": "Proposal", 
            "created_at": "20/02/2016 20:41:53", 
            "flagged": false, 
            "hidden": false, 
            "id": 2229, 
            "moderator_id": null, 
            "permissions": {
                "hide": false, 
                "hide_author": false, 
                "vote": false
            }, 
            "total_dislikes": 0, 
            "total_likes": 1, 
            "total_votes": 1
        }, 
        {
            "administrator_id": null, 
            "alignment": 1, 
            "ancestry": null, 
            "as": null, 
            "author": {
                "avatar_image": "https://decidim.barcelona/assets/avatar-866795c99abc33a3160d1f3fa93ada46eb75e54134e777666b9ed16215b26534.png", 
                "erased": false, 
                "hidden": false, 
                "id": 4943, 
                "name": "Sebastia Ribo", 
                "official": false, 
                "official_level": 0, 
                "role": null, 
                "verified_organization": null
            }, 
            "body": "<p>Seria bo recuperar els dos busos de barri 112 i 185, donant servei als festius. En la actualitat el 185 dona un servei poc eficient.</p>", 
            "commentable_id": 3043, 
            "commentable_type": "Proposal", 
            "created_at": "21/02/2016 00:12:11", 
            "flagged": false, 
            "hidden": false, 
            "id": 2251, 
            "moderator_id": null, 
            "permissions": {
                "hide": false, 
                "hide_author": false, 
                "vote": false
            }, 
            "total_dislikes": 0, 
            "total_likes": 0, 
            "total_votes": 0
        }, 
        {
            "administrator_id": null, 
            "alignment": 1, 
            "ancestry": null, 
            "as": null, 
            "author": {
                "avatar_image": "https://decidim.barcelona/assets/avatar-866795c99abc33a3160d1f3fa93ada46eb75e54134e777666b9ed16215b26534.png", 
                "erased": false, 
                "hidden": false, 
                "id": 959, 
                "name": "Gemma At", 
                "official": false, 
                "official_level": 0, 
                "role": null, 
                "verified_organization": null
            }, 
            "body": "<p>Vecinos de Glories y el Poblenou, \n<br />Que se modifique el trayecto del bus 7 para que recorra La Diagonal sin desvios absurdos o crear un bus expres por La Diagonal.\n<br />Votad esta iniciativa, por favor aqu\u00ed: <a href=\"https://decidim.barcelona/proposals/d30-bus-directo-entre-glories-y-francesc-macia\">https://decidim.barcelona/proposals/d30-bus-directo-entre-glories-y-francesc-macia</a></p>", 
            "commentable_id": 3043, 
            "commentable_type": "Proposal", 
            "created_at": "21/02/2016 12:07:54", 
            "flagged": false, 
            "hidden": false, 
            "id": 2262, 
            "moderator_id": null, 
            "permissions": {
                "hide": false, 
                "hide_author": false, 
                "vote": false
            }, 
            "total_dislikes": 0, 
            "total_likes": 0, 
            "total_votes": 0
        }, 
        {
            "administrator_id": null, 
            "alignment": 0, 
            "ancestry": null, 
            "as": null, 
            "author": {
                "avatar_image": "https://decidim.barcelona/assets/avatar-866795c99abc33a3160d1f3fa93ada46eb75e54134e777666b9ed16215b26534.png", 
                "erased": false, 
                "hidden": false, 
                "id": 8701, 
                "name": "Elisabet Juan", 
                "official": false, 
                "official_level": 0, 
                "role": null, 
                "verified_organization": null
            }, 
            "body": "<p>Avui en dia, amb tecnologia es pot fer molt m\u00e9s eficient l'\u00fas del bus de barri, donant un millor servei al ciutad\u00e0 i sense que sigui ruin\u00f3s per l'erari p\u00fablic. Penseu en la mobilitat integralment.</p>", 
            "commentable_id": 3043, 
            "commentable_type": "Proposal", 
            "created_at": "26/02/2016 15:50:17", 
            "flagged": false, 
            "hidden": false, 
            "id": 2838, 
            "moderator_id": null, 
            "permissions": {
                "hide": false, 
                "hide_author": false, 
                "vote": false
            }, 
            "total_dislikes": 0, 
            "total_likes": 1, 
            "total_votes": 1
        }, 
        {
            "administrator_id": null, 
            "alignment": 1, 
            "ancestry": null, 
            "as": null, 
            "author": {
                "avatar_image": "https://decidim.barcelona/assets/avatar-866795c99abc33a3160d1f3fa93ada46eb75e54134e777666b9ed16215b26534.png", 
                "erased": false, 
                "hidden": false, 
                "id": 9174, 
                "name": "Susana Palma", 
                "official": false, 
                "official_level": 0, 
                "role": null, 
                "verified_organization": null
            }, 
            "body": "<p>Totalment d'acord. A m\u00e9s, crec que \u00e9s imprescindible refor\u00e7ar la l\u00ednia del bus 55, que \u00e9s la que uneix el barri amb el centre: \u00e9s lamentable veure que per cada 55 passen 3 i 4 d'altres l\u00ednies, molt m\u00e9s buits. El trajecte de pujada des del centre dura uns 45 min., i sovint s'ha de fer en condicions terribles, especialment per a la gent gran, amb problemes de mobilitat o amb criatures. El bus 39 en els darrers anys ja s'ha refor\u00e7at una mica: ara \u00e9s imprescindible que es faci un bon refor\u00e7 amb el 55!</p>", 
            "commentable_id": 3043, 
            "commentable_type": "Proposal", 
            "created_at": "11/03/2016 14:33:32", 
            "flagged": false, 
            "hidden": false, 
            "id": 4525, 
            "moderator_id": null, 
            "permissions": {
                "hide": false, 
                "hide_author": false, 
                "vote": false
            }, 
            "total_dislikes": 0, 
            "total_likes": 0, 
            "total_votes": 0
        }, 
        {
            "administrator_id": null, 
            "alignment": 0, 
            "ancestry": null, 
            "as": null, 
            "author": {
                "avatar_image": "https://decidim.barcelona/assets/avatar-866795c99abc33a3160d1f3fa93ada46eb75e54134e777666b9ed16215b26534.png", 
                "erased": false, 
                "hidden": false, 
                "id": 9262, 
                "name": "Suport General - Decidim Barcelona", 
                "official": false, 
                "official_level": 0, 
                "role": null, 
                "verified_organization": null
            }, 
            "body": "<p><a href=\"https://decidim.barcelona/proposals/autobus-117-mes-frequencia-per-anar-a-l-escola\">https://decidim.barcelona/proposals/autobus-117-mes-frequencia-per-anar-a-l-escola</a></p>", 
            "commentable_id": 3043, 
            "commentable_type": "Proposal", 
            "created_at": "15/04/2016 17:57:03", 
            "flagged": false, 
            "hidden": false, 
            "id": 17382, 
            "moderator_id": null, 
            "permissions": {
                "hide": false, 
                "hide_author": false, 
                "vote": false
            }, 
            "total_dislikes": 0, 
            "total_likes": 0, 
            "total_votes": 0
        }, 
        {
            "administrator_id": null, 
            "alignment": 0, 
            "ancestry": null, 
            "as": null, 
            "author": {
                "avatar_image": "https://decidim.barcelona/assets/avatar-866795c99abc33a3160d1f3fa93ada46eb75e54134e777666b9ed16215b26534.png", 
                "erased": false, 
                "hidden": false, 
                "id": 9262, 
                "name": "Suport General - Decidim Barcelona", 
                "official": false, 
                "official_level": 0, 
                "role": null, 
                "verified_organization": null
            }, 
            "body": "<p><a href=\"https://decidim.barcelona/proposals/transport-public-de-qualitat-per-a-tothom\">https://decidim.barcelona/proposals/transport-public-de-qualitat-per-a-tothom</a></p>", 
            "commentable_id": 3043, 
            "commentable_type": "Proposal", 
            "created_at": "15/04/2016 17:57:24", 
            "flagged": false, 
            "hidden": false, 
            "id": 17383, 
            "moderator_id": null, 
            "permissions": {
                "hide": false, 
                "hide_author": false, 
                "vote": false
            }, 
            "total_dislikes": 0, 
            "total_likes": 0, 
            "total_votes": 0
        }, 
        {
            "administrator_id": null, 
            "alignment": 0, 
            "ancestry": null, 
            "as": null, 
            "author": {
                "avatar_image": "https://decidim.barcelona/assets/avatar-866795c99abc33a3160d1f3fa93ada46eb75e54134e777666b9ed16215b26534.png", 
                "erased": false, 
                "hidden": false, 
                "id": 9262, 
                "name": "Suport General - Decidim Barcelona", 
                "official": false, 
                "official_level": 0, 
                "role": null, 
                "verified_organization": null
            }, 
            "body": "<p><a href=\"https://decidim.barcelona/proposals/linia-de-bus\">https://decidim.barcelona/proposals/linia-de-bus</a></p>", 
            "commentable_id": 3043, 
            "commentable_type": "Proposal", 
            "created_at": "15/04/2016 17:57:47", 
            "flagged": false, 
            "hidden": false, 
            "id": 17384, 
            "moderator_id": null, 
            "permissions": {
                "hide": false, 
                "hide_author": false, 
                "vote": false
            }, 
            "total_dislikes": 0, 
            "total_likes": 0, 
            "total_votes": 0
        }, 
        {
            "administrator_id": null, 
            "alignment": 0, 
            "ancestry": null, 
            "as": null, 
            "author": {
                "avatar_image": "https://decidim.barcelona/assets/avatar-866795c99abc33a3160d1f3fa93ada46eb75e54134e777666b9ed16215b26534.png", 
                "erased": false, 
                "hidden": false, 
                "id": 9262, 
                "name": "Suport General - Decidim Barcelona", 
                "official": false, 
                "official_level": 0, 
                "role": null, 
                "verified_organization": null
            }, 
            "body": "<p><a href=\"https://decidim.barcelona/proposals/reduccio-de-la-frequencia-de-pas-de-les-linees-45-i-19-pel-passeig-maragall-coordinant-les-sortides-des-de-l-inici\">https://decidim.barcelona/proposals/reduccio-de-la-frequencia-de-pas-de-les-linees-45-i-19-pel-passeig-maragall-coordinant-les-sortides-des-de-l-inici</a></p>", 
            "commentable_id": 3043, 
            "commentable_type": "Proposal", 
            "created_at": "15/04/2016 17:58:24", 
            "flagged": false, 
            "hidden": false, 
            "id": 17385, 
            "moderator_id": null, 
            "permissions": {
                "hide": false, 
                "hide_author": false, 
                "vote": false
            }, 
            "total_dislikes": 0, 
            "total_likes": 0, 
            "total_votes": 0
        }, 
        {
            "administrator_id": null, 
            "alignment": 0, 
            "ancestry": null, 
            "as": null, 
            "author": {
                "avatar_image": "https://decidim.barcelona/assets/avatar-866795c99abc33a3160d1f3fa93ada46eb75e54134e777666b9ed16215b26534.png", 
                "erased": false, 
                "hidden": false, 
                "id": 9262, 
                "name": "Suport General - Decidim Barcelona", 
                "official": false, 
                "official_level": 0, 
                "role": null, 
                "verified_organization": null
            }, 
            "body": "<p><a href=\"https://decidim.barcelona/proposals/guinardo-bus-del-barri-del-guinardo\">https://decidim.barcelona/proposals/guinardo-bus-del-barri-del-guinardo</a></p>", 
            "commentable_id": 3043, 
            "commentable_type": "Proposal", 
            "created_at": "15/04/2016 17:58:36", 
            "flagged": false, 
            "hidden": false, 
            "id": 17386, 
            "moderator_id": null, 
            "permissions": {
                "hide": false, 
                "hide_author": false, 
                "vote": false
            }, 
            "total_dislikes": 0, 
            "total_likes": 0, 
            "total_votes": 0
        }, 
        {
            "administrator_id": null, 
            "alignment": 0, 
            "ancestry": null, 
            "as": null, 
            "author": {
                "avatar_image": "https://decidim.barcelona/assets/avatar-866795c99abc33a3160d1f3fa93ada46eb75e54134e777666b9ed16215b26534.png", 
                "erased": false, 
                "hidden": false, 
                "id": 9262, 
                "name": "Suport General - Decidim Barcelona", 
                "official": false, 
                "official_level": 0, 
                "role": null, 
                "verified_organization": null
            }, 
            "body": "<p><a href=\"https://decidim.barcelona/proposals/parada-bus-santuari-la-mnaxa\">https://decidim.barcelona/proposals/parada-bus-santuari-la-mnaxa</a></p>", 
            "commentable_id": 3043, 
            "commentable_type": "Proposal", 
            "created_at": "15/04/2016 17:58:59", 
            "flagged": false, 
            "hidden": false, 
            "id": 17387, 
            "moderator_id": null, 
            "permissions": {
                "hide": false, 
                "hide_author": false, 
                "vote": false
            }, 
            "total_dislikes": 0, 
            "total_likes": 0, 
            "total_votes": 0
        }, 
        {
            "administrator_id": null, 
            "alignment": 0, 
            "ancestry": null, 
            "as": null, 
            "author": {
                "avatar_image": "https://decidim.barcelona/assets/avatar-866795c99abc33a3160d1f3fa93ada46eb75e54134e777666b9ed16215b26534.png", 
                "erased": false, 
                "hidden": false, 
                "id": 9262, 
                "name": "Suport General - Decidim Barcelona", 
                "official": false, 
                "official_level": 0, 
                "role": null, 
                "verified_organization": null
            }, 
            "body": "<p><a href=\"https://decidim.barcelona/proposals/millora-transport-public-al-guinardo\">https://decidim.barcelona/proposals/millora-transport-public-al-guinardo</a></p>", 
            "commentable_id": 3043, 
            "commentable_type": "Proposal", 
            "created_at": "15/04/2016 17:59:31", 
            "flagged": false, 
            "hidden": false, 
            "id": 17388, 
            "moderator_id": null, 
            "permissions": {
                "hide": false, 
                "hide_author": false, 
                "vote": false
            }, 
            "total_dislikes": 0, 
            "total_likes": 0, 
            "total_votes": 0
        }, 
        {
            "administrator_id": null, 
            "alignment": 0, 
            "ancestry": null, 
            "as": null, 
            "author": {
                "avatar_image": "https://decidim.barcelona/assets/avatar-866795c99abc33a3160d1f3fa93ada46eb75e54134e777666b9ed16215b26534.png", 
                "erased": false, 
                "hidden": false, 
                "id": 9262, 
                "name": "Suport General - Decidim Barcelona", 
                "official": false, 
                "official_level": 0, 
                "role": null, 
                "verified_organization": null
            }, 
            "body": "<p><a href=\"https://decidim.barcelona/proposals/guinardo-modificar-el-transport-de-bus-public-al-barri-del-guinardo\">https://decidim.barcelona/proposals/guinardo-modificar-el-transport-de-bus-public-al-barri-del-guinardo</a></p>", 
            "commentable_id": 3043, 
            "commentable_type": "Proposal", 
            "created_at": "15/04/2016 17:59:53", 
            "flagged": false, 
            "hidden": false, 
            "id": 17391, 
            "moderator_id": null, 
            "permissions": {
                "hide": false, 
                "hide_author": false, 
                "vote": false
            }, 
            "total_dislikes": 0, 
            "total_likes": 0, 
            "total_votes": 0
        }, 
        {
            "administrator_id": null, 
            "alignment": 0, 
            "ancestry": null, 
            "as": null, 
            "author": {
                "avatar_image": "https://decidim.barcelona/assets/avatar-866795c99abc33a3160d1f3fa93ada46eb75e54134e777666b9ed16215b26534.png", 
                "erased": false, 
                "hidden": false, 
                "id": 9262, 
                "name": "Suport General - Decidim Barcelona", 
                "official": false, 
                "official_level": 0, 
                "role": null, 
                "verified_organization": null
            }, 
            "body": "<p><a href=\"https://decidim.barcelona/proposals/busos-39-45-i-185\">https://decidim.barcelona/proposals/busos-39-45-i-185</a></p>", 
            "commentable_id": 3043, 
            "commentable_type": "Proposal", 
            "created_at": "15/04/2016 18:00:07", 
            "flagged": false, 
            "hidden": false, 
            "id": 17392, 
            "moderator_id": null, 
            "permissions": {
                "hide": false, 
                "hide_author": false, 
                "vote": false
            }, 
            "total_dislikes": 0, 
            "total_likes": 0, 
            "total_votes": 0
        }, 
        {
            "administrator_id": null, 
            "alignment": 0, 
            "ancestry": null, 
            "as": null, 
            "author": {
                "avatar_image": "https://decidim.barcelona/assets/avatar-866795c99abc33a3160d1f3fa93ada46eb75e54134e777666b9ed16215b26534.png", 
                "erased": false, 
                "hidden": false, 
                "id": 9262, 
                "name": "Suport General - Decidim Barcelona", 
                "official": false, 
                "official_level": 0, 
                "role": null, 
                "verified_organization": null
            }, 
            "body": "<p><a href=\"https://decidim.barcelona/proposals/bus-114\">https://decidim.barcelona/proposals/bus-114</a></p>", 
            "commentable_id": 3043, 
            "commentable_type": "Proposal", 
            "created_at": "15/04/2016 18:00:25", 
            "flagged": false, 
            "hidden": false, 
            "id": 17394, 
            "moderator_id": null, 
            "permissions": {
                "hide": false, 
                "hide_author": false, 
                "vote": false
            }, 
            "total_dislikes": 0, 
            "total_likes": 0, 
            "total_votes": 0
        }, 
        {
            "administrator_id": null, 
            "alignment": 0, 
            "ancestry": null, 
            "as": null, 
            "author": {
                "avatar_image": "https://decidim.barcelona/assets/avatar-866795c99abc33a3160d1f3fa93ada46eb75e54134e777666b9ed16215b26534.png", 
                "erased": false, 
                "hidden": false, 
                "id": 9262, 
                "name": "Suport General - Decidim Barcelona", 
                "official": false, 
                "official_level": 0, 
                "role": null, 
                "verified_organization": null
            }, 
            "body": "<p><a href=\"https://decidim.barcelona/proposals/bus-de-barri\">https://decidim.barcelona/proposals/bus-de-barri</a></p>", 
            "commentable_id": 3043, 
            "commentable_type": "Proposal", 
            "created_at": "15/04/2016 18:00:37", 
            "flagged": false, 
            "hidden": false, 
            "id": 17395, 
            "moderator_id": null, 
            "permissions": {
                "hide": false, 
                "hide_author": false, 
                "vote": false
            }, 
            "total_dislikes": 0, 
            "total_likes": 0, 
            "total_votes": 0
        }, 
        {
            "administrator_id": null, 
            "alignment": 0, 
            "ancestry": null, 
            "as": null, 
            "author": {
                "avatar_image": "https://decidim.barcelona/assets/avatar-866795c99abc33a3160d1f3fa93ada46eb75e54134e777666b9ed16215b26534.png", 
                "erased": false, 
                "hidden": false, 
                "id": 9262, 
                "name": "Suport General - Decidim Barcelona", 
                "official": false, 
                "official_level": 0, 
                "role": null, 
                "verified_organization": null
            }, 
            "body": "<p><a href=\"https://decidim.barcelona/proposals/autobus-45\">https://decidim.barcelona/proposals/autobus-45</a></p>", 
            "commentable_id": 3043, 
            "commentable_type": "Proposal", 
            "created_at": "15/04/2016 18:00:49", 
            "flagged": false, 
            "hidden": false, 
            "id": 17396, 
            "moderator_id": null, 
            "permissions": {
                "hide": false, 
                "hide_author": false, 
                "vote": false
            }, 
            "total_dislikes": 0, 
            "total_likes": 0, 
            "total_votes": 0
        }, 
        {
            "administrator_id": null, 
            "alignment": 0, 
            "ancestry": null, 
            "as": null, 
            "author": {
                "avatar_image": "https://decidim.barcelona/assets/avatar-866795c99abc33a3160d1f3fa93ada46eb75e54134e777666b9ed16215b26534.png", 
                "erased": false, 
                "hidden": false, 
                "id": 9262, 
                "name": "Suport General - Decidim Barcelona", 
                "official": false, 
                "official_level": 0, 
                "role": null, 
                "verified_organization": null
            }, 
            "body": "<p><a href=\"https://decidim.barcelona/proposals/bus-de-barri-0fb68f3e-703a-488e-889e-2bbd38916f7a\">https://decidim.barcelona/proposals/bus-de-barri-0fb68f3e-703a-488e-889e-2bbd38916f7a</a></p>", 
            "commentable_id": 3043, 
            "commentable_type": "Proposal", 
            "created_at": "15/04/2016 18:01:20", 
            "flagged": false, 
            "hidden": false, 
            "id": 17399, 
            "moderator_id": null, 
            "permissions": {
                "hide": false, 
                "hide_author": false, 
                "vote": false
            }, 
            "total_dislikes": 0, 
            "total_likes": 0, 
            "total_votes": 0
        }, 
        {
            "administrator_id": null, 
            "alignment": 0, 
            "ancestry": null, 
            "as": null, 
            "author": {
                "avatar_image": "https://decidim.barcelona/assets/avatar-866795c99abc33a3160d1f3fa93ada46eb75e54134e777666b9ed16215b26534.png", 
                "erased": false, 
                "hidden": false, 
                "id": 9262, 
                "name": "Suport General - Decidim Barcelona", 
                "official": false, 
                "official_level": 0, 
                "role": null, 
                "verified_organization": null
            }, 
            "body": "<p><a href=\"https://decidim.barcelona/proposals/bus-24-i-92\">https://decidim.barcelona/proposals/bus-24-i-92</a></p>", 
            "commentable_id": 3043, 
            "commentable_type": "Proposal", 
            "created_at": "15/04/2016 18:17:02", 
            "flagged": false, 
            "hidden": false, 
            "id": 17428, 
            "moderator_id": null, 
            "permissions": {
                "hide": false, 
                "hide_author": false, 
                "vote": false
            }, 
            "total_dislikes": 0, 
            "total_likes": 0, 
            "total_votes": 0
        }, 
        {
            "administrator_id": null, 
            "alignment": 0, 
            "ancestry": null, 
            "as": null, 
            "author": {
                "avatar_image": "https://decidim.barcelona/assets/avatar-866795c99abc33a3160d1f3fa93ada46eb75e54134e777666b9ed16215b26534.png", 
                "erased": false, 
                "hidden": false, 
                "id": 9262, 
                "name": "Suport General - Decidim Barcelona", 
                "official": false, 
                "official_level": 0, 
                "role": null, 
                "verified_organization": null
            }, 
            "body": "<p><a href=\"https://decidim.barcelona/proposals/frecuencia-de-autobuses\">https://decidim.barcelona/proposals/frecuencia-de-autobuses</a></p>", 
            "commentable_id": 3043, 
            "commentable_type": "Proposal", 
            "created_at": "15/04/2016 18:43:01", 
            "flagged": false, 
            "hidden": false, 
            "id": 17480, 
            "moderator_id": null, 
            "permissions": {
                "hide": false, 
                "hide_author": false, 
                "vote": false
            }, 
            "total_dislikes": 0, 
            "total_likes": 0, 
            "total_votes": 0
        }
    ], 
    "meta": {
        "current_page": 1, 
        "next_page": 2, 
        "prev_page": null, 
        "total_count": 23, 
        "total_pages": 2
    }
}