{
    "comments": [
        {
            "administrator_id": null, 
            "alignment": 0, 
            "ancestry": null, 
            "as": null, 
            "author": {
                "avatar_image": "https://decidim.barcelona/assets/avatar-866795c99abc33a3160d1f3fa93ada46eb75e54134e777666b9ed16215b26534.png", 
                "erased": false, 
                "hidden": false, 
                "id": 17740, 
                "name": "Suport General2 - Decidim Barcelona", 
                "official": false, 
                "official_level": 0, 
                "role": null, 
                "verified_organization": null
            }, 
            "body": "<p><a href=\"https://decidim.barcelona/proposals/reparacio-de-la-pista-del-parc-de-la-pegaso\">https://decidim.barcelona/proposals/reparacio-de-la-pista-del-parc-de-la-pegaso</a></p>", 
            "commentable_id": 3072, 
            "commentable_type": "Proposal", 
            "created_at": "16/04/2016 11:32:46", 
            "flagged": false, 
            "hidden": false, 
            "id": 17898, 
            "moderator_id": null, 
            "permissions": {
                "hide": false, 
                "hide_author": false, 
                "vote": false
            }, 
            "total_dislikes": 0, 
            "total_likes": 0, 
            "total_votes": 0
        }, 
        {
            "administrator_id": null, 
            "alignment": 0, 
            "ancestry": null, 
            "as": null, 
            "author": {
                "avatar_image": "https://decidim.barcelona/assets/avatar-866795c99abc33a3160d1f3fa93ada46eb75e54134e777666b9ed16215b26534.png", 
                "erased": false, 
                "hidden": false, 
                "id": 17740, 
                "name": "Suport General2 - Decidim Barcelona", 
                "official": false, 
                "official_level": 0, 
                "role": null, 
                "verified_organization": null
            }, 
            "body": "<p><a href=\"https://decidim.barcelona/proposals/recuperacio-de-l-espai-esportiu-de-l-aiss\">https://decidim.barcelona/proposals/recuperacio-de-l-espai-esportiu-de-l-aiss</a></p>", 
            "commentable_id": 3072, 
            "commentable_type": "Proposal", 
            "created_at": "16/04/2016 11:32:57", 
            "flagged": false, 
            "hidden": false, 
            "id": 17899, 
            "moderator_id": null, 
            "permissions": {
                "hide": false, 
                "hide_author": false, 
                "vote": false
            }, 
            "total_dislikes": 0, 
            "total_likes": 0, 
            "total_votes": 0
        }, 
        {
            "administrator_id": null, 
            "alignment": 0, 
            "ancestry": null, 
            "as": null, 
            "author": {
                "avatar_image": "https://decidim.barcelona/assets/avatar-866795c99abc33a3160d1f3fa93ada46eb75e54134e777666b9ed16215b26534.png", 
                "erased": false, 
                "hidden": false, 
                "id": 17740, 
                "name": "Suport General2 - Decidim Barcelona", 
                "official": false, 
                "official_level": 0, 
                "role": null, 
                "verified_organization": null
            }, 
            "body": "<p><a href=\"https://decidim.barcelona/proposals/poliesportiu-i-camp-de-futbol-a-la-sagrera\">https://decidim.barcelona/proposals/poliesportiu-i-camp-de-futbol-a-la-sagrera</a></p>", 
            "commentable_id": 3072, 
            "commentable_type": "Proposal", 
            "created_at": "16/04/2016 11:37:29", 
            "flagged": false, 
            "hidden": false, 
            "id": 17900, 
            "moderator_id": null, 
            "permissions": {
                "hide": false, 
                "hide_author": false, 
                "vote": false
            }, 
            "total_dislikes": 0, 
            "total_likes": 0, 
            "total_votes": 0
        }, 
        {
            "administrator_id": null, 
            "alignment": 0, 
            "ancestry": null, 
            "as": null, 
            "author": {
                "avatar_image": "https://decidim.barcelona/assets/avatar-866795c99abc33a3160d1f3fa93ada46eb75e54134e777666b9ed16215b26534.png", 
                "erased": false, 
                "hidden": false, 
                "id": 17740, 
                "name": "Suport General2 - Decidim Barcelona", 
                "official": false, 
                "official_level": 0, 
                "role": null, 
                "verified_organization": null
            }, 
            "body": "<p><a href=\"https://decidim.barcelona/proposals/reforma-integral-del-camp-municipal-narcis-sala\">https://decidim.barcelona/proposals/reforma-integral-del-camp-municipal-narcis-sala</a></p>", 
            "commentable_id": 3072, 
            "commentable_type": "Proposal", 
            "created_at": "16/04/2016 11:37:44", 
            "flagged": false, 
            "hidden": false, 
            "id": 17901, 
            "moderator_id": null, 
            "permissions": {
                "hide": false, 
                "hide_author": false, 
                "vote": false
            }, 
            "total_dislikes": 0, 
            "total_likes": 0, 
            "total_votes": 0
        }, 
        {
            "administrator_id": null, 
            "alignment": 0, 
            "ancestry": null, 
            "as": null, 
            "author": {
                "avatar_image": "https://decidim.barcelona/assets/avatar-866795c99abc33a3160d1f3fa93ada46eb75e54134e777666b9ed16215b26534.png", 
                "erased": false, 
                "hidden": false, 
                "id": 17740, 
                "name": "Suport General2 - Decidim Barcelona", 
                "official": false, 
                "official_level": 0, 
                "role": null, 
                "verified_organization": null
            }, 
            "body": "<p><a href=\"https://decidim.barcelona/proposals/construccio-urgent-d-un-pav-3-ampliat-a-les-pistes-del-tennis-canodrom\">https://decidim.barcelona/proposals/construccio-urgent-d-un-pav-3-ampliat-a-les-pistes-del-tennis-canodrom</a></p>", 
            "commentable_id": 3072, 
            "commentable_type": "Proposal", 
            "created_at": "16/04/2016 11:37:57", 
            "flagged": false, 
            "hidden": false, 
            "id": 17902, 
            "moderator_id": null, 
            "permissions": {
                "hide": false, 
                "hide_author": false, 
                "vote": false
            }, 
            "total_dislikes": 0, 
            "total_likes": 0, 
            "total_votes": 0
        }
    ], 
    "meta": {
        "current_page": 3, 
        "next_page": null, 
        "prev_page": 2, 
        "total_count": 45, 
        "total_pages": 3
    }
}