{
    "comments": [
        {
            "administrator_id": null, 
            "alignment": 1, 
            "ancestry": null, 
            "as": null, 
            "author": {
                "avatar_image": "https://decidim.barcelona/assets/avatar-866795c99abc33a3160d1f3fa93ada46eb75e54134e777666b9ed16215b26534.png", 
                "erased": false, 
                "hidden": false, 
                "id": 13427, 
                "name": "ERG", 
                "official": false, 
                "official_level": 0, 
                "role": null, 
                "verified_organization": null
            }, 
            "body": "<p>Per desgr\u00e0cia, Sant Andreu est\u00e0 a la prehist\u00f2ria en equipacions esportives.</p>", 
            "commentable_id": 3072, 
            "commentable_type": "Proposal", 
            "created_at": "17/03/2016 12:30:39", 
            "flagged": false, 
            "hidden": false, 
            "id": 5483, 
            "moderator_id": null, 
            "permissions": {
                "hide": false, 
                "hide_author": false, 
                "vote": false
            }, 
            "total_dislikes": 0, 
            "total_likes": 0, 
            "total_votes": 0
        }, 
        {
            "administrator_id": null, 
            "alignment": 0, 
            "ancestry": null, 
            "as": null, 
            "author": {
                "avatar_image": "https://decidim.barcelona/assets/avatar-866795c99abc33a3160d1f3fa93ada46eb75e54134e777666b9ed16215b26534.png", 
                "erased": false, 
                "hidden": false, 
                "id": 9264, 
                "name": "suportdecidim.santandreu", 
                "official": false, 
                "official_level": 0, 
                "role": null, 
                "verified_organization": null
            }, 
            "body": "<p><a href=\"https://decidim.barcelona/proposals/repensar-la-pastilla-d-equipaments-del-camp-del-ferro\">https://decidim.barcelona/proposals/repensar-la-pastilla-d-equipaments-del-camp-del-ferro</a></p>", 
            "commentable_id": 3072, 
            "commentable_type": "Proposal", 
            "created_at": "07/04/2016 14:52:36", 
            "flagged": false, 
            "hidden": false, 
            "id": 9520, 
            "moderator_id": null, 
            "permissions": {
                "hide": false, 
                "hide_author": false, 
                "vote": false
            }, 
            "total_dislikes": 0, 
            "total_likes": 0, 
            "total_votes": 0
        }, 
        {
            "administrator_id": null, 
            "alignment": 0, 
            "ancestry": null, 
            "as": null, 
            "author": {
                "avatar_image": "https://decidim.barcelona/assets/avatar-866795c99abc33a3160d1f3fa93ada46eb75e54134e777666b9ed16215b26534.png", 
                "erased": false, 
                "hidden": false, 
                "id": 9264, 
                "name": "suportdecidim.santandreu", 
                "official": false, 
                "official_level": 0, 
                "role": null, 
                "verified_organization": null
            }, 
            "body": "<p><a href=\"https://decidim.barcelona/proposals/realitzacio-del-projecte-de-pavello-de-casernes-per-cobrir-la-demanda-del-nord-de-sant-andreu\">https://decidim.barcelona/proposals/realitzacio-del-projecte-de-pavello-de-casernes-per-cobrir-la-demanda-del-nord-de-sant-andreu</a></p>", 
            "commentable_id": 3072, 
            "commentable_type": "Proposal", 
            "created_at": "07/04/2016 14:59:12", 
            "flagged": false, 
            "hidden": false, 
            "id": 9523, 
            "moderator_id": null, 
            "permissions": {
                "hide": false, 
                "hide_author": false, 
                "vote": false
            }, 
            "total_dislikes": 0, 
            "total_likes": 0, 
            "total_votes": 0
        }, 
        {
            "administrator_id": null, 
            "alignment": 0, 
            "ancestry": null, 
            "as": null, 
            "author": {
                "avatar_image": "https://decidim.barcelona/assets/avatar-866795c99abc33a3160d1f3fa93ada46eb75e54134e777666b9ed16215b26534.png", 
                "erased": false, 
                "hidden": false, 
                "id": 9264, 
                "name": "suportdecidim.santandreu", 
                "official": false, 
                "official_level": 0, 
                "role": null, 
                "verified_organization": null
            }, 
            "body": "<p><a href=\"https://decidim.barcelona/proposals/requalificacio-del-camp-del-carrer-santander\">https://decidim.barcelona/proposals/requalificacio-del-camp-del-carrer-santander</a></p>", 
            "commentable_id": 3072, 
            "commentable_type": "Proposal", 
            "created_at": "07/04/2016 15:04:08", 
            "flagged": false, 
            "hidden": false, 
            "id": 9526, 
            "moderator_id": null, 
            "permissions": {
                "hide": false, 
                "hide_author": false, 
                "vote": false
            }, 
            "total_dislikes": 0, 
            "total_likes": 0, 
            "total_votes": 0
        }, 
        {
            "administrator_id": null, 
            "alignment": 0, 
            "ancestry": null, 
            "as": null, 
            "author": {
                "avatar_image": "https://decidim.barcelona/assets/avatar-866795c99abc33a3160d1f3fa93ada46eb75e54134e777666b9ed16215b26534.png", 
                "erased": false, 
                "hidden": false, 
                "id": 9264, 
                "name": "suportdecidim.santandreu", 
                "official": false, 
                "official_level": 0, 
                "role": null, 
                "verified_organization": null
            }, 
            "body": "<p><a href=\"https://decidim.barcelona/proposals/fer-el-camp-de-futbol-de-baro-de-viver\">https://decidim.barcelona/proposals/fer-el-camp-de-futbol-de-baro-de-viver</a></p>", 
            "commentable_id": 3072, 
            "commentable_type": "Proposal", 
            "created_at": "07/04/2016 16:01:39", 
            "flagged": false, 
            "hidden": false, 
            "id": 9574, 
            "moderator_id": null, 
            "permissions": {
                "hide": false, 
                "hide_author": false, 
                "vote": false
            }, 
            "total_dislikes": 0, 
            "total_likes": 0, 
            "total_votes": 0
        }, 
        {
            "administrator_id": null, 
            "alignment": 0, 
            "ancestry": null, 
            "as": null, 
            "author": {
                "avatar_image": "https://decidim.barcelona/assets/avatar-866795c99abc33a3160d1f3fa93ada46eb75e54134e777666b9ed16215b26534.png", 
                "erased": false, 
                "hidden": false, 
                "id": 17740, 
                "name": "Suport General2 - Decidim Barcelona", 
                "official": false, 
                "official_level": 0, 
                "role": null, 
                "verified_organization": null
            }, 
            "body": "<p><a href=\"https://decidim.barcelona/proposals/complex-esportiu-municipal-pel-barri-de-la-sagrera\">https://decidim.barcelona/proposals/complex-esportiu-municipal-pel-barri-de-la-sagrera</a></p>", 
            "commentable_id": 3072, 
            "commentable_type": "Proposal", 
            "created_at": "15/04/2016 19:29:25", 
            "flagged": false, 
            "hidden": false, 
            "id": 17582, 
            "moderator_id": null, 
            "permissions": {
                "hide": false, 
                "hide_author": false, 
                "vote": false
            }, 
            "total_dislikes": 0, 
            "total_likes": 0, 
            "total_votes": 0
        }, 
        {
            "administrator_id": null, 
            "alignment": 0, 
            "ancestry": null, 
            "as": null, 
            "author": {
                "avatar_image": "https://decidim.barcelona/assets/avatar-866795c99abc33a3160d1f3fa93ada46eb75e54134e777666b9ed16215b26534.png", 
                "erased": false, 
                "hidden": false, 
                "id": 17740, 
                "name": "Suport General2 - Decidim Barcelona", 
                "official": false, 
                "official_level": 0, 
                "role": null, 
                "verified_organization": null
            }, 
            "body": "<p><a href=\"https://decidim.barcelona/proposals/posar-una-cistella-de-basquet-a-la-pl-ferran-reyes\">https://decidim.barcelona/proposals/posar-una-cistella-de-basquet-a-la-pl-ferran-reyes</a></p>", 
            "commentable_id": 3072, 
            "commentable_type": "Proposal", 
            "created_at": "15/04/2016 19:39:23", 
            "flagged": false, 
            "hidden": false, 
            "id": 17605, 
            "moderator_id": null, 
            "permissions": {
                "hide": false, 
                "hide_author": false, 
                "vote": false
            }, 
            "total_dislikes": 0, 
            "total_likes": 0, 
            "total_votes": 0
        }, 
        {
            "administrator_id": null, 
            "alignment": 0, 
            "ancestry": null, 
            "as": null, 
            "author": {
                "avatar_image": "https://decidim.barcelona/assets/avatar-866795c99abc33a3160d1f3fa93ada46eb75e54134e777666b9ed16215b26534.png", 
                "erased": false, 
                "hidden": false, 
                "id": 17740, 
                "name": "Suport General2 - Decidim Barcelona", 
                "official": false, 
                "official_level": 0, 
                "role": null, 
                "verified_organization": null
            }, 
            "body": "<p><a href=\"https://decidim.barcelona/proposals/crear-un-poliesportiu-al-bon-pastor-amb-pistes-de-padel\">https://decidim.barcelona/proposals/crear-un-poliesportiu-al-bon-pastor-amb-pistes-de-padel</a></p>", 
            "commentable_id": 3072, 
            "commentable_type": "Proposal", 
            "created_at": "16/04/2016 11:25:00", 
            "flagged": false, 
            "hidden": false, 
            "id": 17864, 
            "moderator_id": null, 
            "permissions": {
                "hide": false, 
                "hide_author": false, 
                "vote": false
            }, 
            "total_dislikes": 0, 
            "total_likes": 0, 
            "total_votes": 0
        }, 
        {
            "administrator_id": null, 
            "alignment": 0, 
            "ancestry": null, 
            "as": null, 
            "author": {
                "avatar_image": "https://decidim.barcelona/assets/avatar-866795c99abc33a3160d1f3fa93ada46eb75e54134e777666b9ed16215b26534.png", 
                "erased": false, 
                "hidden": false, 
                "id": 17740, 
                "name": "Suport General2 - Decidim Barcelona", 
                "official": false, 
                "official_level": 0, 
                "role": null, 
                "verified_organization": null
            }, 
            "body": "<p><a href=\"https://decidim.barcelona/proposals/donar-als-veins-de-baro-de-viver-l-oportunitat-d-aprofitar-l-espai-del-club-de-lluita-baro-de-viver\">https://decidim.barcelona/proposals/donar-als-veins-de-baro-de-viver-l-oportunitat-d-aprofitar-l-espai-del-club-de-lluita-baro-de-viver</a></p>", 
            "commentable_id": 3072, 
            "commentable_type": "Proposal", 
            "created_at": "16/04/2016 11:25:11", 
            "flagged": false, 
            "hidden": false, 
            "id": 17865, 
            "moderator_id": null, 
            "permissions": {
                "hide": false, 
                "hide_author": false, 
                "vote": false
            }, 
            "total_dislikes": 0, 
            "total_likes": 0, 
            "total_votes": 0
        }, 
        {
            "administrator_id": null, 
            "alignment": 0, 
            "ancestry": null, 
            "as": null, 
            "author": {
                "avatar_image": "https://decidim.barcelona/assets/avatar-866795c99abc33a3160d1f3fa93ada46eb75e54134e777666b9ed16215b26534.png", 
                "erased": false, 
                "hidden": false, 
                "id": 17740, 
                "name": "Suport General2 - Decidim Barcelona", 
                "official": false, 
                "official_level": 0, 
                "role": null, 
                "verified_organization": null
            }, 
            "body": "<p><a href=\"https://decidim.barcelona/proposals/reforc-del-manteniment-i-neteja-dels-espais-de-lliure-disposicio-del-parc-de-la-pegaso\">https://decidim.barcelona/proposals/reforc-del-manteniment-i-neteja-dels-espais-de-lliure-disposicio-del-parc-de-la-pegaso</a></p>", 
            "commentable_id": 3072, 
            "commentable_type": "Proposal", 
            "created_at": "16/04/2016 11:25:24", 
            "flagged": false, 
            "hidden": false, 
            "id": 17866, 
            "moderator_id": null, 
            "permissions": {
                "hide": false, 
                "hide_author": false, 
                "vote": false
            }, 
            "total_dislikes": 0, 
            "total_likes": 0, 
            "total_votes": 0
        }, 
        {
            "administrator_id": null, 
            "alignment": 0, 
            "ancestry": null, 
            "as": null, 
            "author": {
                "avatar_image": "https://decidim.barcelona/assets/avatar-866795c99abc33a3160d1f3fa93ada46eb75e54134e777666b9ed16215b26534.png", 
                "erased": false, 
                "hidden": false, 
                "id": 17740, 
                "name": "Suport General2 - Decidim Barcelona", 
                "official": false, 
                "official_level": 0, 
                "role": null, 
                "verified_organization": null
            }, 
            "body": "<p><a href=\"https://decidim.barcelona/proposals/reubicar-la-unio-esportiva-congres-a-un-camp-de-futbol-del-districte\">https://decidim.barcelona/proposals/reubicar-la-unio-esportiva-congres-a-un-camp-de-futbol-del-districte</a></p>", 
            "commentable_id": 3072, 
            "commentable_type": "Proposal", 
            "created_at": "16/04/2016 11:25:36", 
            "flagged": false, 
            "hidden": false, 
            "id": 17867, 
            "moderator_id": null, 
            "permissions": {
                "hide": false, 
                "hide_author": false, 
                "vote": false
            }, 
            "total_dislikes": 0, 
            "total_likes": 0, 
            "total_votes": 0
        }, 
        {
            "administrator_id": null, 
            "alignment": 0, 
            "ancestry": null, 
            "as": null, 
            "author": {
                "avatar_image": "https://decidim.barcelona/assets/avatar-866795c99abc33a3160d1f3fa93ada46eb75e54134e777666b9ed16215b26534.png", 
                "erased": false, 
                "hidden": false, 
                "id": 17740, 
                "name": "Suport General2 - Decidim Barcelona", 
                "official": false, 
                "official_level": 0, 
                "role": null, 
                "verified_organization": null
            }, 
            "body": "<p><a href=\"https://decidim.barcelona/proposals/adequar-el-camp-de-criquet-ubicat-a-la-zona-de-casernes\">https://decidim.barcelona/proposals/adequar-el-camp-de-criquet-ubicat-a-la-zona-de-casernes</a></p>", 
            "commentable_id": 3072, 
            "commentable_type": "Proposal", 
            "created_at": "16/04/2016 11:25:51", 
            "flagged": false, 
            "hidden": false, 
            "id": 17868, 
            "moderator_id": null, 
            "permissions": {
                "hide": false, 
                "hide_author": false, 
                "vote": false
            }, 
            "total_dislikes": 0, 
            "total_likes": 0, 
            "total_votes": 0
        }, 
        {
            "administrator_id": null, 
            "alignment": 0, 
            "ancestry": null, 
            "as": null, 
            "author": {
                "avatar_image": "https://decidim.barcelona/assets/avatar-866795c99abc33a3160d1f3fa93ada46eb75e54134e777666b9ed16215b26534.png", 
                "erased": false, 
                "hidden": false, 
                "id": 17740, 
                "name": "Suport General2 - Decidim Barcelona", 
                "official": false, 
                "official_level": 0, 
                "role": null, 
                "verified_organization": null
            }, 
            "body": "<p><a href=\"https://decidim.barcelona/proposals/projectar-una-piscina-a-la-zona-de-casernes\">https://decidim.barcelona/proposals/projectar-una-piscina-a-la-zona-de-casernes</a></p>", 
            "commentable_id": 3072, 
            "commentable_type": "Proposal", 
            "created_at": "16/04/2016 11:26:01", 
            "flagged": false, 
            "hidden": false, 
            "id": 17869, 
            "moderator_id": null, 
            "permissions": {
                "hide": false, 
                "hide_author": false, 
                "vote": false
            }, 
            "total_dislikes": 0, 
            "total_likes": 0, 
            "total_votes": 0
        }, 
        {
            "administrator_id": null, 
            "alignment": 0, 
            "ancestry": null, 
            "as": null, 
            "author": {
                "avatar_image": "https://decidim.barcelona/assets/avatar-866795c99abc33a3160d1f3fa93ada46eb75e54134e777666b9ed16215b26534.png", 
                "erased": false, 
                "hidden": false, 
                "id": 17740, 
                "name": "Suport General2 - Decidim Barcelona", 
                "official": false, 
                "official_level": 0, 
                "role": null, 
                "verified_organization": null
            }, 
            "body": "<p><a href=\"https://decidim.barcelona/proposals/reformar-i-arranjar-les-pistes-de-tennis-i-padel-de-la-llosa-del-bon-pastor\">https://decidim.barcelona/proposals/reformar-i-arranjar-les-pistes-de-tennis-i-padel-de-la-llosa-del-bon-pastor</a></p>", 
            "commentable_id": 3072, 
            "commentable_type": "Proposal", 
            "created_at": "16/04/2016 11:26:12", 
            "flagged": false, 
            "hidden": false, 
            "id": 17870, 
            "moderator_id": null, 
            "permissions": {
                "hide": false, 
                "hide_author": false, 
                "vote": false
            }, 
            "total_dislikes": 0, 
            "total_likes": 0, 
            "total_votes": 0
        }, 
        {
            "administrator_id": null, 
            "alignment": 0, 
            "ancestry": null, 
            "as": null, 
            "author": {
                "avatar_image": "https://decidim.barcelona/assets/avatar-866795c99abc33a3160d1f3fa93ada46eb75e54134e777666b9ed16215b26534.png", 
                "erased": false, 
                "hidden": false, 
                "id": 17740, 
                "name": "Suport General2 - Decidim Barcelona", 
                "official": false, 
                "official_level": 0, 
                "role": null, 
                "verified_organization": null
            }, 
            "body": "<p><a href=\"https://decidim.barcelona/proposals/dotar-de-les-instal-lacions-necessaries-les-activitats-de-la-unio-esportiva-sant-andreu\">https://decidim.barcelona/proposals/dotar-de-les-instal-lacions-necessaries-les-activitats-de-la-unio-esportiva-sant-andreu</a></p>", 
            "commentable_id": 3072, 
            "commentable_type": "Proposal", 
            "created_at": "16/04/2016 11:26:25", 
            "flagged": false, 
            "hidden": false, 
            "id": 17871, 
            "moderator_id": null, 
            "permissions": {
                "hide": false, 
                "hide_author": false, 
                "vote": false
            }, 
            "total_dislikes": 0, 
            "total_likes": 0, 
            "total_votes": 0
        }, 
        {
            "administrator_id": null, 
            "alignment": 0, 
            "ancestry": null, 
            "as": null, 
            "author": {
                "avatar_image": "https://decidim.barcelona/assets/avatar-866795c99abc33a3160d1f3fa93ada46eb75e54134e777666b9ed16215b26534.png", 
                "erased": false, 
                "hidden": false, 
                "id": 17740, 
                "name": "Suport General2 - Decidim Barcelona", 
                "official": false, 
                "official_level": 0, 
                "role": null, 
                "verified_organization": null
            }, 
            "body": "<p><a href=\"https://decidim.barcelona/proposals/habilitar-un-pavello-on-encabir-les-activitats-del-club-pati-congres\">https://decidim.barcelona/proposals/habilitar-un-pavello-on-encabir-les-activitats-del-club-pati-congres</a></p>", 
            "commentable_id": 3072, 
            "commentable_type": "Proposal", 
            "created_at": "16/04/2016 11:26:39", 
            "flagged": false, 
            "hidden": false, 
            "id": 17873, 
            "moderator_id": null, 
            "permissions": {
                "hide": false, 
                "hide_author": false, 
                "vote": false
            }, 
            "total_dislikes": 0, 
            "total_likes": 0, 
            "total_votes": 0
        }, 
        {
            "administrator_id": null, 
            "alignment": 0, 
            "ancestry": null, 
            "as": null, 
            "author": {
                "avatar_image": "https://decidim.barcelona/assets/avatar-866795c99abc33a3160d1f3fa93ada46eb75e54134e777666b9ed16215b26534.png", 
                "erased": false, 
                "hidden": false, 
                "id": 17740, 
                "name": "Suport General2 - Decidim Barcelona", 
                "official": false, 
                "official_level": 0, 
                "role": null, 
                "verified_organization": null
            }, 
            "body": "<p><a href=\"https://decidim.barcelona/proposals/que-es-destini-part-de-l-espai-del-carrer-santander-a-crear-un-camp-futbol-11-i-camp-futbol-7-i-donar-li-alhora-altres-usos-alternatius-per-a-que-sigui-un-camp-poliesportiu-multifuncional\">https://decidim.barcelona/proposals/que-es-destini-part-de-l-espai-del-carrer-santander-a-crear-un-camp-futbol-11-i-camp-futbol-7-i-donar-li-alhora-altres-usos-alternatius-per-a-que-sigui-un-camp-poliesportiu-multifuncional</a></p>", 
            "commentable_id": 3072, 
            "commentable_type": "Proposal", 
            "created_at": "16/04/2016 11:26:54", 
            "flagged": false, 
            "hidden": false, 
            "id": 17874, 
            "moderator_id": null, 
            "permissions": {
                "hide": false, 
                "hide_author": false, 
                "vote": false
            }, 
            "total_dislikes": 0, 
            "total_likes": 0, 
            "total_votes": 0
        }, 
        {
            "administrator_id": null, 
            "alignment": 0, 
            "ancestry": null, 
            "as": null, 
            "author": {
                "avatar_image": "https://decidim.barcelona/assets/avatar-866795c99abc33a3160d1f3fa93ada46eb75e54134e777666b9ed16215b26534.png", 
                "erased": false, 
                "hidden": false, 
                "id": 17740, 
                "name": "Suport General2 - Decidim Barcelona", 
                "official": false, 
                "official_level": 0, 
                "role": null, 
                "verified_organization": null
            }, 
            "body": "<p><a href=\"https://decidim.barcelona/proposals/que-es-destini-l-espai-de-l-antic-camp-de-futbol-del-carrer-santander-a-construir-la-segona-pista-coberta-d-atletisme-de-catalunya-fet-que-permetria-multifuncionalitat-i-entrenament-tot-l-any\">https://decidim.barcelona/proposals/que-es-destini-l-espai-de-l-antic-camp-de-futbol-del-carrer-santander-a-construir-la-segona-pista-coberta-d-atletisme-de-catalunya-fet-que-permetria-multifuncionalitat-i-entrenament-tot-l-any</a></p>", 
            "commentable_id": 3072, 
            "commentable_type": "Proposal", 
            "created_at": "16/04/2016 11:27:05", 
            "flagged": false, 
            "hidden": false, 
            "id": 17875, 
            "moderator_id": null, 
            "permissions": {
                "hide": false, 
                "hide_author": false, 
                "vote": false
            }, 
            "total_dislikes": 0, 
            "total_likes": 0, 
            "total_votes": 0
        }, 
        {
            "administrator_id": null, 
            "alignment": 0, 
            "ancestry": null, 
            "as": null, 
            "author": {
                "avatar_image": "https://decidim.barcelona/assets/avatar-866795c99abc33a3160d1f3fa93ada46eb75e54134e777666b9ed16215b26534.png", 
                "erased": false, 
                "hidden": false, 
                "id": 17740, 
                "name": "Suport General2 - Decidim Barcelona", 
                "official": false, 
                "official_level": 0, 
                "role": null, 
                "verified_organization": null
            }, 
            "body": "<p><a href=\"https://decidim.barcelona/proposals/que-es-destini-l-espai-de-l-antic-camp-de-futbol-del-carrer-santander-a-esports-amb-enfocament-femeni-i-encarat-a-dones-joves\">https://decidim.barcelona/proposals/que-es-destini-l-espai-de-l-antic-camp-de-futbol-del-carrer-santander-a-esports-amb-enfocament-femeni-i-encarat-a-dones-joves</a></p>", 
            "commentable_id": 3072, 
            "commentable_type": "Proposal", 
            "created_at": "16/04/2016 11:27:17", 
            "flagged": false, 
            "hidden": false, 
            "id": 17876, 
            "moderator_id": null, 
            "permissions": {
                "hide": false, 
                "hide_author": false, 
                "vote": false
            }, 
            "total_dislikes": 0, 
            "total_likes": 0, 
            "total_votes": 0
        }, 
        {
            "administrator_id": null, 
            "alignment": 0, 
            "ancestry": null, 
            "as": null, 
            "author": {
                "avatar_image": "https://decidim.barcelona/assets/avatar-866795c99abc33a3160d1f3fa93ada46eb75e54134e777666b9ed16215b26534.png", 
                "erased": false, 
                "hidden": false, 
                "id": 17740, 
                "name": "Suport General2 - Decidim Barcelona", 
                "official": false, 
                "official_level": 0, 
                "role": null, 
                "verified_organization": null
            }, 
            "body": "<p><a href=\"https://decidim.barcelona/proposals/que-es-destini-part-de-l-espai-de-l-antic-camp-de-futbol-del-carrer-santander-a-crear-un-espai-per-anar-amb-els-gossos-i-mascotes\">https://decidim.barcelona/proposals/que-es-destini-part-de-l-espai-de-l-antic-camp-de-futbol-del-carrer-santander-a-crear-un-espai-per-anar-amb-els-gossos-i-mascotes</a></p>", 
            "commentable_id": 3072, 
            "commentable_type": "Proposal", 
            "created_at": "16/04/2016 11:27:28", 
            "flagged": false, 
            "hidden": false, 
            "id": 17877, 
            "moderator_id": null, 
            "permissions": {
                "hide": false, 
                "hide_author": false, 
                "vote": false
            }, 
            "total_dislikes": 0, 
            "total_likes": 0, 
            "total_votes": 0
        }
    ], 
    "meta": {
        "current_page": 1, 
        "next_page": 2, 
        "prev_page": null, 
        "total_count": 45, 
        "total_pages": 3
    }
}