{
    "comments": [
        {
            "administrator_id": null, 
            "alignment": 0, 
            "ancestry": null, 
            "as": null, 
            "author": {
                "avatar_image": "https://decidim.barcelona/assets/avatar-866795c99abc33a3160d1f3fa93ada46eb75e54134e777666b9ed16215b26534.png", 
                "erased": false, 
                "hidden": false, 
                "id": 9262, 
                "name": "Suport General - Decidim Barcelona", 
                "official": false, 
                "official_level": 0, 
                "role": null, 
                "verified_organization": null
            }, 
            "body": "<p><a href=\"https://decidim.barcelona/proposals/arranjament-vorera-carrer-fluvia-entre-pujades-i-pallars\">https://decidim.barcelona/proposals/arranjament-vorera-carrer-fluvia-entre-pujades-i-pallars</a></p>", 
            "commentable_id": 3100, 
            "commentable_type": "Proposal", 
            "created_at": "17/04/2016 10:52:11", 
            "flagged": false, 
            "hidden": false, 
            "id": 18516, 
            "moderator_id": null, 
            "permissions": {
                "hide": false, 
                "hide_author": false, 
                "vote": false
            }, 
            "total_dislikes": 0, 
            "total_likes": 0, 
            "total_votes": 0
        }, 
        {
            "administrator_id": null, 
            "alignment": 0, 
            "ancestry": null, 
            "as": null, 
            "author": {
                "avatar_image": "https://decidim.barcelona/assets/avatar-866795c99abc33a3160d1f3fa93ada46eb75e54134e777666b9ed16215b26534.png", 
                "erased": false, 
                "hidden": false, 
                "id": 9262, 
                "name": "Suport General - Decidim Barcelona", 
                "official": false, 
                "official_level": 0, 
                "role": null, 
                "verified_organization": null
            }, 
            "body": "<p><a href=\"https://decidim.barcelona/proposals/eliminar-cablejat-electric-aeri-de-molts-indrets-del-districte-de-sant-marti\">https://decidim.barcelona/proposals/eliminar-cablejat-electric-aeri-de-molts-indrets-del-districte-de-sant-marti</a></p>", 
            "commentable_id": 3100, 
            "commentable_type": "Proposal", 
            "created_at": "17/04/2016 10:52:16", 
            "flagged": false, 
            "hidden": false, 
            "id": 18517, 
            "moderator_id": null, 
            "permissions": {
                "hide": false, 
                "hide_author": false, 
                "vote": false
            }, 
            "total_dislikes": 0, 
            "total_likes": 0, 
            "total_votes": 0
        }, 
        {
            "administrator_id": null, 
            "alignment": 0, 
            "ancestry": null, 
            "as": null, 
            "author": {
                "avatar_image": "https://decidim.barcelona/assets/avatar-866795c99abc33a3160d1f3fa93ada46eb75e54134e777666b9ed16215b26534.png", 
                "erased": false, 
                "hidden": false, 
                "id": 9262, 
                "name": "Suport General - Decidim Barcelona", 
                "official": false, 
                "official_level": 0, 
                "role": null, 
                "verified_organization": null
            }, 
            "body": "<p><a href=\"https://decidim.barcelona/proposals/millores-de-carrers-i-eliminacio-de-barreres-arquitectoniques\">https://decidim.barcelona/proposals/millores-de-carrers-i-eliminacio-de-barreres-arquitectoniques</a></p>", 
            "commentable_id": 3100, 
            "commentable_type": "Proposal", 
            "created_at": "17/04/2016 10:52:20", 
            "flagged": false, 
            "hidden": false, 
            "id": 18518, 
            "moderator_id": null, 
            "permissions": {
                "hide": false, 
                "hide_author": false, 
                "vote": false
            }, 
            "total_dislikes": 0, 
            "total_likes": 0, 
            "total_votes": 0
        }, 
        {
            "administrator_id": null, 
            "alignment": 0, 
            "ancestry": null, 
            "as": null, 
            "author": {
                "avatar_image": "https://decidim.barcelona/assets/avatar-866795c99abc33a3160d1f3fa93ada46eb75e54134e777666b9ed16215b26534.png", 
                "erased": false, 
                "hidden": false, 
                "id": 9262, 
                "name": "Suport General - Decidim Barcelona", 
                "official": false, 
                "official_level": 0, 
                "role": null, 
                "verified_organization": null
            }, 
            "body": "<p><a href=\"https://decidim.barcelona/proposals/voreras-en-mal-estat\">https://decidim.barcelona/proposals/voreras-en-mal-estat</a></p>", 
            "commentable_id": 3100, 
            "commentable_type": "Proposal", 
            "created_at": "17/04/2016 10:52:27", 
            "flagged": false, 
            "hidden": false, 
            "id": 18519, 
            "moderator_id": null, 
            "permissions": {
                "hide": false, 
                "hide_author": false, 
                "vote": false
            }, 
            "total_dislikes": 0, 
            "total_likes": 0, 
            "total_votes": 0
        }, 
        {
            "administrator_id": null, 
            "alignment": 0, 
            "ancestry": null, 
            "as": null, 
            "author": {
                "avatar_image": "https://decidim.barcelona/assets/avatar-866795c99abc33a3160d1f3fa93ada46eb75e54134e777666b9ed16215b26534.png", 
                "erased": false, 
                "hidden": false, 
                "id": 9262, 
                "name": "Suport General - Decidim Barcelona", 
                "official": false, 
                "official_level": 0, 
                "role": null, 
                "verified_organization": null
            }, 
            "body": "<p><a href=\"https://decidim.barcelona/proposals/sotarrament-lineas-aerias\">https://decidim.barcelona/proposals/sotarrament-lineas-aerias</a></p>", 
            "commentable_id": 3100, 
            "commentable_type": "Proposal", 
            "created_at": "17/04/2016 10:52:32", 
            "flagged": false, 
            "hidden": false, 
            "id": 18520, 
            "moderator_id": null, 
            "permissions": {
                "hide": false, 
                "hide_author": false, 
                "vote": false
            }, 
            "total_dislikes": 0, 
            "total_likes": 0, 
            "total_votes": 0
        }, 
        {
            "administrator_id": null, 
            "alignment": 0, 
            "ancestry": null, 
            "as": null, 
            "author": {
                "avatar_image": "https://decidim.barcelona/assets/avatar-866795c99abc33a3160d1f3fa93ada46eb75e54134e777666b9ed16215b26534.png", 
                "erased": false, 
                "hidden": false, 
                "id": 9262, 
                "name": "Suport General - Decidim Barcelona", 
                "official": false, 
                "official_level": 0, 
                "role": null, 
                "verified_organization": null
            }, 
            "body": "<p><a href=\"https://decidim.barcelona/proposals/placa-gandhi\">https://decidim.barcelona/proposals/placa-gandhi</a></p>", 
            "commentable_id": 3100, 
            "commentable_type": "Proposal", 
            "created_at": "17/04/2016 10:52:42", 
            "flagged": false, 
            "hidden": false, 
            "id": 18521, 
            "moderator_id": null, 
            "permissions": {
                "hide": false, 
                "hide_author": false, 
                "vote": false
            }, 
            "total_dislikes": 0, 
            "total_likes": 0, 
            "total_votes": 0
        }, 
        {
            "administrator_id": null, 
            "alignment": 0, 
            "ancestry": null, 
            "as": null, 
            "author": {
                "avatar_image": "https://decidim.barcelona/assets/avatar-866795c99abc33a3160d1f3fa93ada46eb75e54134e777666b9ed16215b26534.png", 
                "erased": false, 
                "hidden": false, 
                "id": 9262, 
                "name": "Suport General - Decidim Barcelona", 
                "official": false, 
                "official_level": 0, 
                "role": null, 
                "verified_organization": null
            }, 
            "body": "<p><a href=\"https://decidim.barcelona/proposals/carrer-freser\">https://decidim.barcelona/proposals/carrer-freser</a></p>", 
            "commentable_id": 3100, 
            "commentable_type": "Proposal", 
            "created_at": "17/04/2016 10:52:46", 
            "flagged": false, 
            "hidden": false, 
            "id": 18522, 
            "moderator_id": null, 
            "permissions": {
                "hide": false, 
                "hide_author": false, 
                "vote": false
            }, 
            "total_dislikes": 0, 
            "total_likes": 0, 
            "total_votes": 0
        }, 
        {
            "administrator_id": null, 
            "alignment": 0, 
            "ancestry": null, 
            "as": null, 
            "author": {
                "avatar_image": "https://decidim.barcelona/assets/avatar-866795c99abc33a3160d1f3fa93ada46eb75e54134e777666b9ed16215b26534.png", 
                "erased": false, 
                "hidden": false, 
                "id": 9262, 
                "name": "Suport General - Decidim Barcelona", 
                "official": false, 
                "official_level": 0, 
                "role": null, 
                "verified_organization": null
            }, 
            "body": "<p><a href=\"https://decidim.barcelona/proposals/millora-i-reposicio-del-mobiliari-urba-ja-amortitzat-o-fet-malbe\">https://decidim.barcelona/proposals/millora-i-reposicio-del-mobiliari-urba-ja-amortitzat-o-fet-malbe</a></p>", 
            "commentable_id": 3100, 
            "commentable_type": "Proposal", 
            "created_at": "17/04/2016 10:52:52", 
            "flagged": false, 
            "hidden": false, 
            "id": 18523, 
            "moderator_id": null, 
            "permissions": {
                "hide": false, 
                "hide_author": false, 
                "vote": false
            }, 
            "total_dislikes": 0, 
            "total_likes": 0, 
            "total_votes": 0
        }, 
        {
            "administrator_id": null, 
            "alignment": 0, 
            "ancestry": null, 
            "as": null, 
            "author": {
                "avatar_image": "https://decidim.barcelona/assets/avatar-866795c99abc33a3160d1f3fa93ada46eb75e54134e777666b9ed16215b26534.png", 
                "erased": false, 
                "hidden": false, 
                "id": 9262, 
                "name": "Suport General - Decidim Barcelona", 
                "official": false, 
                "official_level": 0, 
                "role": null, 
                "verified_organization": null
            }, 
            "body": "<p><a href=\"https://decidim.barcelona/proposals/arrenjament-de-la-vorera-montanya-del-passeig-de-pujades\">https://decidim.barcelona/proposals/arrenjament-de-la-vorera-montanya-del-passeig-de-pujades</a></p>", 
            "commentable_id": 3100, 
            "commentable_type": "Proposal", 
            "created_at": "17/04/2016 10:52:57", 
            "flagged": false, 
            "hidden": false, 
            "id": 18524, 
            "moderator_id": null, 
            "permissions": {
                "hide": false, 
                "hide_author": false, 
                "vote": false
            }, 
            "total_dislikes": 0, 
            "total_likes": 0, 
            "total_votes": 0
        }, 
        {
            "administrator_id": null, 
            "alignment": 0, 
            "ancestry": null, 
            "as": null, 
            "author": {
                "avatar_image": "https://decidim.barcelona/assets/avatar-866795c99abc33a3160d1f3fa93ada46eb75e54134e777666b9ed16215b26534.png", 
                "erased": false, 
                "hidden": false, 
                "id": 9262, 
                "name": "Suport General - Decidim Barcelona", 
                "official": false, 
                "official_level": 0, 
                "role": null, 
                "verified_organization": null
            }, 
            "body": "<p><a href=\"https://decidim.barcelona/proposals/arreglar-el-carrer-trapini\">https://decidim.barcelona/proposals/arreglar-el-carrer-trapini</a></p>", 
            "commentable_id": 3100, 
            "commentable_type": "Proposal", 
            "created_at": "17/04/2016 10:57:27", 
            "flagged": false, 
            "hidden": false, 
            "id": 18530, 
            "moderator_id": null, 
            "permissions": {
                "hide": false, 
                "hide_author": false, 
                "vote": false
            }, 
            "total_dislikes": 0, 
            "total_likes": 0, 
            "total_votes": 0
        }, 
        {
            "administrator_id": null, 
            "alignment": 0, 
            "ancestry": null, 
            "as": null, 
            "author": {
                "avatar_image": "https://decidim.barcelona/assets/avatar-866795c99abc33a3160d1f3fa93ada46eb75e54134e777666b9ed16215b26534.png", 
                "erased": false, 
                "hidden": false, 
                "id": 9262, 
                "name": "Suport General - Decidim Barcelona", 
                "official": false, 
                "official_level": 0, 
                "role": null, 
                "verified_organization": null
            }, 
            "body": "<p><a href=\"https://decidim.barcelona/proposals/arreglar-el-carrer-llull-entre-rambla-prim-i-avinguda-diagonal-davant-de-l-escola\">https://decidim.barcelona/proposals/arreglar-el-carrer-llull-entre-rambla-prim-i-avinguda-diagonal-davant-de-l-escola</a></p>", 
            "commentable_id": 3100, 
            "commentable_type": "Proposal", 
            "created_at": "17/04/2016 10:57:32", 
            "flagged": false, 
            "hidden": false, 
            "id": 18531, 
            "moderator_id": null, 
            "permissions": {
                "hide": false, 
                "hide_author": false, 
                "vote": false
            }, 
            "total_dislikes": 0, 
            "total_likes": 0, 
            "total_votes": 0
        }, 
        {
            "administrator_id": null, 
            "alignment": 0, 
            "ancestry": null, 
            "as": null, 
            "author": {
                "avatar_image": "https://decidim.barcelona/assets/avatar-866795c99abc33a3160d1f3fa93ada46eb75e54134e777666b9ed16215b26534.png", 
                "erased": false, 
                "hidden": false, 
                "id": 9262, 
                "name": "Suport General - Decidim Barcelona", 
                "official": false, 
                "official_level": 0, 
                "role": null, 
                "verified_organization": null
            }, 
            "body": "<p><a href=\"https://decidim.barcelona/proposals/reforma-del-carrer-sant-joan-de-malta\">https://decidim.barcelona/proposals/reforma-del-carrer-sant-joan-de-malta</a></p>", 
            "commentable_id": 3100, 
            "commentable_type": "Proposal", 
            "created_at": "17/04/2016 10:57:37", 
            "flagged": false, 
            "hidden": false, 
            "id": 18532, 
            "moderator_id": null, 
            "permissions": {
                "hide": false, 
                "hide_author": false, 
                "vote": false
            }, 
            "total_dislikes": 0, 
            "total_likes": 0, 
            "total_votes": 0
        }, 
        {
            "administrator_id": null, 
            "alignment": 0, 
            "ancestry": null, 
            "as": null, 
            "author": {
                "avatar_image": "https://decidim.barcelona/assets/avatar-866795c99abc33a3160d1f3fa93ada46eb75e54134e777666b9ed16215b26534.png", 
                "erased": false, 
                "hidden": false, 
                "id": 9262, 
                "name": "Suport General - Decidim Barcelona", 
                "official": false, 
                "official_level": 0, 
                "role": null, 
                "verified_organization": null
            }, 
            "body": "<p><a href=\"https://decidim.barcelona/proposals/avinguda-meridiana-127\">https://decidim.barcelona/proposals/avinguda-meridiana-127</a></p>", 
            "commentable_id": 3100, 
            "commentable_type": "Proposal", 
            "created_at": "17/04/2016 10:57:42", 
            "flagged": false, 
            "hidden": false, 
            "id": 18533, 
            "moderator_id": null, 
            "permissions": {
                "hide": false, 
                "hide_author": false, 
                "vote": false
            }, 
            "total_dislikes": 0, 
            "total_likes": 0, 
            "total_votes": 0
        }, 
        {
            "administrator_id": null, 
            "alignment": 0, 
            "ancestry": null, 
            "as": null, 
            "author": {
                "avatar_image": "https://decidim.barcelona/assets/avatar-866795c99abc33a3160d1f3fa93ada46eb75e54134e777666b9ed16215b26534.png", 
                "erased": false, 
                "hidden": false, 
                "id": 9262, 
                "name": "Suport General - Decidim Barcelona", 
                "official": false, 
                "official_level": 0, 
                "role": null, 
                "verified_organization": null
            }, 
            "body": "<p><a href=\"https://decidim.barcelona/proposals/millora-del-carrer-freser-i-de-l-entorn-de-la-placa-st-josep-de-calassanc\">https://decidim.barcelona/proposals/millora-del-carrer-freser-i-de-l-entorn-de-la-placa-st-josep-de-calassanc</a></p>", 
            "commentable_id": 3100, 
            "commentable_type": "Proposal", 
            "created_at": "17/04/2016 10:57:47", 
            "flagged": false, 
            "hidden": false, 
            "id": 18534, 
            "moderator_id": null, 
            "permissions": {
                "hide": false, 
                "hide_author": false, 
                "vote": false
            }, 
            "total_dislikes": 0, 
            "total_likes": 0, 
            "total_votes": 0
        }, 
        {
            "administrator_id": null, 
            "alignment": 0, 
            "ancestry": null, 
            "as": null, 
            "author": {
                "avatar_image": "https://decidim.barcelona/assets/avatar-866795c99abc33a3160d1f3fa93ada46eb75e54134e777666b9ed16215b26534.png", 
                "erased": false, 
                "hidden": false, 
                "id": 9262, 
                "name": "Suport General - Decidim Barcelona", 
                "official": false, 
                "official_level": 0, 
                "role": null, 
                "verified_organization": null
            }, 
            "body": "<p><a href=\"https://decidim.barcelona/proposals/parc-miralletes\">https://decidim.barcelona/proposals/parc-miralletes</a></p>", 
            "commentable_id": 3100, 
            "commentable_type": "Proposal", 
            "created_at": "17/04/2016 10:57:52", 
            "flagged": false, 
            "hidden": false, 
            "id": 18535, 
            "moderator_id": null, 
            "permissions": {
                "hide": false, 
                "hide_author": false, 
                "vote": false
            }, 
            "total_dislikes": 0, 
            "total_likes": 0, 
            "total_votes": 0
        }
    ], 
    "meta": {
        "current_page": 2, 
        "next_page": null, 
        "prev_page": 1, 
        "total_count": 35, 
        "total_pages": 2
    }
}