{
    "comments": [
        {
            "administrator_id": null, 
            "alignment": 1, 
            "ancestry": null, 
            "as": null, 
            "author": {
                "avatar_image": "https://decidim.barcelona/assets/avatar-866795c99abc33a3160d1f3fa93ada46eb75e54134e777666b9ed16215b26534.png", 
                "erased": false, 
                "hidden": false, 
                "id": 12663, 
                "name": "Mariza diaz", 
                "official": false, 
                "official_level": 0, 
                "role": null, 
                "verified_organization": null
            }, 
            "body": "<p>Arreglar la vorera d carrer joncar q cua\u00f1sevol dia hi haura un ateopellament</p>", 
            "commentable_id": 3100, 
            "commentable_type": "Proposal", 
            "created_at": "15/03/2016 23:47:24", 
            "flagged": false, 
            "hidden": false, 
            "id": 5158, 
            "moderator_id": null, 
            "permissions": {
                "hide": false, 
                "hide_author": false, 
                "vote": false
            }, 
            "total_dislikes": 0, 
            "total_likes": 1, 
            "total_votes": 1
        }, 
        {
            "administrator_id": null, 
            "alignment": 1, 
            "ancestry": null, 
            "as": null, 
            "author": {
                "avatar_image": "https://decidim.barcelona/assets/avatar-866795c99abc33a3160d1f3fa93ada46eb75e54134e777666b9ed16215b26534.png", 
                "erased": false, 
                "hidden": false, 
                "id": 3112, 
                "name": "Mingo", 
                "official": false, 
                "official_level": 0, 
                "role": null, 
                "verified_organization": null
            }, 
            "body": "<p>encara que al Clot ja som privilegiats en quant a espais per a vianants</p>", 
            "commentable_id": 3100, 
            "commentable_type": "Proposal", 
            "created_at": "29/03/2016 22:54:56", 
            "flagged": false, 
            "hidden": false, 
            "id": 6874, 
            "moderator_id": null, 
            "permissions": {
                "hide": false, 
                "hide_author": false, 
                "vote": false
            }, 
            "total_dislikes": 0, 
            "total_likes": 0, 
            "total_votes": 0
        }, 
        {
            "administrator_id": null, 
            "alignment": 0, 
            "ancestry": null, 
            "as": null, 
            "author": {
                "avatar_image": "https://decidim.barcelona/assets/avatar-866795c99abc33a3160d1f3fa93ada46eb75e54134e777666b9ed16215b26534.png", 
                "erased": false, 
                "hidden": false, 
                "id": 9262, 
                "name": "Suport General - Decidim Barcelona", 
                "official": false, 
                "official_level": 0, 
                "role": null, 
                "verified_organization": null
            }, 
            "body": "<p><a href=\"https://decidim.barcelona/proposals/millora-del-port-olimpic\">https://decidim.barcelona/proposals/millora-del-port-olimpic</a></p>", 
            "commentable_id": 3100, 
            "commentable_type": "Proposal", 
            "created_at": "17/04/2016 10:50:14", 
            "flagged": false, 
            "hidden": false, 
            "id": 18498, 
            "moderator_id": null, 
            "permissions": {
                "hide": false, 
                "hide_author": false, 
                "vote": false
            }, 
            "total_dislikes": 0, 
            "total_likes": 0, 
            "total_votes": 0
        }, 
        {
            "administrator_id": null, 
            "alignment": 0, 
            "ancestry": null, 
            "as": null, 
            "author": {
                "avatar_image": "https://decidim.barcelona/assets/avatar-866795c99abc33a3160d1f3fa93ada46eb75e54134e777666b9ed16215b26534.png", 
                "erased": false, 
                "hidden": false, 
                "id": 9262, 
                "name": "Suport General - Decidim Barcelona", 
                "official": false, 
                "official_level": 0, 
                "role": null, 
                "verified_organization": null
            }, 
            "body": "<p><a href=\"https://decidim.barcelona/proposals/limpieza-mamparas-gran-via-corts-catalanes\">https://decidim.barcelona/proposals/limpieza-mamparas-gran-via-corts-catalanes</a></p>", 
            "commentable_id": 3100, 
            "commentable_type": "Proposal", 
            "created_at": "17/04/2016 10:50:24", 
            "flagged": false, 
            "hidden": false, 
            "id": 18499, 
            "moderator_id": null, 
            "permissions": {
                "hide": false, 
                "hide_author": false, 
                "vote": false
            }, 
            "total_dislikes": 0, 
            "total_likes": 0, 
            "total_votes": 0
        }, 
        {
            "administrator_id": null, 
            "alignment": 0, 
            "ancestry": null, 
            "as": null, 
            "author": {
                "avatar_image": "https://decidim.barcelona/assets/avatar-866795c99abc33a3160d1f3fa93ada46eb75e54134e777666b9ed16215b26534.png", 
                "erased": false, 
                "hidden": false, 
                "id": 9262, 
                "name": "Suport General - Decidim Barcelona", 
                "official": false, 
                "official_level": 0, 
                "role": null, 
                "verified_organization": null
            }, 
            "body": "<p><a href=\"https://decidim.barcelona/proposals/urbanizacio-carrer-freser\">https://decidim.barcelona/proposals/urbanizacio-carrer-freser</a></p>", 
            "commentable_id": 3100, 
            "commentable_type": "Proposal", 
            "created_at": "17/04/2016 10:50:32", 
            "flagged": false, 
            "hidden": false, 
            "id": 18500, 
            "moderator_id": null, 
            "permissions": {
                "hide": false, 
                "hide_author": false, 
                "vote": false
            }, 
            "total_dislikes": 0, 
            "total_likes": 0, 
            "total_votes": 0
        }, 
        {
            "administrator_id": null, 
            "alignment": 0, 
            "ancestry": null, 
            "as": null, 
            "author": {
                "avatar_image": "https://decidim.barcelona/assets/avatar-866795c99abc33a3160d1f3fa93ada46eb75e54134e777666b9ed16215b26534.png", 
                "erased": false, 
                "hidden": false, 
                "id": 9262, 
                "name": "Suport General - Decidim Barcelona", 
                "official": false, 
                "official_level": 0, 
                "role": null, 
                "verified_organization": null
            }, 
            "body": "<p><a href=\"https://decidim.barcelona/proposals/renovacio-dels-fitons-del-barri-de-diagonal-mar\">https://decidim.barcelona/proposals/renovacio-dels-fitons-del-barri-de-diagonal-mar</a></p>", 
            "commentable_id": 3100, 
            "commentable_type": "Proposal", 
            "created_at": "17/04/2016 10:50:46", 
            "flagged": false, 
            "hidden": false, 
            "id": 18501, 
            "moderator_id": null, 
            "permissions": {
                "hide": false, 
                "hide_author": false, 
                "vote": false
            }, 
            "total_dislikes": 0, 
            "total_likes": 0, 
            "total_votes": 0
        }, 
        {
            "administrator_id": null, 
            "alignment": 0, 
            "ancestry": null, 
            "as": null, 
            "author": {
                "avatar_image": "https://decidim.barcelona/assets/avatar-866795c99abc33a3160d1f3fa93ada46eb75e54134e777666b9ed16215b26534.png", 
                "erased": false, 
                "hidden": false, 
                "id": 9262, 
                "name": "Suport General - Decidim Barcelona", 
                "official": false, 
                "official_level": 0, 
                "role": null, 
                "verified_organization": null
            }, 
            "body": "<p><a href=\"https://decidim.barcelona/proposals/reformar-el-carrer-freser-entre-industria-i-trinxant-davant-de-l-escola\">https://decidim.barcelona/proposals/reformar-el-carrer-freser-entre-industria-i-trinxant-davant-de-l-escola</a></p>", 
            "commentable_id": 3100, 
            "commentable_type": "Proposal", 
            "created_at": "17/04/2016 10:50:56", 
            "flagged": false, 
            "hidden": false, 
            "id": 18502, 
            "moderator_id": null, 
            "permissions": {
                "hide": false, 
                "hide_author": false, 
                "vote": false
            }, 
            "total_dislikes": 0, 
            "total_likes": 0, 
            "total_votes": 0
        }, 
        {
            "administrator_id": null, 
            "alignment": 0, 
            "ancestry": null, 
            "as": null, 
            "author": {
                "avatar_image": "https://decidim.barcelona/assets/avatar-866795c99abc33a3160d1f3fa93ada46eb75e54134e777666b9ed16215b26534.png", 
                "erased": false, 
                "hidden": false, 
                "id": 9262, 
                "name": "Suport General - Decidim Barcelona", 
                "official": false, 
                "official_level": 0, 
                "role": null, 
                "verified_organization": null
            }, 
            "body": "<p><a href=\"https://decidim.barcelona/proposals/pintar-el-pas-de-zebra-del-carrer-trinxant-amb-el-carrer-ruiz-de-padron\">https://decidim.barcelona/proposals/pintar-el-pas-de-zebra-del-carrer-trinxant-amb-el-carrer-ruiz-de-padron</a></p>", 
            "commentable_id": 3100, 
            "commentable_type": "Proposal", 
            "created_at": "17/04/2016 10:51:03", 
            "flagged": false, 
            "hidden": false, 
            "id": 18503, 
            "moderator_id": null, 
            "permissions": {
                "hide": false, 
                "hide_author": false, 
                "vote": false
            }, 
            "total_dislikes": 0, 
            "total_likes": 0, 
            "total_votes": 0
        }, 
        {
            "administrator_id": null, 
            "alignment": 0, 
            "ancestry": null, 
            "as": null, 
            "author": {
                "avatar_image": "https://decidim.barcelona/assets/avatar-866795c99abc33a3160d1f3fa93ada46eb75e54134e777666b9ed16215b26534.png", 
                "erased": false, 
                "hidden": false, 
                "id": 9262, 
                "name": "Suport General - Decidim Barcelona", 
                "official": false, 
                "official_level": 0, 
                "role": null, 
                "verified_organization": null
            }, 
            "body": "<p><a href=\"https://decidim.barcelona/proposals/mes-serveis-publics-als-carrers-i-o-parcs\">https://decidim.barcelona/proposals/mes-serveis-publics-als-carrers-i-o-parcs</a></p>", 
            "commentable_id": 3100, 
            "commentable_type": "Proposal", 
            "created_at": "17/04/2016 10:51:08", 
            "flagged": false, 
            "hidden": false, 
            "id": 18504, 
            "moderator_id": null, 
            "permissions": {
                "hide": false, 
                "hide_author": false, 
                "vote": false
            }, 
            "total_dislikes": 0, 
            "total_likes": 0, 
            "total_votes": 0
        }, 
        {
            "administrator_id": null, 
            "alignment": 0, 
            "ancestry": null, 
            "as": null, 
            "author": {
                "avatar_image": "https://decidim.barcelona/assets/avatar-866795c99abc33a3160d1f3fa93ada46eb75e54134e777666b9ed16215b26534.png", 
                "erased": false, 
                "hidden": false, 
                "id": 9262, 
                "name": "Suport General - Decidim Barcelona", 
                "official": false, 
                "official_level": 0, 
                "role": null, 
                "verified_organization": null
            }, 
            "body": "<p><a href=\"https://decidim.barcelona/proposals/dignificacio-l-espai-olof-palme\">https://decidim.barcelona/proposals/dignificacio-l-espai-olof-palme</a></p>", 
            "commentable_id": 3100, 
            "commentable_type": "Proposal", 
            "created_at": "17/04/2016 10:51:14", 
            "flagged": false, 
            "hidden": false, 
            "id": 18505, 
            "moderator_id": null, 
            "permissions": {
                "hide": false, 
                "hide_author": false, 
                "vote": false
            }, 
            "total_dislikes": 0, 
            "total_likes": 0, 
            "total_votes": 0
        }, 
        {
            "administrator_id": null, 
            "alignment": 0, 
            "ancestry": null, 
            "as": null, 
            "author": {
                "avatar_image": "https://decidim.barcelona/assets/avatar-866795c99abc33a3160d1f3fa93ada46eb75e54134e777666b9ed16215b26534.png", 
                "erased": false, 
                "hidden": false, 
                "id": 9262, 
                "name": "Suport General - Decidim Barcelona", 
                "official": false, 
                "official_level": 0, 
                "role": null, 
                "verified_organization": null
            }, 
            "body": "<p><a href=\"https://decidim.barcelona/proposals/dignificacio-l-espai-olof-palme\">https://decidim.barcelona/proposals/dignificacio-l-espai-olof-palme</a></p>", 
            "commentable_id": 3100, 
            "commentable_type": "Proposal", 
            "created_at": "17/04/2016 10:51:19", 
            "flagged": false, 
            "hidden": false, 
            "id": 18506, 
            "moderator_id": null, 
            "permissions": {
                "hide": false, 
                "hide_author": false, 
                "vote": false
            }, 
            "total_dislikes": 0, 
            "total_likes": 0, 
            "total_votes": 0
        }, 
        {
            "administrator_id": null, 
            "alignment": 0, 
            "ancestry": null, 
            "as": null, 
            "author": {
                "avatar_image": "https://decidim.barcelona/assets/avatar-866795c99abc33a3160d1f3fa93ada46eb75e54134e777666b9ed16215b26534.png", 
                "erased": false, 
                "hidden": false, 
                "id": 9262, 
                "name": "Suport General - Decidim Barcelona", 
                "official": false, 
                "official_level": 0, 
                "role": null, 
                "verified_organization": null
            }, 
            "body": "<p><a href=\"https://decidim.barcelona/proposals/treure-els-rosers-del-davant-de-l-escola-fluvia\">https://decidim.barcelona/proposals/treure-els-rosers-del-davant-de-l-escola-fluvia</a></p>", 
            "commentable_id": 3100, 
            "commentable_type": "Proposal", 
            "created_at": "17/04/2016 10:51:24", 
            "flagged": false, 
            "hidden": false, 
            "id": 18507, 
            "moderator_id": null, 
            "permissions": {
                "hide": false, 
                "hide_author": false, 
                "vote": false
            }, 
            "total_dislikes": 0, 
            "total_likes": 0, 
            "total_votes": 0
        }, 
        {
            "administrator_id": null, 
            "alignment": 0, 
            "ancestry": null, 
            "as": null, 
            "author": {
                "avatar_image": "https://decidim.barcelona/assets/avatar-866795c99abc33a3160d1f3fa93ada46eb75e54134e777666b9ed16215b26534.png", 
                "erased": false, 
                "hidden": false, 
                "id": 9262, 
                "name": "Suport General - Decidim Barcelona", 
                "official": false, 
                "official_level": 0, 
                "role": null, 
                "verified_organization": null
            }, 
            "body": "<p><a href=\"https://decidim.barcelona/proposals/millorar-l-entorn-de-l-ambulatori-del-besos\">https://decidim.barcelona/proposals/millorar-l-entorn-de-l-ambulatori-del-besos</a></p>", 
            "commentable_id": 3100, 
            "commentable_type": "Proposal", 
            "created_at": "17/04/2016 10:51:30", 
            "flagged": false, 
            "hidden": false, 
            "id": 18508, 
            "moderator_id": null, 
            "permissions": {
                "hide": false, 
                "hide_author": false, 
                "vote": false
            }, 
            "total_dislikes": 0, 
            "total_likes": 0, 
            "total_votes": 0
        }, 
        {
            "administrator_id": null, 
            "alignment": 0, 
            "ancestry": null, 
            "as": null, 
            "author": {
                "avatar_image": "https://decidim.barcelona/assets/avatar-866795c99abc33a3160d1f3fa93ada46eb75e54134e777666b9ed16215b26534.png", 
                "erased": false, 
                "hidden": false, 
                "id": 9262, 
                "name": "Suport General - Decidim Barcelona", 
                "official": false, 
                "official_level": 0, 
                "role": null, 
                "verified_organization": null
            }, 
            "body": "<p><a href=\"https://decidim.barcelona/proposals/retirada-tanca-de-formigo-a-av-diagonal-josep-pla\">https://decidim.barcelona/proposals/retirada-tanca-de-formigo-a-av-diagonal-josep-pla</a></p>", 
            "commentable_id": 3100, 
            "commentable_type": "Proposal", 
            "created_at": "17/04/2016 10:51:35", 
            "flagged": false, 
            "hidden": false, 
            "id": 18509, 
            "moderator_id": null, 
            "permissions": {
                "hide": false, 
                "hide_author": false, 
                "vote": false
            }, 
            "total_dislikes": 0, 
            "total_likes": 0, 
            "total_votes": 0
        }, 
        {
            "administrator_id": null, 
            "alignment": 0, 
            "ancestry": null, 
            "as": null, 
            "author": {
                "avatar_image": "https://decidim.barcelona/assets/avatar-866795c99abc33a3160d1f3fa93ada46eb75e54134e777666b9ed16215b26534.png", 
                "erased": false, 
                "hidden": false, 
                "id": 9262, 
                "name": "Suport General - Decidim Barcelona", 
                "official": false, 
                "official_level": 0, 
                "role": null, 
                "verified_organization": null
            }, 
            "body": "<p><a href=\"https://decidim.barcelona/proposals/arreglar-fuita-d-aigua-a-la-vorera-del-carrer-badagoz-amb-avinguda-icaria-costat-muntanya\">https://decidim.barcelona/proposals/arreglar-fuita-d-aigua-a-la-vorera-del-carrer-badagoz-amb-avinguda-icaria-costat-muntanya</a></p>", 
            "commentable_id": 3100, 
            "commentable_type": "Proposal", 
            "created_at": "17/04/2016 10:51:41", 
            "flagged": false, 
            "hidden": false, 
            "id": 18510, 
            "moderator_id": null, 
            "permissions": {
                "hide": false, 
                "hide_author": false, 
                "vote": false
            }, 
            "total_dislikes": 0, 
            "total_likes": 0, 
            "total_votes": 0
        }, 
        {
            "administrator_id": null, 
            "alignment": 0, 
            "ancestry": null, 
            "as": null, 
            "author": {
                "avatar_image": "https://decidim.barcelona/assets/avatar-866795c99abc33a3160d1f3fa93ada46eb75e54134e777666b9ed16215b26534.png", 
                "erased": false, 
                "hidden": false, 
                "id": 9262, 
                "name": "Suport General - Decidim Barcelona", 
                "official": false, 
                "official_level": 0, 
                "role": null, 
                "verified_organization": null
            }, 
            "body": "<p><a href=\"https://decidim.barcelona/proposals/millora-del-sistema-d-enllumenat-publics-al-barri\">https://decidim.barcelona/proposals/millora-del-sistema-d-enllumenat-publics-al-barri</a></p>", 
            "commentable_id": 3100, 
            "commentable_type": "Proposal", 
            "created_at": "17/04/2016 10:51:46", 
            "flagged": false, 
            "hidden": false, 
            "id": 18511, 
            "moderator_id": null, 
            "permissions": {
                "hide": false, 
                "hide_author": false, 
                "vote": false
            }, 
            "total_dislikes": 0, 
            "total_likes": 0, 
            "total_votes": 0
        }, 
        {
            "administrator_id": null, 
            "alignment": 0, 
            "ancestry": null, 
            "as": null, 
            "author": {
                "avatar_image": "https://decidim.barcelona/assets/avatar-866795c99abc33a3160d1f3fa93ada46eb75e54134e777666b9ed16215b26534.png", 
                "erased": false, 
                "hidden": false, 
                "id": 9262, 
                "name": "Suport General - Decidim Barcelona", 
                "official": false, 
                "official_level": 0, 
                "role": null, 
                "verified_organization": null
            }, 
            "body": "<p><a href=\"https://decidim.barcelona/proposals/rehabilitacio-de-l-espai-public-del-barri\">https://decidim.barcelona/proposals/rehabilitacio-de-l-espai-public-del-barri</a></p>", 
            "commentable_id": 3100, 
            "commentable_type": "Proposal", 
            "created_at": "17/04/2016 10:51:52", 
            "flagged": false, 
            "hidden": false, 
            "id": 18512, 
            "moderator_id": null, 
            "permissions": {
                "hide": false, 
                "hide_author": false, 
                "vote": false
            }, 
            "total_dislikes": 0, 
            "total_likes": 0, 
            "total_votes": 0
        }, 
        {
            "administrator_id": null, 
            "alignment": 0, 
            "ancestry": null, 
            "as": null, 
            "author": {
                "avatar_image": "https://decidim.barcelona/assets/avatar-866795c99abc33a3160d1f3fa93ada46eb75e54134e777666b9ed16215b26534.png", 
                "erased": false, 
                "hidden": false, 
                "id": 9262, 
                "name": "Suport General - Decidim Barcelona", 
                "official": false, 
                "official_level": 0, 
                "role": null, 
                "verified_organization": null
            }, 
            "body": "<p><a href=\"https://decidim.barcelona/proposals/la-calle-ruiz-de-padron-existe\">https://decidim.barcelona/proposals/la-calle-ruiz-de-padron-existe</a></p>", 
            "commentable_id": 3100, 
            "commentable_type": "Proposal", 
            "created_at": "17/04/2016 10:51:57", 
            "flagged": false, 
            "hidden": false, 
            "id": 18513, 
            "moderator_id": null, 
            "permissions": {
                "hide": false, 
                "hide_author": false, 
                "vote": false
            }, 
            "total_dislikes": 0, 
            "total_likes": 0, 
            "total_votes": 0
        }, 
        {
            "administrator_id": null, 
            "alignment": 0, 
            "ancestry": null, 
            "as": null, 
            "author": {
                "avatar_image": "https://decidim.barcelona/assets/avatar-866795c99abc33a3160d1f3fa93ada46eb75e54134e777666b9ed16215b26534.png", 
                "erased": false, 
                "hidden": false, 
                "id": 9262, 
                "name": "Suport General - Decidim Barcelona", 
                "official": false, 
                "official_level": 0, 
                "role": null, 
                "verified_organization": null
            }, 
            "body": "<p><a href=\"https://decidim.barcelona/proposals/reurbanitzar-el-carrer-muntanya-entre-arago-i-valencia\">https://decidim.barcelona/proposals/reurbanitzar-el-carrer-muntanya-entre-arago-i-valencia</a></p>", 
            "commentable_id": 3100, 
            "commentable_type": "Proposal", 
            "created_at": "17/04/2016 10:52:01", 
            "flagged": false, 
            "hidden": false, 
            "id": 18514, 
            "moderator_id": null, 
            "permissions": {
                "hide": false, 
                "hide_author": false, 
                "vote": false
            }, 
            "total_dislikes": 0, 
            "total_likes": 0, 
            "total_votes": 0
        }, 
        {
            "administrator_id": null, 
            "alignment": 0, 
            "ancestry": null, 
            "as": null, 
            "author": {
                "avatar_image": "https://decidim.barcelona/assets/avatar-866795c99abc33a3160d1f3fa93ada46eb75e54134e777666b9ed16215b26534.png", 
                "erased": false, 
                "hidden": false, 
                "id": 9262, 
                "name": "Suport General - Decidim Barcelona", 
                "official": false, 
                "official_level": 0, 
                "role": null, 
                "verified_organization": null
            }, 
            "body": "<p><a href=\"https://decidim.barcelona/proposals/remodelacio-placa-sufragistes\">https://decidim.barcelona/proposals/remodelacio-placa-sufragistes</a></p>", 
            "commentable_id": 3100, 
            "commentable_type": "Proposal", 
            "created_at": "17/04/2016 10:52:06", 
            "flagged": false, 
            "hidden": false, 
            "id": 18515, 
            "moderator_id": null, 
            "permissions": {
                "hide": false, 
                "hide_author": false, 
                "vote": false
            }, 
            "total_dislikes": 0, 
            "total_likes": 0, 
            "total_votes": 0
        }
    ], 
    "meta": {
        "current_page": 1, 
        "next_page": 2, 
        "prev_page": null, 
        "total_count": 35, 
        "total_pages": 2
    }
}