{
    "comments": [
        {
            "administrator_id": null, 
            "alignment": -1, 
            "ancestry": null, 
            "as": null, 
            "author": {
                "avatar_image": "https://decidim.barcelona/assets/avatar-866795c99abc33a3160d1f3fa93ada46eb75e54134e777666b9ed16215b26534.png", 
                "erased": false, 
                "hidden": false, 
                "id": 9923, 
                "name": "marccarme", 
                "official": false, 
                "official_level": 0, 
                "role": null, 
                "verified_organization": null
            }, 
            "body": "<p>Abolir los pisos turisticos es ponerle puertas al campo... Suceder\u00e1 inevitablemente como ha pasado con la musica, las agencias de viaje o el cine... Es que no lo veis? Internet ha revolucionado la forma de viajar y la economia colaborativa a escala mundial avanza como un tsunami en nuestra sociedad. O nos adaptamos o perderemos la principal fuente de ingreso de la ciudad, el turismo. Por otra parte, la regulaci\u00f3n se hace necesaria en una sociedad para que podamos entonces vivir en armonia. </p>", 
            "commentable_id": 3387, 
            "commentable_type": "Proposal", 
            "created_at": "02/03/2016 10:07:02", 
            "flagged": false, 
            "hidden": false, 
            "id": 3304, 
            "moderator_id": null, 
            "permissions": {
                "hide": false, 
                "hide_author": false, 
                "vote": false
            }, 
            "total_dislikes": 3, 
            "total_likes": 1, 
            "total_votes": 4
        }, 
        {
            "administrator_id": null, 
            "alignment": -1, 
            "ancestry": null, 
            "as": null, 
            "author": {
                "avatar_image": "https://decidim.barcelona/assets/avatar-866795c99abc33a3160d1f3fa93ada46eb75e54134e777666b9ed16215b26534.png", 
                "erased": false, 
                "hidden": false, 
                "id": 9930, 
                "name": "jordi sanchez", 
                "official": false, 
                "official_level": 0, 
                "role": null, 
                "verified_organization": null
            }, 
            "body": "<p>La prohibici\u00f3n no suele ser un buen camino para nada.\n<br />Es compatible vivir tranquilamente en tu casa y que en la de al lado hayan turistas cada 2 por 3.\n<br />Yo tengo vecinos de alquiler de larga duraci\u00f3n que no soporto y que son inc\u00edvicos y no puedo hacer nada. Est\u00e1n en su casa y la ley los protege. En cambio al turista que viene con ni\u00f1os y por eso prefiere un piso tur\u00edstico, el que prefiere mezclarse con la gente del lugar, el que aporta diversidad y riqueza cultural no se le admite.\n<br />Yo he aprendido mucho m\u00e1s con vecinos turistas que con la gente de mi escalera.\n<br />Evidentemente lo que no se puede permitir es que no tengan una conducta aceptable y para eso est\u00e1 la legislaci\u00f3n y la policia, pero ah\u00ed ya estamos hablando de un tema de principios b\u00e1sicos.\n<br />Creo que ir en contra de esto, solo favorece al gran loby hotelero y perjudica la economia colaborativa y a alguna nuevas empresas que est\u00e1n aprovechando el tir\u00f3n.\n<br />La vivienda es algo b\u00e1sico y esencial tambi\u00e9n para la gente que nos visita</p>", 
            "commentable_id": 3387, 
            "commentable_type": "Proposal", 
            "created_at": "02/03/2016 10:54:05", 
            "flagged": false, 
            "hidden": false, 
            "id": 3307, 
            "moderator_id": null, 
            "permissions": {
                "hide": false, 
                "hide_author": false, 
                "vote": false
            }, 
            "total_dislikes": 2, 
            "total_likes": 1, 
            "total_votes": 3
        }, 
        {
            "administrator_id": null, 
            "alignment": 1, 
            "ancestry": null, 
            "as": null, 
            "author": {
                "avatar_image": "https://decidim.barcelona/assets/avatar-866795c99abc33a3160d1f3fa93ada46eb75e54134e777666b9ed16215b26534.png", 
                "erased": false, 
                "hidden": false, 
                "id": 9686, 
                "name": "Paco AR", 
                "official": false, 
                "official_level": 0, 
                "role": null, 
                "verified_organization": null
            }, 
            "body": "<p>Que se acabe con la especulacion, inseguridad e incivismo</p>", 
            "commentable_id": 3387, 
            "commentable_type": "Proposal", 
            "created_at": "02/03/2016 12:34:53", 
            "flagged": false, 
            "hidden": false, 
            "id": 3316, 
            "moderator_id": null, 
            "permissions": {
                "hide": false, 
                "hide_author": false, 
                "vote": false
            }, 
            "total_dislikes": 0, 
            "total_likes": 1, 
            "total_votes": 1
        }, 
        {
            "administrator_id": null, 
            "alignment": 1, 
            "ancestry": null, 
            "as": null, 
            "author": {
                "avatar_image": "https://decidim.barcelona/assets/avatar-866795c99abc33a3160d1f3fa93ada46eb75e54134e777666b9ed16215b26534.png", 
                "erased": false, 
                "hidden": false, 
                "id": 873, 
                "name": "Ernesto", 
                "official": false, 
                "official_level": 0, 
                "role": null, 
                "verified_organization": null
            }, 
            "body": "<p>Totalment d'acord, qui vulgui fer negoci que ho faci amb totes les de la llei, per aix\u00f2 existeixen els hotels, pensions i similars, als quals a banda els demanen molts requisits ( t\u00e8cnics, neteja, seguretat, control policial dels inquilins etc). El que no pot ser negoci a costa del descans i seguretat dels ve\u00efns.</p>", 
            "commentable_id": 3387, 
            "commentable_type": "Proposal", 
            "created_at": "15/03/2016 10:58:29", 
            "flagged": false, 
            "hidden": false, 
            "id": 4977, 
            "moderator_id": null, 
            "permissions": {
                "hide": false, 
                "hide_author": false, 
                "vote": false
            }, 
            "total_dislikes": 0, 
            "total_likes": 2, 
            "total_votes": 2
        }
    ], 
    "meta": {
        "current_page": 2, 
        "next_page": null, 
        "prev_page": 1, 
        "total_count": 24, 
        "total_pages": 2
    }
}