{
    "comments": [
        {
            "administrator_id": null, 
            "alignment": 1, 
            "ancestry": null, 
            "as": null, 
            "author": {
                "avatar_image": "https://decidim.barcelona/assets/avatar-866795c99abc33a3160d1f3fa93ada46eb75e54134e777666b9ed16215b26534.png", 
                "erased": false, 
                "hidden": false, 
                "id": 20251, 
                "name": "ALMENDRABA", 
                "official": false, 
                "official_level": 0, 
                "role": null, 
                "verified_organization": null
            }, 
            "body": "<p>Creo  que  es  super  importante  que nos  regularicen, para  que  podamos  seguir  tranquilamente recibiendo  gente  de  diferentes partes del  mundo y  compartir  con ellos. Que ha  sido  los mas   gratificante en  estos  3  a\u00f1os  que  recibo  gente  en mi  casa.</p>", 
            "commentable_id": 3410, 
            "commentable_type": "Proposal", 
            "created_at": "07/04/2016 14:55:56", 
            "flagged": false, 
            "hidden": false, 
            "id": 9521, 
            "moderator_id": null, 
            "permissions": {
                "hide": false, 
                "hide_author": false, 
                "vote": false
            }, 
            "total_dislikes": 0, 
            "total_likes": 2, 
            "total_votes": 2
        }, 
        {
            "administrator_id": null, 
            "alignment": 1, 
            "ancestry": null, 
            "as": null, 
            "author": {
                "avatar_image": "https://decidim.barcelona/assets/avatar-866795c99abc33a3160d1f3fa93ada46eb75e54134e777666b9ed16215b26534.png", 
                "erased": false, 
                "hidden": false, 
                "id": 20571, 
                "name": "lucas", 
                "official": false, 
                "official_level": 0, 
                "role": null, 
                "verified_organization": null
            }, 
            "body": "<p>En estos tiempos de crisis el home sharing es un modo para poder dividir los gastos, conocer nueva gente y mostrar al huesped el lado mas humano de Barcelona.\n<br />Puede ser una gran oportunidad para demostrar que Barcelona no es Rambla, flamenco y sombreros mexicanos.</p>", 
            "commentable_id": 3410, 
            "commentable_type": "Proposal", 
            "created_at": "07/04/2016 19:21:05", 
            "flagged": false, 
            "hidden": false, 
            "id": 9944, 
            "moderator_id": null, 
            "permissions": {
                "hide": false, 
                "hide_author": false, 
                "vote": false
            }, 
            "total_dislikes": 0, 
            "total_likes": 2, 
            "total_votes": 2
        }, 
        {
            "administrator_id": null, 
            "alignment": 0, 
            "ancestry": null, 
            "as": null, 
            "author": {
                "avatar_image": "https://decidim.barcelona/assets/avatar-866795c99abc33a3160d1f3fa93ada46eb75e54134e777666b9ed16215b26534.png", 
                "erased": false, 
                "hidden": false, 
                "id": 20552, 
                "name": "Angel Parramon Martinez", 
                "official": false, 
                "official_level": 0, 
                "role": null, 
                "verified_organization": null
            }, 
            "body": "<p>Hola! Te que quedar ben clar que el home sharing no te res a veure amb els pisos turistics el lobby hoteler vol fer confondre per aixis fer cada cop mes i mes diners que en majoria de casos marxen cap altres pa\u00efsos perque pertanyen a grans holdings internacionals,nosaltres tot el contrari participen en donar una bona imatge de la ciutat convivint uns dies amb persones d'altres indrets enssenyant-lis la nostra ciutat desde una altra prespectiva mes humana i real. Es una activitat que es fa arreu de mon perque nosaltres hem de ser diferents? </p>", 
            "commentable_id": 3410, 
            "commentable_type": "Proposal", 
            "created_at": "07/04/2016 19:21:48", 
            "flagged": false, 
            "hidden": false, 
            "id": 9948, 
            "moderator_id": null, 
            "permissions": {
                "hide": false, 
                "hide_author": false, 
                "vote": false
            }, 
            "total_dislikes": 0, 
            "total_likes": 2, 
            "total_votes": 2
        }, 
        {
            "administrator_id": null, 
            "alignment": 1, 
            "ancestry": null, 
            "as": null, 
            "author": {
                "avatar_image": "https://decidim.barcelona/assets/avatar-866795c99abc33a3160d1f3fa93ada46eb75e54134e777666b9ed16215b26534.png", 
                "erased": false, 
                "hidden": false, 
                "id": 20991, 
                "name": "Norfa", 
                "official": false, 
                "official_level": 0, 
                "role": null, 
                "verified_organization": null
            }, 
            "body": "<p>El Home sharing es una experiencia diferente que ofrece un intercambio cultural enriquecedor no solo para el hu\u00e9sped y anfitri\u00f3n sino para nuestro barrio porque les descubrimos lugares y comercios aut\u00e9nticos que les ayudan a tener una visi\u00f3n m\u00e1s real de la ciudad.\n<br />Regularizando esta actividad beneficiar\u00e1 a la ciudad y a las familias que necesitan estos ingresos para llegar a final de mes.</p>", 
            "commentable_id": 3410, 
            "commentable_type": "Proposal", 
            "created_at": "08/04/2016 02:19:18", 
            "flagged": false, 
            "hidden": false, 
            "id": 10162, 
            "moderator_id": null, 
            "permissions": {
                "hide": false, 
                "hide_author": false, 
                "vote": false
            }, 
            "total_dislikes": 0, 
            "total_likes": 2, 
            "total_votes": 2
        }, 
        {
            "administrator_id": null, 
            "alignment": 1, 
            "ancestry": null, 
            "as": null, 
            "author": {
                "avatar_image": "https://decidim.barcelona/assets/avatar-866795c99abc33a3160d1f3fa93ada46eb75e54134e777666b9ed16215b26534.png", 
                "erased": false, 
                "hidden": false, 
                "id": 20999, 
                "name": "fejoc", 
                "official": false, 
                "official_level": 0, 
                "role": null, 
                "verified_organization": null
            }, 
            "body": "<p>El Home Sharing ha venido para quedarse. Nuevos tiempos nuevas soluciones . No se puede poner vallas al campo. Resulta preocupante la incapacidad pol\u00edtica para mejorar la vida de las personas. Pagamos nuestros impuestos. Damos vida a nuestros barrios. Respetamos a nuestros vecinos ,no queremos turismo-borrachera. Hemos solucionado nuestros problemas y no hemos puesto la mano para que nos ayuden. Hemos buscado soluciones imaginativas . El futuro  de Home-Sharing es HOY, ma\u00f1ana ser\u00e1 tarde. Es propio de los pol\u00edticos con poca cabeza \"embestir\"contra todo lo que no les cabe en la cabeza.</p>", 
            "commentable_id": 3410, 
            "commentable_type": "Proposal", 
            "created_at": "08/04/2016 06:55:09", 
            "flagged": false, 
            "hidden": false, 
            "id": 10166, 
            "moderator_id": null, 
            "permissions": {
                "hide": false, 
                "hide_author": false, 
                "vote": false
            }, 
            "total_dislikes": 0, 
            "total_likes": 2, 
            "total_votes": 2
        }, 
        {
            "administrator_id": null, 
            "alignment": 1, 
            "ancestry": null, 
            "as": null, 
            "author": {
                "avatar_image": "https://decidim.barcelona/assets/avatar-866795c99abc33a3160d1f3fa93ada46eb75e54134e777666b9ed16215b26534.png", 
                "erased": false, 
                "hidden": false, 
                "id": 21161, 
                "name": "Xavi Besc\u00f3s", 
                "official": false, 
                "official_level": 0, 
                "role": null, 
                "verified_organization": null
            }, 
            "body": "<p>Es enriquidor poguer compartir casa teva</p>", 
            "commentable_id": 3410, 
            "commentable_type": "Proposal", 
            "created_at": "08/04/2016 10:20:09", 
            "flagged": false, 
            "hidden": false, 
            "id": 10294, 
            "moderator_id": null, 
            "permissions": {
                "hide": false, 
                "hide_author": false, 
                "vote": false
            }, 
            "total_dislikes": 0, 
            "total_likes": 2, 
            "total_votes": 2
        }, 
        {
            "administrator_id": null, 
            "alignment": 1, 
            "ancestry": null, 
            "as": null, 
            "author": {
                "avatar_image": "https://decidim.barcelona/assets/avatar-866795c99abc33a3160d1f3fa93ada46eb75e54134e777666b9ed16215b26534.png", 
                "erased": false, 
                "hidden": false, 
                "id": 21381, 
                "name": "emanuele basuino", 
                "official": false, 
                "official_level": 0, 
                "role": null, 
                "verified_organization": null
            }, 
            "body": "<p>Som veins i ciutadans, ens interesa la seguretat i la qualitat de vida al nostre barri. aix\u00f2 \u00e9s turisme responsable i ajuda economicament la persona i el seu entorn m\u00e9s proper. Homesharing no \u00e9s turisme ilegal i pisos turistic on no hi ha cap control. volem un marc normatiu just i no estar desemparats. </p>", 
            "commentable_id": 3410, 
            "commentable_type": "Proposal", 
            "created_at": "08/04/2016 12:46:27", 
            "flagged": false, 
            "hidden": false, 
            "id": 10676, 
            "moderator_id": null, 
            "permissions": {
                "hide": false, 
                "hide_author": false, 
                "vote": false
            }, 
            "total_dislikes": 0, 
            "total_likes": 2, 
            "total_votes": 2
        }, 
        {
            "administrator_id": null, 
            "alignment": 1, 
            "ancestry": null, 
            "as": null, 
            "author": {
                "avatar_image": "https://decidim.barcelona/assets/avatar-866795c99abc33a3160d1f3fa93ada46eb75e54134e777666b9ed16215b26534.png", 
                "erased": false, 
                "hidden": false, 
                "id": 21391, 
                "name": "Frank C S", 
                "official": false, 
                "official_level": 0, 
                "role": null, 
                "verified_organization": null
            }, 
            "body": "<p>Es que el derecho de cada habitante debe ser contemplado tambien sin recortes. Es econom\u00eda de supervivencia, necesaria como nutriente basico y elemental como la vida misma. No se trata de una nueva industria, es de simple razonamiento. Y tampoco entra en contradiccion con el resto de actividades de la ciudad.  Aprobarla ser\u00e1 justicia, que no es poco. FCS </p>", 
            "commentable_id": 3410, 
            "commentable_type": "Proposal", 
            "created_at": "08/04/2016 13:09:45", 
            "flagged": false, 
            "hidden": false, 
            "id": 10716, 
            "moderator_id": null, 
            "permissions": {
                "hide": false, 
                "hide_author": false, 
                "vote": false
            }, 
            "total_dislikes": 0, 
            "total_likes": 2, 
            "total_votes": 2
        }, 
        {
            "administrator_id": null, 
            "alignment": 1, 
            "ancestry": null, 
            "as": null, 
            "author": {
                "avatar_image": "https://decidim.barcelona/assets/avatar-866795c99abc33a3160d1f3fa93ada46eb75e54134e777666b9ed16215b26534.png", 
                "erased": false, 
                "hidden": false, 
                "id": 18373, 
                "name": "N\u00fariaSantAntoni", 
                "official": false, 
                "official_level": 0, 
                "role": null, 
                "verified_organization": null
            }, 
            "body": "<p>A favor!</p>", 
            "commentable_id": 3410, 
            "commentable_type": "Proposal", 
            "created_at": "08/04/2016 14:37:39", 
            "flagged": false, 
            "hidden": false, 
            "id": 10956, 
            "moderator_id": null, 
            "permissions": {
                "hide": false, 
                "hide_author": false, 
                "vote": false
            }, 
            "total_dislikes": 0, 
            "total_likes": 2, 
            "total_votes": 2
        }, 
        {
            "administrator_id": null, 
            "alignment": 1, 
            "ancestry": null, 
            "as": null, 
            "author": {
                "avatar_image": "https://decidim.barcelona/assets/avatar-866795c99abc33a3160d1f3fa93ada46eb75e54134e777666b9ed16215b26534.png", 
                "erased": false, 
                "hidden": false, 
                "id": 21594, 
                "name": "mireia77", 
                "official": false, 
                "official_level": 0, 
                "role": null, 
                "verified_organization": null
            }, 
            "body": "<p>tothom hi guanya amb el home sharing</p>", 
            "commentable_id": 3410, 
            "commentable_type": "Proposal", 
            "created_at": "08/04/2016 14:57:19", 
            "flagged": false, 
            "hidden": false, 
            "id": 10981, 
            "moderator_id": null, 
            "permissions": {
                "hide": false, 
                "hide_author": false, 
                "vote": false
            }, 
            "total_dislikes": 0, 
            "total_likes": 2, 
            "total_votes": 2
        }, 
        {
            "administrator_id": null, 
            "alignment": 1, 
            "ancestry": null, 
            "as": null, 
            "author": {
                "avatar_image": "https://decidim.barcelona/assets/avatar-866795c99abc33a3160d1f3fa93ada46eb75e54134e777666b9ed16215b26534.png", 
                "erased": false, 
                "hidden": false, 
                "id": 21696, 
                "name": "abel jai", 
                "official": false, 
                "official_level": 0, 
                "role": null, 
                "verified_organization": null
            }, 
            "body": "<p>dejemos que siga evolucionando esta ciudad</p>", 
            "commentable_id": 3410, 
            "commentable_type": "Proposal", 
            "created_at": "08/04/2016 16:06:03", 
            "flagged": false, 
            "hidden": false, 
            "id": 11079, 
            "moderator_id": null, 
            "permissions": {
                "hide": false, 
                "hide_author": false, 
                "vote": false
            }, 
            "total_dislikes": 0, 
            "total_likes": 2, 
            "total_votes": 2
        }, 
        {
            "administrator_id": null, 
            "alignment": 1, 
            "ancestry": null, 
            "as": null, 
            "author": {
                "avatar_image": "https://decidim.barcelona/assets/avatar-866795c99abc33a3160d1f3fa93ada46eb75e54134e777666b9ed16215b26534.png", 
                "erased": false, 
                "hidden": false, 
                "id": 21982, 
                "name": "Ron Pfeil", 
                "official": false, 
                "official_level": 0, 
                "role": null, 
                "verified_organization": null
            }, 
            "body": "<p>Homesharing es una manera para los residentes a compartir tambien los beneficios y ventajas del tsunami de turismo que experimentamos en BCN y no solo compartir sus efectos mas desagradables. En este sentido el Homesharing nos ayuda igualar las dos cosas.</p>", 
            "commentable_id": 3410, 
            "commentable_type": "Proposal", 
            "created_at": "08/04/2016 18:53:15", 
            "flagged": false, 
            "hidden": false, 
            "id": 11377, 
            "moderator_id": null, 
            "permissions": {
                "hide": false, 
                "hide_author": false, 
                "vote": false
            }, 
            "total_dislikes": 0, 
            "total_likes": 2, 
            "total_votes": 2
        }, 
        {
            "administrator_id": null, 
            "alignment": 1, 
            "ancestry": null, 
            "as": null, 
            "author": {
                "avatar_image": "https://decidim.barcelona/assets/avatar-866795c99abc33a3160d1f3fa93ada46eb75e54134e777666b9ed16215b26534.png", 
                "erased": false, 
                "hidden": false, 
                "id": 21303, 
                "name": "Ram\u00f3n Baiget Viale", 
                "official": false, 
                "official_level": 0, 
                "role": null, 
                "verified_organization": null
            }, 
            "body": "<p>Compartir una vivenda per la que ja pagues impostos i tenir l,ajut per mantenir-se gr\u00e0cies a un turisme sostenible es el millor per ahidar a la gent de la ciutat que es veuenbobligats a fer-ho i nomes tenen aquesta sortida per sobreviure . On  est\u00e0 el mal?</p>", 
            "commentable_id": 3410, 
            "commentable_type": "Proposal", 
            "created_at": "09/04/2016 02:53:46", 
            "flagged": false, 
            "hidden": false, 
            "id": 11548, 
            "moderator_id": null, 
            "permissions": {
                "hide": false, 
                "hide_author": false, 
                "vote": false
            }, 
            "total_dislikes": 0, 
            "total_likes": 2, 
            "total_votes": 2
        }, 
        {
            "administrator_id": null, 
            "alignment": 1, 
            "ancestry": null, 
            "as": null, 
            "author": {
                "avatar_image": "https://decidim.barcelona/assets/avatar-866795c99abc33a3160d1f3fa93ada46eb75e54134e777666b9ed16215b26534.png", 
                "erased": false, 
                "hidden": false, 
                "id": 22863, 
                "name": "Francesca R.", 
                "official": false, 
                "official_level": 0, 
                "role": null, 
                "verified_organization": null
            }, 
            "body": "<p>Hay una diferencia enorme entre alquilar pisos enteros u alquilar una simple habitacion, para muchos es la unica manera de poderse permitir mantener sus pisos.</p>", 
            "commentable_id": 3410, 
            "commentable_type": "Proposal", 
            "created_at": "09/04/2016 12:48:23", 
            "flagged": false, 
            "hidden": false, 
            "id": 11998, 
            "moderator_id": null, 
            "permissions": {
                "hide": false, 
                "hide_author": false, 
                "vote": false
            }, 
            "total_dislikes": 0, 
            "total_likes": 2, 
            "total_votes": 2
        }, 
        {
            "administrator_id": null, 
            "alignment": 1, 
            "ancestry": null, 
            "as": null, 
            "author": {
                "avatar_image": "https://decidim.barcelona/assets/avatar-866795c99abc33a3160d1f3fa93ada46eb75e54134e777666b9ed16215b26534.png", 
                "erased": false, 
                "hidden": false, 
                "id": 17332, 
                "name": "Luc\u00eda La Flaca", 
                "official": false, 
                "official_level": 0, 
                "role": null, 
                "verified_organization": null
            }, 
            "body": "<p>Me parece genial est\u00e1 propuesta, me gustar\u00eda poder practicarla legalmente, ya que es necesaria para quienes tenemos rentas MUY bajas.</p>", 
            "commentable_id": 3410, 
            "commentable_type": "Proposal", 
            "created_at": "09/04/2016 20:55:24", 
            "flagged": false, 
            "hidden": false, 
            "id": 12676, 
            "moderator_id": null, 
            "permissions": {
                "hide": false, 
                "hide_author": false, 
                "vote": false
            }, 
            "total_dislikes": 0, 
            "total_likes": 2, 
            "total_votes": 2
        }
    ], 
    "meta": {
        "current_page": 3, 
        "next_page": null, 
        "prev_page": 2, 
        "total_count": 55, 
        "total_pages": 3
    }
}