{
    "comments": [
        {
            "administrator_id": null, 
            "alignment": 0, 
            "ancestry": null, 
            "as": null, 
            "author": {
                "avatar_image": "https://decidim.barcelona/assets/avatar-866795c99abc33a3160d1f3fa93ada46eb75e54134e777666b9ed16215b26534.png", 
                "erased": false, 
                "hidden": false, 
                "id": 9262, 
                "name": "Suport General - Decidim Barcelona", 
                "official": false, 
                "official_level": 0, 
                "role": null, 
                "verified_organization": null
            }, 
            "body": "<p><a href=\"https://decidim.barcelona/proposals/millorar-l-entorn-de-l-ambulatori-del-besos\">https://decidim.barcelona/proposals/millorar-l-entorn-de-l-ambulatori-del-besos</a></p>", 
            "commentable_id": 3425, 
            "commentable_type": "Proposal", 
            "created_at": "16/04/2016 17:14:32", 
            "flagged": false, 
            "hidden": false, 
            "id": 18334, 
            "moderator_id": null, 
            "permissions": {
                "hide": false, 
                "hide_author": false, 
                "vote": false
            }, 
            "total_dislikes": 0, 
            "total_likes": 0, 
            "total_votes": 0
        }, 
        {
            "administrator_id": null, 
            "alignment": 0, 
            "ancestry": null, 
            "as": null, 
            "author": {
                "avatar_image": "https://decidim.barcelona/assets/avatar-866795c99abc33a3160d1f3fa93ada46eb75e54134e777666b9ed16215b26534.png", 
                "erased": false, 
                "hidden": false, 
                "id": 9262, 
                "name": "Suport General - Decidim Barcelona", 
                "official": false, 
                "official_level": 0, 
                "role": null, 
                "verified_organization": null
            }, 
            "body": "<p><a href=\"https://decidim.barcelona/proposals/retirada-tanca-de-formigo-a-av-diagonal-josep-pla\">https://decidim.barcelona/proposals/retirada-tanca-de-formigo-a-av-diagonal-josep-pla</a></p>", 
            "commentable_id": 3425, 
            "commentable_type": "Proposal", 
            "created_at": "16/04/2016 17:14:40", 
            "flagged": false, 
            "hidden": false, 
            "id": 18335, 
            "moderator_id": null, 
            "permissions": {
                "hide": false, 
                "hide_author": false, 
                "vote": false
            }, 
            "total_dislikes": 0, 
            "total_likes": 0, 
            "total_votes": 0
        }, 
        {
            "administrator_id": null, 
            "alignment": 0, 
            "ancestry": null, 
            "as": null, 
            "author": {
                "avatar_image": "https://decidim.barcelona/assets/avatar-866795c99abc33a3160d1f3fa93ada46eb75e54134e777666b9ed16215b26534.png", 
                "erased": false, 
                "hidden": false, 
                "id": 9262, 
                "name": "Suport General - Decidim Barcelona", 
                "official": false, 
                "official_level": 0, 
                "role": null, 
                "verified_organization": null
            }, 
            "body": "<p><a href=\"https://decidim.barcelona/proposals/arreglar-fuita-d-aigua-a-la-vorera-del-carrer-badagoz-amb-avinguda-icaria-costat-muntanya\">https://decidim.barcelona/proposals/arreglar-fuita-d-aigua-a-la-vorera-del-carrer-badagoz-amb-avinguda-icaria-costat-muntanya</a></p>", 
            "commentable_id": 3425, 
            "commentable_type": "Proposal", 
            "created_at": "16/04/2016 17:14:45", 
            "flagged": false, 
            "hidden": false, 
            "id": 18336, 
            "moderator_id": null, 
            "permissions": {
                "hide": false, 
                "hide_author": false, 
                "vote": false
            }, 
            "total_dislikes": 0, 
            "total_likes": 0, 
            "total_votes": 0
        }, 
        {
            "administrator_id": null, 
            "alignment": 0, 
            "ancestry": null, 
            "as": null, 
            "author": {
                "avatar_image": "https://decidim.barcelona/assets/avatar-866795c99abc33a3160d1f3fa93ada46eb75e54134e777666b9ed16215b26534.png", 
                "erased": false, 
                "hidden": false, 
                "id": 9262, 
                "name": "Suport General - Decidim Barcelona", 
                "official": false, 
                "official_level": 0, 
                "role": null, 
                "verified_organization": null
            }, 
            "body": "<p><a href=\"https://decidim.barcelona/proposals/millora-del-sistema-d-enllumenat-publics-al-barri\">https://decidim.barcelona/proposals/millora-del-sistema-d-enllumenat-publics-al-barri</a></p>", 
            "commentable_id": 3425, 
            "commentable_type": "Proposal", 
            "created_at": "16/04/2016 17:14:54", 
            "flagged": false, 
            "hidden": false, 
            "id": 18337, 
            "moderator_id": null, 
            "permissions": {
                "hide": false, 
                "hide_author": false, 
                "vote": false
            }, 
            "total_dislikes": 0, 
            "total_likes": 0, 
            "total_votes": 0
        }, 
        {
            "administrator_id": null, 
            "alignment": 0, 
            "ancestry": null, 
            "as": null, 
            "author": {
                "avatar_image": "https://decidim.barcelona/assets/avatar-866795c99abc33a3160d1f3fa93ada46eb75e54134e777666b9ed16215b26534.png", 
                "erased": false, 
                "hidden": false, 
                "id": 9262, 
                "name": "Suport General - Decidim Barcelona", 
                "official": false, 
                "official_level": 0, 
                "role": null, 
                "verified_organization": null
            }, 
            "body": "<p><a href=\"https://decidim.barcelona/proposals/rehabilitacio-de-l-espai-public-del-barri\">https://decidim.barcelona/proposals/rehabilitacio-de-l-espai-public-del-barri</a></p>", 
            "commentable_id": 3425, 
            "commentable_type": "Proposal", 
            "created_at": "16/04/2016 17:15:02", 
            "flagged": false, 
            "hidden": false, 
            "id": 18338, 
            "moderator_id": null, 
            "permissions": {
                "hide": false, 
                "hide_author": false, 
                "vote": false
            }, 
            "total_dislikes": 0, 
            "total_likes": 0, 
            "total_votes": 0
        }
    ], 
    "meta": {
        "current_page": 2, 
        "next_page": null, 
        "prev_page": 1, 
        "total_count": 25, 
        "total_pages": 2
    }
}