{
    "comments": [
        {
            "administrator_id": null, 
            "alignment": 0, 
            "ancestry": null, 
            "as": null, 
            "author": {
                "avatar_image": "https://decidim.barcelona/assets/avatar-866795c99abc33a3160d1f3fa93ada46eb75e54134e777666b9ed16215b26534.png", 
                "erased": false, 
                "hidden": false, 
                "id": 9262, 
                "name": "Suport General - Decidim Barcelona", 
                "official": false, 
                "official_level": 0, 
                "role": null, 
                "verified_organization": null
            }, 
            "body": "<p><a href=\"https://decidim.barcelona/proposals/la-calle-ruiz-de-padron-existe\">https://decidim.barcelona/proposals/la-calle-ruiz-de-padron-existe</a></p>", 
            "commentable_id": 3425, 
            "commentable_type": "Proposal", 
            "created_at": "15/04/2016 12:48:51", 
            "flagged": false, 
            "hidden": false, 
            "id": 16874, 
            "moderator_id": null, 
            "permissions": {
                "hide": false, 
                "hide_author": false, 
                "vote": false
            }, 
            "total_dislikes": 0, 
            "total_likes": 0, 
            "total_votes": 0
        }, 
        {
            "administrator_id": null, 
            "alignment": 0, 
            "ancestry": null, 
            "as": null, 
            "author": {
                "avatar_image": "https://decidim.barcelona/assets/avatar-866795c99abc33a3160d1f3fa93ada46eb75e54134e777666b9ed16215b26534.png", 
                "erased": false, 
                "hidden": false, 
                "id": 9262, 
                "name": "Suport General - Decidim Barcelona", 
                "official": false, 
                "official_level": 0, 
                "role": null, 
                "verified_organization": null
            }, 
            "body": "<p><a href=\"https://decidim.barcelona/proposals/reurbanitzar-el-carrer-muntanya-entre-arago-i-valencia\">https://decidim.barcelona/proposals/reurbanitzar-el-carrer-muntanya-entre-arago-i-valencia</a></p>", 
            "commentable_id": 3425, 
            "commentable_type": "Proposal", 
            "created_at": "15/04/2016 12:49:07", 
            "flagged": false, 
            "hidden": false, 
            "id": 16875, 
            "moderator_id": null, 
            "permissions": {
                "hide": false, 
                "hide_author": false, 
                "vote": false
            }, 
            "total_dislikes": 0, 
            "total_likes": 0, 
            "total_votes": 0
        }, 
        {
            "administrator_id": null, 
            "alignment": 0, 
            "ancestry": null, 
            "as": null, 
            "author": {
                "avatar_image": "https://decidim.barcelona/assets/avatar-866795c99abc33a3160d1f3fa93ada46eb75e54134e777666b9ed16215b26534.png", 
                "erased": false, 
                "hidden": false, 
                "id": 9262, 
                "name": "Suport General - Decidim Barcelona", 
                "official": false, 
                "official_level": 0, 
                "role": null, 
                "verified_organization": null
            }, 
            "body": "<p><a href=\"https://decidim.barcelona/proposals/remodelacio-placa-sufragistes\">https://decidim.barcelona/proposals/remodelacio-placa-sufragistes</a></p>", 
            "commentable_id": 3425, 
            "commentable_type": "Proposal", 
            "created_at": "15/04/2016 12:49:19", 
            "flagged": false, 
            "hidden": false, 
            "id": 16876, 
            "moderator_id": null, 
            "permissions": {
                "hide": false, 
                "hide_author": false, 
                "vote": false
            }, 
            "total_dislikes": 0, 
            "total_likes": 0, 
            "total_votes": 0
        }, 
        {
            "administrator_id": null, 
            "alignment": 0, 
            "ancestry": null, 
            "as": null, 
            "author": {
                "avatar_image": "https://decidim.barcelona/assets/avatar-866795c99abc33a3160d1f3fa93ada46eb75e54134e777666b9ed16215b26534.png", 
                "erased": false, 
                "hidden": false, 
                "id": 9262, 
                "name": "Suport General - Decidim Barcelona", 
                "official": false, 
                "official_level": 0, 
                "role": null, 
                "verified_organization": null
            }, 
            "body": "<p><a href=\"https://decidim.barcelona/proposals/arranjament-vorera-carrer-fluvia-entre-pujades-i-pallars\">https://decidim.barcelona/proposals/arranjament-vorera-carrer-fluvia-entre-pujades-i-pallars</a></p>", 
            "commentable_id": 3425, 
            "commentable_type": "Proposal", 
            "created_at": "15/04/2016 12:49:33", 
            "flagged": false, 
            "hidden": false, 
            "id": 16877, 
            "moderator_id": null, 
            "permissions": {
                "hide": false, 
                "hide_author": false, 
                "vote": false
            }, 
            "total_dislikes": 0, 
            "total_likes": 0, 
            "total_votes": 0
        }, 
        {
            "administrator_id": null, 
            "alignment": 0, 
            "ancestry": null, 
            "as": null, 
            "author": {
                "avatar_image": "https://decidim.barcelona/assets/avatar-866795c99abc33a3160d1f3fa93ada46eb75e54134e777666b9ed16215b26534.png", 
                "erased": false, 
                "hidden": false, 
                "id": 9262, 
                "name": "Suport General - Decidim Barcelona", 
                "official": false, 
                "official_level": 0, 
                "role": null, 
                "verified_organization": null
            }, 
            "body": "<p><a href=\"https://decidim.barcelona/proposals/eliminar-cablejat-electric-aeri-de-molts-indrets-del-districte-de-sant-marti\">https://decidim.barcelona/proposals/eliminar-cablejat-electric-aeri-de-molts-indrets-del-districte-de-sant-marti</a></p>", 
            "commentable_id": 3425, 
            "commentable_type": "Proposal", 
            "created_at": "15/04/2016 12:49:47", 
            "flagged": false, 
            "hidden": false, 
            "id": 16878, 
            "moderator_id": null, 
            "permissions": {
                "hide": false, 
                "hide_author": false, 
                "vote": false
            }, 
            "total_dislikes": 0, 
            "total_likes": 0, 
            "total_votes": 0
        }, 
        {
            "administrator_id": null, 
            "alignment": 0, 
            "ancestry": null, 
            "as": null, 
            "author": {
                "avatar_image": "https://decidim.barcelona/assets/avatar-866795c99abc33a3160d1f3fa93ada46eb75e54134e777666b9ed16215b26534.png", 
                "erased": false, 
                "hidden": false, 
                "id": 9262, 
                "name": "Suport General - Decidim Barcelona", 
                "official": false, 
                "official_level": 0, 
                "role": null, 
                "verified_organization": null
            }, 
            "body": "<p><a href=\"https://decidim.barcelona/proposals/millores-de-carrers-i-eliminacio-de-barreres-arquitectoniques\">https://decidim.barcelona/proposals/millores-de-carrers-i-eliminacio-de-barreres-arquitectoniques</a></p>", 
            "commentable_id": 3425, 
            "commentable_type": "Proposal", 
            "created_at": "15/04/2016 12:50:03", 
            "flagged": false, 
            "hidden": false, 
            "id": 16881, 
            "moderator_id": null, 
            "permissions": {
                "hide": false, 
                "hide_author": false, 
                "vote": false
            }, 
            "total_dislikes": 0, 
            "total_likes": 0, 
            "total_votes": 0
        }, 
        {
            "administrator_id": null, 
            "alignment": 0, 
            "ancestry": null, 
            "as": null, 
            "author": {
                "avatar_image": "https://decidim.barcelona/assets/avatar-866795c99abc33a3160d1f3fa93ada46eb75e54134e777666b9ed16215b26534.png", 
                "erased": false, 
                "hidden": false, 
                "id": 9262, 
                "name": "Suport General - Decidim Barcelona", 
                "official": false, 
                "official_level": 0, 
                "role": null, 
                "verified_organization": null
            }, 
            "body": "<p><a href=\"https://decidim.barcelona/proposals/voreras-en-mal-estat\">https://decidim.barcelona/proposals/voreras-en-mal-estat</a></p>", 
            "commentable_id": 3425, 
            "commentable_type": "Proposal", 
            "created_at": "15/04/2016 12:50:15", 
            "flagged": false, 
            "hidden": false, 
            "id": 16883, 
            "moderator_id": null, 
            "permissions": {
                "hide": false, 
                "hide_author": false, 
                "vote": false
            }, 
            "total_dislikes": 0, 
            "total_likes": 0, 
            "total_votes": 0
        }, 
        {
            "administrator_id": null, 
            "alignment": 0, 
            "ancestry": null, 
            "as": null, 
            "author": {
                "avatar_image": "https://decidim.barcelona/assets/avatar-866795c99abc33a3160d1f3fa93ada46eb75e54134e777666b9ed16215b26534.png", 
                "erased": false, 
                "hidden": false, 
                "id": 9262, 
                "name": "Suport General - Decidim Barcelona", 
                "official": false, 
                "official_level": 0, 
                "role": null, 
                "verified_organization": null
            }, 
            "body": "<p><a href=\"https://decidim.barcelona/proposals/sotarrament-lineas-aerias\">https://decidim.barcelona/proposals/sotarrament-lineas-aerias</a></p>", 
            "commentable_id": 3425, 
            "commentable_type": "Proposal", 
            "created_at": "15/04/2016 12:50:30", 
            "flagged": false, 
            "hidden": false, 
            "id": 16885, 
            "moderator_id": null, 
            "permissions": {
                "hide": false, 
                "hide_author": false, 
                "vote": false
            }, 
            "total_dislikes": 0, 
            "total_likes": 0, 
            "total_votes": 0
        }, 
        {
            "administrator_id": null, 
            "alignment": 0, 
            "ancestry": null, 
            "as": null, 
            "author": {
                "avatar_image": "https://decidim.barcelona/assets/avatar-866795c99abc33a3160d1f3fa93ada46eb75e54134e777666b9ed16215b26534.png", 
                "erased": false, 
                "hidden": false, 
                "id": 9262, 
                "name": "Suport General - Decidim Barcelona", 
                "official": false, 
                "official_level": 0, 
                "role": null, 
                "verified_organization": null
            }, 
            "body": "<p><a href=\"https://decidim.barcelona/proposals/placa-gandhi\">https://decidim.barcelona/proposals/placa-gandhi</a></p>", 
            "commentable_id": 3425, 
            "commentable_type": "Proposal", 
            "created_at": "15/04/2016 12:50:43", 
            "flagged": false, 
            "hidden": false, 
            "id": 16886, 
            "moderator_id": null, 
            "permissions": {
                "hide": false, 
                "hide_author": false, 
                "vote": false
            }, 
            "total_dislikes": 0, 
            "total_likes": 0, 
            "total_votes": 0
        }, 
        {
            "administrator_id": null, 
            "alignment": 0, 
            "ancestry": null, 
            "as": null, 
            "author": {
                "avatar_image": "https://decidim.barcelona/assets/avatar-866795c99abc33a3160d1f3fa93ada46eb75e54134e777666b9ed16215b26534.png", 
                "erased": false, 
                "hidden": false, 
                "id": 9262, 
                "name": "Suport General - Decidim Barcelona", 
                "official": false, 
                "official_level": 0, 
                "role": null, 
                "verified_organization": null
            }, 
            "body": "<p><a href=\"https://decidim.barcelona/proposals/carrer-freser\">https://decidim.barcelona/proposals/carrer-freser</a></p>", 
            "commentable_id": 3425, 
            "commentable_type": "Proposal", 
            "created_at": "15/04/2016 12:50:55", 
            "flagged": false, 
            "hidden": false, 
            "id": 16889, 
            "moderator_id": null, 
            "permissions": {
                "hide": false, 
                "hide_author": false, 
                "vote": false
            }, 
            "total_dislikes": 0, 
            "total_likes": 0, 
            "total_votes": 0
        }, 
        {
            "administrator_id": null, 
            "alignment": 0, 
            "ancestry": null, 
            "as": null, 
            "author": {
                "avatar_image": "https://decidim.barcelona/assets/avatar-866795c99abc33a3160d1f3fa93ada46eb75e54134e777666b9ed16215b26534.png", 
                "erased": false, 
                "hidden": false, 
                "id": 9262, 
                "name": "Suport General - Decidim Barcelona", 
                "official": false, 
                "official_level": 0, 
                "role": null, 
                "verified_organization": null
            }, 
            "body": "<p><a href=\"https://decidim.barcelona/proposals/millora-i-reposicio-del-mobiliari-urba-ja-amortitzat-o-fet-malbe\">https://decidim.barcelona/proposals/millora-i-reposicio-del-mobiliari-urba-ja-amortitzat-o-fet-malbe</a></p>", 
            "commentable_id": 3425, 
            "commentable_type": "Proposal", 
            "created_at": "15/04/2016 12:51:28", 
            "flagged": false, 
            "hidden": false, 
            "id": 16894, 
            "moderator_id": null, 
            "permissions": {
                "hide": false, 
                "hide_author": false, 
                "vote": false
            }, 
            "total_dislikes": 0, 
            "total_likes": 0, 
            "total_votes": 0
        }, 
        {
            "administrator_id": null, 
            "alignment": 0, 
            "ancestry": null, 
            "as": null, 
            "author": {
                "avatar_image": "https://decidim.barcelona/assets/avatar-866795c99abc33a3160d1f3fa93ada46eb75e54134e777666b9ed16215b26534.png", 
                "erased": false, 
                "hidden": false, 
                "id": 9262, 
                "name": "Suport General - Decidim Barcelona", 
                "official": false, 
                "official_level": 0, 
                "role": null, 
                "verified_organization": null
            }, 
            "body": "<p><a href=\"https://decidim.barcelona/proposals/arrenjament-de-la-vorera-montanya-del-passeig-de-pujades\">https://decidim.barcelona/proposals/arrenjament-de-la-vorera-montanya-del-passeig-de-pujades</a></p>", 
            "commentable_id": 3425, 
            "commentable_type": "Proposal", 
            "created_at": "15/04/2016 12:51:57", 
            "flagged": false, 
            "hidden": false, 
            "id": 16898, 
            "moderator_id": null, 
            "permissions": {
                "hide": false, 
                "hide_author": false, 
                "vote": false
            }, 
            "total_dislikes": 0, 
            "total_likes": 0, 
            "total_votes": 0
        }, 
        {
            "administrator_id": null, 
            "alignment": 0, 
            "ancestry": null, 
            "as": null, 
            "author": {
                "avatar_image": "https://decidim.barcelona/assets/avatar-866795c99abc33a3160d1f3fa93ada46eb75e54134e777666b9ed16215b26534.png", 
                "erased": false, 
                "hidden": false, 
                "id": 9262, 
                "name": "Suport General - Decidim Barcelona", 
                "official": false, 
                "official_level": 0, 
                "role": null, 
                "verified_organization": null
            }, 
            "body": "<p><a href=\"https://decidim.barcelona/proposals/limpieza-mamparas-gran-via-corts-catalanes\">https://decidim.barcelona/proposals/limpieza-mamparas-gran-via-corts-catalanes</a></p>", 
            "commentable_id": 3425, 
            "commentable_type": "Proposal", 
            "created_at": "15/04/2016 12:52:10", 
            "flagged": false, 
            "hidden": false, 
            "id": 16901, 
            "moderator_id": null, 
            "permissions": {
                "hide": false, 
                "hide_author": false, 
                "vote": false
            }, 
            "total_dislikes": 0, 
            "total_likes": 0, 
            "total_votes": 0
        }, 
        {
            "administrator_id": null, 
            "alignment": 0, 
            "ancestry": null, 
            "as": null, 
            "author": {
                "avatar_image": "https://decidim.barcelona/assets/avatar-866795c99abc33a3160d1f3fa93ada46eb75e54134e777666b9ed16215b26534.png", 
                "erased": false, 
                "hidden": false, 
                "id": 9262, 
                "name": "Suport General - Decidim Barcelona", 
                "official": false, 
                "official_level": 0, 
                "role": null, 
                "verified_organization": null
            }, 
            "body": "<p><a href=\"https://decidim.barcelona/proposals/urbanizacio-carrer-freser\">https://decidim.barcelona/proposals/urbanizacio-carrer-freser</a></p>", 
            "commentable_id": 3425, 
            "commentable_type": "Proposal", 
            "created_at": "15/04/2016 12:52:23", 
            "flagged": false, 
            "hidden": false, 
            "id": 16903, 
            "moderator_id": null, 
            "permissions": {
                "hide": false, 
                "hide_author": false, 
                "vote": false
            }, 
            "total_dislikes": 0, 
            "total_likes": 0, 
            "total_votes": 0
        }, 
        {
            "administrator_id": null, 
            "alignment": 0, 
            "ancestry": null, 
            "as": null, 
            "author": {
                "avatar_image": "https://decidim.barcelona/assets/avatar-866795c99abc33a3160d1f3fa93ada46eb75e54134e777666b9ed16215b26534.png", 
                "erased": false, 
                "hidden": false, 
                "id": 9262, 
                "name": "Suport General - Decidim Barcelona", 
                "official": false, 
                "official_level": 0, 
                "role": null, 
                "verified_organization": null
            }, 
            "body": "<p><a href=\"https://decidim.barcelona/proposals/renovacio-dels-fitons-del-barri-de-diagonal-mar\">https://decidim.barcelona/proposals/renovacio-dels-fitons-del-barri-de-diagonal-mar</a></p>", 
            "commentable_id": 3425, 
            "commentable_type": "Proposal", 
            "created_at": "15/04/2016 12:52:53", 
            "flagged": false, 
            "hidden": false, 
            "id": 16908, 
            "moderator_id": null, 
            "permissions": {
                "hide": false, 
                "hide_author": false, 
                "vote": false
            }, 
            "total_dislikes": 0, 
            "total_likes": 0, 
            "total_votes": 0
        }, 
        {
            "administrator_id": null, 
            "alignment": 0, 
            "ancestry": null, 
            "as": null, 
            "author": {
                "avatar_image": "https://decidim.barcelona/assets/avatar-866795c99abc33a3160d1f3fa93ada46eb75e54134e777666b9ed16215b26534.png", 
                "erased": false, 
                "hidden": false, 
                "id": 9262, 
                "name": "Suport General - Decidim Barcelona", 
                "official": false, 
                "official_level": 0, 
                "role": null, 
                "verified_organization": null
            }, 
            "body": "<p><a href=\"https://decidim.barcelona/proposals/reformar-el-carrer-freser-entre-industria-i-trinxant-davant-de-l-escola\">https://decidim.barcelona/proposals/reformar-el-carrer-freser-entre-industria-i-trinxant-davant-de-l-escola</a></p>", 
            "commentable_id": 3425, 
            "commentable_type": "Proposal", 
            "created_at": "15/04/2016 12:53:14", 
            "flagged": false, 
            "hidden": false, 
            "id": 16911, 
            "moderator_id": null, 
            "permissions": {
                "hide": false, 
                "hide_author": false, 
                "vote": false
            }, 
            "total_dislikes": 0, 
            "total_likes": 0, 
            "total_votes": 0
        }, 
        {
            "administrator_id": null, 
            "alignment": 0, 
            "ancestry": null, 
            "as": null, 
            "author": {
                "avatar_image": "https://decidim.barcelona/assets/avatar-866795c99abc33a3160d1f3fa93ada46eb75e54134e777666b9ed16215b26534.png", 
                "erased": false, 
                "hidden": false, 
                "id": 9262, 
                "name": "Suport General - Decidim Barcelona", 
                "official": false, 
                "official_level": 0, 
                "role": null, 
                "verified_organization": null
            }, 
            "body": "<p><a href=\"https://decidim.barcelona/proposals/pintar-el-pas-de-zebra-del-carrer-trinxant-amb-el-carrer-ruiz-de-padron\">https://decidim.barcelona/proposals/pintar-el-pas-de-zebra-del-carrer-trinxant-amb-el-carrer-ruiz-de-padron</a></p>", 
            "commentable_id": 3425, 
            "commentable_type": "Proposal", 
            "created_at": "15/04/2016 13:04:49", 
            "flagged": false, 
            "hidden": false, 
            "id": 16955, 
            "moderator_id": null, 
            "permissions": {
                "hide": false, 
                "hide_author": false, 
                "vote": false
            }, 
            "total_dislikes": 0, 
            "total_likes": 0, 
            "total_votes": 0
        }, 
        {
            "administrator_id": null, 
            "alignment": 0, 
            "ancestry": null, 
            "as": null, 
            "author": {
                "avatar_image": "https://decidim.barcelona/assets/avatar-866795c99abc33a3160d1f3fa93ada46eb75e54134e777666b9ed16215b26534.png", 
                "erased": false, 
                "hidden": false, 
                "id": 9262, 
                "name": "Suport General - Decidim Barcelona", 
                "official": false, 
                "official_level": 0, 
                "role": null, 
                "verified_organization": null
            }, 
            "body": "<p><a href=\"https://decidim.barcelona/proposals/mes-serveis-publics-als-carrers-i-o-parcs\">https://decidim.barcelona/proposals/mes-serveis-publics-als-carrers-i-o-parcs</a></p>", 
            "commentable_id": 3425, 
            "commentable_type": "Proposal", 
            "created_at": "16/04/2016 11:10:26", 
            "flagged": false, 
            "hidden": false, 
            "id": 17789, 
            "moderator_id": null, 
            "permissions": {
                "hide": false, 
                "hide_author": false, 
                "vote": false
            }, 
            "total_dislikes": 0, 
            "total_likes": 0, 
            "total_votes": 0
        }, 
        {
            "administrator_id": null, 
            "alignment": 0, 
            "ancestry": null, 
            "as": null, 
            "author": {
                "avatar_image": "https://decidim.barcelona/assets/avatar-866795c99abc33a3160d1f3fa93ada46eb75e54134e777666b9ed16215b26534.png", 
                "erased": false, 
                "hidden": false, 
                "id": 9262, 
                "name": "Suport General - Decidim Barcelona", 
                "official": false, 
                "official_level": 0, 
                "role": null, 
                "verified_organization": null
            }, 
            "body": "<p><a href=\"https://decidim.barcelona/proposals/dignificacio-l-espai-olof-palme\">https://decidim.barcelona/proposals/dignificacio-l-espai-olof-palme</a></p>", 
            "commentable_id": 3425, 
            "commentable_type": "Proposal", 
            "created_at": "16/04/2016 11:24:26", 
            "flagged": false, 
            "hidden": false, 
            "id": 17863, 
            "moderator_id": null, 
            "permissions": {
                "hide": false, 
                "hide_author": false, 
                "vote": false
            }, 
            "total_dislikes": 0, 
            "total_likes": 0, 
            "total_votes": 0
        }, 
        {
            "administrator_id": null, 
            "alignment": 0, 
            "ancestry": null, 
            "as": null, 
            "author": {
                "avatar_image": "https://decidim.barcelona/assets/avatar-866795c99abc33a3160d1f3fa93ada46eb75e54134e777666b9ed16215b26534.png", 
                "erased": false, 
                "hidden": false, 
                "id": 9262, 
                "name": "Suport General - Decidim Barcelona", 
                "official": false, 
                "official_level": 0, 
                "role": null, 
                "verified_organization": null
            }, 
            "body": "<p><a href=\"https://decidim.barcelona/proposals/treure-els-rosers-del-davant-de-l-escola-fluvia\">https://decidim.barcelona/proposals/treure-els-rosers-del-davant-de-l-escola-fluvia</a></p>", 
            "commentable_id": 3425, 
            "commentable_type": "Proposal", 
            "created_at": "16/04/2016 17:14:21", 
            "flagged": false, 
            "hidden": false, 
            "id": 18333, 
            "moderator_id": null, 
            "permissions": {
                "hide": false, 
                "hide_author": false, 
                "vote": false
            }, 
            "total_dislikes": 0, 
            "total_likes": 0, 
            "total_votes": 0
        }
    ], 
    "meta": {
        "current_page": 1, 
        "next_page": 2, 
        "prev_page": null, 
        "total_count": 25, 
        "total_pages": 2
    }
}