{
    "comments": [
        {
            "administrator_id": null, 
            "alignment": 1, 
            "ancestry": null, 
            "as": null, 
            "author": {
                "avatar_image": "https://decidim.barcelona/assets/avatar-866795c99abc33a3160d1f3fa93ada46eb75e54134e777666b9ed16215b26534.png", 
                "erased": false, 
                "hidden": false, 
                "id": 16620, 
                "name": "Felip Baiges", 
                "official": false, 
                "official_level": 0, 
                "role": null, 
                "verified_organization": null
            }, 
            "body": "<p>SI no fuera por el hecho que puedo alquilar una habitaci\u00f3n en mi casa a traves de Airbnb, barato, a gente de paises cuyo moneda vale poco contra el euro, normalmente muy amables, considerados, y de gran respeto para los dem\u00e1s siempre, yo no podr\u00eda pagar el alquiler al final de mes, y yo y mi familia nos hubieron desalojado hace tiempo, dejandonos en la puta calle, enfermo como estoy, y otra desastre a solucionar el Ayuntament de Barcelona. </p>", 
            "commentable_id": 3608, 
            "commentable_type": "Proposal", 
            "created_at": "01/04/2016 01:15:07", 
            "flagged": false, 
            "hidden": false, 
            "id": 7316, 
            "moderator_id": null, 
            "permissions": {
                "hide": false, 
                "hide_author": false, 
                "vote": false
            }, 
            "total_dislikes": 0, 
            "total_likes": 0, 
            "total_votes": 0
        }, 
        {
            "administrator_id": null, 
            "alignment": 1, 
            "ancestry": null, 
            "as": null, 
            "author": {
                "avatar_image": "https://decidim.barcelona/assets/avatar-866795c99abc33a3160d1f3fa93ada46eb75e54134e777666b9ed16215b26534.png", 
                "erased": false, 
                "hidden": false, 
                "id": 9029, 
                "name": "Ana Gomez De Aranda", 
                "official": false, 
                "official_level": 0, 
                "role": null, 
                "verified_organization": null
            }, 
            "body": "<p>Es un primer paso, pero insuficiente. \n<br />Restringir lo solo a un peque\u00f1o colectivo en condiciones especiales no es lo que se esperaba.\n<br />Debe haber una regulaci\u00f3n seria y hacer cumplirla pero deber\u00eda poder acceder a estas licencias cualquier particular que cumpla con la regulaci\u00f3n. \n<br />Una verdadera l\u00e1stima no haber dejado solucionado el tema definitivamente</p>", 
            "commentable_id": 3608, 
            "commentable_type": "Proposal", 
            "created_at": "02/04/2016 09:02:17", 
            "flagged": false, 
            "hidden": false, 
            "id": 7498, 
            "moderator_id": null, 
            "permissions": {
                "hide": false, 
                "hide_author": false, 
                "vote": false
            }, 
            "total_dislikes": 0, 
            "total_likes": 0, 
            "total_votes": 0
        }, 
        {
            "administrator_id": null, 
            "alignment": 0, 
            "ancestry": null, 
            "as": null, 
            "author": {
                "avatar_image": "https://decidim.barcelona/assets/avatar-866795c99abc33a3160d1f3fa93ada46eb75e54134e777666b9ed16215b26534.png", 
                "erased": true, 
                "hidden": false, 
                "id": 10183, 
                "name": null, 
                "official": false, 
                "official_level": 0, 
                "role": null, 
                "verified_organization": null
            }, 
            "body": "<p>Siempre que les de instrucciones a los turistas de civismo, seguro ellos las respetaran, por que solo vienen a conocer una ciudad. las vomiteras y juergas etc. son de personas espa\u00f1olas tambien y es una actitud que se puede controlar, con un control de civismo.\n<br />La ciudad de barcelona esta invadida de grafitis por todos lado. eso se debe controlar por dar una mala imagen a la ciudad. \n<br />Los apartamentos turisticos es la solucion para las personas espa\u00f1olas y residentes en riesgos de exclusion de la vivienda... Los hoteles solo se enriquecen y explotan a las mujeres que trabajan, haciendoles trabajar 16 habitaciones y pagando solo 800 euros y hasta menos. terminan siendo mujeres con problemas osteomusculares y nunca llegan a la jubilacion.... Eso no es Justo. &gt;En esta sociedad del siglo 21.... QUE PASA CON BARCELONA. FUERA EL MONOPOLIO! </p>", 
            "commentable_id": 3608, 
            "commentable_type": "Proposal", 
            "created_at": "03/04/2016 11:24:46", 
            "flagged": false, 
            "hidden": false, 
            "id": 7568, 
            "moderator_id": null, 
            "permissions": {
                "hide": false, 
                "hide_author": false, 
                "vote": false
            }, 
            "total_dislikes": 0, 
            "total_likes": 0, 
            "total_votes": 0
        }, 
        {
            "administrator_id": null, 
            "alignment": -1, 
            "ancestry": null, 
            "as": null, 
            "author": {
                "avatar_image": "https://decidim.barcelona/assets/avatar-866795c99abc33a3160d1f3fa93ada46eb75e54134e777666b9ed16215b26534.png", 
                "erased": false, 
                "hidden": false, 
                "id": 17365, 
                "name": "ROGER", 
                "official": false, 
                "official_level": 0, 
                "role": null, 
                "verified_organization": null
            }, 
            "body": "<p>Prou pisos turistics. Per tal que la ciutat mantingui el seu atractiu els seus habitants han de seguir vinvin-t'hi. Els 9400 pisos tur\u00edstics i els tots hotels que hi han a la ciutat son mes que suficients.</p>", 
            "commentable_id": 3608, 
            "commentable_type": "Proposal", 
            "created_at": "03/04/2016 17:57:45", 
            "flagged": false, 
            "hidden": false, 
            "id": 7605, 
            "moderator_id": null, 
            "permissions": {
                "hide": false, 
                "hide_author": false, 
                "vote": false
            }, 
            "total_dislikes": 0, 
            "total_likes": 0, 
            "total_votes": 0
        }, 
        {
            "administrator_id": null, 
            "alignment": -1, 
            "ancestry": null, 
            "as": null, 
            "author": {
                "avatar_image": "https://decidim.barcelona/assets/avatar-866795c99abc33a3160d1f3fa93ada46eb75e54134e777666b9ed16215b26534.png", 
                "erased": false, 
                "hidden": false, 
                "id": 17395, 
                "name": "anne", 
                "official": false, 
                "official_level": 0, 
                "role": null, 
                "verified_organization": null
            }, 
            "body": "<p>Aix\u00ed, no.</p>", 
            "commentable_id": 3608, 
            "commentable_type": "Proposal", 
            "created_at": "04/04/2016 10:51:48", 
            "flagged": false, 
            "hidden": false, 
            "id": 7673, 
            "moderator_id": null, 
            "permissions": {
                "hide": false, 
                "hide_author": false, 
                "vote": false
            }, 
            "total_dislikes": 0, 
            "total_likes": 0, 
            "total_votes": 0
        }, 
        {
            "administrator_id": null, 
            "alignment": -1, 
            "ancestry": null, 
            "as": null, 
            "author": {
                "avatar_image": "https://decidim.barcelona/assets/avatar-866795c99abc33a3160d1f3fa93ada46eb75e54134e777666b9ed16215b26534.png", 
                "erased": false, 
                "hidden": false, 
                "id": 18299, 
                "name": "Diegoo", 
                "official": false, 
                "official_level": 0, 
                "role": null, 
                "verified_organization": null
            }, 
            "body": "<p>Creo que si hay gente que tiene una segunda vivienda deber\u00eda alquilarle el piso a una familia para vivir aqu\u00ed, no a turistas. De esta forma nos beneficiamos todos</p>", 
            "commentable_id": 3608, 
            "commentable_type": "Proposal", 
            "created_at": "05/04/2016 10:34:59", 
            "flagged": false, 
            "hidden": false, 
            "id": 7944, 
            "moderator_id": null, 
            "permissions": {
                "hide": false, 
                "hide_author": false, 
                "vote": false
            }, 
            "total_dislikes": 0, 
            "total_likes": 0, 
            "total_votes": 0
        }, 
        {
            "administrator_id": null, 
            "alignment": 1, 
            "ancestry": null, 
            "as": null, 
            "author": {
                "avatar_image": "https://decidim.barcelona/assets/avatar-866795c99abc33a3160d1f3fa93ada46eb75e54134e777666b9ed16215b26534.png", 
                "erased": false, 
                "hidden": false, 
                "id": 20312, 
                "name": "tonis", 
                "official": false, 
                "official_level": 0, 
                "role": null, 
                "verified_organization": null
            }, 
            "body": "<p>Lo primero que tendria que hacer el ayuntamiento es confirmar que las 8.000 y pico viviendas de uso turistico que hay en su registro estan operativas o viven inquilinos con contratos de alquiler convencional o viven sus propietarios y sacaron la licencia para obtener valor a\u00f1adido pero no explotan la licencia.....\n</p>", 
            "commentable_id": 3608, 
            "commentable_type": "Proposal", 
            "created_at": "07/04/2016 15:51:53", 
            "flagged": false, 
            "hidden": false, 
            "id": 9560, 
            "moderator_id": null, 
            "permissions": {
                "hide": false, 
                "hide_author": false, 
                "vote": false
            }, 
            "total_dislikes": 0, 
            "total_likes": 0, 
            "total_votes": 0
        }
    ], 
    "meta": {
        "current_page": 4, 
        "next_page": null, 
        "prev_page": 3, 
        "total_count": 67, 
        "total_pages": 4
    }
}