{
    "comments": [
        {
            "administrator_id": null, 
            "alignment": 1, 
            "ancestry": null, 
            "as": null, 
            "author": {
                "avatar_image": "https://decidim.barcelona/assets/avatar-866795c99abc33a3160d1f3fa93ada46eb75e54134e777666b9ed16215b26534.png", 
                "erased": false, 
                "hidden": false, 
                "id": 16363, 
                "name": "GemaSSanz", 
                "official": false, 
                "official_level": 0, 
                "role": null, 
                "verified_organization": null
            }, 
            "body": "<p>perqu\u00e8 \u00e9s una oportunitat de crear, de cr\u00e8ixer, de que els nostres fills i filles adolescents gaudeixin d'un ambient tranquil, no massificat i respectu\u00f3s amb el seu proc\u00e9s d'aprenentatge i les seves emocions. On ells i elles siguin els i les protagonistes de la seva vida, amb aprenentatges significatius, relacions sanes i capacitat de gestionar les seves emocions, els seus neguits i els seus somnis.\n<br />M\u00e9s necessari que mai, un nou institut a Sagrera amb aquesta mirada respectuosa, que ser\u00e0 un guany qualitatiu per el barri i per tota la gent que hi vivim all\u00e0.</p>", 
            "commentable_id": 5032, 
            "commentable_type": "Proposal", 
            "created_at": "31/03/2016 12:57:41", 
            "flagged": false, 
            "hidden": false, 
            "id": 7166, 
            "moderator_id": null, 
            "permissions": {
                "hide": false, 
                "hide_author": false, 
                "vote": false
            }, 
            "total_dislikes": 0, 
            "total_likes": 0, 
            "total_votes": 0
        }, 
        {
            "administrator_id": null, 
            "alignment": 1, 
            "ancestry": null, 
            "as": null, 
            "author": {
                "avatar_image": "https://decidim.barcelona/assets/avatar-866795c99abc33a3160d1f3fa93ada46eb75e54134e777666b9ed16215b26534.png", 
                "erased": false, 
                "hidden": false, 
                "id": 16356, 
                "name": "Beatriz Mu\u00f1oz", 
                "official": false, 
                "official_level": 0, 
                "role": null, 
                "verified_organization": null
            }, 
            "body": "<p>Volem un institut public digne per nostres infants que puguin continuar la mateixa l\u00ednea pedag\u00f3gica que estem fem fins ara a la Escola Congres Indians.Per que aquest infants es el futur de dem\u00e0 que el volem amb valors i respecte.</p>", 
            "commentable_id": 5032, 
            "commentable_type": "Proposal", 
            "created_at": "31/03/2016 13:20:28", 
            "flagged": false, 
            "hidden": false, 
            "id": 7176, 
            "moderator_id": null, 
            "permissions": {
                "hide": false, 
                "hide_author": false, 
                "vote": false
            }, 
            "total_dislikes": 0, 
            "total_likes": 0, 
            "total_votes": 0
        }, 
        {
            "administrator_id": null, 
            "alignment": 1, 
            "ancestry": null, 
            "as": null, 
            "author": {
                "avatar_image": "https://decidim.barcelona/assets/avatar-866795c99abc33a3160d1f3fa93ada46eb75e54134e777666b9ed16215b26534.png", 
                "erased": false, 
                "hidden": false, 
                "id": 16411, 
                "name": "sgilcastro", 
                "official": false, 
                "official_level": 0, 
                "role": null, 
                "verified_organization": null
            }, 
            "body": "<p>Per un nou institut P\u00fablic al barri de La Sagrera que pugui continuar amb el projecte iniciat a l'escola Congres Indians. Hi ha manca d'indtitus al barri i no hi ha cap Institut amb aquestas caracter\u00edstiques a prop. \n<br />Seria una molt bona forma de donar continuitat a aquest projecte i poder continuar l'educaci\u00f3 dels nostres fills amb la mateixa mirada.\n<br />Per un futur millor per tots. \n<br />Gr\u00e0cies!\n</p>", 
            "commentable_id": 5032, 
            "commentable_type": "Proposal", 
            "created_at": "31/03/2016 14:48:28", 
            "flagged": false, 
            "hidden": false, 
            "id": 7202, 
            "moderator_id": null, 
            "permissions": {
                "hide": false, 
                "hide_author": false, 
                "vote": false
            }, 
            "total_dislikes": 0, 
            "total_likes": 0, 
            "total_votes": 0
        }, 
        {
            "administrator_id": null, 
            "alignment": 1, 
            "ancestry": null, 
            "as": null, 
            "author": {
                "avatar_image": "https://decidim.barcelona/assets/avatar-866795c99abc33a3160d1f3fa93ada46eb75e54134e777666b9ed16215b26534.png", 
                "erased": false, 
                "hidden": false, 
                "id": 16450, 
                "name": "javierrebollar", 
                "official": false, 
                "official_level": 0, 
                "role": null, 
                "verified_organization": null
            }, 
            "body": "<p>Es absolutamente necesario.</p>", 
            "commentable_id": 5032, 
            "commentable_type": "Proposal", 
            "created_at": "31/03/2016 16:02:28", 
            "flagged": false, 
            "hidden": false, 
            "id": 7213, 
            "moderator_id": null, 
            "permissions": {
                "hide": false, 
                "hide_author": false, 
                "vote": false
            }, 
            "total_dislikes": 0, 
            "total_likes": 0, 
            "total_votes": 0
        }, 
        {
            "administrator_id": null, 
            "alignment": 1, 
            "ancestry": null, 
            "as": null, 
            "author": {
                "avatar_image": "https://decidim.barcelona/assets/avatar-866795c99abc33a3160d1f3fa93ada46eb75e54134e777666b9ed16215b26534.png", 
                "erased": false, 
                "hidden": false, 
                "id": 16523, 
                "name": "martamauri", 
                "official": false, 
                "official_level": 0, 
                "role": null, 
                "verified_organization": null
            }, 
            "body": "<p>Volem un institut de qualitat!!!</p>", 
            "commentable_id": 5032, 
            "commentable_type": "Proposal", 
            "created_at": "31/03/2016 18:19:20", 
            "flagged": false, 
            "hidden": false, 
            "id": 7272, 
            "moderator_id": null, 
            "permissions": {
                "hide": false, 
                "hide_author": false, 
                "vote": false
            }, 
            "total_dislikes": 0, 
            "total_likes": 0, 
            "total_votes": 0
        }, 
        {
            "administrator_id": null, 
            "alignment": 1, 
            "ancestry": null, 
            "as": null, 
            "author": {
                "avatar_image": "https://decidim.barcelona/assets/avatar-866795c99abc33a3160d1f3fa93ada46eb75e54134e777666b9ed16215b26534.png", 
                "erased": false, 
                "hidden": false, 
                "id": 16529, 
                "name": "APHH", 
                "official": false, 
                "official_level": 0, 
                "role": null, 
                "verified_organization": null
            }, 
            "body": "<p>Volem donar  suport a la construccio d'un institut al barri de La Sagrera que doni continu\u00eftat al  projecte educatiu de l' escola Congr\u00e9s Indians</p>", 
            "commentable_id": 5032, 
            "commentable_type": "Proposal", 
            "created_at": "31/03/2016 18:44:42", 
            "flagged": false, 
            "hidden": false, 
            "id": 7275, 
            "moderator_id": null, 
            "permissions": {
                "hide": false, 
                "hide_author": false, 
                "vote": false
            }, 
            "total_dislikes": 0, 
            "total_likes": 0, 
            "total_votes": 0
        }, 
        {
            "administrator_id": null, 
            "alignment": 1, 
            "ancestry": null, 
            "as": null, 
            "author": {
                "avatar_image": "https://decidim.barcelona/assets/avatar-866795c99abc33a3160d1f3fa93ada46eb75e54134e777666b9ed16215b26534.png", 
                "erased": false, 
                "hidden": false, 
                "id": 16629, 
                "name": "Jeroen Smits", 
                "official": false, 
                "official_level": 0, 
                "role": null, 
                "verified_organization": null
            }, 
            "body": "<p>La escuela Congres-Indians esta creciendo muy rapido, hay que dar continuidad a esta manera de educaci\u00f3n responsable y construir un instituto que pueda seguir con la misma filosofia.\n<br />Instituto, YA!</p>", 
            "commentable_id": 5032, 
            "commentable_type": "Proposal", 
            "created_at": "01/04/2016 07:49:20", 
            "flagged": false, 
            "hidden": false, 
            "id": 7318, 
            "moderator_id": null, 
            "permissions": {
                "hide": false, 
                "hide_author": false, 
                "vote": false
            }, 
            "total_dislikes": 0, 
            "total_likes": 0, 
            "total_votes": 0
        }, 
        {
            "administrator_id": null, 
            "alignment": 1, 
            "ancestry": null, 
            "as": null, 
            "author": {
                "avatar_image": "https://decidim.barcelona/assets/avatar-866795c99abc33a3160d1f3fa93ada46eb75e54134e777666b9ed16215b26534.png", 
                "erased": true, 
                "hidden": false, 
                "id": 16845, 
                "name": null, 
                "official": false, 
                "official_level": 0, 
                "role": null, 
                "verified_organization": null
            }, 
            "body": "<p>Totalment necessari un institut al barri, insi es amb els valors de l'escola Congr\u00e9s Indians doncs molt millor </p>", 
            "commentable_id": 5032, 
            "commentable_type": "Proposal", 
            "created_at": "01/04/2016 16:24:30", 
            "flagged": false, 
            "hidden": false, 
            "id": 7434, 
            "moderator_id": null, 
            "permissions": {
                "hide": false, 
                "hide_author": false, 
                "vote": false
            }, 
            "total_dislikes": 0, 
            "total_likes": 0, 
            "total_votes": 0
        }, 
        {
            "administrator_id": null, 
            "alignment": 1, 
            "ancestry": null, 
            "as": null, 
            "author": {
                "avatar_image": "https://decidim.barcelona/assets/avatar-866795c99abc33a3160d1f3fa93ada46eb75e54134e777666b9ed16215b26534.png", 
                "erased": false, 
                "hidden": false, 
                "id": 16875, 
                "name": "Rosa Font Pallar\u00e9s", 
                "official": false, 
                "official_level": 0, 
                "role": null, 
                "verified_organization": null
            }, 
            "body": "<p>Crec necessari un institut public que doni continutat al projecte Congr\u00e9s Indians</p>", 
            "commentable_id": 5032, 
            "commentable_type": "Proposal", 
            "created_at": "01/04/2016 17:53:39", 
            "flagged": false, 
            "hidden": false, 
            "id": 7442, 
            "moderator_id": null, 
            "permissions": {
                "hide": false, 
                "hide_author": false, 
                "vote": false
            }, 
            "total_dislikes": 0, 
            "total_likes": 0, 
            "total_votes": 0
        }, 
        {
            "administrator_id": null, 
            "alignment": 1, 
            "ancestry": null, 
            "as": null, 
            "author": {
                "avatar_image": "https://decidim.barcelona/assets/avatar-866795c99abc33a3160d1f3fa93ada46eb75e54134e777666b9ed16215b26534.png", 
                "erased": false, 
                "hidden": false, 
                "id": 17240, 
                "name": "santamariari@gmail.com", 
                "official": false, 
                "official_level": 0, 
                "role": null, 
                "verified_organization": null
            }, 
            "body": "<p>una nova proposta educativa a la ciutat</p>", 
            "commentable_id": 5032, 
            "commentable_type": "Proposal", 
            "created_at": "03/04/2016 10:17:35", 
            "flagged": false, 
            "hidden": false, 
            "id": 7553, 
            "moderator_id": null, 
            "permissions": {
                "hide": false, 
                "hide_author": false, 
                "vote": false
            }, 
            "total_dislikes": 0, 
            "total_likes": 0, 
            "total_votes": 0
        }, 
        {
            "administrator_id": null, 
            "alignment": 1, 
            "ancestry": null, 
            "as": null, 
            "author": {
                "avatar_image": "https://decidim.barcelona/assets/avatar-866795c99abc33a3160d1f3fa93ada46eb75e54134e777666b9ed16215b26534.png", 
                "erased": false, 
                "hidden": false, 
                "id": 17366, 
                "name": "Eli Pacheco", 
                "official": false, 
                "official_level": 0, 
                "role": null, 
                "verified_organization": null
            }, 
            "body": "<p>Imprescindible un nou institut p\u00fablic al barri en qu\u00e8 l'acompanyament als nois i noies neixi d'una mirada profundament respectuosa vers les seves necessitats aut\u00e8ntiques i els seus processos de vida. En una etapa tan delicada de la seva vida, pensem que els nostres fills han de seguir creixent en un entorn (tan familiar com escolar) que potenci\u00ef al m\u00e0xim la seva autonomia, que validi i acompanyi totes les seves emocions i que els faciliti les eines per a poder desenvolupar els seus interessos. Perqu\u00e8, en una societat com la nostra, volem persones actives, responsables i, sobre tot, que gaudeixin d'all\u00f2 que fan.</p>", 
            "commentable_id": 5032, 
            "commentable_type": "Proposal", 
            "created_at": "03/04/2016 18:53:34", 
            "flagged": false, 
            "hidden": false, 
            "id": 7610, 
            "moderator_id": null, 
            "permissions": {
                "hide": false, 
                "hide_author": false, 
                "vote": false
            }, 
            "total_dislikes": 0, 
            "total_likes": 0, 
            "total_votes": 0
        }, 
        {
            "administrator_id": null, 
            "alignment": 1, 
            "ancestry": null, 
            "as": null, 
            "author": {
                "avatar_image": "https://decidim.barcelona/assets/avatar-866795c99abc33a3160d1f3fa93ada46eb75e54134e777666b9ed16215b26534.png", 
                "erased": false, 
                "hidden": false, 
                "id": 17546, 
                "name": "montse fraile", 
                "official": false, 
                "official_level": 0, 
                "role": null, 
                "verified_organization": null
            }, 
            "body": "<p>Volem seguiment educaci\u00f3 viva en l' institud</p>", 
            "commentable_id": 5032, 
            "commentable_type": "Proposal", 
            "created_at": "03/04/2016 22:49:05", 
            "flagged": false, 
            "hidden": false, 
            "id": 7634, 
            "moderator_id": null, 
            "permissions": {
                "hide": false, 
                "hide_author": false, 
                "vote": false
            }, 
            "total_dislikes": 0, 
            "total_likes": 0, 
            "total_votes": 0
        }, 
        {
            "administrator_id": null, 
            "alignment": 1, 
            "ancestry": null, 
            "as": null, 
            "author": {
                "avatar_image": "https://decidim.barcelona/assets/avatar-866795c99abc33a3160d1f3fa93ada46eb75e54134e777666b9ed16215b26534.png", 
                "erased": false, 
                "hidden": false, 
                "id": 17555, 
                "name": "gerard martinez", 
                "official": false, 
                "official_level": 0, 
                "role": null, 
                "verified_organization": null
            }, 
            "body": "<p>Desde que l'escola Congres-Indians va arribar a la Sagrera, ha provocat que cada any molt\u00edssimes fam\u00edlies d' altres barris es canvi\u00efn de domicili per a que els seus fills puguin rebre una educaci\u00f3 respectuosa, lliure i activa, i per aquesta rao i per la necesitat d' un nou institut al barri demanem que aquest segueixi la moderna l\u00ednea educativa del Congres-Indians</p>", 
            "commentable_id": 5032, 
            "commentable_type": "Proposal", 
            "created_at": "03/04/2016 23:13:50", 
            "flagged": false, 
            "hidden": false, 
            "id": 7635, 
            "moderator_id": null, 
            "permissions": {
                "hide": false, 
                "hide_author": false, 
                "vote": false
            }, 
            "total_dislikes": 0, 
            "total_likes": 0, 
            "total_votes": 0
        }, 
        {
            "administrator_id": null, 
            "alignment": 1, 
            "ancestry": null, 
            "as": null, 
            "author": {
                "avatar_image": "https://decidim.barcelona/assets/avatar-866795c99abc33a3160d1f3fa93ada46eb75e54134e777666b9ed16215b26534.png", 
                "erased": false, 
                "hidden": false, 
                "id": 17631, 
                "name": "mariagutis", 
                "official": false, 
                "official_level": 0, 
                "role": null, 
                "verified_organization": null
            }, 
            "body": "<p>Realment \u00e9s molt necessari planificar desde ja, la construcci\u00f3 d'un nou institut al barri.</p>", 
            "commentable_id": 5032, 
            "commentable_type": "Proposal", 
            "created_at": "04/04/2016 08:33:28", 
            "flagged": false, 
            "hidden": false, 
            "id": 7649, 
            "moderator_id": null, 
            "permissions": {
                "hide": false, 
                "hide_author": false, 
                "vote": false
            }, 
            "total_dislikes": 0, 
            "total_likes": 0, 
            "total_votes": 0
        }, 
        {
            "administrator_id": null, 
            "alignment": 1, 
            "ancestry": null, 
            "as": null, 
            "author": {
                "avatar_image": "https://decidim.barcelona/assets/avatar-866795c99abc33a3160d1f3fa93ada46eb75e54134e777666b9ed16215b26534.png", 
                "erased": false, 
                "hidden": false, 
                "id": 17711, 
                "name": "adolforaba", 
                "official": false, 
                "official_level": 0, 
                "role": null, 
                "verified_organization": null
            }, 
            "body": "<p>Es important\u00edsimo que nuestros hijos puedan continuar su educaci\u00f3n en consonancia y en continuidad con su escuela actual \"Congr\u00e9s Indians\"</p>", 
            "commentable_id": 5032, 
            "commentable_type": "Proposal", 
            "created_at": "04/04/2016 11:17:43", 
            "flagged": false, 
            "hidden": false, 
            "id": 7690, 
            "moderator_id": null, 
            "permissions": {
                "hide": false, 
                "hide_author": false, 
                "vote": false
            }, 
            "total_dislikes": 0, 
            "total_likes": 0, 
            "total_votes": 0
        }, 
        {
            "administrator_id": null, 
            "alignment": 1, 
            "ancestry": null, 
            "as": null, 
            "author": {
                "avatar_image": "https://decidim.barcelona/assets/avatar-866795c99abc33a3160d1f3fa93ada46eb75e54134e777666b9ed16215b26534.png", 
                "erased": false, 
                "hidden": false, 
                "id": 18037, 
                "name": "Ram\u00f3n", 
                "official": false, 
                "official_level": 0, 
                "role": null, 
                "verified_organization": null
            }, 
            "body": "<p>\u00c9s important per continuar la labor que actualment es fa des de la Escola P\u00fablica Congr\u00e9s Indians</p>", 
            "commentable_id": 5032, 
            "commentable_type": "Proposal", 
            "created_at": "04/04/2016 19:03:38", 
            "flagged": false, 
            "hidden": false, 
            "id": 7819, 
            "moderator_id": null, 
            "permissions": {
                "hide": false, 
                "hide_author": false, 
                "vote": false
            }, 
            "total_dislikes": 0, 
            "total_likes": 0, 
            "total_votes": 0
        }, 
        {
            "administrator_id": null, 
            "alignment": 1, 
            "ancestry": null, 
            "as": null, 
            "author": {
                "avatar_image": "https://decidim.barcelona/assets/avatar-866795c99abc33a3160d1f3fa93ada46eb75e54134e777666b9ed16215b26534.png", 
                "erased": false, 
                "hidden": false, 
                "id": 18539, 
                "name": "Nuriagaor", 
                "official": false, 
                "official_level": 0, 
                "role": null, 
                "verified_organization": null
            }, 
            "body": "<p>Es  import\u00e0nt la creaci\u00f3 d'aquest nou institut per garantir les places p\u00fabliques al barri i la continu\u00eftat del projecte educatiu innovador i de qualitat.</p>", 
            "commentable_id": 5032, 
            "commentable_type": "Proposal", 
            "created_at": "05/04/2016 15:33:28", 
            "flagged": false, 
            "hidden": false, 
            "id": 8033, 
            "moderator_id": null, 
            "permissions": {
                "hide": false, 
                "hide_author": false, 
                "vote": false
            }, 
            "total_dislikes": 0, 
            "total_likes": 0, 
            "total_votes": 0
        }, 
        {
            "administrator_id": null, 
            "alignment": 1, 
            "ancestry": null, 
            "as": null, 
            "author": {
                "avatar_image": "https://decidim.barcelona/assets/avatar-866795c99abc33a3160d1f3fa93ada46eb75e54134e777666b9ed16215b26534.png", 
                "erased": false, 
                "hidden": false, 
                "id": 18817, 
                "name": "Ariadna.16@hotmail.com", 
                "official": false, 
                "official_level": 0, 
                "role": null, 
                "verified_organization": null
            }, 
            "body": "<p>Crec qur aquesta idea no hauria de ser un fet posible sin\u00f3 un fet real. \n<br />Crear un institut que continu\u00ef amb un projecte educatiu tant caracteristic com aquest \u00e9s fonamental. L'educaci\u00f3 \u00e9s un dret; donem a les fam\u00edlies l'opci\u00f3 de triar  l'institut per metodologies amb les que aprendran els seus fills!</p>", 
            "commentable_id": 5032, 
            "commentable_type": "Proposal", 
            "created_at": "05/04/2016 21:27:29", 
            "flagged": false, 
            "hidden": false, 
            "id": 8121, 
            "moderator_id": null, 
            "permissions": {
                "hide": false, 
                "hide_author": false, 
                "vote": false
            }, 
            "total_dislikes": 0, 
            "total_likes": 0, 
            "total_votes": 0
        }, 
        {
            "administrator_id": null, 
            "alignment": 1, 
            "ancestry": null, 
            "as": null, 
            "author": {
                "avatar_image": "https://decidim.barcelona/assets/avatar-866795c99abc33a3160d1f3fa93ada46eb75e54134e777666b9ed16215b26534.png", 
                "erased": false, 
                "hidden": false, 
                "id": 18908, 
                "name": "Cecilia83", 
                "official": false, 
                "official_level": 0, 
                "role": null, 
                "verified_organization": null
            }, 
            "body": "<p>Necesitamos un instituto para dar continuidad al proyecto de Congr\u00e9s Indians por el futuro de nuestros hijos !!</p>", 
            "commentable_id": 5032, 
            "commentable_type": "Proposal", 
            "created_at": "06/04/2016 00:07:39", 
            "flagged": false, 
            "hidden": false, 
            "id": 8164, 
            "moderator_id": null, 
            "permissions": {
                "hide": false, 
                "hide_author": false, 
                "vote": false
            }, 
            "total_dislikes": 0, 
            "total_likes": 0, 
            "total_votes": 0
        }, 
        {
            "administrator_id": null, 
            "alignment": 1, 
            "ancestry": null, 
            "as": null, 
            "author": {
                "avatar_image": "https://decidim.barcelona/assets/avatar-866795c99abc33a3160d1f3fa93ada46eb75e54134e777666b9ed16215b26534.png", 
                "erased": false, 
                "hidden": false, 
                "id": 18956, 
                "name": "gdiber", 
                "official": false, 
                "official_level": 0, 
                "role": null, 
                "verified_organization": null
            }, 
            "body": "<p>Completament a favor de la proposta, \u00e9s imprescindible comen\u00e7ar el m\u00e9s aviat possible i comptar amb una bona planificaci\u00f3. Gr\u00e0cies</p>", 
            "commentable_id": 5032, 
            "commentable_type": "Proposal", 
            "created_at": "06/04/2016 09:01:16", 
            "flagged": false, 
            "hidden": false, 
            "id": 8189, 
            "moderator_id": null, 
            "permissions": {
                "hide": false, 
                "hide_author": false, 
                "vote": false
            }, 
            "total_dislikes": 0, 
            "total_likes": 0, 
            "total_votes": 0
        }
    ], 
    "meta": {
        "current_page": 2, 
        "next_page": 3, 
        "prev_page": 1, 
        "total_count": 49, 
        "total_pages": 3
    }
}