{
    "comments": [
        {
            "administrator_id": null, 
            "alignment": 1, 
            "ancestry": null, 
            "as": null, 
            "author": {
                "avatar_image": "https://decidim.barcelona/assets/avatar-866795c99abc33a3160d1f3fa93ada46eb75e54134e777666b9ed16215b26534.png", 
                "erased": false, 
                "hidden": false, 
                "id": 18986, 
                "name": "Rub\u00e9n Sapinya", 
                "official": false, 
                "official_level": 0, 
                "role": null, 
                "verified_organization": null
            }, 
            "body": "<p>Els infants de la Sagrera es mereixen un institut al seu propi barri; i les noves escoles, amb una mirada diferent vers el seu l'alumnat, es mereixen una continu\u00eftat en la seva pedagogia. </p>", 
            "commentable_id": 5032, 
            "commentable_type": "Proposal", 
            "created_at": "06/04/2016 09:53:36", 
            "flagged": false, 
            "hidden": false, 
            "id": 8216, 
            "moderator_id": null, 
            "permissions": {
                "hide": false, 
                "hide_author": false, 
                "vote": false
            }, 
            "total_dislikes": 0, 
            "total_likes": 0, 
            "total_votes": 0
        }, 
        {
            "administrator_id": null, 
            "alignment": 1, 
            "ancestry": null, 
            "as": null, 
            "author": {
                "avatar_image": "https://decidim.barcelona/assets/avatar-866795c99abc33a3160d1f3fa93ada46eb75e54134e777666b9ed16215b26534.png", 
                "erased": false, 
                "hidden": false, 
                "id": 19315, 
                "name": "Andriupsss", 
                "official": false, 
                "official_level": 0, 
                "role": null, 
                "verified_organization": null
            }, 
            "body": "<p>Els nostres infants necessiten un institut al barri per poder acollir totes aquestes places publiques i el que es m\u00e9s importan seguir amb la l\u00ednea pedag\u00f3gica de l'escola congres els indians</p>", 
            "commentable_id": 5032, 
            "commentable_type": "Proposal", 
            "created_at": "06/04/2016 15:06:06", 
            "flagged": false, 
            "hidden": false, 
            "id": 8639, 
            "moderator_id": null, 
            "permissions": {
                "hide": false, 
                "hide_author": false, 
                "vote": false
            }, 
            "total_dislikes": 0, 
            "total_likes": 0, 
            "total_votes": 0
        }, 
        {
            "administrator_id": null, 
            "alignment": 1, 
            "ancestry": null, 
            "as": null, 
            "author": {
                "avatar_image": "https://decidim.barcelona/assets/avatar-866795c99abc33a3160d1f3fa93ada46eb75e54134e777666b9ed16215b26534.png", 
                "erased": false, 
                "hidden": false, 
                "id": 12891, 
                "name": "Ayelen", 
                "official": false, 
                "official_level": 0, 
                "role": null, 
                "verified_organization": null
            }, 
            "body": "<p>El barrio necesita un nuevo instituto que pueda acoger la demanda creciente tanto de escolaridad p\u00fablica, como de calidad educativa innovadora. \n</p>", 
            "commentable_id": 5032, 
            "commentable_type": "Proposal", 
            "created_at": "06/04/2016 15:09:39", 
            "flagged": false, 
            "hidden": false, 
            "id": 8645, 
            "moderator_id": null, 
            "permissions": {
                "hide": false, 
                "hide_author": false, 
                "vote": false
            }, 
            "total_dislikes": 0, 
            "total_likes": 0, 
            "total_votes": 0
        }, 
        {
            "administrator_id": null, 
            "alignment": 1, 
            "ancestry": null, 
            "as": null, 
            "author": {
                "avatar_image": "https://decidim.barcelona/assets/avatar-866795c99abc33a3160d1f3fa93ada46eb75e54134e777666b9ed16215b26534.png", 
                "erased": false, 
                "hidden": false, 
                "id": 19406, 
                "name": "Graciela Meneguzzi", 
                "official": false, 
                "official_level": 0, 
                "role": null, 
                "verified_organization": null
            }, 
            "body": "<p>Para continuar con el proyecto y por una educaci\u00f3n viva , respetuosa, es imprescindible que los ni\u00f1os tengan todo su ciclo escolar completo dentro de esta modalidad...Si rotundo a esta petici\u00f3n</p>", 
            "commentable_id": 5032, 
            "commentable_type": "Proposal", 
            "created_at": "06/04/2016 16:58:09", 
            "flagged": false, 
            "hidden": false, 
            "id": 8711, 
            "moderator_id": null, 
            "permissions": {
                "hide": false, 
                "hide_author": false, 
                "vote": false
            }, 
            "total_dislikes": 0, 
            "total_likes": 0, 
            "total_votes": 0
        }, 
        {
            "administrator_id": null, 
            "alignment": 1, 
            "ancestry": null, 
            "as": null, 
            "author": {
                "avatar_image": "https://decidim.barcelona/assets/avatar-866795c99abc33a3160d1f3fa93ada46eb75e54134e777666b9ed16215b26534.png", 
                "erased": false, 
                "hidden": false, 
                "id": 20482, 
                "name": "Antoine", 
                "official": false, 
                "official_level": 0, 
                "role": null, 
                "verified_organization": null
            }, 
            "body": "<p>L'Escola Congr\u00e9s Indians es ja un referent entre les escoles de Barcelona!\n<br />Donem l'hi l'oportunitat de seguir m\u00e9s enll\u00e0 de primaria.\n</p>", 
            "commentable_id": 5032, 
            "commentable_type": "Proposal", 
            "created_at": "07/04/2016 18:08:10", 
            "flagged": false, 
            "hidden": false, 
            "id": 9863, 
            "moderator_id": null, 
            "permissions": {
                "hide": false, 
                "hide_author": false, 
                "vote": false
            }, 
            "total_dislikes": 0, 
            "total_likes": 0, 
            "total_votes": 0
        }, 
        {
            "administrator_id": null, 
            "alignment": 0, 
            "ancestry": null, 
            "as": null, 
            "author": {
                "avatar_image": "https://decidim.barcelona/assets/avatar-866795c99abc33a3160d1f3fa93ada46eb75e54134e777666b9ed16215b26534.png", 
                "erased": false, 
                "hidden": false, 
                "id": 22942, 
                "name": "dardo gomez", 
                "official": false, 
                "official_level": 0, 
                "role": null, 
                "verified_organization": null
            }, 
            "body": "<p>Volem un institut que continui amb el projecte que tenim a la escola congres indians.</p>", 
            "commentable_id": 5032, 
            "commentable_type": "Proposal", 
            "created_at": "09/04/2016 13:47:52", 
            "flagged": false, 
            "hidden": false, 
            "id": 12129, 
            "moderator_id": null, 
            "permissions": {
                "hide": false, 
                "hide_author": false, 
                "vote": false
            }, 
            "total_dislikes": 0, 
            "total_likes": 0, 
            "total_votes": 0
        }, 
        {
            "administrator_id": null, 
            "alignment": 1, 
            "ancestry": null, 
            "as": null, 
            "author": {
                "avatar_image": "https://decidim.barcelona/assets/avatar-866795c99abc33a3160d1f3fa93ada46eb75e54134e777666b9ed16215b26534.png", 
                "erased": false, 
                "hidden": false, 
                "id": 22942, 
                "name": "dardo gomez", 
                "official": false, 
                "official_level": 0, 
                "role": null, 
                "verified_organization": null
            }, 
            "body": "<p>Volem un institut que continui amb el projecte que tenim a la escola congres indians.</p>", 
            "commentable_id": 5032, 
            "commentable_type": "Proposal", 
            "created_at": "09/04/2016 13:48:19", 
            "flagged": false, 
            "hidden": false, 
            "id": 12131, 
            "moderator_id": null, 
            "permissions": {
                "hide": false, 
                "hide_author": false, 
                "vote": false
            }, 
            "total_dislikes": 0, 
            "total_likes": 0, 
            "total_votes": 0
        }, 
        {
            "administrator_id": null, 
            "alignment": 1, 
            "ancestry": null, 
            "as": "organization", 
            "author": {
                "avatar_image": "https://decidim.barcelona/assets/avatar-866795c99abc33a3160d1f3fa93ada46eb75e54134e777666b9ed16215b26534.png", 
                "erased": false, 
                "hidden": false, 
                "id": 13501, 
                "name": "sherimar", 
                "official": false, 
                "official_level": 0, 
                "role": "organization", 
                "verified_organization": false
            }, 
            "body": "<p>Completament d'acord. Necessitem escoles per els nostres fills</p>", 
            "commentable_id": 5032, 
            "commentable_type": "Proposal", 
            "created_at": "09/04/2016 23:38:48", 
            "flagged": false, 
            "hidden": false, 
            "id": 12775, 
            "moderator_id": null, 
            "permissions": {
                "hide": false, 
                "hide_author": false, 
                "vote": false
            }, 
            "total_dislikes": 0, 
            "total_likes": 0, 
            "total_votes": 0
        }, 
        {
            "administrator_id": null, 
            "alignment": 0, 
            "ancestry": null, 
            "as": null, 
            "author": {
                "avatar_image": "https://decidim.barcelona/assets/avatar-866795c99abc33a3160d1f3fa93ada46eb75e54134e777666b9ed16215b26534.png", 
                "erased": false, 
                "hidden": false, 
                "id": 9262, 
                "name": "Suport General - Decidim Barcelona", 
                "official": false, 
                "official_level": 0, 
                "role": null, 
                "verified_organization": null
            }, 
            "body": "<p><a href=\"https://decidim.barcelona/proposals/planificar-nous-instituts-publics-a-sant-andreu-i-la-sagrera\">https://decidim.barcelona/proposals/planificar-nous-instituts-publics-a-sant-andreu-i-la-sagrera</a></p>", 
            "commentable_id": 5032, 
            "commentable_type": "Proposal", 
            "created_at": "14/04/2016 13:10:09", 
            "flagged": false, 
            "hidden": false, 
            "id": 15552, 
            "moderator_id": null, 
            "permissions": {
                "hide": false, 
                "hide_author": false, 
                "vote": false
            }, 
            "total_dislikes": 0, 
            "total_likes": 0, 
            "total_votes": 0
        }
    ], 
    "meta": {
        "current_page": 3, 
        "next_page": null, 
        "prev_page": 2, 
        "total_count": 49, 
        "total_pages": 3
    }
}