{
    "comments": [
        {
            "administrator_id": null, 
            "alignment": 0, 
            "ancestry": null, 
            "as": null, 
            "author": {
                "avatar_image": "https://decidim.barcelona/assets/avatar-866795c99abc33a3160d1f3fa93ada46eb75e54134e777666b9ed16215b26534.png", 
                "erased": false, 
                "hidden": false, 
                "id": 13453, 
                "name": "Cecilia Geuna", 
                "official": false, 
                "official_level": 0, 
                "role": null, 
                "verified_organization": null
            }, 
            "body": "<p>Me parece una verg\u00fcenza que una ciudad como Barcelona con un potencial para ser una de las m\u00e1s importantes de Europa, tenga un d\u00e9ficit tan importante en educaci\u00f3n! Como es posible que falten escuelas para que los ni\u00f1os aprendan lo necesario para tener un futuro digno, tuvieron mucho tiempo para crear y levantar institutos en  Poblenou y no pasar por el percal de estar otra vez en barracones .... Es vergonzoso, hay que pensar m\u00e1s en los ni\u00f1os ......</p>", 
            "commentable_id": 5466, 
            "commentable_type": "Proposal", 
            "created_at": "17/03/2016 16:10:25", 
            "flagged": false, 
            "hidden": false, 
            "id": 5546, 
            "moderator_id": null, 
            "permissions": {
                "hide": false, 
                "hide_author": false, 
                "vote": false
            }, 
            "total_dislikes": 0, 
            "total_likes": 3, 
            "total_votes": 3
        }, 
        {
            "administrator_id": null, 
            "alignment": 1, 
            "ancestry": null, 
            "as": null, 
            "author": {
                "avatar_image": "https://decidim.barcelona/assets/avatar-866795c99abc33a3160d1f3fa93ada46eb75e54134e777666b9ed16215b26534.png", 
                "erased": false, 
                "hidden": false, 
                "id": 13681, 
                "name": "euP9", 
                "official": false, 
                "official_level": 0, 
                "role": null, 
                "verified_organization": null
            }, 
            "body": "<p>llevamos a\u00f1os pidiendo la abertura de un nuevo instutito en poble nou a ultima hora se decide tirar adrlante este ptoyecto ennun parking, que aun estara funcionando, sin un espacio adecuado para educacion fisica sin comedor sin biblioteca sin espacios basicos para los jovenes de 12 a\u00f1os que cadecen de espacios, publicos en el barrio....como minimo un instituto decente estaria bien!\n<br />Es injusto para las familias, es en contra de los derechos de los ni\u00f1os y  de los maestros que tendran que hacer 1001 malabares para que sus alumnos aprendan y valoren el proyecto...</p>", 
            "commentable_id": 5466, 
            "commentable_type": "Proposal", 
            "created_at": "17/03/2016 16:48:42", 
            "flagged": false, 
            "hidden": false, 
            "id": 5582, 
            "moderator_id": null, 
            "permissions": {
                "hide": false, 
                "hide_author": false, 
                "vote": false
            }, 
            "total_dislikes": 0, 
            "total_likes": 3, 
            "total_votes": 3
        }, 
        {
            "administrator_id": null, 
            "alignment": 1, 
            "ancestry": null, 
            "as": null, 
            "author": {
                "avatar_image": "https://decidim.barcelona/assets/avatar-866795c99abc33a3160d1f3fa93ada46eb75e54134e777666b9ed16215b26534.png", 
                "erased": false, 
                "hidden": false, 
                "id": 13477, 
                "name": "Montse Yeste Campos ", 
                "official": false, 
                "official_level": 0, 
                "role": null, 
                "verified_organization": null
            }, 
            "body": "<p>Per un ensenyament DIGNE IES Maria Espinalt \n<br />Em sembla una injust\u00edcia que despr\u00e9s d'haver passat 5 anys en barracons provisionals a la prim\u00e0ria, se'ns torni a oferir un institut en barracons tamb\u00e9, amb un m\u00ednim de dos anys, i sense equipamenrs iguals als altres instituts del barri. Futur institut Maria Espinalt, Poble Nou, amb bon projecte i ganes, per\u00f2 amb unes rid\u00edcules infraestructures. Torno a escriure el comentari,  perqu\u00e8 el previ ha sortit en contra i estic completament a favor.  Si us plau,  mireu aquesta prioritat pels nostres fills.  \u00c9s un dret a l'educaci\u00f3 de qualitat\n</p>", 
            "commentable_id": 5466, 
            "commentable_type": "Proposal", 
            "created_at": "17/03/2016 19:15:53", 
            "flagged": false, 
            "hidden": false, 
            "id": 5637, 
            "moderator_id": null, 
            "permissions": {
                "hide": false, 
                "hide_author": false, 
                "vote": false
            }, 
            "total_dislikes": 0, 
            "total_likes": 2, 
            "total_votes": 2
        }, 
        {
            "administrator_id": null, 
            "alignment": 1, 
            "ancestry": null, 
            "as": null, 
            "author": {
                "avatar_image": "https://decidim.barcelona/assets/avatar-866795c99abc33a3160d1f3fa93ada46eb75e54134e777666b9ed16215b26534.png", 
                "erased": false, 
                "hidden": false, 
                "id": 13811, 
                "name": "Miquel A.", 
                "official": false, 
                "official_level": 0, 
                "role": null, 
                "verified_organization": null
            }, 
            "body": "<p>El nostre fill fa P4 a l\u00b4escola Fluvi\u00e0, per\u00f3 no resta la nostra indignaci\u00f3. Desitgem que els joves que han de comen\u00e7ar el proper curs tinguin els mateixos drets que els que aniran en el futur.\n</p>", 
            "commentable_id": 5466, 
            "commentable_type": "Proposal", 
            "created_at": "17/03/2016 23:03:09", 
            "flagged": false, 
            "hidden": false, 
            "id": 5697, 
            "moderator_id": null, 
            "permissions": {
                "hide": false, 
                "hide_author": false, 
                "vote": false
            }, 
            "total_dislikes": 0, 
            "total_likes": 2, 
            "total_votes": 2
        }, 
        {
            "administrator_id": null, 
            "alignment": 1, 
            "ancestry": null, 
            "as": null, 
            "author": {
                "avatar_image": "https://decidim.barcelona/assets/avatar-866795c99abc33a3160d1f3fa93ada46eb75e54134e777666b9ed16215b26534.png", 
                "erased": false, 
                "hidden": false, 
                "id": 13793, 
                "name": "MDT Montse Domingo", 
                "official": false, 
                "official_level": 0, 
                "role": null, 
                "verified_organization": null
            }, 
            "body": "<p>Es imprescindible una bona educaci\u00f3 en condicions si volem un futur prometedor per tots.  El que demanem \u00e9s viable.  Les condicions adequades s'ha  d'assegurar. Qu\u00e8 es necessita: m\u00e9s m\u00f2duls, m\u00e9s equipaments, entorn agradable (no soroll d'obres, no contaminaci\u00f3 per estar dins d'un parking,...). El projecte presentat per l'equip de direcci\u00f3 \u00e9s molt engrescador per\u00f2 es requereix que s'alliberin de la seva tasca diaria per poder acabar de preparar un projecte tant important com \u00e9s un nou institut. En definitiva, encara teniu l'oportunitat de posar m\u00e9s recursos all\u00e0 on toca i \u00e9s a l'educaci\u00f3 dels nostres fills.</p>", 
            "commentable_id": 5466, 
            "commentable_type": "Proposal", 
            "created_at": "19/03/2016 07:33:52", 
            "flagged": false, 
            "hidden": false, 
            "id": 5863, 
            "moderator_id": null, 
            "permissions": {
                "hide": false, 
                "hide_author": false, 
                "vote": false
            }, 
            "total_dislikes": 0, 
            "total_likes": 1, 
            "total_votes": 1
        }, 
        {
            "administrator_id": null, 
            "alignment": 1, 
            "ancestry": null, 
            "as": null, 
            "author": {
                "avatar_image": "https://decidim.barcelona/assets/avatar-866795c99abc33a3160d1f3fa93ada46eb75e54134e777666b9ed16215b26534.png", 
                "erased": false, 
                "hidden": false, 
                "id": 12538, 
                "name": "M\u00aaJose", 
                "official": false, 
                "official_level": 0, 
                "role": null, 
                "verified_organization": null
            }, 
            "body": "<p>Como un d\u00eca dijo Albert Einstein( Hay una fuerza motriz m\u00e1s poderosa que el vapor, la electricidad y la energ\u00eda at\u00f3mica: la voluntad) , si no se tiene voluntad para hacer las cosas bien, apaga y v\u00e0monos. Mam\u00e1 de una alumna del CEIP Fluvia.</p>", 
            "commentable_id": 5466, 
            "commentable_type": "Proposal", 
            "created_at": "22/03/2016 10:43:04", 
            "flagged": false, 
            "hidden": false, 
            "id": 6230, 
            "moderator_id": null, 
            "permissions": {
                "hide": false, 
                "hide_author": false, 
                "vote": false
            }, 
            "total_dislikes": 0, 
            "total_likes": 0, 
            "total_votes": 0
        }, 
        {
            "administrator_id": null, 
            "alignment": 0, 
            "ancestry": null, 
            "as": null, 
            "author": {
                "avatar_image": "https://decidim.barcelona/assets/avatar-866795c99abc33a3160d1f3fa93ada46eb75e54134e777666b9ed16215b26534.png", 
                "erased": false, 
                "hidden": false, 
                "id": 9262, 
                "name": "Suport General - Decidim Barcelona", 
                "official": false, 
                "official_level": 0, 
                "role": null, 
                "verified_organization": null
            }, 
            "body": "<p><a href=\"https://decidim.barcelona/proposals/promoure-dos-nous-instituts-de-secundaria-al-poblenou-i-ampliar-i-o-reformar-les-escoles-de-primaria-marbella-poblenou-i-la-pau-i-l-institut-rambla-prim\">https://decidim.barcelona/proposals/promoure-dos-nous-instituts-de-secundaria-al-poblenou-i-ampliar-i-o-reformar-les-escoles-de-primaria-marbella-poblenou-i-la-pau-i-l-institut-rambla-prim</a></p>", 
            "commentable_id": 5466, 
            "commentable_type": "Proposal", 
            "created_at": "14/04/2016 13:51:58", 
            "flagged": false, 
            "hidden": false, 
            "id": 15668, 
            "moderator_id": null, 
            "permissions": {
                "hide": false, 
                "hide_author": false, 
                "vote": false
            }, 
            "total_dislikes": 0, 
            "total_likes": 0, 
            "total_votes": 0
        }
    ], 
    "meta": {
        "current_page": 2, 
        "next_page": null, 
        "prev_page": 1, 
        "total_count": 27, 
        "total_pages": 2
    }
}