{
    "comments": [
        {
            "administrator_id": null, 
            "alignment": 1, 
            "ancestry": null, 
            "as": null, 
            "author": {
                "avatar_image": "https://decidim.barcelona/assets/avatar-866795c99abc33a3160d1f3fa93ada46eb75e54134e777666b9ed16215b26534.png", 
                "erased": false, 
                "hidden": false, 
                "id": 14699, 
                "name": "Mireia Boixadera Vendrell", 
                "official": false, 
                "official_level": 0, 
                "role": null, 
                "verified_organization": null
            }, 
            "body": "<p>Per manca d'espai els nens dels equips de waterpolo del CN Poblenou han d'anar a entrenar a piscina de St Adri\u00e0. Els equips que entrenen a Can Felipa ho fan utilitzant nom\u00e9s 2 o 3 carrils!! El barri necessita una piscina en condicions on el CN Poblenou pugui entrenar i jugar partits oficials en condicions (i amb unes grades c\u00f2modes i accessibles perqu\u00e8 tots els ve\u00efns hi puguin accedir)\n</p>", 
            "commentable_id": 6396, 
            "commentable_type": "Proposal", 
            "created_at": "22/03/2016 16:41:27", 
            "flagged": false, 
            "hidden": false, 
            "id": 6265, 
            "moderator_id": null, 
            "permissions": {
                "hide": false, 
                "hide_author": false, 
                "vote": false
            }, 
            "total_dislikes": 1, 
            "total_likes": 7, 
            "total_votes": 8
        }, 
        {
            "administrator_id": null, 
            "alignment": 1, 
            "ancestry": null, 
            "as": null, 
            "author": {
                "avatar_image": "https://decidim.barcelona/assets/avatar-866795c99abc33a3160d1f3fa93ada46eb75e54134e777666b9ed16215b26534.png", 
                "erased": false, 
                "hidden": false, 
                "id": 14723, 
                "name": "SusanaMartinezG", 
                "official": false, 
                "official_level": 0, 
                "role": null, 
                "verified_organization": null
            }, 
            "body": "<p>No pot ser que amb la demanda que hi ha a barri per utilitzar la piscina, nom\u00e9s en tenim el Can Felipa. Jo fa anys em vaig esborrar precisament per aquest motiu. la sobre massificaci\u00f3</p>", 
            "commentable_id": 6396, 
            "commentable_type": "Proposal", 
            "created_at": "22/03/2016 17:37:13", 
            "flagged": false, 
            "hidden": false, 
            "id": 6282, 
            "moderator_id": null, 
            "permissions": {
                "hide": false, 
                "hide_author": false, 
                "vote": false
            }, 
            "total_dislikes": 0, 
            "total_likes": 6, 
            "total_votes": 6
        }, 
        {
            "administrator_id": null, 
            "alignment": 1, 
            "ancestry": null, 
            "as": null, 
            "author": {
                "avatar_image": "https://decidim.barcelona/assets/avatar-866795c99abc33a3160d1f3fa93ada46eb75e54134e777666b9ed16215b26534.png", 
                "erased": false, 
                "hidden": false, 
                "id": 14752, 
                "name": "Bidu", 
                "official": false, 
                "official_level": 0, 
                "role": null, 
                "verified_organization": null
            }, 
            "body": "<p>El barrio del Poble Nou hace a\u00f1os que necesita un complejo deportivo encarecidamente sobretodo a lo que deportes de agua se refiere, es un barrio que creci\u00f3 mucho en cuanto a nueva  poblaci\u00f3n. prueba de ello es la construcci\u00f3n de varios colegios de primaria y secundaria para dar acogida a los nuevos residentes pero en cuanto a instalaciones deportivas no se ha construido nada. La obsoleta piscina de Can Felipa con 6000 abonados, un club de waterpolo y una secci\u00f3n de sincronizada se ha quedado totalmente desfasada.</p>", 
            "commentable_id": 6396, 
            "commentable_type": "Proposal", 
            "created_at": "22/03/2016 20:21:03", 
            "flagged": false, 
            "hidden": false, 
            "id": 6299, 
            "moderator_id": null, 
            "permissions": {
                "hide": false, 
                "hide_author": false, 
                "vote": false
            }, 
            "total_dislikes": 0, 
            "total_likes": 7, 
            "total_votes": 7
        }, 
        {
            "administrator_id": null, 
            "alignment": 1, 
            "ancestry": null, 
            "as": null, 
            "author": {
                "avatar_image": "https://decidim.barcelona/assets/avatar-866795c99abc33a3160d1f3fa93ada46eb75e54134e777666b9ed16215b26534.png", 
                "erased": false, 
                "hidden": false, 
                "id": 14766, 
                "name": "Susana Guti\u00e9rrez", 
                "official": false, 
                "official_level": 0, 
                "role": null, 
                "verified_organization": null
            }, 
            "body": "<p>La necesidad de un nuevo complejo deportivo al barrio es fundamental, este barrio paso de ser un barrio industrial a un barrio urbano creciendo en nuevas viviendas pero no as\u00ed en instalaciones deportivas, la piscina de Can Felipa no puede ofrecer la creciente demanda de la nueva poblaci\u00f3n adem\u00e1s de estar totalmente obsoleta, de poco sirve que se promocione el deporte si luego no hay instalaciones para practicarlo. </p>", 
            "commentable_id": 6396, 
            "commentable_type": "Proposal", 
            "created_at": "22/03/2016 20:51:41", 
            "flagged": false, 
            "hidden": false, 
            "id": 6300, 
            "moderator_id": null, 
            "permissions": {
                "hide": false, 
                "hide_author": false, 
                "vote": false
            }, 
            "total_dislikes": 0, 
            "total_likes": 8, 
            "total_votes": 8
        }, 
        {
            "administrator_id": null, 
            "alignment": 1, 
            "ancestry": null, 
            "as": null, 
            "author": {
                "avatar_image": "https://decidim.barcelona/assets/avatar-866795c99abc33a3160d1f3fa93ada46eb75e54134e777666b9ed16215b26534.png", 
                "erased": false, 
                "hidden": false, 
                "id": 14776, 
                "name": "Marisa Ba\u00f1uls", 
                "official": false, 
                "official_level": 0, 
                "role": null, 
                "verified_organization": null
            }, 
            "body": "<p>Apostem per instal\u2022lacions adequades, per dotar els barris de Barcelona de llocs d\u2019oci sa.\n<br />L'activitat f\u00edsica i l'esport s\u00f3n una part essencial de la cultura.\n<br />Si ens cal una piscina fem-la !!!\n</p>", 
            "commentable_id": 6396, 
            "commentable_type": "Proposal", 
            "created_at": "22/03/2016 21:19:11", 
            "flagged": false, 
            "hidden": false, 
            "id": 6303, 
            "moderator_id": null, 
            "permissions": {
                "hide": false, 
                "hide_author": false, 
                "vote": false
            }, 
            "total_dislikes": 0, 
            "total_likes": 5, 
            "total_votes": 5
        }, 
        {
            "administrator_id": null, 
            "alignment": 1, 
            "ancestry": null, 
            "as": null, 
            "author": {
                "avatar_image": "https://decidim.barcelona/assets/avatar-866795c99abc33a3160d1f3fa93ada46eb75e54134e777666b9ed16215b26534.png", 
                "erased": false, 
                "hidden": false, 
                "id": 14785, 
                "name": "davidgarcia", 
                "official": false, 
                "official_level": 0, 
                "role": null, 
                "verified_organization": null
            }, 
            "body": "<p>Que millor inversio que donar facilitats per fer esport, pels nostres fills es donar-lis salut i bons habits per a un futur</p>", 
            "commentable_id": 6396, 
            "commentable_type": "Proposal", 
            "created_at": "22/03/2016 22:17:34", 
            "flagged": false, 
            "hidden": false, 
            "id": 6307, 
            "moderator_id": null, 
            "permissions": {
                "hide": false, 
                "hide_author": false, 
                "vote": false
            }, 
            "total_dislikes": 0, 
            "total_likes": 4, 
            "total_votes": 4
        }, 
        {
            "administrator_id": null, 
            "alignment": 1, 
            "ancestry": null, 
            "as": null, 
            "author": {
                "avatar_image": "https://decidim.barcelona/assets/avatar-866795c99abc33a3160d1f3fa93ada46eb75e54134e777666b9ed16215b26534.png", 
                "erased": false, 
                "hidden": false, 
                "id": 14802, 
                "name": "mandorral", 
                "official": false, 
                "official_level": 0, 
                "role": null, 
                "verified_organization": null
            }, 
            "body": "<p>El barri necessita una nova piscina que permeti donar resposta a tota la demanda que hi ha.</p>", 
            "commentable_id": 6396, 
            "commentable_type": "Proposal", 
            "created_at": "22/03/2016 23:56:20", 
            "flagged": false, 
            "hidden": false, 
            "id": 6354, 
            "moderator_id": null, 
            "permissions": {
                "hide": false, 
                "hide_author": false, 
                "vote": false
            }, 
            "total_dislikes": 0, 
            "total_likes": 4, 
            "total_votes": 4
        }, 
        {
            "administrator_id": null, 
            "alignment": 1, 
            "ancestry": null, 
            "as": null, 
            "author": {
                "avatar_image": "https://decidim.barcelona/assets/avatar-866795c99abc33a3160d1f3fa93ada46eb75e54134e777666b9ed16215b26534.png", 
                "erased": false, 
                "hidden": false, 
                "id": 14826, 
                "name": "Roger Poblenou", 
                "official": false, 
                "official_level": 0, 
                "role": null, 
                "verified_organization": null
            }, 
            "body": "<p>Des de fa anys cal fer cua moltes hores abans de que obrin el pla\u00e7 d'inscripci\u00f3 per apuntar els nens als cursos de nataci\u00f3 de Can Felipa i \u00e9s molt dif\u00edcil aconseguir horaris que ens vagin b\u00e9. Molts nens han d'anar a piscines d'altres barris com la de l'Estaci\u00f3 del Nord amb el que aix\u00f2 suposa per les families. Altres families hem acabat per no apuntar els fills a piscina...\n</p>", 
            "commentable_id": 6396, 
            "commentable_type": "Proposal", 
            "created_at": "23/03/2016 09:40:46", 
            "flagged": false, 
            "hidden": false, 
            "id": 6375, 
            "moderator_id": null, 
            "permissions": {
                "hide": false, 
                "hide_author": false, 
                "vote": false
            }, 
            "total_dislikes": 0, 
            "total_likes": 2, 
            "total_votes": 2
        }, 
        {
            "administrator_id": null, 
            "alignment": 1, 
            "ancestry": null, 
            "as": null, 
            "author": {
                "avatar_image": "https://decidim.barcelona/assets/avatar-866795c99abc33a3160d1f3fa93ada46eb75e54134e777666b9ed16215b26534.png", 
                "erased": false, 
                "hidden": false, 
                "id": 14707, 
                "name": "Francesc Xavier Carbonell Sanchez", 
                "official": false, 
                "official_level": 0, 
                "role": null, 
                "verified_organization": null
            }, 
            "body": "<p>Des de fa sis anys el meu fill practica el waterpolo. S'ha format en el Poblenou i anteriorment havia fet cursets de nataci\u00f3. Sempre hem tingut problemes d'espai per entrenar, perqu\u00e8 s'havia de compartir la piscina amb els cursets i els socis que volen nadar. Es va presentar la sol\u00b7licitud d'ampliaci\u00f3 a l'Institut Barcelona Esports per\u00f2 no va ser acceptada. La soluci\u00f3 ha estat anar a entrenar al CEM Bes\u00f2s, es a dir, fora del barri. Des de fa tres anys hi ha la secci\u00f3 de nataci\u00f3 sincronitzada que evidentment pateix el mateix problema que el waterpolo. Mirem a la resta de clubs de Barcelona i tots gaudeixen d'unes instal\u00b7lacions adequades per fer cursets, activitats aqu\u00e0tiques, i competici\u00f3. Som l'\u00fanic club que no disposem d'espai per poder entrenar ens unes condicions raonables. En el seu moment s'havia d'haver fet la piscina al CEM La Mar Bella per\u00f2 finalment no es va fer. Al costat mateix del CEM hi ha una explanada for\u00e7a gran a on es podria fer una piscina.</p>", 
            "commentable_id": 6396, 
            "commentable_type": "Proposal", 
            "created_at": "23/03/2016 10:28:02", 
            "flagged": false, 
            "hidden": false, 
            "id": 6376, 
            "moderator_id": null, 
            "permissions": {
                "hide": false, 
                "hide_author": false, 
                "vote": false
            }, 
            "total_dislikes": 0, 
            "total_likes": 3, 
            "total_votes": 3
        }, 
        {
            "administrator_id": null, 
            "alignment": 1, 
            "ancestry": null, 
            "as": null, 
            "author": {
                "avatar_image": "https://decidim.barcelona/assets/avatar-866795c99abc33a3160d1f3fa93ada46eb75e54134e777666b9ed16215b26534.png", 
                "erased": false, 
                "hidden": false, 
                "id": 14702, 
                "name": "Lidia GISPERT ", 
                "official": false, 
                "official_level": 0, 
                "role": null, 
                "verified_organization": null
            }, 
            "body": "<p>Per manca  d'espai , no hi cabem, els nens de waterpolo An de entrenar en altre piscina ( a Sant Adri\u00e0) no tenim bones instal\u00b7lacions , no hi han carrils per entrenar 1o2. Per favor , fem-ho per els nens i per la gent del barri.</p>", 
            "commentable_id": 6396, 
            "commentable_type": "Proposal", 
            "created_at": "23/03/2016 14:47:05", 
            "flagged": false, 
            "hidden": false, 
            "id": 6391, 
            "moderator_id": null, 
            "permissions": {
                "hide": false, 
                "hide_author": false, 
                "vote": false
            }, 
            "total_dislikes": 0, 
            "total_likes": 1, 
            "total_votes": 1
        }, 
        {
            "administrator_id": null, 
            "alignment": 0, 
            "ancestry": null, 
            "as": null, 
            "author": {
                "avatar_image": "https://decidim.barcelona/assets/avatar-866795c99abc33a3160d1f3fa93ada46eb75e54134e777666b9ed16215b26534.png", 
                "erased": false, 
                "hidden": false, 
                "id": 14702, 
                "name": "Lidia GISPERT ", 
                "official": false, 
                "official_level": 0, 
                "role": null, 
                "verified_organization": null
            }, 
            "body": "<p>Necessitem mes espai , fem-ho per els nostres nens i per tota la gent del barri i defora del barri. No tenim carrils per entrenar 1o2 a lo poc.grades mes grans i poder fer partits de competici\u00f3 . Fem gran l'esport i fem gran el barri.</p>", 
            "commentable_id": 6396, 
            "commentable_type": "Proposal", 
            "created_at": "23/03/2016 14:52:44", 
            "flagged": false, 
            "hidden": false, 
            "id": 6392, 
            "moderator_id": null, 
            "permissions": {
                "hide": false, 
                "hide_author": false, 
                "vote": false
            }, 
            "total_dislikes": 0, 
            "total_likes": 2, 
            "total_votes": 2
        }, 
        {
            "administrator_id": null, 
            "alignment": 1, 
            "ancestry": null, 
            "as": null, 
            "author": {
                "avatar_image": "https://decidim.barcelona/assets/avatar-866795c99abc33a3160d1f3fa93ada46eb75e54134e777666b9ed16215b26534.png", 
                "erased": false, 
                "hidden": false, 
                "id": 14702, 
                "name": "Lidia GISPERT ", 
                "official": false, 
                "official_level": 0, 
                "role": null, 
                "verified_organization": null
            }, 
            "body": "<p>Estic a favor</p>", 
            "commentable_id": 6396, 
            "commentable_type": "Proposal", 
            "created_at": "23/03/2016 14:56:36", 
            "flagged": false, 
            "hidden": false, 
            "id": 6396, 
            "moderator_id": null, 
            "permissions": {
                "hide": false, 
                "hide_author": false, 
                "vote": false
            }, 
            "total_dislikes": 0, 
            "total_likes": 0, 
            "total_votes": 0
        }, 
        {
            "administrator_id": null, 
            "alignment": 0, 
            "ancestry": null, 
            "as": null, 
            "author": {
                "avatar_image": "https://decidim.barcelona/assets/avatar-866795c99abc33a3160d1f3fa93ada46eb75e54134e777666b9ed16215b26534.png", 
                "erased": false, 
                "hidden": false, 
                "id": 14903, 
                "name": "Sandra Domenech", 
                "official": false, 
                "official_level": 0, 
                "role": null, 
                "verified_organization": null
            }, 
            "body": "<p>En general tot el centre esportiu Can Felipa fa pena i precisament els socis no paguem poc</p>", 
            "commentable_id": 6396, 
            "commentable_type": "Proposal", 
            "created_at": "23/03/2016 17:40:29", 
            "flagged": false, 
            "hidden": false, 
            "id": 6410, 
            "moderator_id": null, 
            "permissions": {
                "hide": false, 
                "hide_author": false, 
                "vote": false
            }, 
            "total_dislikes": 0, 
            "total_likes": 0, 
            "total_votes": 0
        }, 
        {
            "administrator_id": null, 
            "alignment": 1, 
            "ancestry": null, 
            "as": null, 
            "author": {
                "avatar_image": "https://decidim.barcelona/assets/avatar-866795c99abc33a3160d1f3fa93ada46eb75e54134e777666b9ed16215b26534.png", 
                "erased": false, 
                "hidden": false, 
                "id": 14931, 
                "name": "jmcabezali", 
                "official": false, 
                "official_level": 0, 
                "role": null, 
                "verified_organization": null
            }, 
            "body": "<p>Es una iniciativa genial i  m\u00e9s pensant en la canalla</p>", 
            "commentable_id": 6396, 
            "commentable_type": "Proposal", 
            "created_at": "23/03/2016 20:45:35", 
            "flagged": false, 
            "hidden": false, 
            "id": 6420, 
            "moderator_id": null, 
            "permissions": {
                "hide": false, 
                "hide_author": false, 
                "vote": false
            }, 
            "total_dislikes": 0, 
            "total_likes": 0, 
            "total_votes": 0
        }, 
        {
            "administrator_id": null, 
            "alignment": 1, 
            "ancestry": null, 
            "as": null, 
            "author": {
                "avatar_image": "https://decidim.barcelona/assets/avatar-866795c99abc33a3160d1f3fa93ada46eb75e54134e777666b9ed16215b26534.png", 
                "erased": false, 
                "hidden": false, 
                "id": 14937, 
                "name": "junaranjo41976", 
                "official": false, 
                "official_level": 0, 
                "role": null, 
                "verified_organization": null
            }, 
            "body": "<p>Un encert la proposta. Necessitem gaudir d'un espai de desconnexi\u00f3 emocional i gaudir de la llibertat de pensament</p>", 
            "commentable_id": 6396, 
            "commentable_type": "Proposal", 
            "created_at": "23/03/2016 20:56:49", 
            "flagged": false, 
            "hidden": false, 
            "id": 6424, 
            "moderator_id": null, 
            "permissions": {
                "hide": false, 
                "hide_author": false, 
                "vote": false
            }, 
            "total_dislikes": 0, 
            "total_likes": 0, 
            "total_votes": 0
        }, 
        {
            "administrator_id": null, 
            "alignment": 1, 
            "ancestry": null, 
            "as": null, 
            "author": {
                "avatar_image": "https://decidim.barcelona/assets/avatar-866795c99abc33a3160d1f3fa93ada46eb75e54134e777666b9ed16215b26534.png", 
                "erased": false, 
                "hidden": false, 
                "id": 14849, 
                "name": "RomanBC", 
                "official": false, 
                "official_level": 0, 
                "role": null, 
                "verified_organization": null
            }, 
            "body": "<p>Es necesario un centro deportivo a la altura de las necesidades y sobretodo una zona de aguas para diferentes actividades. Ademas es necesaria una piscina de 50 m que garanticen un futuro deportivo en esta disciplina ya que estas se encuentran en otros barrios y actualmente la gente se api\u00f1an en piscinas de 25 m en el centro de Can Felipa, Cem Maresme y Avda. Icaria. </p>", 
            "commentable_id": 6396, 
            "commentable_type": "Proposal", 
            "created_at": "24/03/2016 08:06:15", 
            "flagged": false, 
            "hidden": false, 
            "id": 6436, 
            "moderator_id": null, 
            "permissions": {
                "hide": false, 
                "hide_author": false, 
                "vote": false
            }, 
            "total_dislikes": 0, 
            "total_likes": 0, 
            "total_votes": 0
        }, 
        {
            "administrator_id": null, 
            "alignment": 1, 
            "ancestry": null, 
            "as": null, 
            "author": {
                "avatar_image": "https://decidim.barcelona/assets/avatar-866795c99abc33a3160d1f3fa93ada46eb75e54134e777666b9ed16215b26534.png", 
                "erased": false, 
                "hidden": false, 
                "id": 8699, 
                "name": "Silvi", 
                "official": false, 
                "official_level": 0, 
                "role": null, 
                "verified_organization": null
            }, 
            "body": "<p>Can Felipa esta macificant, les instal.lacions s\u00f3n vergonyoses, amb cuquis als vestuaris,  la piscina sempre plena pq primer s\u00f3n els cursets I el waterpolo, i els usuaris els \u00faltims. Necessitem ja un altre  centre esportiu al barri i han molts solars a Pere IV  on es podr\u00eda fer perfectament.</p>", 
            "commentable_id": 6396, 
            "commentable_type": "Proposal", 
            "created_at": "07/04/2016 16:02:05", 
            "flagged": false, 
            "hidden": false, 
            "id": 9575, 
            "moderator_id": null, 
            "permissions": {
                "hide": false, 
                "hide_author": false, 
                "vote": false
            }, 
            "total_dislikes": 0, 
            "total_likes": 0, 
            "total_votes": 0
        }, 
        {
            "administrator_id": null, 
            "alignment": 1, 
            "ancestry": null, 
            "as": null, 
            "author": {
                "avatar_image": "https://decidim.barcelona/assets/avatar-866795c99abc33a3160d1f3fa93ada46eb75e54134e777666b9ed16215b26534.png", 
                "erased": false, 
                "hidden": false, 
                "id": 765, 
                "name": "jmmigay", 
                "official": false, 
                "official_level": 0, 
                "role": null, 
                "verified_organization": null
            }, 
            "body": "<p>Poblenou ha mes que duplicat la seva poblaci\u00f3 en un d\u00e8cada, a m\u00e9s del canvi generacional que suposa. Tota  el Centre Esportiu Can Felipa piscina inclosa es  queda petit. Aquet barri li cal unes instal\u00b7lacions esportives mes amplies i actualitzades.</p>", 
            "commentable_id": 6396, 
            "commentable_type": "Proposal", 
            "created_at": "07/04/2016 19:53:02", 
            "flagged": false, 
            "hidden": false, 
            "id": 10017, 
            "moderator_id": null, 
            "permissions": {
                "hide": false, 
                "hide_author": false, 
                "vote": false
            }, 
            "total_dislikes": 0, 
            "total_likes": 0, 
            "total_votes": 0
        }, 
        {
            "administrator_id": null, 
            "alignment": 0, 
            "ancestry": null, 
            "as": null, 
            "author": {
                "avatar_image": "https://decidim.barcelona/assets/avatar-866795c99abc33a3160d1f3fa93ada46eb75e54134e777666b9ed16215b26534.png", 
                "erased": false, 
                "hidden": false, 
                "id": 9725, 
                "name": "MP", 
                "official": false, 
                "official_level": 0, 
                "role": null, 
                "verified_organization": null
            }, 
            "body": "<p>Jo practico aguagym i s'ha quedat petit l'espai.</p>", 
            "commentable_id": 6396, 
            "commentable_type": "Proposal", 
            "created_at": "08/04/2016 20:13:53", 
            "flagged": false, 
            "hidden": false, 
            "id": 11431, 
            "moderator_id": null, 
            "permissions": {
                "hide": false, 
                "hide_author": false, 
                "vote": false
            }, 
            "total_dislikes": 0, 
            "total_likes": 1, 
            "total_votes": 1
        }, 
        {
            "administrator_id": null, 
            "alignment": 1, 
            "ancestry": null, 
            "as": null, 
            "author": {
                "avatar_image": "https://decidim.barcelona/assets/avatar-866795c99abc33a3160d1f3fa93ada46eb75e54134e777666b9ed16215b26534.png", 
                "erased": false, 
                "hidden": false, 
                "id": 22167, 
                "name": "jose1977fini@hotmail.com", 
                "official": false, 
                "official_level": 0, 
                "role": null, 
                "verified_organization": null
            }, 
            "body": "<p>la necesita con urgencia este barrio ya que esta masificada y tanto ni\u00f1os de waterpolo ,cursillos ,gente mayor y no tan mayor la estamos pidiendo para practicar deporte </p>", 
            "commentable_id": 6396, 
            "commentable_type": "Proposal", 
            "created_at": "08/04/2016 20:57:19", 
            "flagged": false, 
            "hidden": false, 
            "id": 11440, 
            "moderator_id": null, 
            "permissions": {
                "hide": false, 
                "hide_author": false, 
                "vote": false
            }, 
            "total_dislikes": 0, 
            "total_likes": 0, 
            "total_votes": 0
        }, 
        {
            "administrator_id": null, 
            "alignment": null, 
            "ancestry": "6392", 
            "as": null, 
            "author": {
                "avatar_image": "https://decidim.barcelona/assets/avatar-866795c99abc33a3160d1f3fa93ada46eb75e54134e777666b9ed16215b26534.png", 
                "erased": false, 
                "hidden": false, 
                "id": 14702, 
                "name": "Lidia GISPERT ", 
                "official": false, 
                "official_level": 0, 
                "role": null, 
                "verified_organization": null
            }, 
            "body": "<p>No soc neutral, ESTIC MOLT A FAVOR.</p>", 
            "commentable_id": 6396, 
            "commentable_type": "Proposal", 
            "created_at": "23/03/2016 14:57:33", 
            "flagged": false, 
            "hidden": false, 
            "id": 6398, 
            "moderator_id": null, 
            "permissions": {
                "hide": false, 
                "hide_author": false, 
                "vote": false
            }, 
            "total_dislikes": 0, 
            "total_likes": 0, 
            "total_votes": 0
        }
    ], 
    "meta": {
        "current_page": 1, 
        "next_page": 2, 
        "prev_page": null, 
        "total_count": 23, 
        "total_pages": 2
    }
}