{
    "comments": [
        {
            "administrator_id": null, 
            "alignment": 1, 
            "ancestry": null, 
            "as": null, 
            "author": {
                "avatar_image": "https://decidim.barcelona/assets/avatar-866795c99abc33a3160d1f3fa93ada46eb75e54134e777666b9ed16215b26534.png", 
                "erased": false, 
                "hidden": false, 
                "id": 15760, 
                "name": "Nocrecres", 
                "official": false, 
                "official_level": 0, 
                "role": null, 
                "verified_organization": null
            }, 
            "body": "<p>A favor</p>", 
            "commentable_id": 7167, 
            "commentable_type": "Proposal", 
            "created_at": "29/03/2016 16:19:30", 
            "flagged": false, 
            "hidden": false, 
            "id": 6808, 
            "moderator_id": null, 
            "permissions": {
                "hide": false, 
                "hide_author": false, 
                "vote": false
            }, 
            "total_dislikes": 0, 
            "total_likes": 3, 
            "total_votes": 3
        }, 
        {
            "administrator_id": null, 
            "alignment": 1, 
            "ancestry": null, 
            "as": null, 
            "author": {
                "avatar_image": "https://decidim.barcelona/assets/avatar-866795c99abc33a3160d1f3fa93ada46eb75e54134e777666b9ed16215b26534.png", 
                "erased": false, 
                "hidden": false, 
                "id": 3661, 
                "name": "Josep-Llu\u00eds Alonso Arum\u00ed", 
                "official": false, 
                "official_level": 0, 
                "role": null, 
                "verified_organization": null
            }, 
            "body": "<p>El \"cam\u00ed amic\" necessita tamb\u00e9 l'adequaci\u00f3 urban\u00edstica de l'espai a l'entorn de l'escola</p>", 
            "commentable_id": 7167, 
            "commentable_type": "Proposal", 
            "created_at": "29/03/2016 20:22:12", 
            "flagged": false, 
            "hidden": false, 
            "id": 6848, 
            "moderator_id": null, 
            "permissions": {
                "hide": false, 
                "hide_author": false, 
                "vote": false
            }, 
            "total_dislikes": 0, 
            "total_likes": 5, 
            "total_votes": 5
        }, 
        {
            "administrator_id": null, 
            "alignment": 1, 
            "ancestry": null, 
            "as": null, 
            "author": {
                "avatar_image": "https://decidim.barcelona/assets/avatar-866795c99abc33a3160d1f3fa93ada46eb75e54134e777666b9ed16215b26534.png", 
                "erased": false, 
                "hidden": false, 
                "id": 15875, 
                "name": "Xavier Bern\u00e1rdez ", 
                "official": false, 
                "official_level": 0, 
                "role": null, 
                "verified_organization": null
            }, 
            "body": "<p>\u00c9s molt necessari. El protector/valla de la vorera est\u00e0 axafat pels cotxes. Les cantonades dels col\u00b7legis haurien de ser zones m\u00e9s segures, sense cotxes. D'acord amb en Josep-Llu\u00eds, cal complementar el cam\u00ed amic. </p>", 
            "commentable_id": 7167, 
            "commentable_type": "Proposal", 
            "created_at": "29/03/2016 20:40:23", 
            "flagged": false, 
            "hidden": false, 
            "id": 6850, 
            "moderator_id": null, 
            "permissions": {
                "hide": false, 
                "hide_author": false, 
                "vote": false
            }, 
            "total_dislikes": 0, 
            "total_likes": 2, 
            "total_votes": 2
        }, 
        {
            "administrator_id": null, 
            "alignment": 1, 
            "ancestry": null, 
            "as": null, 
            "author": {
                "avatar_image": "https://decidim.barcelona/assets/avatar-866795c99abc33a3160d1f3fa93ada46eb75e54134e777666b9ed16215b26534.png", 
                "erased": false, 
                "hidden": false, 
                "id": 15689, 
                "name": "Llu\u00eds Sureda", 
                "official": false, 
                "official_level": 0, 
                "role": null, 
                "verified_organization": null
            }, 
            "body": "<p>Cal que l'Ajuntament estudii la manera de fer m\u00e9s segura la sortida dels alumnes i que es prengui la mol\u00e9stia de repintar els indicadors de \"cam\u00ed amic\", a m\u00e9s de destinar alguns efectius de la Gu\u00e0rdia Urbana perqu\u00e8 vetllin per la pacificaci\u00f3 del tr\u00e0nsit si m\u00e9s no, en hores d'entrada i sortida dels alumnes.</p>", 
            "commentable_id": 7167, 
            "commentable_type": "Proposal", 
            "created_at": "29/03/2016 21:22:27", 
            "flagged": false, 
            "hidden": false, 
            "id": 6858, 
            "moderator_id": null, 
            "permissions": {
                "hide": false, 
                "hide_author": false, 
                "vote": false
            }, 
            "total_dislikes": 0, 
            "total_likes": 2, 
            "total_votes": 2
        }, 
        {
            "administrator_id": null, 
            "alignment": 1, 
            "ancestry": null, 
            "as": null, 
            "author": {
                "avatar_image": "https://decidim.barcelona/assets/avatar-866795c99abc33a3160d1f3fa93ada46eb75e54134e777666b9ed16215b26534.png", 
                "erased": false, 
                "hidden": false, 
                "id": 15689, 
                "name": "Llu\u00eds Sureda", 
                "official": false, 
                "official_level": 0, 
                "role": null, 
                "verified_organization": null
            }, 
            "body": "<p>Trobo molt necessari que l'Ajuntament estudii la manera de fer m\u00e9s segura l'entrada i sortida desl alumnes i que es preocupi de repintar els indicadors del \"cam\u00ed amic\" a m\u00e9s de destinar alguns efectius de la Gu\u00e0rdia Urbana en les hores de m\u00e9s moviment per fer m\u00e9s segura la zona pels infants.</p>", 
            "commentable_id": 7167, 
            "commentable_type": "Proposal", 
            "created_at": "29/03/2016 21:23:56", 
            "flagged": false, 
            "hidden": false, 
            "id": 6859, 
            "moderator_id": null, 
            "permissions": {
                "hide": false, 
                "hide_author": false, 
                "vote": false
            }, 
            "total_dislikes": 0, 
            "total_likes": 5, 
            "total_votes": 5
        }, 
        {
            "administrator_id": null, 
            "alignment": 1, 
            "ancestry": null, 
            "as": null, 
            "author": {
                "avatar_image": "https://decidim.barcelona/assets/avatar-866795c99abc33a3160d1f3fa93ada46eb75e54134e777666b9ed16215b26534.png", 
                "erased": false, 
                "hidden": false, 
                "id": 15933, 
                "name": "Aplata1979", 
                "official": false, 
                "official_level": 0, 
                "role": null, 
                "verified_organization": null
            }, 
            "body": "<p>.</p>", 
            "commentable_id": 7167, 
            "commentable_type": "Proposal", 
            "created_at": "29/03/2016 22:11:32", 
            "flagged": false, 
            "hidden": false, 
            "id": 6862, 
            "moderator_id": null, 
            "permissions": {
                "hide": false, 
                "hide_author": false, 
                "vote": false
            }, 
            "total_dislikes": 0, 
            "total_likes": 2, 
            "total_votes": 2
        }, 
        {
            "administrator_id": null, 
            "alignment": 1, 
            "ancestry": null, 
            "as": null, 
            "author": {
                "avatar_image": "https://decidim.barcelona/assets/avatar-866795c99abc33a3160d1f3fa93ada46eb75e54134e777666b9ed16215b26534.png", 
                "erased": false, 
                "hidden": false, 
                "id": 15973, 
                "name": "Joaquim Pascual Lucas", 
                "official": false, 
                "official_level": 0, 
                "role": null, 
                "verified_organization": null
            }, 
            "body": "<p>A favor de la proposta. Aquesta vorera no es de gir de vehicles, per tant podr\u00eda ser enxamplada per us dels vianants i minimitzar el risc per aglomeraci\u00f3 de persones. Aixi mateix considero necesari que els creuaments dels carrers Valencia-Dos de Maig i Mallorca- Dos de Maig siguin atesos per la Guardia Urbana a les hores de entrada i sortida de l'escola, com he vist que es fa en altres centres educatius de Barcelona.</p>", 
            "commentable_id": 7167, 
            "commentable_type": "Proposal", 
            "created_at": "29/03/2016 23:44:00", 
            "flagged": false, 
            "hidden": false, 
            "id": 6884, 
            "moderator_id": null, 
            "permissions": {
                "hide": false, 
                "hide_author": false, 
                "vote": false
            }, 
            "total_dislikes": 0, 
            "total_likes": 12, 
            "total_votes": 12
        }, 
        {
            "administrator_id": null, 
            "alignment": 1, 
            "ancestry": null, 
            "as": null, 
            "author": {
                "avatar_image": "https://decidim.barcelona/assets/avatar-866795c99abc33a3160d1f3fa93ada46eb75e54134e777666b9ed16215b26534.png", 
                "erased": false, 
                "hidden": false, 
                "id": 15981, 
                "name": "Emma Lopez Mellado", 
                "official": false, 
                "official_level": 0, 
                "role": null, 
                "verified_organization": null
            }, 
            "body": "<p>A favor. Veritablement es un problema de convivencia entre el servei de l'escola, els vianants i els cops dels vehicles a les tanques.</p>", 
            "commentable_id": 7167, 
            "commentable_type": "Proposal", 
            "created_at": "29/03/2016 23:59:06", 
            "flagged": false, 
            "hidden": false, 
            "id": 6885, 
            "moderator_id": null, 
            "permissions": {
                "hide": false, 
                "hide_author": false, 
                "vote": false
            }, 
            "total_dislikes": 0, 
            "total_likes": 4, 
            "total_votes": 4
        }, 
        {
            "administrator_id": null, 
            "alignment": 1, 
            "ancestry": null, 
            "as": null, 
            "author": {
                "avatar_image": "https://decidim.barcelona/assets/avatar-866795c99abc33a3160d1f3fa93ada46eb75e54134e777666b9ed16215b26534.png", 
                "erased": false, 
                "hidden": false, 
                "id": 16034, 
                "name": "Ellen", 
                "official": false, 
                "official_level": 0, 
                "role": null, 
                "verified_organization": null
            }, 
            "body": "<p>A favor.</p>", 
            "commentable_id": 7167, 
            "commentable_type": "Proposal", 
            "created_at": "30/03/2016 09:39:58", 
            "flagged": false, 
            "hidden": false, 
            "id": 6909, 
            "moderator_id": null, 
            "permissions": {
                "hide": false, 
                "hide_author": false, 
                "vote": false
            }, 
            "total_dislikes": 0, 
            "total_likes": 2, 
            "total_votes": 2
        }, 
        {
            "administrator_id": null, 
            "alignment": 1, 
            "ancestry": null, 
            "as": null, 
            "author": {
                "avatar_image": "https://decidim.barcelona/assets/avatar-866795c99abc33a3160d1f3fa93ada46eb75e54134e777666b9ed16215b26534.png", 
                "erased": false, 
                "hidden": false, 
                "id": 16094, 
                "name": "Ferran Fleta", 
                "official": false, 
                "official_level": 0, 
                "role": null, 
                "verified_organization": null
            }, 
            "body": "<p>Completament d'acord. A l'hora de la sortida dels alumnes es crea un coll d'ampolla dif\u00edcil de superar. D'altra banda, a part d'eixamplar la vorera i retirar la zona de c\u00e0rrega i desc\u00e0rrega que m\u00e9s d'un ensurt ha provocat i que \u00e9s del tot incompatible amb la sortida d'un centre educatiu, tamb\u00e9 caldria traslladar d'ubicaci\u00f3 el quadre de comandaments de senyals de tr\u00e0nsit que \u00e9s just al davant de la porta d'entrada de l'escola pel perill que la seva pres\u00e8ncia implica. Respecte el tema del cam\u00ed amic no entenc la deixadesa a la que est\u00e0 sotm\u00e8s quan semblava una idea correct\u00edssima.</p>", 
            "commentable_id": 7167, 
            "commentable_type": "Proposal", 
            "created_at": "30/03/2016 13:04:42", 
            "flagged": false, 
            "hidden": false, 
            "id": 6969, 
            "moderator_id": null, 
            "permissions": {
                "hide": false, 
                "hide_author": false, 
                "vote": false
            }, 
            "total_dislikes": 0, 
            "total_likes": 2, 
            "total_votes": 2
        }, 
        {
            "administrator_id": null, 
            "alignment": 1, 
            "ancestry": null, 
            "as": null, 
            "author": {
                "avatar_image": "https://decidim.barcelona/assets/avatar-866795c99abc33a3160d1f3fa93ada46eb75e54134e777666b9ed16215b26534.png", 
                "erased": false, 
                "hidden": false, 
                "id": 16156, 
                "name": "JaumePS", 
                "official": false, 
                "official_level": 0, 
                "role": null, 
                "verified_organization": null
            }, 
            "body": "<p>A favor. Cal potenciar el \"cam\u00ed amic\"</p>", 
            "commentable_id": 7167, 
            "commentable_type": "Proposal", 
            "created_at": "30/03/2016 15:47:05", 
            "flagged": false, 
            "hidden": false, 
            "id": 6994, 
            "moderator_id": null, 
            "permissions": {
                "hide": false, 
                "hide_author": false, 
                "vote": false
            }, 
            "total_dislikes": 0, 
            "total_likes": 1, 
            "total_votes": 1
        }, 
        {
            "administrator_id": null, 
            "alignment": 1, 
            "ancestry": null, 
            "as": null, 
            "author": {
                "avatar_image": "https://decidim.barcelona/assets/avatar-866795c99abc33a3160d1f3fa93ada46eb75e54134e777666b9ed16215b26534.png", 
                "erased": false, 
                "hidden": false, 
                "id": 16210, 
                "name": "Amadeu S", 
                "official": false, 
                "official_level": 0, 
                "role": null, 
                "verified_organization": null
            }, 
            "body": "<p>Molt a favor es un zona per els nens</p>", 
            "commentable_id": 7167, 
            "commentable_type": "Proposal", 
            "created_at": "30/03/2016 18:52:00", 
            "flagged": false, 
            "hidden": false, 
            "id": 7061, 
            "moderator_id": null, 
            "permissions": {
                "hide": false, 
                "hide_author": false, 
                "vote": false
            }, 
            "total_dislikes": 0, 
            "total_likes": 1, 
            "total_votes": 1
        }, 
        {
            "administrator_id": null, 
            "alignment": 1, 
            "ancestry": null, 
            "as": null, 
            "author": {
                "avatar_image": "https://decidim.barcelona/assets/avatar-866795c99abc33a3160d1f3fa93ada46eb75e54134e777666b9ed16215b26534.png", 
                "erased": false, 
                "hidden": false, 
                "id": 16217, 
                "name": "Pepe16", 
                "official": false, 
                "official_level": 0, 
                "role": null, 
                "verified_organization": null
            }, 
            "body": "<p>Cal que s'hagi de rec\u00f3rrer a la participaci\u00f3 ciutadana Sra. Colau, quan s'ha sol\u00b7licitat tantes vegades als responsables del Consistori? o esperem una vegada m\u00e9s a que es produeixi un lamentable accident?</p>", 
            "commentable_id": 7167, 
            "commentable_type": "Proposal", 
            "created_at": "30/03/2016 19:41:20", 
            "flagged": false, 
            "hidden": false, 
            "id": 7074, 
            "moderator_id": null, 
            "permissions": {
                "hide": false, 
                "hide_author": false, 
                "vote": false
            }, 
            "total_dislikes": 0, 
            "total_likes": 1, 
            "total_votes": 1
        }, 
        {
            "administrator_id": null, 
            "alignment": 1, 
            "ancestry": null, 
            "as": null, 
            "author": {
                "avatar_image": "https://decidim.barcelona/assets/avatar-866795c99abc33a3160d1f3fa93ada46eb75e54134e777666b9ed16215b26534.png", 
                "erased": false, 
                "hidden": false, 
                "id": 16746, 
                "name": "Heisenberg", 
                "official": false, 
                "official_level": 0, 
                "role": null, 
                "verified_organization": null
            }, 
            "body": "<p>El que va comen\u00e7ar essent una necessitat a aquestes al\u00e7ades ja \u00e9s imprescindible!</p>", 
            "commentable_id": 7167, 
            "commentable_type": "Proposal", 
            "created_at": "01/04/2016 12:11:57", 
            "flagged": false, 
            "hidden": false, 
            "id": 7372, 
            "moderator_id": null, 
            "permissions": {
                "hide": false, 
                "hide_author": false, 
                "vote": false
            }, 
            "total_dislikes": 0, 
            "total_likes": 1, 
            "total_votes": 1
        }, 
        {
            "administrator_id": null, 
            "alignment": 1, 
            "ancestry": null, 
            "as": null, 
            "author": {
                "avatar_image": "https://decidim.barcelona/assets/avatar-866795c99abc33a3160d1f3fa93ada46eb75e54134e777666b9ed16215b26534.png", 
                "erased": false, 
                "hidden": false, 
                "id": 16768, 
                "name": "Antonio Varo", 
                "official": false, 
                "official_level": 0, 
                "role": null, 
                "verified_organization": null
            }, 
            "body": "<p>A favor</p>", 
            "commentable_id": 7167, 
            "commentable_type": "Proposal", 
            "created_at": "01/04/2016 12:41:29", 
            "flagged": false, 
            "hidden": false, 
            "id": 7375, 
            "moderator_id": null, 
            "permissions": {
                "hide": false, 
                "hide_author": false, 
                "vote": false
            }, 
            "total_dislikes": 0, 
            "total_likes": 2, 
            "total_votes": 2
        }, 
        {
            "administrator_id": null, 
            "alignment": 1, 
            "ancestry": null, 
            "as": null, 
            "author": {
                "avatar_image": "https://decidim.barcelona/assets/avatar-866795c99abc33a3160d1f3fa93ada46eb75e54134e777666b9ed16215b26534.png", 
                "erased": false, 
                "hidden": false, 
                "id": 17268, 
                "name": "egiro", 
                "official": false, 
                "official_level": 0, 
                "role": null, 
                "verified_organization": null
            }, 
            "body": "<p>Totalment d'acord, no sols \u00e9s b\u00e0sic per la sortida d'escola sin\u00f2 que d'aqueta manera no es col\u00b7lapsar\u00e0 la vorera impedint el tr\u00e0nsit de la resta de ciutadans.</p>", 
            "commentable_id": 7167, 
            "commentable_type": "Proposal", 
            "created_at": "03/04/2016 12:41:30", 
            "flagged": false, 
            "hidden": false, 
            "id": 7585, 
            "moderator_id": null, 
            "permissions": {
                "hide": false, 
                "hide_author": false, 
                "vote": false
            }, 
            "total_dislikes": 0, 
            "total_likes": 1, 
            "total_votes": 1
        }, 
        {
            "administrator_id": null, 
            "alignment": 1, 
            "ancestry": null, 
            "as": null, 
            "author": {
                "avatar_image": "https://decidim.barcelona/assets/avatar-866795c99abc33a3160d1f3fa93ada46eb75e54134e777666b9ed16215b26534.png", 
                "erased": false, 
                "hidden": false, 
                "id": 17638, 
                "name": "SILVIA FERRERES ALARC\u00d3N", 
                "official": false, 
                "official_level": 0, 
                "role": null, 
                "verified_organization": null
            }, 
            "body": "<p>\u00c9s molt important degut al n\u00famero de nens i nenes que surten alhora... tanmateix al mig de la mateixa cantonada tamb\u00e9 hi ha un \"armari\" met\u00e0l.lic per al control de la llum o els sem\u00e0fors, que tampoc no ajuda a facilitar la sortida dels nens.</p>", 
            "commentable_id": 7167, 
            "commentable_type": "Proposal", 
            "created_at": "04/04/2016 08:46:16", 
            "flagged": false, 
            "hidden": false, 
            "id": 7652, 
            "moderator_id": null, 
            "permissions": {
                "hide": false, 
                "hide_author": false, 
                "vote": false
            }, 
            "total_dislikes": 0, 
            "total_likes": 1, 
            "total_votes": 1
        }, 
        {
            "administrator_id": null, 
            "alignment": 0, 
            "ancestry": null, 
            "as": null, 
            "author": {
                "avatar_image": "https://decidim.barcelona/assets/avatar-866795c99abc33a3160d1f3fa93ada46eb75e54134e777666b9ed16215b26534.png", 
                "erased": false, 
                "hidden": false, 
                "id": 12914, 
                "name": "guguseti", 
                "official": false, 
                "official_level": 0, 
                "role": null, 
                "verified_organization": null
            }, 
            "body": "<p>totalment a favor de la proposta, l'acumulaci\u00f3 de pares, criatures i vianants es perillosa, </p>", 
            "commentable_id": 7167, 
            "commentable_type": "Proposal", 
            "created_at": "04/04/2016 09:05:33", 
            "flagged": false, 
            "hidden": false, 
            "id": 7654, 
            "moderator_id": null, 
            "permissions": {
                "hide": false, 
                "hide_author": false, 
                "vote": false
            }, 
            "total_dislikes": 0, 
            "total_likes": 3, 
            "total_votes": 3
        }, 
        {
            "administrator_id": null, 
            "alignment": 1, 
            "ancestry": null, 
            "as": null, 
            "author": {
                "avatar_image": "https://decidim.barcelona/assets/avatar-866795c99abc33a3160d1f3fa93ada46eb75e54134e777666b9ed16215b26534.png", 
                "erased": false, 
                "hidden": false, 
                "id": 17635, 
                "name": "JORDI GARRIGA", 
                "official": false, 
                "official_level": 0, 
                "role": null, 
                "verified_organization": null
            }, 
            "body": "<p>Seria Bo ampliar la vorera a tal de millorar la seguretat dels alumnes i vianants i retirar canviar el aparcament dels vehicles de serveis a l'altra banda de la cruilla</p>", 
            "commentable_id": 7167, 
            "commentable_type": "Proposal", 
            "created_at": "04/04/2016 09:52:21", 
            "flagged": false, 
            "hidden": false, 
            "id": 7663, 
            "moderator_id": null, 
            "permissions": {
                "hide": false, 
                "hide_author": false, 
                "vote": false
            }, 
            "total_dislikes": 0, 
            "total_likes": 1, 
            "total_votes": 1
        }, 
        {
            "administrator_id": null, 
            "alignment": 1, 
            "ancestry": null, 
            "as": null, 
            "author": {
                "avatar_image": "https://decidim.barcelona/assets/avatar-866795c99abc33a3160d1f3fa93ada46eb75e54134e777666b9ed16215b26534.png", 
                "erased": false, 
                "hidden": false, 
                "id": 17750, 
                "name": "Manoli Mart\u00ednez Fortes", 
                "official": false, 
                "official_level": 0, 
                "role": null, 
                "verified_organization": null
            }, 
            "body": "<p>A favor</p>", 
            "commentable_id": 7167, 
            "commentable_type": "Proposal", 
            "created_at": "04/04/2016 12:02:58", 
            "flagged": false, 
            "hidden": false, 
            "id": 7714, 
            "moderator_id": null, 
            "permissions": {
                "hide": false, 
                "hide_author": false, 
                "vote": false
            }, 
            "total_dislikes": 0, 
            "total_likes": 1, 
            "total_votes": 1
        }
    ], 
    "meta": {
        "current_page": 1, 
        "next_page": 2, 
        "prev_page": null, 
        "total_count": 44, 
        "total_pages": 3
    }
}