{
    "comments": [
        {
            "administrator_id": null, 
            "alignment": 0, 
            "ancestry": null, 
            "as": null, 
            "author": {
                "avatar_image": "https://decidim.barcelona/assets/avatar-866795c99abc33a3160d1f3fa93ada46eb75e54134e777666b9ed16215b26534.png", 
                "erased": false, 
                "hidden": false, 
                "id": 17659, 
                "name": "Marteresa", 
                "official": false, 
                "official_level": 0, 
                "role": null, 
                "verified_organization": null
            }, 
            "body": "<p>A favor</p>", 
            "commentable_id": 7167, 
            "commentable_type": "Proposal", 
            "created_at": "04/04/2016 13:38:39", 
            "flagged": false, 
            "hidden": false, 
            "id": 7754, 
            "moderator_id": null, 
            "permissions": {
                "hide": false, 
                "hide_author": false, 
                "vote": false
            }, 
            "total_dislikes": 0, 
            "total_likes": 1, 
            "total_votes": 1
        }, 
        {
            "administrator_id": null, 
            "alignment": 1, 
            "ancestry": null, 
            "as": null, 
            "author": {
                "avatar_image": "https://decidim.barcelona/assets/avatar-866795c99abc33a3160d1f3fa93ada46eb75e54134e777666b9ed16215b26534.png", 
                "erased": false, 
                "hidden": false, 
                "id": 17867, 
                "name": "C\u00e8sar", 
                "official": false, 
                "official_level": 0, 
                "role": null, 
                "verified_organization": null
            }, 
            "body": "<p>Ser\u00e0 tamb\u00e9 una gran millora per els vianants que han de creuar la cantonada en hores d'entrada i sortida</p>", 
            "commentable_id": 7167, 
            "commentable_type": "Proposal", 
            "created_at": "04/04/2016 15:03:11", 
            "flagged": false, 
            "hidden": false, 
            "id": 7770, 
            "moderator_id": null, 
            "permissions": {
                "hide": false, 
                "hide_author": false, 
                "vote": false
            }, 
            "total_dislikes": 0, 
            "total_likes": 2, 
            "total_votes": 2
        }, 
        {
            "administrator_id": null, 
            "alignment": 1, 
            "ancestry": null, 
            "as": null, 
            "author": {
                "avatar_image": "https://decidim.barcelona/assets/avatar-866795c99abc33a3160d1f3fa93ada46eb75e54134e777666b9ed16215b26534.png", 
                "erased": false, 
                "hidden": false, 
                "id": 12914, 
                "name": "guguseti", 
                "official": false, 
                "official_level": 0, 
                "role": null, 
                "verified_organization": null
            }, 
            "body": "<p>veig que abans no he posat vot,perdo, vot totalmente favorable, ah y em dic Jordi Perram\u00f3n que guguseti sols es el meu nick\n</p>", 
            "commentable_id": 7167, 
            "commentable_type": "Proposal", 
            "created_at": "04/04/2016 16:10:55", 
            "flagged": false, 
            "hidden": false, 
            "id": 7777, 
            "moderator_id": null, 
            "permissions": {
                "hide": false, 
                "hide_author": false, 
                "vote": false
            }, 
            "total_dislikes": 0, 
            "total_likes": 1, 
            "total_votes": 1
        }, 
        {
            "administrator_id": null, 
            "alignment": 0, 
            "ancestry": null, 
            "as": null, 
            "author": {
                "avatar_image": "https://decidim.barcelona/assets/avatar-866795c99abc33a3160d1f3fa93ada46eb75e54134e777666b9ed16215b26534.png", 
                "erased": false, 
                "hidden": false, 
                "id": 15839, 
                "name": "Montse GB", 
                "official": false, 
                "official_level": 0, 
                "role": null, 
                "verified_organization": null
            }, 
            "body": "<p>Molt a favor.\n<br />A veure si ens fan cas.</p>", 
            "commentable_id": 7167, 
            "commentable_type": "Proposal", 
            "created_at": "04/04/2016 18:10:35", 
            "flagged": false, 
            "hidden": false, 
            "id": 7815, 
            "moderator_id": null, 
            "permissions": {
                "hide": false, 
                "hide_author": false, 
                "vote": false
            }, 
            "total_dislikes": 0, 
            "total_likes": 1, 
            "total_votes": 1
        }, 
        {
            "administrator_id": null, 
            "alignment": 1, 
            "ancestry": null, 
            "as": null, 
            "author": {
                "avatar_image": "https://decidim.barcelona/assets/avatar-866795c99abc33a3160d1f3fa93ada46eb75e54134e777666b9ed16215b26534.png", 
                "erased": false, 
                "hidden": false, 
                "id": 18147, 
                "name": "Sonia Fuentes", 
                "official": false, 
                "official_level": 0, 
                "role": null, 
                "verified_organization": null
            }, 
            "body": "<p>A favor</p>", 
            "commentable_id": 7167, 
            "commentable_type": "Proposal", 
            "created_at": "04/04/2016 21:51:03", 
            "flagged": false, 
            "hidden": false, 
            "id": 7874, 
            "moderator_id": null, 
            "permissions": {
                "hide": false, 
                "hide_author": false, 
                "vote": false
            }, 
            "total_dislikes": 0, 
            "total_likes": 1, 
            "total_votes": 1
        }, 
        {
            "administrator_id": null, 
            "alignment": 1, 
            "ancestry": null, 
            "as": null, 
            "author": {
                "avatar_image": "https://decidim.barcelona/assets/avatar-866795c99abc33a3160d1f3fa93ada46eb75e54134e777666b9ed16215b26534.png", 
                "erased": false, 
                "hidden": false, 
                "id": 18338, 
                "name": "Olga Carrilero", 
                "official": false, 
                "official_level": 0, 
                "role": null, 
                "verified_organization": null
            }, 
            "body": "<p>Las entrades i sortides de l'escola son ca\u00f2tiques, perilloses per als nens e inc\u00f2modes per als ve\u00efns... No cal esperar a que hi hagi una desgr\u00e0cia per a fer aquesta simple actuaci\u00f3 que garantiria que cap cami\u00f3 aparqui a sobre dels nanos...</p>", 
            "commentable_id": 7167, 
            "commentable_type": "Proposal", 
            "created_at": "05/04/2016 10:24:34", 
            "flagged": false, 
            "hidden": false, 
            "id": 7942, 
            "moderator_id": null, 
            "permissions": {
                "hide": false, 
                "hide_author": false, 
                "vote": false
            }, 
            "total_dislikes": 0, 
            "total_likes": 1, 
            "total_votes": 1
        }, 
        {
            "administrator_id": null, 
            "alignment": 0, 
            "ancestry": null, 
            "as": null, 
            "author": {
                "avatar_image": "https://decidim.barcelona/assets/avatar-866795c99abc33a3160d1f3fa93ada46eb75e54134e777666b9ed16215b26534.png", 
                "erased": false, 
                "hidden": false, 
                "id": 18369, 
                "name": "Pili Hermosilla ", 
                "official": false, 
                "official_level": 0, 
                "role": null, 
                "verified_organization": null
            }, 
            "body": "<p>Fet </p>", 
            "commentable_id": 7167, 
            "commentable_type": "Proposal", 
            "created_at": "05/04/2016 11:20:11", 
            "flagged": false, 
            "hidden": false, 
            "id": 7959, 
            "moderator_id": null, 
            "permissions": {
                "hide": false, 
                "hide_author": false, 
                "vote": false
            }, 
            "total_dislikes": 0, 
            "total_likes": 1, 
            "total_votes": 1
        }, 
        {
            "administrator_id": null, 
            "alignment": 1, 
            "ancestry": null, 
            "as": null, 
            "author": {
                "avatar_image": "https://decidim.barcelona/assets/avatar-866795c99abc33a3160d1f3fa93ada46eb75e54134e777666b9ed16215b26534.png", 
                "erased": false, 
                "hidden": false, 
                "id": 15880, 
                "name": "Cristina Barber\u00e1n", 
                "official": false, 
                "official_level": 0, 
                "role": null, 
                "verified_organization": null
            }, 
            "body": "<p>Estic totalment d'acord en millorar el xamfr\u00e0 i en canviar l'armari dels comandaments el\u00e8ctrics que est\u00e0 just davant la porta de sortida.</p>", 
            "commentable_id": 7167, 
            "commentable_type": "Proposal", 
            "created_at": "05/04/2016 21:50:40", 
            "flagged": false, 
            "hidden": false, 
            "id": 8128, 
            "moderator_id": null, 
            "permissions": {
                "hide": false, 
                "hide_author": false, 
                "vote": false
            }, 
            "total_dislikes": 0, 
            "total_likes": 1, 
            "total_votes": 1
        }, 
        {
            "administrator_id": null, 
            "alignment": 1, 
            "ancestry": null, 
            "as": null, 
            "author": {
                "avatar_image": "https://decidim.barcelona/assets/avatar-866795c99abc33a3160d1f3fa93ada46eb75e54134e777666b9ed16215b26534.png", 
                "erased": false, 
                "hidden": false, 
                "id": 16827, 
                "name": "jorgegut", 
                "official": false, 
                "official_level": 0, 
                "role": null, 
                "verified_organization": null
            }, 
            "body": "<p>A favor.</p>", 
            "commentable_id": 7167, 
            "commentable_type": "Proposal", 
            "created_at": "06/04/2016 12:18:20", 
            "flagged": false, 
            "hidden": false, 
            "id": 8368, 
            "moderator_id": null, 
            "permissions": {
                "hide": false, 
                "hide_author": false, 
                "vote": false
            }, 
            "total_dislikes": 0, 
            "total_likes": 1, 
            "total_votes": 1
        }, 
        {
            "administrator_id": null, 
            "alignment": 1, 
            "ancestry": null, 
            "as": null, 
            "author": {
                "avatar_image": "https://decidim.barcelona/assets/avatar-866795c99abc33a3160d1f3fa93ada46eb75e54134e777666b9ed16215b26534.png", 
                "erased": false, 
                "hidden": false, 
                "id": 19209, 
                "name": "Jorginaitor", 
                "official": false, 
                "official_level": 0, 
                "role": null, 
                "verified_organization": null
            }, 
            "body": "<p>A favor de la proposta</p>", 
            "commentable_id": 7167, 
            "commentable_type": "Proposal", 
            "created_at": "06/04/2016 13:27:35", 
            "flagged": false, 
            "hidden": false, 
            "id": 8493, 
            "moderator_id": null, 
            "permissions": {
                "hide": false, 
                "hide_author": false, 
                "vote": false
            }, 
            "total_dislikes": 0, 
            "total_likes": 1, 
            "total_votes": 1
        }, 
        {
            "administrator_id": null, 
            "alignment": 1, 
            "ancestry": null, 
            "as": null, 
            "author": {
                "avatar_image": "https://decidim.barcelona/assets/avatar-866795c99abc33a3160d1f3fa93ada46eb75e54134e777666b9ed16215b26534.png", 
                "erased": false, 
                "hidden": false, 
                "id": 19325, 
                "name": "Hester82", 
                "official": false, 
                "official_level": 0, 
                "role": null, 
                "verified_organization": null
            }, 
            "body": "<p>Totalment a favor d'un canvi i correcta adequacio</p>", 
            "commentable_id": 7167, 
            "commentable_type": "Proposal", 
            "created_at": "06/04/2016 15:14:23", 
            "flagged": false, 
            "hidden": false, 
            "id": 8649, 
            "moderator_id": null, 
            "permissions": {
                "hide": false, 
                "hide_author": false, 
                "vote": false
            }, 
            "total_dislikes": 0, 
            "total_likes": 1, 
            "total_votes": 1
        }, 
        {
            "administrator_id": null, 
            "alignment": 1, 
            "ancestry": null, 
            "as": null, 
            "author": {
                "avatar_image": "https://decidim.barcelona/assets/avatar-866795c99abc33a3160d1f3fa93ada46eb75e54134e777666b9ed16215b26534.png", 
                "erased": false, 
                "hidden": false, 
                "id": 19187, 
                "name": "Anvira4", 
                "official": false, 
                "official_level": 0, 
                "role": null, 
                "verified_organization": null
            }, 
            "body": "<p>Hi ha que fer-ho!!!</p>", 
            "commentable_id": 7167, 
            "commentable_type": "Proposal", 
            "created_at": "06/04/2016 15:17:47", 
            "flagged": false, 
            "hidden": false, 
            "id": 8650, 
            "moderator_id": null, 
            "permissions": {
                "hide": false, 
                "hide_author": false, 
                "vote": false
            }, 
            "total_dislikes": 0, 
            "total_likes": 1, 
            "total_votes": 1
        }, 
        {
            "administrator_id": null, 
            "alignment": 1, 
            "ancestry": null, 
            "as": null, 
            "author": {
                "avatar_image": "https://decidim.barcelona/assets/avatar-866795c99abc33a3160d1f3fa93ada46eb75e54134e777666b9ed16215b26534.png", 
                "erased": false, 
                "hidden": false, 
                "id": 19518, 
                "name": "Victor SR", 
                "official": false, 
                "official_level": 0, 
                "role": null, 
                "verified_organization": null
            }, 
            "body": "<p>A FAVOR. SI NO ES CANVIA UN DIA PODEM TENIR UN BON ENSURT.</p>", 
            "commentable_id": 7167, 
            "commentable_type": "Proposal", 
            "created_at": "06/04/2016 19:07:22", 
            "flagged": false, 
            "hidden": false, 
            "id": 8845, 
            "moderator_id": null, 
            "permissions": {
                "hide": false, 
                "hide_author": false, 
                "vote": false
            }, 
            "total_dislikes": 0, 
            "total_likes": 1, 
            "total_votes": 1
        }, 
        {
            "administrator_id": null, 
            "alignment": 1, 
            "ancestry": null, 
            "as": null, 
            "author": {
                "avatar_image": "https://decidim.barcelona/assets/avatar-866795c99abc33a3160d1f3fa93ada46eb75e54134e777666b9ed16215b26534.png", 
                "erased": false, 
                "hidden": false, 
                "id": 19553, 
                "name": "Julio Pastor", 
                "official": false, 
                "official_level": 0, 
                "role": null, 
                "verified_organization": null
            }, 
            "body": "<p>Crec que \u00e9s molt necessari poder millorar aquest espai per millorar l'acc\u00e9s a la escola, i humanitzar aquest espai urb\u00e0</p>", 
            "commentable_id": 7167, 
            "commentable_type": "Proposal", 
            "created_at": "06/04/2016 19:50:58", 
            "flagged": false, 
            "hidden": false, 
            "id": 8871, 
            "moderator_id": null, 
            "permissions": {
                "hide": false, 
                "hide_author": false, 
                "vote": false
            }, 
            "total_dislikes": 0, 
            "total_likes": 1, 
            "total_votes": 1
        }, 
        {
            "administrator_id": null, 
            "alignment": 1, 
            "ancestry": null, 
            "as": null, 
            "author": {
                "avatar_image": "https://decidim.barcelona/assets/avatar-866795c99abc33a3160d1f3fa93ada46eb75e54134e777666b9ed16215b26534.png", 
                "erased": false, 
                "hidden": false, 
                "id": 19624, 
                "name": "Jaume Cus\u00f3", 
                "official": false, 
                "official_level": 0, 
                "role": null, 
                "verified_organization": null
            }, 
            "body": "<p>Totalment favorable a eixamplar la vorera en aquest punt davant de l'escola.</p>", 
            "commentable_id": 7167, 
            "commentable_type": "Proposal", 
            "created_at": "06/04/2016 21:09:42", 
            "flagged": false, 
            "hidden": false, 
            "id": 8946, 
            "moderator_id": null, 
            "permissions": {
                "hide": false, 
                "hide_author": false, 
                "vote": false
            }, 
            "total_dislikes": 0, 
            "total_likes": 1, 
            "total_votes": 1
        }, 
        {
            "administrator_id": null, 
            "alignment": 1, 
            "ancestry": null, 
            "as": null, 
            "author": {
                "avatar_image": "https://decidim.barcelona/assets/avatar-866795c99abc33a3160d1f3fa93ada46eb75e54134e777666b9ed16215b26534.png", 
                "erased": false, 
                "hidden": false, 
                "id": 20557, 
                "name": "alexcufu", 
                "official": false, 
                "official_level": 0, 
                "role": null, 
                "verified_organization": null
            }, 
            "body": "<p>La meva filla i Jo estem completament  d'acord amb aquesta proposta</p>", 
            "commentable_id": 7167, 
            "commentable_type": "Proposal", 
            "created_at": "07/04/2016 19:09:03", 
            "flagged": false, 
            "hidden": false, 
            "id": 9920, 
            "moderator_id": null, 
            "permissions": {
                "hide": false, 
                "hide_author": false, 
                "vote": false
            }, 
            "total_dislikes": 0, 
            "total_likes": 1, 
            "total_votes": 1
        }, 
        {
            "administrator_id": null, 
            "alignment": 1, 
            "ancestry": null, 
            "as": null, 
            "author": {
                "avatar_image": "https://decidim.barcelona/assets/avatar-866795c99abc33a3160d1f3fa93ada46eb75e54134e777666b9ed16215b26534.png", 
                "erased": false, 
                "hidden": false, 
                "id": 20593, 
                "name": "petitlluis", 
                "official": false, 
                "official_level": 0, 
                "role": null, 
                "verified_organization": null
            }, 
            "body": "<p>Esperem que siguin consiens Ajuntament del inter\u00e8s per els nens, considerin que  tinguin als mateixos  drets una escola sense impediments, sense perill. Com nosaltres els grans tenim dret a minimitzar els perills del treball. Gr\u00e0cies .</p>", 
            "commentable_id": 7167, 
            "commentable_type": "Proposal", 
            "created_at": "07/04/2016 19:49:24", 
            "flagged": false, 
            "hidden": false, 
            "id": 10013, 
            "moderator_id": null, 
            "permissions": {
                "hide": false, 
                "hide_author": false, 
                "vote": false
            }, 
            "total_dislikes": 0, 
            "total_likes": 1, 
            "total_votes": 1
        }, 
        {
            "administrator_id": null, 
            "alignment": 1, 
            "ancestry": null, 
            "as": null, 
            "author": {
                "avatar_image": "https://decidim.barcelona/assets/avatar-866795c99abc33a3160d1f3fa93ada46eb75e54134e777666b9ed16215b26534.png", 
                "erased": false, 
                "hidden": false, 
                "id": 20593, 
                "name": "petitlluis", 
                "official": false, 
                "official_level": 0, 
                "role": null, 
                "verified_organization": null
            }, 
            "body": "<p>Considero que els nens tenen el mateix dret a tenir seguretat a l'hora d'anar a l'escola, que un adult en el seu lloc de treball. Per aix\u00f2 crec comvenien veureu com un tema de prevenci\u00f3 i seguretat. Que faria si el ajuntament tingu\u00e9s a la porta aquesta situaci\u00f3 ? Crec que \u00e9s una pregunta per reflexionar,  no per criticar. Gr\u00e0cies. </p>", 
            "commentable_id": 7167, 
            "commentable_type": "Proposal", 
            "created_at": "07/04/2016 20:04:22", 
            "flagged": false, 
            "hidden": false, 
            "id": 10025, 
            "moderator_id": null, 
            "permissions": {
                "hide": false, 
                "hide_author": false, 
                "vote": false
            }, 
            "total_dislikes": 0, 
            "total_likes": 0, 
            "total_votes": 0
        }, 
        {
            "administrator_id": null, 
            "alignment": 1, 
            "ancestry": null, 
            "as": null, 
            "author": {
                "avatar_image": "https://decidim.barcelona/assets/avatar-866795c99abc33a3160d1f3fa93ada46eb75e54134e777666b9ed16215b26534.png", 
                "erased": false, 
                "hidden": false, 
                "id": 20732, 
                "name": "Elizabethbcn", 
                "official": false, 
                "official_level": 0, 
                "role": null, 
                "verified_organization": null
            }, 
            "body": "<p>A favor. \u00c9s molt necessari , es una zona per els nens.</p>", 
            "commentable_id": 7167, 
            "commentable_type": "Proposal", 
            "created_at": "07/04/2016 21:54:11", 
            "flagged": false, 
            "hidden": false, 
            "id": 10116, 
            "moderator_id": null, 
            "permissions": {
                "hide": false, 
                "hide_author": false, 
                "vote": false
            }, 
            "total_dislikes": 0, 
            "total_likes": 0, 
            "total_votes": 0
        }, 
        {
            "administrator_id": null, 
            "alignment": 1, 
            "ancestry": null, 
            "as": null, 
            "author": {
                "avatar_image": "https://decidim.barcelona/assets/avatar-866795c99abc33a3160d1f3fa93ada46eb75e54134e777666b9ed16215b26534.png", 
                "erased": false, 
                "hidden": false, 
                "id": 15845, 
                "name": "Lelenaji", 
                "official": false, 
                "official_level": 0, 
                "role": null, 
                "verified_organization": null
            }, 
            "body": "<p>Trobo molt necessari q l'ajuntament es preocupi per la entrada i sortida de l'escola d'aquest xamfr\u00e0 perqu\u00e8 no \u00c9s Segura pels alumnes.</p>", 
            "commentable_id": 7167, 
            "commentable_type": "Proposal", 
            "created_at": "08/04/2016 12:05:38", 
            "flagged": false, 
            "hidden": false, 
            "id": 10576, 
            "moderator_id": null, 
            "permissions": {
                "hide": false, 
                "hide_author": false, 
                "vote": false
            }, 
            "total_dislikes": 0, 
            "total_likes": 0, 
            "total_votes": 0
        }
    ], 
    "meta": {
        "current_page": 2, 
        "next_page": 3, 
        "prev_page": 1, 
        "total_count": 44, 
        "total_pages": 3
    }
}