{
    "comments": [
        {
            "administrator_id": null, 
            "alignment": 0, 
            "ancestry": null, 
            "as": null, 
            "author": {
                "avatar_image": "https://decidim.barcelona/assets/avatar-866795c99abc33a3160d1f3fa93ada46eb75e54134e777666b9ed16215b26534.png", 
                "erased": false, 
                "hidden": false, 
                "id": 9262, 
                "name": "Suport General - Decidim Barcelona", 
                "official": false, 
                "official_level": 0, 
                "role": null, 
                "verified_organization": null
            }, 
            "body": "<p><a href=\"https://decidim.barcelona/proposals/prioritzar-els-accessos-pels-vianants-en-totes-les-entrades-als-parcs\">https://decidim.barcelona/proposals/prioritzar-els-accessos-pels-vianants-en-totes-les-entrades-als-parcs</a></p>", 
            "commentable_id": 8247, 
            "commentable_type": "Proposal", 
            "created_at": "13/04/2016 14:08:24", 
            "flagged": false, 
            "hidden": false, 
            "id": 14762, 
            "moderator_id": null, 
            "permissions": {
                "hide": false, 
                "hide_author": false, 
                "vote": false
            }, 
            "total_dislikes": 0, 
            "total_likes": 0, 
            "total_votes": 0
        }, 
        {
            "administrator_id": null, 
            "alignment": 0, 
            "ancestry": null, 
            "as": null, 
            "author": {
                "avatar_image": "https://decidim.barcelona/assets/avatar-866795c99abc33a3160d1f3fa93ada46eb75e54134e777666b9ed16215b26534.png", 
                "erased": false, 
                "hidden": false, 
                "id": 9262, 
                "name": "Suport General - Decidim Barcelona", 
                "official": false, 
                "official_level": 0, 
                "role": null, 
                "verified_organization": null
            }, 
            "body": "<p><a href=\"https://decidim.barcelona/proposals/endrecar-zones-d-aparcaments-treure-els-cotxes-i-fer-zones-verds-pels-veins-i-veines\">https://decidim.barcelona/proposals/endrecar-zones-d-aparcaments-treure-els-cotxes-i-fer-zones-verds-pels-veins-i-veines</a></p>", 
            "commentable_id": 8247, 
            "commentable_type": "Proposal", 
            "created_at": "13/04/2016 14:08:42", 
            "flagged": false, 
            "hidden": false, 
            "id": 14763, 
            "moderator_id": null, 
            "permissions": {
                "hide": false, 
                "hide_author": false, 
                "vote": false
            }, 
            "total_dislikes": 0, 
            "total_likes": 0, 
            "total_votes": 0
        }, 
        {
            "administrator_id": null, 
            "alignment": 0, 
            "ancestry": null, 
            "as": null, 
            "author": {
                "avatar_image": "https://decidim.barcelona/assets/avatar-866795c99abc33a3160d1f3fa93ada46eb75e54134e777666b9ed16215b26534.png", 
                "erased": false, 
                "hidden": false, 
                "id": 9262, 
                "name": "Suport General - Decidim Barcelona", 
                "official": false, 
                "official_level": 0, 
                "role": null, 
                "verified_organization": null
            }, 
            "body": "<p><a href=\"https://decidim.barcelona/proposals/el-carmel-en-aquesta-zona-falta-un-cami-mes-accessible-hi-ha-trams-per-accedir-per-son-dificils-i-no-conviden-aquest-es-un-espai-emblematic-i-popular\">https://decidim.barcelona/proposals/el-carmel-en-aquesta-zona-falta-un-cami-mes-accessible-hi-ha-trams-per-accedir-per-son-dificils-i-no-conviden-aquest-es-un-espai-emblematic-i-popular</a></p>", 
            "commentable_id": 8247, 
            "commentable_type": "Proposal", 
            "created_at": "13/04/2016 14:08:56", 
            "flagged": false, 
            "hidden": false, 
            "id": 14764, 
            "moderator_id": null, 
            "permissions": {
                "hide": false, 
                "hide_author": false, 
                "vote": false
            }, 
            "total_dislikes": 0, 
            "total_likes": 0, 
            "total_votes": 0
        }, 
        {
            "administrator_id": null, 
            "alignment": 0, 
            "ancestry": null, 
            "as": null, 
            "author": {
                "avatar_image": "https://decidim.barcelona/assets/avatar-866795c99abc33a3160d1f3fa93ada46eb75e54134e777666b9ed16215b26534.png", 
                "erased": false, 
                "hidden": false, 
                "id": 9262, 
                "name": "Suport General - Decidim Barcelona", 
                "official": false, 
                "official_level": 0, 
                "role": null, 
                "verified_organization": null
            }, 
            "body": "<p><a href=\"https://decidim.barcelona/proposals/la-creueta-es-un-terme-mig-entre-el-guell-i-el-carmel-te-un-bon-acces-i-cal-arranjar-alguns-camins\">https://decidim.barcelona/proposals/la-creueta-es-un-terme-mig-entre-el-guell-i-el-carmel-te-un-bon-acces-i-cal-arranjar-alguns-camins</a></p>", 
            "commentable_id": 8247, 
            "commentable_type": "Proposal", 
            "created_at": "13/04/2016 14:09:21", 
            "flagged": false, 
            "hidden": false, 
            "id": 14765, 
            "moderator_id": null, 
            "permissions": {
                "hide": false, 
                "hide_author": false, 
                "vote": false
            }, 
            "total_dislikes": 0, 
            "total_likes": 0, 
            "total_votes": 0
        }, 
        {
            "administrator_id": null, 
            "alignment": 0, 
            "ancestry": null, 
            "as": null, 
            "author": {
                "avatar_image": "https://decidim.barcelona/assets/avatar-866795c99abc33a3160d1f3fa93ada46eb75e54134e777666b9ed16215b26534.png", 
                "erased": false, 
                "hidden": false, 
                "id": 9262, 
                "name": "Suport General - Decidim Barcelona", 
                "official": false, 
                "official_level": 0, 
                "role": null, 
                "verified_organization": null
            }, 
            "body": "<p><a href=\"https://decidim.barcelona/proposals/afavorir-la-connectivitat-entre-els-parcs-amb-circuits-d-accessos-pels-vianants\">https://decidim.barcelona/proposals/afavorir-la-connectivitat-entre-els-parcs-amb-circuits-d-accessos-pels-vianants</a></p>", 
            "commentable_id": 8247, 
            "commentable_type": "Proposal", 
            "created_at": "13/04/2016 14:09:36", 
            "flagged": false, 
            "hidden": false, 
            "id": 14767, 
            "moderator_id": null, 
            "permissions": {
                "hide": false, 
                "hide_author": false, 
                "vote": false
            }, 
            "total_dislikes": 0, 
            "total_likes": 0, 
            "total_votes": 0
        }, 
        {
            "administrator_id": null, 
            "alignment": 0, 
            "ancestry": null, 
            "as": null, 
            "author": {
                "avatar_image": "https://decidim.barcelona/assets/avatar-866795c99abc33a3160d1f3fa93ada46eb75e54134e777666b9ed16215b26534.png", 
                "erased": false, 
                "hidden": false, 
                "id": 9262, 
                "name": "Suport General - Decidim Barcelona", 
                "official": false, 
                "official_level": 0, 
                "role": null, 
                "verified_organization": null
            }, 
            "body": "<p><a href=\"https://decidim.barcelona/proposals/mes-informacio-sobre-les-afectacions\">https://decidim.barcelona/proposals/mes-informacio-sobre-les-afectacions</a></p>", 
            "commentable_id": 8247, 
            "commentable_type": "Proposal", 
            "created_at": "13/04/2016 14:10:29", 
            "flagged": false, 
            "hidden": false, 
            "id": 14770, 
            "moderator_id": null, 
            "permissions": {
                "hide": false, 
                "hide_author": false, 
                "vote": false
            }, 
            "total_dislikes": 0, 
            "total_likes": 0, 
            "total_votes": 0
        }, 
        {
            "administrator_id": null, 
            "alignment": 0, 
            "ancestry": null, 
            "as": null, 
            "author": {
                "avatar_image": "https://decidim.barcelona/assets/avatar-866795c99abc33a3160d1f3fa93ada46eb75e54134e777666b9ed16215b26534.png", 
                "erased": false, 
                "hidden": false, 
                "id": 9262, 
                "name": "Suport General - Decidim Barcelona", 
                "official": false, 
                "official_level": 0, 
                "role": null, 
                "verified_organization": null
            }, 
            "body": "<p><a href=\"https://decidim.barcelona/proposals/aclarir-els-motius-de-la-iniciativa-actual-per-part-de-l-ajuntament-sobre-els-tres-turos-a-nivell-social-turistic-economic\">https://decidim.barcelona/proposals/aclarir-els-motius-de-la-iniciativa-actual-per-part-de-l-ajuntament-sobre-els-tres-turos-a-nivell-social-turistic-economic</a></p>", 
            "commentable_id": 8247, 
            "commentable_type": "Proposal", 
            "created_at": "13/04/2016 14:10:46", 
            "flagged": false, 
            "hidden": false, 
            "id": 14771, 
            "moderator_id": null, 
            "permissions": {
                "hide": false, 
                "hide_author": false, 
                "vote": false
            }, 
            "total_dislikes": 0, 
            "total_likes": 0, 
            "total_votes": 0
        }, 
        {
            "administrator_id": null, 
            "alignment": 0, 
            "ancestry": null, 
            "as": null, 
            "author": {
                "avatar_image": "https://decidim.barcelona/assets/avatar-866795c99abc33a3160d1f3fa93ada46eb75e54134e777666b9ed16215b26534.png", 
                "erased": false, 
                "hidden": false, 
                "id": 9262, 
                "name": "Suport General - Decidim Barcelona", 
                "official": false, 
                "official_level": 0, 
                "role": null, 
                "verified_organization": null
            }, 
            "body": "<p><a href=\"https://decidim.barcelona/proposals/donar-li-un-nom-als-parcs-perque-sigui-mes-proper-als-barris\">https://decidim.barcelona/proposals/donar-li-un-nom-als-parcs-perque-sigui-mes-proper-als-barris</a></p>", 
            "commentable_id": 8247, 
            "commentable_type": "Proposal", 
            "created_at": "13/04/2016 14:10:59", 
            "flagged": false, 
            "hidden": false, 
            "id": 14772, 
            "moderator_id": null, 
            "permissions": {
                "hide": false, 
                "hide_author": false, 
                "vote": false
            }, 
            "total_dislikes": 0, 
            "total_likes": 0, 
            "total_votes": 0
        }, 
        {
            "administrator_id": null, 
            "alignment": 0, 
            "ancestry": null, 
            "as": null, 
            "author": {
                "avatar_image": "https://decidim.barcelona/assets/avatar-866795c99abc33a3160d1f3fa93ada46eb75e54134e777666b9ed16215b26534.png", 
                "erased": false, 
                "hidden": false, 
                "id": 9262, 
                "name": "Suport General - Decidim Barcelona", 
                "official": false, 
                "official_level": 0, 
                "role": null, 
                "verified_organization": null
            }, 
            "body": "<p><a href=\"https://decidim.barcelona/proposals/els-accessos-que-es-trenquin-siguin-pocs-els-necessaris-el-model-hauria-de-ser-d-un-parc-obert\">https://decidim.barcelona/proposals/els-accessos-que-es-trenquin-siguin-pocs-els-necessaris-el-model-hauria-de-ser-d-un-parc-obert</a></p>", 
            "commentable_id": 8247, 
            "commentable_type": "Proposal", 
            "created_at": "13/04/2016 14:11:13", 
            "flagged": false, 
            "hidden": false, 
            "id": 14774, 
            "moderator_id": null, 
            "permissions": {
                "hide": false, 
                "hide_author": false, 
                "vote": false
            }, 
            "total_dislikes": 0, 
            "total_likes": 0, 
            "total_votes": 0
        }, 
        {
            "administrator_id": null, 
            "alignment": 0, 
            "ancestry": null, 
            "as": null, 
            "author": {
                "avatar_image": "https://decidim.barcelona/assets/avatar-866795c99abc33a3160d1f3fa93ada46eb75e54134e777666b9ed16215b26534.png", 
                "erased": false, 
                "hidden": false, 
                "id": 9262, 
                "name": "Suport General - Decidim Barcelona", 
                "official": false, 
                "official_level": 0, 
                "role": null, 
                "verified_organization": null
            }, 
            "body": "<p><a href=\"https://decidim.barcelona/proposals/potenciar-mes-el-vinculo-de-les-escoles-amb-el-parc\">https://decidim.barcelona/proposals/potenciar-mes-el-vinculo-de-les-escoles-amb-el-parc</a></p>", 
            "commentable_id": 8247, 
            "commentable_type": "Proposal", 
            "created_at": "13/04/2016 14:11:27", 
            "flagged": false, 
            "hidden": false, 
            "id": 14775, 
            "moderator_id": null, 
            "permissions": {
                "hide": false, 
                "hide_author": false, 
                "vote": false
            }, 
            "total_dislikes": 0, 
            "total_likes": 0, 
            "total_votes": 0
        }, 
        {
            "administrator_id": null, 
            "alignment": 0, 
            "ancestry": null, 
            "as": null, 
            "author": {
                "avatar_image": "https://decidim.barcelona/assets/avatar-866795c99abc33a3160d1f3fa93ada46eb75e54134e777666b9ed16215b26534.png", 
                "erased": false, 
                "hidden": false, 
                "id": 9262, 
                "name": "Suport General - Decidim Barcelona", 
                "official": false, 
                "official_level": 0, 
                "role": null, 
                "verified_organization": null
            }, 
            "body": "<p><a href=\"https://decidim.barcelona/proposals/pels-accesos-seguir-l-exemple-del-carrer-morato-que-es-una-via-d-acces-al-parc\">https://decidim.barcelona/proposals/pels-accesos-seguir-l-exemple-del-carrer-morato-que-es-una-via-d-acces-al-parc</a></p>", 
            "commentable_id": 8247, 
            "commentable_type": "Proposal", 
            "created_at": "13/04/2016 14:11:42", 
            "flagged": false, 
            "hidden": false, 
            "id": 14776, 
            "moderator_id": null, 
            "permissions": {
                "hide": false, 
                "hide_author": false, 
                "vote": false
            }, 
            "total_dislikes": 0, 
            "total_likes": 0, 
            "total_votes": 0
        }, 
        {
            "administrator_id": null, 
            "alignment": 0, 
            "ancestry": null, 
            "as": null, 
            "author": {
                "avatar_image": "https://decidim.barcelona/assets/avatar-866795c99abc33a3160d1f3fa93ada46eb75e54134e777666b9ed16215b26534.png", 
                "erased": false, 
                "hidden": false, 
                "id": 9262, 
                "name": "Suport General - Decidim Barcelona", 
                "official": false, 
                "official_level": 0, 
                "role": null, 
                "verified_organization": null
            }, 
            "body": "<p><a href=\"https://decidim.barcelona/proposals/es-reclama-una-major-participacio-i-la-conformacio-un-comite-amb-veins-i-veines-tecnics-sobre-tres-turons-amb-reunions-periodiques-i-continuitat-en-la-presa-de-decisions\">https://decidim.barcelona/proposals/es-reclama-una-major-participacio-i-la-conformacio-un-comite-amb-veins-i-veines-tecnics-sobre-tres-turons-amb-reunions-periodiques-i-continuitat-en-la-presa-de-decisions</a></p>", 
            "commentable_id": 8247, 
            "commentable_type": "Proposal", 
            "created_at": "13/04/2016 14:11:56", 
            "flagged": false, 
            "hidden": false, 
            "id": 14777, 
            "moderator_id": null, 
            "permissions": {
                "hide": false, 
                "hide_author": false, 
                "vote": false
            }, 
            "total_dislikes": 0, 
            "total_likes": 0, 
            "total_votes": 0
        }, 
        {
            "administrator_id": null, 
            "alignment": 0, 
            "ancestry": null, 
            "as": null, 
            "author": {
                "avatar_image": "https://decidim.barcelona/assets/avatar-866795c99abc33a3160d1f3fa93ada46eb75e54134e777666b9ed16215b26534.png", 
                "erased": false, 
                "hidden": false, 
                "id": 9262, 
                "name": "Suport General - Decidim Barcelona", 
                "official": false, 
                "official_level": 0, 
                "role": null, 
                "verified_organization": null
            }, 
            "body": "<p><a href=\"https://decidim.barcelona/proposals/respectar-els-camins-de-terra-natural-no-fer-camins-forestals-nous-recuperar-les-fons-i-aqueductes-del-parc-restaurar-los-i-senyalitzar-los\">https://decidim.barcelona/proposals/respectar-els-camins-de-terra-natural-no-fer-camins-forestals-nous-recuperar-les-fons-i-aqueductes-del-parc-restaurar-los-i-senyalitzar-los</a></p>", 
            "commentable_id": 8247, 
            "commentable_type": "Proposal", 
            "created_at": "13/04/2016 14:12:09", 
            "flagged": false, 
            "hidden": false, 
            "id": 14778, 
            "moderator_id": null, 
            "permissions": {
                "hide": false, 
                "hide_author": false, 
                "vote": false
            }, 
            "total_dislikes": 0, 
            "total_likes": 0, 
            "total_votes": 0
        }, 
        {
            "administrator_id": null, 
            "alignment": 0, 
            "ancestry": null, 
            "as": null, 
            "author": {
                "avatar_image": "https://decidim.barcelona/assets/avatar-866795c99abc33a3160d1f3fa93ada46eb75e54134e777666b9ed16215b26534.png", 
                "erased": false, 
                "hidden": false, 
                "id": 9262, 
                "name": "Suport General - Decidim Barcelona", 
                "official": false, 
                "official_level": 0, 
                "role": null, 
                "verified_organization": null
            }, 
            "body": "<p><a href=\"https://decidim.barcelona/proposals/unio-del-putxet-als-corredors-verds\">https://decidim.barcelona/proposals/unio-del-putxet-als-corredors-verds</a></p>", 
            "commentable_id": 8247, 
            "commentable_type": "Proposal", 
            "created_at": "13/04/2016 14:12:22", 
            "flagged": false, 
            "hidden": false, 
            "id": 14779, 
            "moderator_id": null, 
            "permissions": {
                "hide": false, 
                "hide_author": false, 
                "vote": false
            }, 
            "total_dislikes": 0, 
            "total_likes": 0, 
            "total_votes": 0
        }, 
        {
            "administrator_id": null, 
            "alignment": 0, 
            "ancestry": null, 
            "as": null, 
            "author": {
                "avatar_image": "https://decidim.barcelona/assets/avatar-866795c99abc33a3160d1f3fa93ada46eb75e54134e777666b9ed16215b26534.png", 
                "erased": false, 
                "hidden": false, 
                "id": 9262, 
                "name": "Suport General - Decidim Barcelona", 
                "official": false, 
                "official_level": 0, 
                "role": null, 
                "verified_organization": null
            }, 
            "body": "<p><a href=\"https://decidim.barcelona/proposals/urbanitzar-camins-per-arribar-al-cim-de-la-muntanya-pelada\">https://decidim.barcelona/proposals/urbanitzar-camins-per-arribar-al-cim-de-la-muntanya-pelada</a></p>", 
            "commentable_id": 8247, 
            "commentable_type": "Proposal", 
            "created_at": "13/04/2016 23:53:08", 
            "flagged": false, 
            "hidden": false, 
            "id": 15077, 
            "moderator_id": null, 
            "permissions": {
                "hide": false, 
                "hide_author": false, 
                "vote": false
            }, 
            "total_dislikes": 0, 
            "total_likes": 0, 
            "total_votes": 0
        }, 
        {
            "administrator_id": null, 
            "alignment": 0, 
            "ancestry": null, 
            "as": null, 
            "author": {
                "avatar_image": "https://decidim.barcelona/assets/avatar-866795c99abc33a3160d1f3fa93ada46eb75e54134e777666b9ed16215b26534.png", 
                "erased": false, 
                "hidden": false, 
                "id": 9262, 
                "name": "Suport General - Decidim Barcelona", 
                "official": false, 
                "official_level": 0, 
                "role": null, 
                "verified_organization": null
            }, 
            "body": "<p><a href=\"https://decidim.barcelona/proposals/entrega-del-parc-a-la-ciutat\">https://decidim.barcelona/proposals/entrega-del-parc-a-la-ciutat</a></p>", 
            "commentable_id": 8247, 
            "commentable_type": "Proposal", 
            "created_at": "13/04/2016 23:55:10", 
            "flagged": false, 
            "hidden": false, 
            "id": 15079, 
            "moderator_id": null, 
            "permissions": {
                "hide": false, 
                "hide_author": false, 
                "vote": false
            }, 
            "total_dislikes": 0, 
            "total_likes": 0, 
            "total_votes": 0
        }, 
        {
            "administrator_id": null, 
            "alignment": 0, 
            "ancestry": null, 
            "as": null, 
            "author": {
                "avatar_image": "https://decidim.barcelona/assets/avatar-866795c99abc33a3160d1f3fa93ada46eb75e54134e777666b9ed16215b26534.png", 
                "erased": false, 
                "hidden": false, 
                "id": 9262, 
                "name": "Suport General - Decidim Barcelona", 
                "official": false, 
                "official_level": 0, 
                "role": null, 
                "verified_organization": null
            }, 
            "body": "<p><a href=\"https://decidim.barcelona/proposals/mirador-adal-al-turo-montanya-pelada\">https://decidim.barcelona/proposals/mirador-adal-al-turo-montanya-pelada</a></p>", 
            "commentable_id": 8247, 
            "commentable_type": "Proposal", 
            "created_at": "13/04/2016 23:55:47", 
            "flagged": false, 
            "hidden": false, 
            "id": 15080, 
            "moderator_id": null, 
            "permissions": {
                "hide": false, 
                "hide_author": false, 
                "vote": false
            }, 
            "total_dislikes": 0, 
            "total_likes": 0, 
            "total_votes": 0
        }, 
        {
            "administrator_id": null, 
            "alignment": 0, 
            "ancestry": null, 
            "as": null, 
            "author": {
                "avatar_image": "https://decidim.barcelona/assets/avatar-866795c99abc33a3160d1f3fa93ada46eb75e54134e777666b9ed16215b26534.png", 
                "erased": false, 
                "hidden": false, 
                "id": 9262, 
                "name": "Suport General - Decidim Barcelona", 
                "official": false, 
                "official_level": 0, 
                "role": null, 
                "verified_organization": null
            }, 
            "body": "<p><a href=\"https://decidim.barcelona/proposals/organitzar-els-accessos-al-parc-guell\">https://decidim.barcelona/proposals/organitzar-els-accessos-al-parc-guell</a></p>", 
            "commentable_id": 8247, 
            "commentable_type": "Proposal", 
            "created_at": "14/04/2016 00:03:43", 
            "flagged": false, 
            "hidden": false, 
            "id": 15084, 
            "moderator_id": null, 
            "permissions": {
                "hide": false, 
                "hide_author": false, 
                "vote": false
            }, 
            "total_dislikes": 0, 
            "total_likes": 0, 
            "total_votes": 0
        }, 
        {
            "administrator_id": null, 
            "alignment": 0, 
            "ancestry": null, 
            "as": null, 
            "author": {
                "avatar_image": "https://decidim.barcelona/assets/avatar-866795c99abc33a3160d1f3fa93ada46eb75e54134e777666b9ed16215b26534.png", 
                "erased": false, 
                "hidden": false, 
                "id": 9262, 
                "name": "Suport General - Decidim Barcelona", 
                "official": false, 
                "official_level": 0, 
                "role": null, 
                "verified_organization": null
            }, 
            "body": "<p><a href=\"https://decidim.barcelona/proposals/recuperar-i-acondicionar-el-bosc-per-usos-diversos\">https://decidim.barcelona/proposals/recuperar-i-acondicionar-el-bosc-per-usos-diversos</a></p>", 
            "commentable_id": 8247, 
            "commentable_type": "Proposal", 
            "created_at": "14/04/2016 00:07:25", 
            "flagged": false, 
            "hidden": false, 
            "id": 15088, 
            "moderator_id": null, 
            "permissions": {
                "hide": false, 
                "hide_author": false, 
                "vote": false
            }, 
            "total_dislikes": 0, 
            "total_likes": 0, 
            "total_votes": 0
        }, 
        {
            "administrator_id": null, 
            "alignment": 0, 
            "ancestry": null, 
            "as": null, 
            "author": {
                "avatar_image": "https://decidim.barcelona/assets/avatar-866795c99abc33a3160d1f3fa93ada46eb75e54134e777666b9ed16215b26534.png", 
                "erased": false, 
                "hidden": false, 
                "id": 9262, 
                "name": "Suport General - Decidim Barcelona", 
                "official": false, 
                "official_level": 0, 
                "role": null, 
                "verified_organization": null
            }, 
            "body": "<p><a href=\"https://decidim.barcelona/proposals/arranjament-dels-accessos-i-camins-dels-parcs\">https://decidim.barcelona/proposals/arranjament-dels-accessos-i-camins-dels-parcs</a></p>", 
            "commentable_id": 8247, 
            "commentable_type": "Proposal", 
            "created_at": "14/04/2016 00:09:07", 
            "flagged": false, 
            "hidden": false, 
            "id": 15091, 
            "moderator_id": null, 
            "permissions": {
                "hide": false, 
                "hide_author": false, 
                "vote": false
            }, 
            "total_dislikes": 0, 
            "total_likes": 0, 
            "total_votes": 0
        }
    ], 
    "meta": {
        "current_page": 1, 
        "next_page": 2, 
        "prev_page": null, 
        "total_count": 21, 
        "total_pages": 2
    }
}