{
    "comments": [
        {
            "administrator_id": null, 
            "alignment": 0, 
            "ancestry": null, 
            "as": null, 
            "author": {
                "avatar_image": "https://decidim.barcelona/assets/avatar-866795c99abc33a3160d1f3fa93ada46eb75e54134e777666b9ed16215b26534.png", 
                "erased": false, 
                "hidden": false, 
                "id": 9262, 
                "name": "Suport General - Decidim Barcelona", 
                "official": false, 
                "official_level": 0, 
                "role": null, 
                "verified_organization": null
            }, 
            "body": "<p><a href=\"https://decidim.barcelona/proposals/rebaixar-l-edat-d-us-del-bicing-als-14-anys\">https://decidim.barcelona/proposals/rebaixar-l-edat-d-us-del-bicing-als-14-anys</a></p>", 
            "commentable_id": 8748, 
            "commentable_type": "Proposal", 
            "created_at": "17/04/2016 16:30:42", 
            "flagged": false, 
            "hidden": false, 
            "id": 18623, 
            "moderator_id": null, 
            "permissions": {
                "hide": false, 
                "hide_author": false, 
                "vote": false
            }, 
            "total_dislikes": 0, 
            "total_likes": 0, 
            "total_votes": 0
        }, 
        {
            "administrator_id": null, 
            "alignment": 0, 
            "ancestry": null, 
            "as": null, 
            "author": {
                "avatar_image": "https://decidim.barcelona/assets/avatar-866795c99abc33a3160d1f3fa93ada46eb75e54134e777666b9ed16215b26534.png", 
                "erased": false, 
                "hidden": false, 
                "id": 9262, 
                "name": "Suport General - Decidim Barcelona", 
                "official": false, 
                "official_level": 0, 
                "role": null, 
                "verified_organization": null
            }, 
            "body": "<p><a href=\"https://decidim.barcelona/proposals/crear-un-bicing-amb-bicicletes-electriques\">https://decidim.barcelona/proposals/crear-un-bicing-amb-bicicletes-electriques</a></p>", 
            "commentable_id": 8748, 
            "commentable_type": "Proposal", 
            "created_at": "17/04/2016 16:31:05", 
            "flagged": false, 
            "hidden": false, 
            "id": 18624, 
            "moderator_id": null, 
            "permissions": {
                "hide": false, 
                "hide_author": false, 
                "vote": false
            }, 
            "total_dislikes": 0, 
            "total_likes": 0, 
            "total_votes": 0
        }, 
        {
            "administrator_id": null, 
            "alignment": 0, 
            "ancestry": null, 
            "as": null, 
            "author": {
                "avatar_image": "https://decidim.barcelona/assets/avatar-866795c99abc33a3160d1f3fa93ada46eb75e54134e777666b9ed16215b26534.png", 
                "erased": false, 
                "hidden": false, 
                "id": 9262, 
                "name": "Suport General - Decidim Barcelona", 
                "official": false, 
                "official_level": 0, 
                "role": null, 
                "verified_organization": null
            }, 
            "body": "<p><a href=\"https://decidim.barcelona/proposals/distribucion-justa-del-bicing-ya-en-los-barrios-altos-de-barcelona\">https://decidim.barcelona/proposals/distribucion-justa-del-bicing-ya-en-los-barrios-altos-de-barcelona</a></p>", 
            "commentable_id": 8748, 
            "commentable_type": "Proposal", 
            "created_at": "17/04/2016 16:31:25", 
            "flagged": false, 
            "hidden": false, 
            "id": 18625, 
            "moderator_id": null, 
            "permissions": {
                "hide": false, 
                "hide_author": false, 
                "vote": false
            }, 
            "total_dislikes": 0, 
            "total_likes": 0, 
            "total_votes": 0
        }, 
        {
            "administrator_id": null, 
            "alignment": 0, 
            "ancestry": null, 
            "as": null, 
            "author": {
                "avatar_image": "https://decidim.barcelona/assets/avatar-866795c99abc33a3160d1f3fa93ada46eb75e54134e777666b9ed16215b26534.png", 
                "erased": false, 
                "hidden": false, 
                "id": 9262, 
                "name": "Suport General - Decidim Barcelona", 
                "official": false, 
                "official_level": 0, 
                "role": null, 
                "verified_organization": null
            }, 
            "body": "<p><a href=\"https://decidim.barcelona/proposals/rebaixar-l-edat-d-us-del-bicing-als-16-anys\">https://decidim.barcelona/proposals/rebaixar-l-edat-d-us-del-bicing-als-16-anys</a></p>", 
            "commentable_id": 8748, 
            "commentable_type": "Proposal", 
            "created_at": "17/04/2016 16:31:44", 
            "flagged": false, 
            "hidden": false, 
            "id": 18626, 
            "moderator_id": null, 
            "permissions": {
                "hide": false, 
                "hide_author": false, 
                "vote": false
            }, 
            "total_dislikes": 0, 
            "total_likes": 0, 
            "total_votes": 0
        }
    ], 
    "meta": {
        "current_page": 2, 
        "next_page": null, 
        "prev_page": 1, 
        "total_count": 24, 
        "total_pages": 2
    }
}