{
    "comments": [
        {
            "administrator_id": null, 
            "alignment": 0, 
            "ancestry": null, 
            "as": null, 
            "author": {
                "avatar_image": "https://decidim.barcelona/assets/avatar-866795c99abc33a3160d1f3fa93ada46eb75e54134e777666b9ed16215b26534.png", 
                "erased": false, 
                "hidden": false, 
                "id": 17741, 
                "name": "Suport General3 - Decidim Barcelona", 
                "official": false, 
                "official_level": 0, 
                "role": null, 
                "verified_organization": null
            }, 
            "body": "<p><a href=\"https://decidim.barcelona/proposals/desprivatitzar-el-servei-de-bicicletes-bicing\">https://decidim.barcelona/proposals/desprivatitzar-el-servei-de-bicicletes-bicing</a></p>", 
            "commentable_id": 8748, 
            "commentable_type": "Proposal", 
            "created_at": "09/04/2016 16:05:22", 
            "flagged": false, 
            "hidden": false, 
            "id": 12459, 
            "moderator_id": null, 
            "permissions": {
                "hide": false, 
                "hide_author": false, 
                "vote": false
            }, 
            "total_dislikes": 0, 
            "total_likes": 0, 
            "total_votes": 0
        }, 
        {
            "administrator_id": null, 
            "alignment": 0, 
            "ancestry": null, 
            "as": null, 
            "author": {
                "avatar_image": "https://decidim.barcelona/assets/avatar-866795c99abc33a3160d1f3fa93ada46eb75e54134e777666b9ed16215b26534.png", 
                "erased": false, 
                "hidden": false, 
                "id": 17741, 
                "name": "Suport General3 - Decidim Barcelona", 
                "official": false, 
                "official_level": 0, 
                "role": null, 
                "verified_organization": null
            }, 
            "body": "<p><a href=\"https://decidim.barcelona/proposals/garantir-l-acces-de-les-persones-joves-i-entitats-juvenils-al-transport-public\">https://decidim.barcelona/proposals/garantir-l-acces-de-les-persones-joves-i-entitats-juvenils-al-transport-public</a></p>", 
            "commentable_id": 8748, 
            "commentable_type": "Proposal", 
            "created_at": "09/04/2016 16:06:13", 
            "flagged": false, 
            "hidden": false, 
            "id": 12460, 
            "moderator_id": null, 
            "permissions": {
                "hide": false, 
                "hide_author": false, 
                "vote": false
            }, 
            "total_dislikes": 0, 
            "total_likes": 0, 
            "total_votes": 0
        }, 
        {
            "administrator_id": null, 
            "alignment": 0, 
            "ancestry": null, 
            "as": null, 
            "author": {
                "avatar_image": "https://decidim.barcelona/assets/avatar-866795c99abc33a3160d1f3fa93ada46eb75e54134e777666b9ed16215b26534.png", 
                "erased": false, 
                "hidden": false, 
                "id": 17741, 
                "name": "Suport General3 - Decidim Barcelona", 
                "official": false, 
                "official_level": 0, 
                "role": null, 
                "verified_organization": null
            }, 
            "body": "<p><a href=\"https://decidim.barcelona/proposals/bicing\">https://decidim.barcelona/proposals/bicing</a></p>", 
            "commentable_id": 8748, 
            "commentable_type": "Proposal", 
            "created_at": "09/04/2016 16:06:33", 
            "flagged": false, 
            "hidden": false, 
            "id": 12461, 
            "moderator_id": null, 
            "permissions": {
                "hide": false, 
                "hide_author": false, 
                "vote": false
            }, 
            "total_dislikes": 0, 
            "total_likes": 0, 
            "total_votes": 0
        }, 
        {
            "administrator_id": null, 
            "alignment": 0, 
            "ancestry": null, 
            "as": null, 
            "author": {
                "avatar_image": "https://decidim.barcelona/assets/avatar-866795c99abc33a3160d1f3fa93ada46eb75e54134e777666b9ed16215b26534.png", 
                "erased": false, 
                "hidden": false, 
                "id": 17741, 
                "name": "Suport General3 - Decidim Barcelona", 
                "official": false, 
                "official_level": 0, 
                "role": null, 
                "verified_organization": null
            }, 
            "body": "<p><a href=\"https://decidim.barcelona/proposals/bicing-zero-emissions\">https://decidim.barcelona/proposals/bicing-zero-emissions</a></p>", 
            "commentable_id": 8748, 
            "commentable_type": "Proposal", 
            "created_at": "09/04/2016 16:06:57", 
            "flagged": false, 
            "hidden": false, 
            "id": 12462, 
            "moderator_id": null, 
            "permissions": {
                "hide": false, 
                "hide_author": false, 
                "vote": false
            }, 
            "total_dislikes": 0, 
            "total_likes": 0, 
            "total_votes": 0
        }, 
        {
            "administrator_id": null, 
            "alignment": 0, 
            "ancestry": null, 
            "as": null, 
            "author": {
                "avatar_image": "https://decidim.barcelona/assets/avatar-866795c99abc33a3160d1f3fa93ada46eb75e54134e777666b9ed16215b26534.png", 
                "erased": false, 
                "hidden": false, 
                "id": 17741, 
                "name": "Suport General3 - Decidim Barcelona", 
                "official": false, 
                "official_level": 0, 
                "role": null, 
                "verified_organization": null
            }, 
            "body": "<p><a href=\"https://decidim.barcelona/proposals/servei-de-bicing-a-prosperitat-horta-carmel-vall-d-hebron-la-bonanova-etc\">https://decidim.barcelona/proposals/servei-de-bicing-a-prosperitat-horta-carmel-vall-d-hebron-la-bonanova-etc</a></p>", 
            "commentable_id": 8748, 
            "commentable_type": "Proposal", 
            "created_at": "09/04/2016 16:07:50", 
            "flagged": false, 
            "hidden": false, 
            "id": 12464, 
            "moderator_id": null, 
            "permissions": {
                "hide": false, 
                "hide_author": false, 
                "vote": false
            }, 
            "total_dislikes": 0, 
            "total_likes": 0, 
            "total_votes": 0
        }, 
        {
            "administrator_id": null, 
            "alignment": 0, 
            "ancestry": null, 
            "as": null, 
            "author": {
                "avatar_image": "https://decidim.barcelona/assets/avatar-866795c99abc33a3160d1f3fa93ada46eb75e54134e777666b9ed16215b26534.png", 
                "erased": false, 
                "hidden": false, 
                "id": 17741, 
                "name": "Suport General3 - Decidim Barcelona", 
                "official": false, 
                "official_level": 0, 
                "role": null, 
                "verified_organization": null
            }, 
            "body": "<p><a href=\"https://decidim.barcelona/proposals/compensar-el-precio-del-bicing-en-funcion-del-desnivel-recorrido-por-el-usuario\">https://decidim.barcelona/proposals/compensar-el-precio-del-bicing-en-funcion-del-desnivel-recorrido-por-el-usuario</a></p>", 
            "commentable_id": 8748, 
            "commentable_type": "Proposal", 
            "created_at": "09/04/2016 16:08:05", 
            "flagged": false, 
            "hidden": false, 
            "id": 12465, 
            "moderator_id": null, 
            "permissions": {
                "hide": false, 
                "hide_author": false, 
                "vote": false
            }, 
            "total_dislikes": 0, 
            "total_likes": 0, 
            "total_votes": 0
        }, 
        {
            "administrator_id": null, 
            "alignment": 0, 
            "ancestry": null, 
            "as": null, 
            "author": {
                "avatar_image": "https://decidim.barcelona/assets/avatar-866795c99abc33a3160d1f3fa93ada46eb75e54134e777666b9ed16215b26534.png", 
                "erased": false, 
                "hidden": false, 
                "id": 17741, 
                "name": "Suport General3 - Decidim Barcelona", 
                "official": false, 
                "official_level": 0, 
                "role": null, 
                "verified_organization": null
            }, 
            "body": "<p><a href=\"https://decidim.barcelona/proposals/desprivatitzar-el-servei-de-bicicletes-bicing\">https://decidim.barcelona/proposals/desprivatitzar-el-servei-de-bicicletes-bicing</a></p>", 
            "commentable_id": 8748, 
            "commentable_type": "Proposal", 
            "created_at": "09/04/2016 16:08:16", 
            "flagged": false, 
            "hidden": false, 
            "id": 12466, 
            "moderator_id": null, 
            "permissions": {
                "hide": false, 
                "hide_author": false, 
                "vote": false
            }, 
            "total_dislikes": 0, 
            "total_likes": 0, 
            "total_votes": 0
        }, 
        {
            "administrator_id": null, 
            "alignment": 0, 
            "ancestry": null, 
            "as": null, 
            "author": {
                "avatar_image": "https://decidim.barcelona/assets/avatar-866795c99abc33a3160d1f3fa93ada46eb75e54134e777666b9ed16215b26534.png", 
                "erased": false, 
                "hidden": false, 
                "id": 17741, 
                "name": "Suport General3 - Decidim Barcelona", 
                "official": false, 
                "official_level": 0, 
                "role": null, 
                "verified_organization": null
            }, 
            "body": "<p><a href=\"https://decidim.barcelona/proposals/bicing-per-punts-per-reduir-costos-del-sistema-i-despeses-a-usuaris-compromesos\">https://decidim.barcelona/proposals/bicing-per-punts-per-reduir-costos-del-sistema-i-despeses-a-usuaris-compromesos</a></p>", 
            "commentable_id": 8748, 
            "commentable_type": "Proposal", 
            "created_at": "09/04/2016 16:08:30", 
            "flagged": false, 
            "hidden": false, 
            "id": 12467, 
            "moderator_id": null, 
            "permissions": {
                "hide": false, 
                "hide_author": false, 
                "vote": false
            }, 
            "total_dislikes": 0, 
            "total_likes": 0, 
            "total_votes": 0
        }, 
        {
            "administrator_id": null, 
            "alignment": 0, 
            "ancestry": null, 
            "as": null, 
            "author": {
                "avatar_image": "https://decidim.barcelona/assets/avatar-866795c99abc33a3160d1f3fa93ada46eb75e54134e777666b9ed16215b26534.png", 
                "erased": false, 
                "hidden": false, 
                "id": 17741, 
                "name": "Suport General3 - Decidim Barcelona", 
                "official": false, 
                "official_level": 0, 
                "role": null, 
                "verified_organization": null
            }, 
            "body": "<p><a href=\"https://decidim.barcelona/proposals/recolocar-les-parades-del-sistema-de-bicicletes-publiques-al-costat-dels-carrils-bici-de-la-ciutat\">https://decidim.barcelona/proposals/recolocar-les-parades-del-sistema-de-bicicletes-publiques-al-costat-dels-carrils-bici-de-la-ciutat</a></p>", 
            "commentable_id": 8748, 
            "commentable_type": "Proposal", 
            "created_at": "09/04/2016 16:08:52", 
            "flagged": false, 
            "hidden": false, 
            "id": 12468, 
            "moderator_id": null, 
            "permissions": {
                "hide": false, 
                "hide_author": false, 
                "vote": false
            }, 
            "total_dislikes": 0, 
            "total_likes": 0, 
            "total_votes": 0
        }, 
        {
            "administrator_id": null, 
            "alignment": 0, 
            "ancestry": null, 
            "as": null, 
            "author": {
                "avatar_image": "https://decidim.barcelona/assets/avatar-866795c99abc33a3160d1f3fa93ada46eb75e54134e777666b9ed16215b26534.png", 
                "erased": false, 
                "hidden": false, 
                "id": 17741, 
                "name": "Suport General3 - Decidim Barcelona", 
                "official": false, 
                "official_level": 0, 
                "role": null, 
                "verified_organization": null
            }, 
            "body": "<p><a href=\"https://decidim.barcelona/proposals/revisio-tarificacio-bicing\">https://decidim.barcelona/proposals/revisio-tarificacio-bicing</a></p>", 
            "commentable_id": 8748, 
            "commentable_type": "Proposal", 
            "created_at": "09/04/2016 16:09:08", 
            "flagged": false, 
            "hidden": false, 
            "id": 12469, 
            "moderator_id": null, 
            "permissions": {
                "hide": false, 
                "hide_author": false, 
                "vote": false
            }, 
            "total_dislikes": 0, 
            "total_likes": 0, 
            "total_votes": 0
        }, 
        {
            "administrator_id": null, 
            "alignment": 0, 
            "ancestry": null, 
            "as": null, 
            "author": {
                "avatar_image": "https://decidim.barcelona/assets/avatar-866795c99abc33a3160d1f3fa93ada46eb75e54134e777666b9ed16215b26534.png", 
                "erased": false, 
                "hidden": false, 
                "id": 17741, 
                "name": "Suport General3 - Decidim Barcelona", 
                "official": false, 
                "official_level": 0, 
                "role": null, 
                "verified_organization": null
            }, 
            "body": "<p><a href=\"https://decidim.barcelona/proposals/omplir-amb-mes-frequencia-els-bicings-de-zona-universitaria\">https://decidim.barcelona/proposals/omplir-amb-mes-frequencia-els-bicings-de-zona-universitaria</a></p>", 
            "commentable_id": 8748, 
            "commentable_type": "Proposal", 
            "created_at": "09/04/2016 16:09:34", 
            "flagged": false, 
            "hidden": false, 
            "id": 12470, 
            "moderator_id": null, 
            "permissions": {
                "hide": false, 
                "hide_author": false, 
                "vote": false
            }, 
            "total_dislikes": 0, 
            "total_likes": 0, 
            "total_votes": 0
        }, 
        {
            "administrator_id": null, 
            "alignment": 0, 
            "ancestry": null, 
            "as": null, 
            "author": {
                "avatar_image": "https://decidim.barcelona/assets/avatar-866795c99abc33a3160d1f3fa93ada46eb75e54134e777666b9ed16215b26534.png", 
                "erased": false, 
                "hidden": false, 
                "id": 17741, 
                "name": "Suport General3 - Decidim Barcelona", 
                "official": false, 
                "official_level": 0, 
                "role": null, 
                "verified_organization": null
            }, 
            "body": "<p><a href=\"https://decidim.barcelona/proposals/pagament-amb-targeta-de-credit-contactless-a-tmb-i-al-bicing\">https://decidim.barcelona/proposals/pagament-amb-targeta-de-credit-contactless-a-tmb-i-al-bicing</a></p>", 
            "commentable_id": 8748, 
            "commentable_type": "Proposal", 
            "created_at": "09/04/2016 16:10:06", 
            "flagged": false, 
            "hidden": false, 
            "id": 12472, 
            "moderator_id": null, 
            "permissions": {
                "hide": false, 
                "hide_author": false, 
                "vote": false
            }, 
            "total_dislikes": 0, 
            "total_likes": 0, 
            "total_votes": 0
        }, 
        {
            "administrator_id": null, 
            "alignment": 0, 
            "ancestry": null, 
            "as": null, 
            "author": {
                "avatar_image": "https://decidim.barcelona/assets/avatar-866795c99abc33a3160d1f3fa93ada46eb75e54134e777666b9ed16215b26534.png", 
                "erased": false, 
                "hidden": false, 
                "id": 17741, 
                "name": "Suport General3 - Decidim Barcelona", 
                "official": false, 
                "official_level": 0, 
                "role": null, 
                "verified_organization": null
            }, 
            "body": "<p><a href=\"https://decidim.barcelona/proposals/incentivar-a-l-usuari-del-bicing-a-tenir-la-seva-bicicleta-privada\">https://decidim.barcelona/proposals/incentivar-a-l-usuari-del-bicing-a-tenir-la-seva-bicicleta-privada</a></p>", 
            "commentable_id": 8748, 
            "commentable_type": "Proposal", 
            "created_at": "09/04/2016 16:10:46", 
            "flagged": false, 
            "hidden": false, 
            "id": 12473, 
            "moderator_id": null, 
            "permissions": {
                "hide": false, 
                "hide_author": false, 
                "vote": false
            }, 
            "total_dislikes": 0, 
            "total_likes": 0, 
            "total_votes": 0
        }, 
        {
            "administrator_id": null, 
            "alignment": 0, 
            "ancestry": null, 
            "as": null, 
            "author": {
                "avatar_image": "https://decidim.barcelona/assets/avatar-866795c99abc33a3160d1f3fa93ada46eb75e54134e777666b9ed16215b26534.png", 
                "erased": false, 
                "hidden": false, 
                "id": 17741, 
                "name": "Suport General3 - Decidim Barcelona", 
                "official": false, 
                "official_level": 0, 
                "role": null, 
                "verified_organization": null
            }, 
            "body": "<p><a href=\"https://decidim.barcelona/proposals/la-bicicleta-publica-a-barcelona-bicing\">https://decidim.barcelona/proposals/la-bicicleta-publica-a-barcelona-bicing</a></p>", 
            "commentable_id": 8748, 
            "commentable_type": "Proposal", 
            "created_at": "09/04/2016 16:11:03", 
            "flagged": false, 
            "hidden": false, 
            "id": 12475, 
            "moderator_id": null, 
            "permissions": {
                "hide": false, 
                "hide_author": false, 
                "vote": false
            }, 
            "total_dislikes": 0, 
            "total_likes": 0, 
            "total_votes": 0
        }, 
        {
            "administrator_id": null, 
            "alignment": 0, 
            "ancestry": null, 
            "as": null, 
            "author": {
                "avatar_image": "https://decidim.barcelona/assets/avatar-866795c99abc33a3160d1f3fa93ada46eb75e54134e777666b9ed16215b26534.png", 
                "erased": false, 
                "hidden": false, 
                "id": 17741, 
                "name": "Suport General3 - Decidim Barcelona", 
                "official": false, 
                "official_level": 0, 
                "role": null, 
                "verified_organization": null
            }, 
            "body": "<p><a href=\"https://decidim.barcelona/proposals/ampliar-el-bicing-i-fer-una-ciutat-mes-verda\">https://decidim.barcelona/proposals/ampliar-el-bicing-i-fer-una-ciutat-mes-verda</a></p>", 
            "commentable_id": 8748, 
            "commentable_type": "Proposal", 
            "created_at": "09/04/2016 16:11:16", 
            "flagged": false, 
            "hidden": false, 
            "id": 12477, 
            "moderator_id": null, 
            "permissions": {
                "hide": false, 
                "hide_author": false, 
                "vote": false
            }, 
            "total_dislikes": 0, 
            "total_likes": 0, 
            "total_votes": 0
        }, 
        {
            "administrator_id": null, 
            "alignment": 0, 
            "ancestry": null, 
            "as": null, 
            "author": {
                "avatar_image": "https://decidim.barcelona/assets/avatar-866795c99abc33a3160d1f3fa93ada46eb75e54134e777666b9ed16215b26534.png", 
                "erased": false, 
                "hidden": false, 
                "id": 17741, 
                "name": "Suport General3 - Decidim Barcelona", 
                "official": false, 
                "official_level": 0, 
                "role": null, 
                "verified_organization": null
            }, 
            "body": "<p><a href=\"https://decidim.barcelona/proposals/mas-bicicletas-de-bicing\">https://decidim.barcelona/proposals/mas-bicicletas-de-bicing</a></p>", 
            "commentable_id": 8748, 
            "commentable_type": "Proposal", 
            "created_at": "09/04/2016 16:11:27", 
            "flagged": false, 
            "hidden": false, 
            "id": 12478, 
            "moderator_id": null, 
            "permissions": {
                "hide": false, 
                "hide_author": false, 
                "vote": false
            }, 
            "total_dislikes": 0, 
            "total_likes": 0, 
            "total_votes": 0
        }, 
        {
            "administrator_id": null, 
            "alignment": 0, 
            "ancestry": null, 
            "as": null, 
            "author": {
                "avatar_image": "https://decidim.barcelona/assets/avatar-866795c99abc33a3160d1f3fa93ada46eb75e54134e777666b9ed16215b26534.png", 
                "erased": false, 
                "hidden": false, 
                "id": 17741, 
                "name": "Suport General3 - Decidim Barcelona", 
                "official": false, 
                "official_level": 0, 
                "role": null, 
                "verified_organization": null
            }, 
            "body": "<p><a href=\"https://decidim.barcelona/proposals/casc-i-seguro-obligatori-per-el-bicing\">https://decidim.barcelona/proposals/casc-i-seguro-obligatori-per-el-bicing</a></p>", 
            "commentable_id": 8748, 
            "commentable_type": "Proposal", 
            "created_at": "09/04/2016 16:11:42", 
            "flagged": false, 
            "hidden": false, 
            "id": 12479, 
            "moderator_id": null, 
            "permissions": {
                "hide": false, 
                "hide_author": false, 
                "vote": false
            }, 
            "total_dislikes": 0, 
            "total_likes": 0, 
            "total_votes": 0
        }, 
        {
            "administrator_id": null, 
            "alignment": 0, 
            "ancestry": null, 
            "as": null, 
            "author": {
                "avatar_image": "https://decidim.barcelona/assets/avatar-866795c99abc33a3160d1f3fa93ada46eb75e54134e777666b9ed16215b26534.png", 
                "erased": false, 
                "hidden": false, 
                "id": 17741, 
                "name": "Suport General3 - Decidim Barcelona", 
                "official": false, 
                "official_level": 0, 
                "role": null, 
                "verified_organization": null
            }, 
            "body": "<p><a href=\"https://decidim.barcelona/proposals/bicing-equipadas-con-sillas-para-el-transporte-de-ninos\">https://decidim.barcelona/proposals/bicing-equipadas-con-sillas-para-el-transporte-de-ninos</a></p>", 
            "commentable_id": 8748, 
            "commentable_type": "Proposal", 
            "created_at": "09/04/2016 16:18:21", 
            "flagged": false, 
            "hidden": false, 
            "id": 12502, 
            "moderator_id": null, 
            "permissions": {
                "hide": false, 
                "hide_author": false, 
                "vote": false
            }, 
            "total_dislikes": 0, 
            "total_likes": 0, 
            "total_votes": 0
        }, 
        {
            "administrator_id": null, 
            "alignment": 0, 
            "ancestry": null, 
            "as": null, 
            "author": {
                "avatar_image": "https://decidim.barcelona/assets/avatar-866795c99abc33a3160d1f3fa93ada46eb75e54134e777666b9ed16215b26534.png", 
                "erased": false, 
                "hidden": false, 
                "id": 9262, 
                "name": "Suport General - Decidim Barcelona", 
                "official": false, 
                "official_level": 0, 
                "role": null, 
                "verified_organization": null
            }, 
            "body": "<p><a href=\"https://decidim.barcelona/proposals/bicing-adaptado\">https://decidim.barcelona/proposals/bicing-adaptado</a></p>", 
            "commentable_id": 8748, 
            "commentable_type": "Proposal", 
            "created_at": "14/04/2016 16:28:24", 
            "flagged": false, 
            "hidden": false, 
            "id": 15929, 
            "moderator_id": null, 
            "permissions": {
                "hide": false, 
                "hide_author": false, 
                "vote": false
            }, 
            "total_dislikes": 0, 
            "total_likes": 0, 
            "total_votes": 0
        }, 
        {
            "administrator_id": null, 
            "alignment": 0, 
            "ancestry": null, 
            "as": null, 
            "author": {
                "avatar_image": "https://decidim.barcelona/assets/avatar-866795c99abc33a3160d1f3fa93ada46eb75e54134e777666b9ed16215b26534.png", 
                "erased": false, 
                "hidden": false, 
                "id": 9262, 
                "name": "Suport General - Decidim Barcelona", 
                "official": false, 
                "official_level": 0, 
                "role": null, 
                "verified_organization": null
            }, 
            "body": "<p><a href=\"https://decidim.barcelona/proposals/bicing-gratuito-o-bajar-tarifas-para-promover-su-uso-evitando-contaminacion\">https://decidim.barcelona/proposals/bicing-gratuito-o-bajar-tarifas-para-promover-su-uso-evitando-contaminacion</a></p>", 
            "commentable_id": 8748, 
            "commentable_type": "Proposal", 
            "created_at": "14/04/2016 18:37:27", 
            "flagged": false, 
            "hidden": false, 
            "id": 16239, 
            "moderator_id": null, 
            "permissions": {
                "hide": false, 
                "hide_author": false, 
                "vote": false
            }, 
            "total_dislikes": 0, 
            "total_likes": 0, 
            "total_votes": 0
        }
    ], 
    "meta": {
        "current_page": 1, 
        "next_page": 2, 
        "prev_page": null, 
        "total_count": 24, 
        "total_pages": 2
    }
}