{
    "comments": [
        {
            "administrator_id": null, 
            "alignment": 0, 
            "ancestry": null, 
            "as": null, 
            "author": {
                "avatar_image": "https://decidim.barcelona/assets/avatar-866795c99abc33a3160d1f3fa93ada46eb75e54134e777666b9ed16215b26534.png", 
                "erased": false, 
                "hidden": false, 
                "id": 9262, 
                "name": "Suport General - Decidim Barcelona", 
                "official": false, 
                "official_level": 0, 
                "role": null, 
                "verified_organization": null
            }, 
            "body": "<p><a href=\"https://decidim.barcelona/proposals/repartiment-comercial-amb-vehicle-electric\">https://decidim.barcelona/proposals/repartiment-comercial-amb-vehicle-electric</a></p>", 
            "commentable_id": 9879, 
            "commentable_type": "Proposal", 
            "created_at": "13/04/2016 17:55:29", 
            "flagged": false, 
            "hidden": false, 
            "id": 15011, 
            "moderator_id": null, 
            "permissions": {
                "hide": false, 
                "hide_author": false, 
                "vote": false
            }, 
            "total_dislikes": 0, 
            "total_likes": 0, 
            "total_votes": 0
        }, 
        {
            "administrator_id": null, 
            "alignment": 0, 
            "ancestry": null, 
            "as": null, 
            "author": {
                "avatar_image": "https://decidim.barcelona/assets/avatar-866795c99abc33a3160d1f3fa93ada46eb75e54134e777666b9ed16215b26534.png", 
                "erased": false, 
                "hidden": false, 
                "id": 9262, 
                "name": "Suport General - Decidim Barcelona", 
                "official": false, 
                "official_level": 0, 
                "role": null, 
                "verified_organization": null
            }, 
            "body": "<p><a href=\"https://decidim.barcelona/proposals/modernitzar-el-transport-public\">https://decidim.barcelona/proposals/modernitzar-el-transport-public</a></p>", 
            "commentable_id": 9879, 
            "commentable_type": "Proposal", 
            "created_at": "13/04/2016 18:20:16", 
            "flagged": false, 
            "hidden": false, 
            "id": 15030, 
            "moderator_id": null, 
            "permissions": {
                "hide": false, 
                "hide_author": false, 
                "vote": false
            }, 
            "total_dislikes": 0, 
            "total_likes": 0, 
            "total_votes": 0
        }, 
        {
            "administrator_id": null, 
            "alignment": 0, 
            "ancestry": null, 
            "as": null, 
            "author": {
                "avatar_image": "https://decidim.barcelona/assets/avatar-866795c99abc33a3160d1f3fa93ada46eb75e54134e777666b9ed16215b26534.png", 
                "erased": false, 
                "hidden": false, 
                "id": 9262, 
                "name": "Suport General - Decidim Barcelona", 
                "official": false, 
                "official_level": 0, 
                "role": null, 
                "verified_organization": null
            }, 
            "body": "<p><a href=\"https://decidim.barcelona/proposals/punts-de-recarrega-per-vehicles-electrics\">https://decidim.barcelona/proposals/punts-de-recarrega-per-vehicles-electrics</a></p>", 
            "commentable_id": 9879, 
            "commentable_type": "Proposal", 
            "created_at": "14/04/2016 11:10:42", 
            "flagged": false, 
            "hidden": false, 
            "id": 15302, 
            "moderator_id": null, 
            "permissions": {
                "hide": false, 
                "hide_author": false, 
                "vote": false
            }, 
            "total_dislikes": 0, 
            "total_likes": 0, 
            "total_votes": 0
        }, 
        {
            "administrator_id": null, 
            "alignment": 0, 
            "ancestry": null, 
            "as": null, 
            "author": {
                "avatar_image": "https://decidim.barcelona/assets/avatar-866795c99abc33a3160d1f3fa93ada46eb75e54134e777666b9ed16215b26534.png", 
                "erased": false, 
                "hidden": false, 
                "id": 9262, 
                "name": "Suport General - Decidim Barcelona", 
                "official": false, 
                "official_level": 0, 
                "role": null, 
                "verified_organization": null
            }, 
            "body": "<p><a href=\"https://decidim.barcelona/proposals/promoure-vehicles-publics-i-privats-mes-sostenibles\">https://decidim.barcelona/proposals/promoure-vehicles-publics-i-privats-mes-sostenibles</a></p>", 
            "commentable_id": 9879, 
            "commentable_type": "Proposal", 
            "created_at": "14/04/2016 17:54:30", 
            "flagged": false, 
            "hidden": false, 
            "id": 16153, 
            "moderator_id": null, 
            "permissions": {
                "hide": false, 
                "hide_author": false, 
                "vote": false
            }, 
            "total_dislikes": 0, 
            "total_likes": 0, 
            "total_votes": 0
        }, 
        {
            "administrator_id": null, 
            "alignment": 0, 
            "ancestry": null, 
            "as": null, 
            "author": {
                "avatar_image": "https://decidim.barcelona/assets/avatar-866795c99abc33a3160d1f3fa93ada46eb75e54134e777666b9ed16215b26534.png", 
                "erased": false, 
                "hidden": false, 
                "id": 9262, 
                "name": "Suport General - Decidim Barcelona", 
                "official": false, 
                "official_level": 0, 
                "role": null, 
                "verified_organization": null
            }, 
            "body": "<p><a href=\"https://decidim.barcelona/proposals/crear-xarxa-carregadors-cotxe-electric\">https://decidim.barcelona/proposals/crear-xarxa-carregadors-cotxe-electric</a></p>", 
            "commentable_id": 9879, 
            "commentable_type": "Proposal", 
            "created_at": "14/04/2016 18:11:11", 
            "flagged": false, 
            "hidden": false, 
            "id": 16205, 
            "moderator_id": null, 
            "permissions": {
                "hide": false, 
                "hide_author": false, 
                "vote": false
            }, 
            "total_dislikes": 0, 
            "total_likes": 0, 
            "total_votes": 0
        }, 
        {
            "administrator_id": null, 
            "alignment": 0, 
            "ancestry": null, 
            "as": null, 
            "author": {
                "avatar_image": "https://decidim.barcelona/assets/avatar-866795c99abc33a3160d1f3fa93ada46eb75e54134e777666b9ed16215b26534.png", 
                "erased": false, 
                "hidden": false, 
                "id": 9262, 
                "name": "Suport General - Decidim Barcelona", 
                "official": false, 
                "official_level": 0, 
                "role": null, 
                "verified_organization": null
            }, 
            "body": "<p><a href=\"https://decidim.barcelona/proposals/canviar-tots-els-autobusos-per-autobusos-i-microbusos-electrics-autonoms\">https://decidim.barcelona/proposals/canviar-tots-els-autobusos-per-autobusos-i-microbusos-electrics-autonoms</a></p>", 
            "commentable_id": 9879, 
            "commentable_type": "Proposal", 
            "created_at": "14/04/2016 18:12:36", 
            "flagged": false, 
            "hidden": false, 
            "id": 16206, 
            "moderator_id": null, 
            "permissions": {
                "hide": false, 
                "hide_author": false, 
                "vote": false
            }, 
            "total_dislikes": 0, 
            "total_likes": 0, 
            "total_votes": 0
        }, 
        {
            "administrator_id": null, 
            "alignment": 0, 
            "ancestry": null, 
            "as": null, 
            "author": {
                "avatar_image": "https://decidim.barcelona/assets/avatar-866795c99abc33a3160d1f3fa93ada46eb75e54134e777666b9ed16215b26534.png", 
                "erased": false, 
                "hidden": false, 
                "id": 9262, 
                "name": "Suport General - Decidim Barcelona", 
                "official": false, 
                "official_level": 0, 
                "role": null, 
                "verified_organization": null
            }, 
            "body": "<p><a href=\"https://decidim.barcelona/proposals/potenciar-rutes-turistiques-amb-vehicles-electrics\">https://decidim.barcelona/proposals/potenciar-rutes-turistiques-amb-vehicles-electrics</a></p>", 
            "commentable_id": 9879, 
            "commentable_type": "Proposal", 
            "created_at": "15/04/2016 09:53:41", 
            "flagged": false, 
            "hidden": false, 
            "id": 16425, 
            "moderator_id": null, 
            "permissions": {
                "hide": false, 
                "hide_author": false, 
                "vote": false
            }, 
            "total_dislikes": 0, 
            "total_likes": 0, 
            "total_votes": 0
        }, 
        {
            "administrator_id": null, 
            "alignment": 0, 
            "ancestry": null, 
            "as": null, 
            "author": {
                "avatar_image": "https://decidim.barcelona/assets/avatar-866795c99abc33a3160d1f3fa93ada46eb75e54134e777666b9ed16215b26534.png", 
                "erased": false, 
                "hidden": false, 
                "id": 9262, 
                "name": "Suport General - Decidim Barcelona", 
                "official": false, 
                "official_level": 0, 
                "role": null, 
                "verified_organization": null
            }, 
            "body": "<p><a href=\"https://decidim.barcelona/proposals/incentius-a-la-moto-electrica\">https://decidim.barcelona/proposals/incentius-a-la-moto-electrica</a></p>", 
            "commentable_id": 9879, 
            "commentable_type": "Proposal", 
            "created_at": "15/04/2016 10:12:34", 
            "flagged": false, 
            "hidden": false, 
            "id": 16476, 
            "moderator_id": null, 
            "permissions": {
                "hide": false, 
                "hide_author": false, 
                "vote": false
            }, 
            "total_dislikes": 0, 
            "total_likes": 0, 
            "total_votes": 0
        }, 
        {
            "administrator_id": null, 
            "alignment": 0, 
            "ancestry": null, 
            "as": null, 
            "author": {
                "avatar_image": "https://decidim.barcelona/assets/avatar-866795c99abc33a3160d1f3fa93ada46eb75e54134e777666b9ed16215b26534.png", 
                "erased": false, 
                "hidden": false, 
                "id": 9262, 
                "name": "Suport General - Decidim Barcelona", 
                "official": false, 
                "official_level": 0, 
                "role": null, 
                "verified_organization": null
            }, 
            "body": "<p><a href=\"https://decidim.barcelona/proposals/reduccion-contaminacion-3\">https://decidim.barcelona/proposals/reduccion-contaminacion-3</a></p>", 
            "commentable_id": 9879, 
            "commentable_type": "Proposal", 
            "created_at": "15/04/2016 10:22:42", 
            "flagged": false, 
            "hidden": false, 
            "id": 16502, 
            "moderator_id": null, 
            "permissions": {
                "hide": false, 
                "hide_author": false, 
                "vote": false
            }, 
            "total_dislikes": 0, 
            "total_likes": 0, 
            "total_votes": 0
        }, 
        {
            "administrator_id": null, 
            "alignment": 0, 
            "ancestry": null, 
            "as": null, 
            "author": {
                "avatar_image": "https://decidim.barcelona/assets/avatar-866795c99abc33a3160d1f3fa93ada46eb75e54134e777666b9ed16215b26534.png", 
                "erased": false, 
                "hidden": false, 
                "id": 9262, 
                "name": "Suport General - Decidim Barcelona", 
                "official": false, 
                "official_level": 0, 
                "role": null, 
                "verified_organization": null
            }, 
            "body": "<p><a href=\"https://decidim.barcelona/proposals/prioritzar-els-descomptes-subvencions-o-taxes-en-aquelles-activitats-menys-contaminants-per-exemple-la-utilitzacio-de-vehicles-electrics\">https://decidim.barcelona/proposals/prioritzar-els-descomptes-subvencions-o-taxes-en-aquelles-activitats-menys-contaminants-per-exemple-la-utilitzacio-de-vehicles-electrics</a></p>", 
            "commentable_id": 9879, 
            "commentable_type": "Proposal", 
            "created_at": "16/04/2016 14:51:19", 
            "flagged": false, 
            "hidden": false, 
            "id": 18242, 
            "moderator_id": null, 
            "permissions": {
                "hide": false, 
                "hide_author": false, 
                "vote": false
            }, 
            "total_dislikes": 0, 
            "total_likes": 0, 
            "total_votes": 0
        }, 
        {
            "administrator_id": null, 
            "alignment": 0, 
            "ancestry": null, 
            "as": null, 
            "author": {
                "avatar_image": "https://decidim.barcelona/assets/avatar-866795c99abc33a3160d1f3fa93ada46eb75e54134e777666b9ed16215b26534.png", 
                "erased": false, 
                "hidden": false, 
                "id": 9262, 
                "name": "Suport General - Decidim Barcelona", 
                "official": false, 
                "official_level": 0, 
                "role": null, 
                "verified_organization": null
            }, 
            "body": "<p><a href=\"https://decidim.barcelona/proposals/reduccio-de-les-tarifes-de-zones-verdes-i-blaves-per-aquells-vehicles-que-contaminin-menys\">https://decidim.barcelona/proposals/reduccio-de-les-tarifes-de-zones-verdes-i-blaves-per-aquells-vehicles-que-contaminin-menys</a></p>", 
            "commentable_id": 9879, 
            "commentable_type": "Proposal", 
            "created_at": "16/04/2016 14:51:25", 
            "flagged": false, 
            "hidden": false, 
            "id": 18243, 
            "moderator_id": null, 
            "permissions": {
                "hide": false, 
                "hide_author": false, 
                "vote": false
            }, 
            "total_dislikes": 0, 
            "total_likes": 0, 
            "total_votes": 0
        }, 
        {
            "administrator_id": null, 
            "alignment": 0, 
            "ancestry": null, 
            "as": null, 
            "author": {
                "avatar_image": "https://decidim.barcelona/assets/avatar-866795c99abc33a3160d1f3fa93ada46eb75e54134e777666b9ed16215b26534.png", 
                "erased": false, 
                "hidden": false, 
                "id": 9262, 
                "name": "Suport General - Decidim Barcelona", 
                "official": false, 
                "official_level": 0, 
                "role": null, 
                "verified_organization": null
            }, 
            "body": "<p><a href=\"https://decidim.barcelona/proposals/punts-de-recarrega-per-mobils-al-transport-public\">https://decidim.barcelona/proposals/punts-de-recarrega-per-mobils-al-transport-public</a></p>", 
            "commentable_id": 9879, 
            "commentable_type": "Proposal", 
            "created_at": "16/04/2016 14:57:27", 
            "flagged": false, 
            "hidden": false, 
            "id": 18249, 
            "moderator_id": null, 
            "permissions": {
                "hide": false, 
                "hide_author": false, 
                "vote": false
            }, 
            "total_dislikes": 0, 
            "total_likes": 0, 
            "total_votes": 0
        }, 
        {
            "administrator_id": null, 
            "alignment": 0, 
            "ancestry": null, 
            "as": null, 
            "author": {
                "avatar_image": "https://decidim.barcelona/assets/avatar-866795c99abc33a3160d1f3fa93ada46eb75e54134e777666b9ed16215b26534.png", 
                "erased": false, 
                "hidden": false, 
                "id": 9262, 
                "name": "Suport General - Decidim Barcelona", 
                "official": false, 
                "official_level": 0, 
                "role": null, 
                "verified_organization": null
            }, 
            "body": "<p><a href=\"https://decidim.barcelona/proposals/fixar-un-limit-de-temps-per-prohibir-la-circulacio-de-vehicles-contaminants\">https://decidim.barcelona/proposals/fixar-un-limit-de-temps-per-prohibir-la-circulacio-de-vehicles-contaminants</a></p>", 
            "commentable_id": 9879, 
            "commentable_type": "Proposal", 
            "created_at": "17/04/2016 11:04:59", 
            "flagged": false, 
            "hidden": false, 
            "id": 18549, 
            "moderator_id": null, 
            "permissions": {
                "hide": false, 
                "hide_author": false, 
                "vote": false
            }, 
            "total_dislikes": 0, 
            "total_likes": 0, 
            "total_votes": 0
        }, 
        {
            "administrator_id": null, 
            "alignment": 0, 
            "ancestry": null, 
            "as": null, 
            "author": {
                "avatar_image": "https://decidim.barcelona/assets/avatar-866795c99abc33a3160d1f3fa93ada46eb75e54134e777666b9ed16215b26534.png", 
                "erased": false, 
                "hidden": false, 
                "id": 9262, 
                "name": "Suport General - Decidim Barcelona", 
                "official": false, 
                "official_level": 0, 
                "role": null, 
                "verified_organization": null
            }, 
            "body": "<p><a href=\"https://decidim.barcelona/proposals/fixar-un-limit-de-temps-per-prohibir-la-circulacio-de-vehicles-contaminants\">https://decidim.barcelona/proposals/fixar-un-limit-de-temps-per-prohibir-la-circulacio-de-vehicles-contaminants</a></p>", 
            "commentable_id": 9879, 
            "commentable_type": "Proposal", 
            "created_at": "17/04/2016 11:05:32", 
            "flagged": false, 
            "hidden": false, 
            "id": 18550, 
            "moderator_id": null, 
            "permissions": {
                "hide": false, 
                "hide_author": false, 
                "vote": false
            }, 
            "total_dislikes": 0, 
            "total_likes": 0, 
            "total_votes": 0
        }, 
        {
            "administrator_id": null, 
            "alignment": 0, 
            "ancestry": null, 
            "as": null, 
            "author": {
                "avatar_image": "https://decidim.barcelona/assets/avatar-866795c99abc33a3160d1f3fa93ada46eb75e54134e777666b9ed16215b26534.png", 
                "erased": false, 
                "hidden": false, 
                "id": 9262, 
                "name": "Suport General - Decidim Barcelona", 
                "official": false, 
                "official_level": 0, 
                "role": null, 
                "verified_organization": null
            }, 
            "body": "<p><a href=\"https://decidim.barcelona/proposals/motos-que-no-contaminan\">https://decidim.barcelona/proposals/motos-que-no-contaminan</a></p>", 
            "commentable_id": 9879, 
            "commentable_type": "Proposal", 
            "created_at": "17/04/2016 11:05:38", 
            "flagged": false, 
            "hidden": false, 
            "id": 18551, 
            "moderator_id": null, 
            "permissions": {
                "hide": false, 
                "hide_author": false, 
                "vote": false
            }, 
            "total_dislikes": 0, 
            "total_likes": 0, 
            "total_votes": 0
        }, 
        {
            "administrator_id": null, 
            "alignment": 0, 
            "ancestry": null, 
            "as": null, 
            "author": {
                "avatar_image": "https://decidim.barcelona/assets/avatar-866795c99abc33a3160d1f3fa93ada46eb75e54134e777666b9ed16215b26534.png", 
                "erased": false, 
                "hidden": false, 
                "id": 9262, 
                "name": "Suport General - Decidim Barcelona", 
                "official": false, 
                "official_level": 0, 
                "role": null, 
                "verified_organization": null
            }, 
            "body": "<p><a href=\"https://decidim.barcelona/proposals/protocol-davant-episodis-de-contaminacio\">https://decidim.barcelona/proposals/protocol-davant-episodis-de-contaminacio</a></p>", 
            "commentable_id": 9879, 
            "commentable_type": "Proposal", 
            "created_at": "17/04/2016 11:05:42", 
            "flagged": false, 
            "hidden": false, 
            "id": 18552, 
            "moderator_id": null, 
            "permissions": {
                "hide": false, 
                "hide_author": false, 
                "vote": false
            }, 
            "total_dislikes": 0, 
            "total_likes": 0, 
            "total_votes": 0
        }, 
        {
            "administrator_id": null, 
            "alignment": 0, 
            "ancestry": null, 
            "as": null, 
            "author": {
                "avatar_image": "https://decidim.barcelona/assets/avatar-866795c99abc33a3160d1f3fa93ada46eb75e54134e777666b9ed16215b26534.png", 
                "erased": false, 
                "hidden": false, 
                "id": 9262, 
                "name": "Suport General - Decidim Barcelona", 
                "official": false, 
                "official_level": 0, 
                "role": null, 
                "verified_organization": null
            }, 
            "body": "<p><a href=\"https://decidim.barcelona/proposals/apostar-por-las-energias-renovables-y-por-las-soluciones-de-eficiencia-energetica-integral\">https://decidim.barcelona/proposals/apostar-por-las-energias-renovables-y-por-las-soluciones-de-eficiencia-energetica-integral</a></p>", 
            "commentable_id": 9879, 
            "commentable_type": "Proposal", 
            "created_at": "17/04/2016 11:05:47", 
            "flagged": false, 
            "hidden": false, 
            "id": 18553, 
            "moderator_id": null, 
            "permissions": {
                "hide": false, 
                "hide_author": false, 
                "vote": false
            }, 
            "total_dislikes": 0, 
            "total_likes": 0, 
            "total_votes": 0
        }, 
        {
            "administrator_id": null, 
            "alignment": 0, 
            "ancestry": null, 
            "as": null, 
            "author": {
                "avatar_image": "https://decidim.barcelona/assets/avatar-866795c99abc33a3160d1f3fa93ada46eb75e54134e777666b9ed16215b26534.png", 
                "erased": false, 
                "hidden": false, 
                "id": 9262, 
                "name": "Suport General - Decidim Barcelona", 
                "official": false, 
                "official_level": 0, 
                "role": null, 
                "verified_organization": null
            }, 
            "body": "<p><a href=\"https://decidim.barcelona/proposals/creacio-d-aparcaments-dissuasoris-a-les-principals-entrades-de-la-ciutat-de-barcelona\">https://decidim.barcelona/proposals/creacio-d-aparcaments-dissuasoris-a-les-principals-entrades-de-la-ciutat-de-barcelona</a></p>", 
            "commentable_id": 9879, 
            "commentable_type": "Proposal", 
            "created_at": "17/04/2016 11:05:51", 
            "flagged": false, 
            "hidden": false, 
            "id": 18554, 
            "moderator_id": null, 
            "permissions": {
                "hide": false, 
                "hide_author": false, 
                "vote": false
            }, 
            "total_dislikes": 0, 
            "total_likes": 0, 
            "total_votes": 0
        }, 
        {
            "administrator_id": null, 
            "alignment": 0, 
            "ancestry": null, 
            "as": null, 
            "author": {
                "avatar_image": "https://decidim.barcelona/assets/avatar-866795c99abc33a3160d1f3fa93ada46eb75e54134e777666b9ed16215b26534.png", 
                "erased": false, 
                "hidden": false, 
                "id": 9262, 
                "name": "Suport General - Decidim Barcelona", 
                "official": false, 
                "official_level": 0, 
                "role": null, 
                "verified_organization": null
            }, 
            "body": "<p><a href=\"https://decidim.barcelona/proposals/pla-de-xoc-urgent-contra-la-contaminacio-atmosferica\">https://decidim.barcelona/proposals/pla-de-xoc-urgent-contra-la-contaminacio-atmosferica</a></p>", 
            "commentable_id": 9879, 
            "commentable_type": "Proposal", 
            "created_at": "17/04/2016 11:05:56", 
            "flagged": false, 
            "hidden": false, 
            "id": 18555, 
            "moderator_id": null, 
            "permissions": {
                "hide": false, 
                "hide_author": false, 
                "vote": false
            }, 
            "total_dislikes": 0, 
            "total_likes": 0, 
            "total_votes": 0
        }, 
        {
            "administrator_id": null, 
            "alignment": 0, 
            "ancestry": null, 
            "as": null, 
            "author": {
                "avatar_image": "https://decidim.barcelona/assets/avatar-866795c99abc33a3160d1f3fa93ada46eb75e54134e777666b9ed16215b26534.png", 
                "erased": false, 
                "hidden": false, 
                "id": 9262, 
                "name": "Suport General - Decidim Barcelona", 
                "official": false, 
                "official_level": 0, 
                "role": null, 
                "verified_organization": null
            }, 
            "body": "<p><a href=\"https://decidim.barcelona/proposals/creacio-de-zona-urbana-d-atmosfera-protegida-zuap-seguint-el-model-de-berlin\">https://decidim.barcelona/proposals/creacio-de-zona-urbana-d-atmosfera-protegida-zuap-seguint-el-model-de-berlin</a></p>", 
            "commentable_id": 9879, 
            "commentable_type": "Proposal", 
            "created_at": "17/04/2016 11:06:01", 
            "flagged": false, 
            "hidden": false, 
            "id": 18556, 
            "moderator_id": null, 
            "permissions": {
                "hide": false, 
                "hide_author": false, 
                "vote": false
            }, 
            "total_dislikes": 0, 
            "total_likes": 0, 
            "total_votes": 0
        }
    ], 
    "meta": {
        "current_page": 1, 
        "next_page": 2, 
        "prev_page": null, 
        "total_count": 26, 
        "total_pages": 2
    }
}