{
    "comments": [
        {
            "administrator_id": null, 
            "alignment": 0, 
            "ancestry": null, 
            "as": null, 
            "author": {
                "avatar_image": "https://decidim.barcelona/assets/avatar-866795c99abc33a3160d1f3fa93ada46eb75e54134e777666b9ed16215b26534.png", 
                "erased": false, 
                "hidden": false, 
                "id": 9262, 
                "name": "Suport General - Decidim Barcelona", 
                "official": false, 
                "official_level": 0, 
                "role": null, 
                "verified_organization": null
            }, 
            "body": "<p><a href=\"https://decidim.barcelona/proposals/mobilitat-fer-pas-de-vianants-en-cantonada-sant-josep-de-la-muntanya\">https://decidim.barcelona/proposals/mobilitat-fer-pas-de-vianants-en-cantonada-sant-josep-de-la-muntanya</a></p>", 
            "commentable_id": 10382, 
            "commentable_type": "Proposal", 
            "created_at": "13/04/2016 13:29:02", 
            "flagged": false, 
            "hidden": false, 
            "id": 14702, 
            "moderator_id": null, 
            "permissions": {
                "hide": false, 
                "hide_author": false, 
                "vote": false
            }, 
            "total_dislikes": 0, 
            "total_likes": 0, 
            "total_votes": 0
        }, 
        {
            "administrator_id": null, 
            "alignment": 0, 
            "ancestry": null, 
            "as": null, 
            "author": {
                "avatar_image": "https://decidim.barcelona/assets/avatar-866795c99abc33a3160d1f3fa93ada46eb75e54134e777666b9ed16215b26534.png", 
                "erased": false, 
                "hidden": false, 
                "id": 9262, 
                "name": "Suport General - Decidim Barcelona", 
                "official": false, 
                "official_level": 0, 
                "role": null, 
                "verified_organization": null
            }, 
            "body": "<p><a href=\"https://decidim.barcelona/proposals/espai-public-restituir-aparcaments-en-carrer-sargelet\">https://decidim.barcelona/proposals/espai-public-restituir-aparcaments-en-carrer-sargelet</a></p>", 
            "commentable_id": 10382, 
            "commentable_type": "Proposal", 
            "created_at": "13/04/2016 13:29:15", 
            "flagged": false, 
            "hidden": false, 
            "id": 14703, 
            "moderator_id": null, 
            "permissions": {
                "hide": false, 
                "hide_author": false, 
                "vote": false
            }, 
            "total_dislikes": 0, 
            "total_likes": 0, 
            "total_votes": 0
        }, 
        {
            "administrator_id": null, 
            "alignment": 0, 
            "ancestry": null, 
            "as": null, 
            "author": {
                "avatar_image": "https://decidim.barcelona/assets/avatar-866795c99abc33a3160d1f3fa93ada46eb75e54134e777666b9ed16215b26534.png", 
                "erased": false, 
                "hidden": false, 
                "id": 9262, 
                "name": "Suport General - Decidim Barcelona", 
                "official": false, 
                "official_level": 0, 
                "role": null, 
                "verified_organization": null
            }, 
            "body": "<p><a href=\"https://decidim.barcelona/proposals/un-lloc-de-trobada-i-relacio-personal-a-la-part-alta-dels-jardins-menendez-i-pelayo\">https://decidim.barcelona/proposals/un-lloc-de-trobada-i-relacio-personal-a-la-part-alta-dels-jardins-menendez-i-pelayo</a></p>", 
            "commentable_id": 10382, 
            "commentable_type": "Proposal", 
            "created_at": "13/04/2016 13:29:35", 
            "flagged": false, 
            "hidden": false, 
            "id": 14704, 
            "moderator_id": null, 
            "permissions": {
                "hide": false, 
                "hide_author": false, 
                "vote": false
            }, 
            "total_dislikes": 0, 
            "total_likes": 0, 
            "total_votes": 0
        }, 
        {
            "administrator_id": null, 
            "alignment": 0, 
            "ancestry": null, 
            "as": null, 
            "author": {
                "avatar_image": "https://decidim.barcelona/assets/avatar-866795c99abc33a3160d1f3fa93ada46eb75e54134e777666b9ed16215b26534.png", 
                "erased": false, 
                "hidden": false, 
                "id": 9262, 
                "name": "Suport General - Decidim Barcelona", 
                "official": false, 
                "official_level": 0, 
                "role": null, 
                "verified_organization": null
            }, 
            "body": "<p><a href=\"https://decidim.barcelona/proposals/espai-public-arranjament-i-millora-de-l-accessibilitat-del-carrer-mossen-batlle\">https://decidim.barcelona/proposals/espai-public-arranjament-i-millora-de-l-accessibilitat-del-carrer-mossen-batlle</a></p>", 
            "commentable_id": 10382, 
            "commentable_type": "Proposal", 
            "created_at": "13/04/2016 13:29:47", 
            "flagged": false, 
            "hidden": false, 
            "id": 14705, 
            "moderator_id": null, 
            "permissions": {
                "hide": false, 
                "hide_author": false, 
                "vote": false
            }, 
            "total_dislikes": 0, 
            "total_likes": 0, 
            "total_votes": 0
        }, 
        {
            "administrator_id": null, 
            "alignment": 0, 
            "ancestry": null, 
            "as": null, 
            "author": {
                "avatar_image": "https://decidim.barcelona/assets/avatar-866795c99abc33a3160d1f3fa93ada46eb75e54134e777666b9ed16215b26534.png", 
                "erased": false, 
                "hidden": false, 
                "id": 9262, 
                "name": "Suport General - Decidim Barcelona", 
                "official": false, 
                "official_level": 0, 
                "role": null, 
                "verified_organization": null
            }, 
            "body": "<p><a href=\"https://decidim.barcelona/proposals/equipaments-en-espai-can-morera-revisar-catalogacio-i-el-seu-valor-historic\">https://decidim.barcelona/proposals/equipaments-en-espai-can-morera-revisar-catalogacio-i-el-seu-valor-historic</a></p>", 
            "commentable_id": 10382, 
            "commentable_type": "Proposal", 
            "created_at": "13/04/2016 13:30:03", 
            "flagged": false, 
            "hidden": false, 
            "id": 14706, 
            "moderator_id": null, 
            "permissions": {
                "hide": false, 
                "hide_author": false, 
                "vote": false
            }, 
            "total_dislikes": 0, 
            "total_likes": 0, 
            "total_votes": 0
        }, 
        {
            "administrator_id": null, 
            "alignment": 0, 
            "ancestry": null, 
            "as": null, 
            "author": {
                "avatar_image": "https://decidim.barcelona/assets/avatar-866795c99abc33a3160d1f3fa93ada46eb75e54134e777666b9ed16215b26534.png", 
                "erased": false, 
                "hidden": false, 
                "id": 9262, 
                "name": "Suport General - Decidim Barcelona", 
                "official": false, 
                "official_level": 0, 
                "role": null, 
                "verified_organization": null
            }, 
            "body": "<p><a href=\"https://decidim.barcelona/proposals/obrir-serveis-municipals-en-locals-lliures-la-salut\">https://decidim.barcelona/proposals/obrir-serveis-municipals-en-locals-lliures-la-salut</a></p>", 
            "commentable_id": 10382, 
            "commentable_type": "Proposal", 
            "created_at": "13/04/2016 13:30:19", 
            "flagged": false, 
            "hidden": false, 
            "id": 14707, 
            "moderator_id": null, 
            "permissions": {
                "hide": false, 
                "hide_author": false, 
                "vote": false
            }, 
            "total_dislikes": 0, 
            "total_likes": 0, 
            "total_votes": 0
        }, 
        {
            "administrator_id": null, 
            "alignment": 0, 
            "ancestry": null, 
            "as": null, 
            "author": {
                "avatar_image": "https://decidim.barcelona/assets/avatar-866795c99abc33a3160d1f3fa93ada46eb75e54134e777666b9ed16215b26534.png", 
                "erased": false, 
                "hidden": false, 
                "id": 9262, 
                "name": "Suport General - Decidim Barcelona", 
                "official": false, 
                "official_level": 0, 
                "role": null, 
                "verified_organization": null
            }, 
            "body": "<p><a href=\"https://decidim.barcelona/proposals/espai-public-reconvertir-a-us-public-espai-sant-josep-de-la-muntanya\">https://decidim.barcelona/proposals/espai-public-reconvertir-a-us-public-espai-sant-josep-de-la-muntanya</a></p>", 
            "commentable_id": 10382, 
            "commentable_type": "Proposal", 
            "created_at": "13/04/2016 13:30:32", 
            "flagged": false, 
            "hidden": false, 
            "id": 14708, 
            "moderator_id": null, 
            "permissions": {
                "hide": false, 
                "hide_author": false, 
                "vote": false
            }, 
            "total_dislikes": 0, 
            "total_likes": 0, 
            "total_votes": 0
        }, 
        {
            "administrator_id": null, 
            "alignment": 0, 
            "ancestry": null, 
            "as": null, 
            "author": {
                "avatar_image": "https://decidim.barcelona/assets/avatar-866795c99abc33a3160d1f3fa93ada46eb75e54134e777666b9ed16215b26534.png", 
                "erased": false, 
                "hidden": false, 
                "id": 9262, 
                "name": "Suport General - Decidim Barcelona", 
                "official": false, 
                "official_level": 0, 
                "role": null, 
                "verified_organization": null
            }, 
            "body": "<p><a href=\"https://decidim.barcelona/proposals/espai-public-arranjament-i-obertura-dels-jardins-de-la-font-del-carbo\">https://decidim.barcelona/proposals/espai-public-arranjament-i-obertura-dels-jardins-de-la-font-del-carbo</a></p>", 
            "commentable_id": 10382, 
            "commentable_type": "Proposal", 
            "created_at": "13/04/2016 13:30:49", 
            "flagged": false, 
            "hidden": false, 
            "id": 14709, 
            "moderator_id": null, 
            "permissions": {
                "hide": false, 
                "hide_author": false, 
                "vote": false
            }, 
            "total_dislikes": 0, 
            "total_likes": 0, 
            "total_votes": 0
        }, 
        {
            "administrator_id": null, 
            "alignment": 0, 
            "ancestry": null, 
            "as": null, 
            "author": {
                "avatar_image": "https://decidim.barcelona/assets/avatar-866795c99abc33a3160d1f3fa93ada46eb75e54134e777666b9ed16215b26534.png", 
                "erased": false, 
                "hidden": false, 
                "id": 9262, 
                "name": "Suport General - Decidim Barcelona", 
                "official": false, 
                "official_level": 0, 
                "role": null, 
                "verified_organization": null
            }, 
            "body": "<p><a href=\"https://decidim.barcelona/proposals/espai-public-restablir-el-sentit-de-la-circulacio-evitant-passar-dos-cops-per-la-rambla-mercedes\">https://decidim.barcelona/proposals/espai-public-restablir-el-sentit-de-la-circulacio-evitant-passar-dos-cops-per-la-rambla-mercedes</a></p>", 
            "commentable_id": 10382, 
            "commentable_type": "Proposal", 
            "created_at": "13/04/2016 13:37:06", 
            "flagged": false, 
            "hidden": false, 
            "id": 14712, 
            "moderator_id": null, 
            "permissions": {
                "hide": false, 
                "hide_author": false, 
                "vote": false
            }, 
            "total_dislikes": 0, 
            "total_likes": 0, 
            "total_votes": 0
        }, 
        {
            "administrator_id": null, 
            "alignment": 0, 
            "ancestry": null, 
            "as": null, 
            "author": {
                "avatar_image": "https://decidim.barcelona/assets/avatar-866795c99abc33a3160d1f3fa93ada46eb75e54134e777666b9ed16215b26534.png", 
                "erased": false, 
                "hidden": false, 
                "id": 9262, 
                "name": "Suport General - Decidim Barcelona", 
                "official": false, 
                "official_level": 0, 
                "role": null, 
                "verified_organization": null
            }, 
            "body": "<p><a href=\"https://decidim.barcelona/proposals/mobilitat-disminucio-de-la-velocitat-dels-cotxes-a-mare-de-deu-de-la-salut\">https://decidim.barcelona/proposals/mobilitat-disminucio-de-la-velocitat-dels-cotxes-a-mare-de-deu-de-la-salut</a></p>", 
            "commentable_id": 10382, 
            "commentable_type": "Proposal", 
            "created_at": "13/04/2016 13:37:21", 
            "flagged": false, 
            "hidden": false, 
            "id": 14713, 
            "moderator_id": null, 
            "permissions": {
                "hide": false, 
                "hide_author": false, 
                "vote": false
            }, 
            "total_dislikes": 0, 
            "total_likes": 0, 
            "total_votes": 0
        }, 
        {
            "administrator_id": null, 
            "alignment": 0, 
            "ancestry": null, 
            "as": null, 
            "author": {
                "avatar_image": "https://decidim.barcelona/assets/avatar-866795c99abc33a3160d1f3fa93ada46eb75e54134e777666b9ed16215b26534.png", 
                "erased": false, 
                "hidden": false, 
                "id": 9262, 
                "name": "Suport General - Decidim Barcelona", 
                "official": false, 
                "official_level": 0, 
                "role": null, 
                "verified_organization": null
            }, 
            "body": "<p><a href=\"https://decidim.barcelona/proposals/espai-public-creacio-de-bancs-per-a-la-gent-gran\">https://decidim.barcelona/proposals/espai-public-creacio-de-bancs-per-a-la-gent-gran</a></p>", 
            "commentable_id": 10382, 
            "commentable_type": "Proposal", 
            "created_at": "13/04/2016 13:37:40", 
            "flagged": false, 
            "hidden": false, 
            "id": 14714, 
            "moderator_id": null, 
            "permissions": {
                "hide": false, 
                "hide_author": false, 
                "vote": false
            }, 
            "total_dislikes": 0, 
            "total_likes": 0, 
            "total_votes": 0
        }, 
        {
            "administrator_id": null, 
            "alignment": 0, 
            "ancestry": null, 
            "as": null, 
            "author": {
                "avatar_image": "https://decidim.barcelona/assets/avatar-866795c99abc33a3160d1f3fa93ada46eb75e54134e777666b9ed16215b26534.png", 
                "erased": false, 
                "hidden": false, 
                "id": 9262, 
                "name": "Suport General - Decidim Barcelona", 
                "official": false, 
                "official_level": 0, 
                "role": null, 
                "verified_organization": null
            }, 
            "body": "<p><a href=\"https://decidim.barcelona/proposals/espai-public-acabar-d-urbanitzar-el-tram-final-del-carrer-pompeu-fabra\">https://decidim.barcelona/proposals/espai-public-acabar-d-urbanitzar-el-tram-final-del-carrer-pompeu-fabra</a></p>", 
            "commentable_id": 10382, 
            "commentable_type": "Proposal", 
            "created_at": "13/04/2016 13:37:56", 
            "flagged": false, 
            "hidden": false, 
            "id": 14715, 
            "moderator_id": null, 
            "permissions": {
                "hide": false, 
                "hide_author": false, 
                "vote": false
            }, 
            "total_dislikes": 0, 
            "total_likes": 0, 
            "total_votes": 0
        }, 
        {
            "administrator_id": null, 
            "alignment": 0, 
            "ancestry": null, 
            "as": null, 
            "author": {
                "avatar_image": "https://decidim.barcelona/assets/avatar-866795c99abc33a3160d1f3fa93ada46eb75e54134e777666b9ed16215b26534.png", 
                "erased": false, 
                "hidden": false, 
                "id": 9262, 
                "name": "Suport General - Decidim Barcelona", 
                "official": false, 
                "official_level": 0, 
                "role": null, 
                "verified_organization": null
            }, 
            "body": "<p><a href=\"https://decidim.barcelona/proposals/equipaments-obertura-al-barri-de-l-espai-teatre-caixa-de-pensions-actualment-tancat-verge-de-montserrat-16\">https://decidim.barcelona/proposals/equipaments-obertura-al-barri-de-l-espai-teatre-caixa-de-pensions-actualment-tancat-verge-de-montserrat-16</a></p>", 
            "commentable_id": 10382, 
            "commentable_type": "Proposal", 
            "created_at": "13/04/2016 13:38:12", 
            "flagged": false, 
            "hidden": false, 
            "id": 14716, 
            "moderator_id": null, 
            "permissions": {
                "hide": false, 
                "hide_author": false, 
                "vote": false
            }, 
            "total_dislikes": 0, 
            "total_likes": 0, 
            "total_votes": 0
        }, 
        {
            "administrator_id": null, 
            "alignment": 0, 
            "ancestry": null, 
            "as": null, 
            "author": {
                "avatar_image": "https://decidim.barcelona/assets/avatar-866795c99abc33a3160d1f3fa93ada46eb75e54134e777666b9ed16215b26534.png", 
                "erased": false, 
                "hidden": false, 
                "id": 9262, 
                "name": "Suport General - Decidim Barcelona", 
                "official": false, 
                "official_level": 0, 
                "role": null, 
                "verified_organization": null
            }, 
            "body": "<p><a href=\"https://decidim.barcelona/proposals/espai-public-fer-accessible-escales-rambla-mercedes\">https://decidim.barcelona/proposals/espai-public-fer-accessible-escales-rambla-mercedes</a></p>", 
            "commentable_id": 10382, 
            "commentable_type": "Proposal", 
            "created_at": "13/04/2016 13:38:30", 
            "flagged": false, 
            "hidden": false, 
            "id": 14717, 
            "moderator_id": null, 
            "permissions": {
                "hide": false, 
                "hide_author": false, 
                "vote": false
            }, 
            "total_dislikes": 0, 
            "total_likes": 0, 
            "total_votes": 0
        }, 
        {
            "administrator_id": null, 
            "alignment": 0, 
            "ancestry": null, 
            "as": null, 
            "author": {
                "avatar_image": "https://decidim.barcelona/assets/avatar-866795c99abc33a3160d1f3fa93ada46eb75e54134e777666b9ed16215b26534.png", 
                "erased": false, 
                "hidden": false, 
                "id": 9262, 
                "name": "Suport General - Decidim Barcelona", 
                "official": false, 
                "official_level": 0, 
                "role": null, 
                "verified_organization": null
            }, 
            "body": "<p><a href=\"https://decidim.barcelona/proposals/resoldre-la-cunya-invasora-del-tenis-la-salut-a-la-cruilla-del-carrer-riera-can-toda-amb-mare-de-deu-de-la-salut-que-en-redueix-la-visibilitats-pels-vianants-molts-d-ells-escolars\">https://decidim.barcelona/proposals/resoldre-la-cunya-invasora-del-tenis-la-salut-a-la-cruilla-del-carrer-riera-can-toda-amb-mare-de-deu-de-la-salut-que-en-redueix-la-visibilitats-pels-vianants-molts-d-ells-escolars</a></p>", 
            "commentable_id": 10382, 
            "commentable_type": "Proposal", 
            "created_at": "13/04/2016 13:38:43", 
            "flagged": false, 
            "hidden": false, 
            "id": 14718, 
            "moderator_id": null, 
            "permissions": {
                "hide": false, 
                "hide_author": false, 
                "vote": false
            }, 
            "total_dislikes": 0, 
            "total_likes": 0, 
            "total_votes": 0
        }, 
        {
            "administrator_id": null, 
            "alignment": 0, 
            "ancestry": null, 
            "as": null, 
            "author": {
                "avatar_image": "https://decidim.barcelona/assets/avatar-866795c99abc33a3160d1f3fa93ada46eb75e54134e777666b9ed16215b26534.png", 
                "erased": false, 
                "hidden": false, 
                "id": 9262, 
                "name": "Suport General - Decidim Barcelona", 
                "official": false, 
                "official_level": 0, 
                "role": null, 
                "verified_organization": null
            }, 
            "body": "<p><a href=\"https://decidim.barcelona/proposals/espai-public-fer-un-acces-directe-escola-turo-del-cargol-jardins-menendez-pelayo\">https://decidim.barcelona/proposals/espai-public-fer-un-acces-directe-escola-turo-del-cargol-jardins-menendez-pelayo</a></p>", 
            "commentable_id": 10382, 
            "commentable_type": "Proposal", 
            "created_at": "13/04/2016 13:38:58", 
            "flagged": false, 
            "hidden": false, 
            "id": 14720, 
            "moderator_id": null, 
            "permissions": {
                "hide": false, 
                "hide_author": false, 
                "vote": false
            }, 
            "total_dislikes": 0, 
            "total_likes": 0, 
            "total_votes": 0
        }, 
        {
            "administrator_id": null, 
            "alignment": 0, 
            "ancestry": null, 
            "as": null, 
            "author": {
                "avatar_image": "https://decidim.barcelona/assets/avatar-866795c99abc33a3160d1f3fa93ada46eb75e54134e777666b9ed16215b26534.png", 
                "erased": false, 
                "hidden": false, 
                "id": 9262, 
                "name": "Suport General - Decidim Barcelona", 
                "official": false, 
                "official_level": 0, 
                "role": null, 
                "verified_organization": null
            }, 
            "body": "<p><a href=\"https://decidim.barcelona/proposals/espai-public-pacificar-zona-parc-guell-fitons-horaris-acces-etc\">https://decidim.barcelona/proposals/espai-public-pacificar-zona-parc-guell-fitons-horaris-acces-etc</a></p>", 
            "commentable_id": 10382, 
            "commentable_type": "Proposal", 
            "created_at": "13/04/2016 13:39:12", 
            "flagged": false, 
            "hidden": false, 
            "id": 14721, 
            "moderator_id": null, 
            "permissions": {
                "hide": false, 
                "hide_author": false, 
                "vote": false
            }, 
            "total_dislikes": 0, 
            "total_likes": 0, 
            "total_votes": 0
        }, 
        {
            "administrator_id": null, 
            "alignment": 0, 
            "ancestry": null, 
            "as": null, 
            "author": {
                "avatar_image": "https://decidim.barcelona/assets/avatar-866795c99abc33a3160d1f3fa93ada46eb75e54134e777666b9ed16215b26534.png", 
                "erased": false, 
                "hidden": false, 
                "id": 9262, 
                "name": "Suport General - Decidim Barcelona", 
                "official": false, 
                "official_level": 0, 
                "role": null, 
                "verified_organization": null
            }, 
            "body": "<p><a href=\"https://decidim.barcelona/proposals/reformar-el-carrer-verdi-a-l-entorn-del-mercat-de-lesseps\">https://decidim.barcelona/proposals/reformar-el-carrer-verdi-a-l-entorn-del-mercat-de-lesseps</a></p>", 
            "commentable_id": 10382, 
            "commentable_type": "Proposal", 
            "created_at": "13/04/2016 13:40:51", 
            "flagged": false, 
            "hidden": false, 
            "id": 14724, 
            "moderator_id": null, 
            "permissions": {
                "hide": false, 
                "hide_author": false, 
                "vote": false
            }, 
            "total_dislikes": 0, 
            "total_likes": 0, 
            "total_votes": 0
        }, 
        {
            "administrator_id": null, 
            "alignment": 0, 
            "ancestry": null, 
            "as": null, 
            "author": {
                "avatar_image": "https://decidim.barcelona/assets/avatar-866795c99abc33a3160d1f3fa93ada46eb75e54134e777666b9ed16215b26534.png", 
                "erased": false, 
                "hidden": false, 
                "id": 9262, 
                "name": "Suport General - Decidim Barcelona", 
                "official": false, 
                "official_level": 0, 
                "role": null, 
                "verified_organization": null
            }, 
            "body": "<p><a href=\"https://decidim.barcelona/proposals/creacio-espai-ludic-infantil-als-jardins-menendez-pelayo\">https://decidim.barcelona/proposals/creacio-espai-ludic-infantil-als-jardins-menendez-pelayo</a></p>", 
            "commentable_id": 10382, 
            "commentable_type": "Proposal", 
            "created_at": "16/04/2016 13:50:38", 
            "flagged": false, 
            "hidden": false, 
            "id": 18215, 
            "moderator_id": null, 
            "permissions": {
                "hide": false, 
                "hide_author": false, 
                "vote": false
            }, 
            "total_dislikes": 0, 
            "total_likes": 0, 
            "total_votes": 0
        }, 
        {
            "administrator_id": null, 
            "alignment": 0, 
            "ancestry": null, 
            "as": null, 
            "author": {
                "avatar_image": "https://decidim.barcelona/assets/avatar-866795c99abc33a3160d1f3fa93ada46eb75e54134e777666b9ed16215b26534.png", 
                "erased": false, 
                "hidden": false, 
                "id": 9262, 
                "name": "Suport General - Decidim Barcelona", 
                "official": false, 
                "official_level": 0, 
                "role": null, 
                "verified_organization": null
            }, 
            "body": "<p><a href=\"https://decidim.barcelona/proposals/transformar-la-zona-compresa-entre-els-carrers-verdi-i-maignon-com-a-nucli-central-del-propi-mercat\">https://decidim.barcelona/proposals/transformar-la-zona-compresa-entre-els-carrers-verdi-i-maignon-com-a-nucli-central-del-propi-mercat</a></p>", 
            "commentable_id": 10382, 
            "commentable_type": "Proposal", 
            "created_at": "16/04/2016 14:00:44", 
            "flagged": false, 
            "hidden": false, 
            "id": 18217, 
            "moderator_id": null, 
            "permissions": {
                "hide": false, 
                "hide_author": false, 
                "vote": false
            }, 
            "total_dislikes": 0, 
            "total_likes": 0, 
            "total_votes": 0
        }
    ], 
    "meta": {
        "current_page": 1, 
        "next_page": 2, 
        "prev_page": null, 
        "total_count": 26, 
        "total_pages": 2
    }
}