{
    "comments": [
        {
            "administrator_id": null, 
            "alignment": 0, 
            "ancestry": null, 
            "as": null, 
            "author": {
                "avatar_image": "https://decidim.barcelona/assets/avatar-866795c99abc33a3160d1f3fa93ada46eb75e54134e777666b9ed16215b26534.png", 
                "erased": false, 
                "hidden": false, 
                "id": 9262, 
                "name": "Suport General - Decidim Barcelona", 
                "official": false, 
                "official_level": 0, 
                "role": null, 
                "verified_organization": null
            }, 
            "body": "<p><a href=\"https://decidim.barcelona/proposals/pacificacio-del-transit-del-carrer-maignon\">https://decidim.barcelona/proposals/pacificacio-del-transit-del-carrer-maignon</a></p>", 
            "commentable_id": 10382, 
            "commentable_type": "Proposal", 
            "created_at": "16/04/2016 14:00:57", 
            "flagged": false, 
            "hidden": false, 
            "id": 18218, 
            "moderator_id": null, 
            "permissions": {
                "hide": false, 
                "hide_author": false, 
                "vote": false
            }, 
            "total_dislikes": 0, 
            "total_likes": 0, 
            "total_votes": 0
        }, 
        {
            "administrator_id": null, 
            "alignment": 0, 
            "ancestry": null, 
            "as": null, 
            "author": {
                "avatar_image": "https://decidim.barcelona/assets/avatar-866795c99abc33a3160d1f3fa93ada46eb75e54134e777666b9ed16215b26534.png", 
                "erased": false, 
                "hidden": false, 
                "id": 9262, 
                "name": "Suport General - Decidim Barcelona", 
                "official": false, 
                "official_level": 0, 
                "role": null, 
                "verified_organization": null
            }, 
            "body": "<p><a href=\"https://decidim.barcelona/proposals/valorar-la-possibilitat-d-obrir-el-carrer-maignon-entre-els-jardins-menendez-pelayo-i-l-avinguda-del-santuari-de-sant-josep-de-la-muntanya\">https://decidim.barcelona/proposals/valorar-la-possibilitat-d-obrir-el-carrer-maignon-entre-els-jardins-menendez-pelayo-i-l-avinguda-del-santuari-de-sant-josep-de-la-muntanya</a></p>", 
            "commentable_id": 10382, 
            "commentable_type": "Proposal", 
            "created_at": "16/04/2016 14:01:06", 
            "flagged": false, 
            "hidden": false, 
            "id": 18219, 
            "moderator_id": null, 
            "permissions": {
                "hide": false, 
                "hide_author": false, 
                "vote": false
            }, 
            "total_dislikes": 0, 
            "total_likes": 0, 
            "total_votes": 0
        }, 
        {
            "administrator_id": null, 
            "alignment": 0, 
            "ancestry": null, 
            "as": null, 
            "author": {
                "avatar_image": "https://decidim.barcelona/assets/avatar-866795c99abc33a3160d1f3fa93ada46eb75e54134e777666b9ed16215b26534.png", 
                "erased": false, 
                "hidden": false, 
                "id": 9262, 
                "name": "Suport General - Decidim Barcelona", 
                "official": false, 
                "official_level": 0, 
                "role": null, 
                "verified_organization": null
            }, 
            "body": "<p><a href=\"https://decidim.barcelona/proposals/espai-public-urbanitzacio-i-remodelacio-del-carrer-maignon-i-camelies\">https://decidim.barcelona/proposals/espai-public-urbanitzacio-i-remodelacio-del-carrer-maignon-i-camelies</a></p>", 
            "commentable_id": 10382, 
            "commentable_type": "Proposal", 
            "created_at": "16/04/2016 14:01:19", 
            "flagged": false, 
            "hidden": false, 
            "id": 18220, 
            "moderator_id": null, 
            "permissions": {
                "hide": false, 
                "hide_author": false, 
                "vote": false
            }, 
            "total_dislikes": 0, 
            "total_likes": 0, 
            "total_votes": 0
        }, 
        {
            "administrator_id": null, 
            "alignment": 0, 
            "ancestry": null, 
            "as": null, 
            "author": {
                "avatar_image": "https://decidim.barcelona/assets/avatar-866795c99abc33a3160d1f3fa93ada46eb75e54134e777666b9ed16215b26534.png", 
                "erased": false, 
                "hidden": false, 
                "id": 9262, 
                "name": "Suport General - Decidim Barcelona", 
                "official": false, 
                "official_level": 0, 
                "role": null, 
                "verified_organization": null
            }, 
            "body": "<p><a href=\"https://decidim.barcelona/proposals/reforma-del-carrer-maignon-ampliar-voreres-soterrar-cablejat-aeri-i-reduir-contaminacio-acustica\">https://decidim.barcelona/proposals/reforma-del-carrer-maignon-ampliar-voreres-soterrar-cablejat-aeri-i-reduir-contaminacio-acustica</a></p>", 
            "commentable_id": 10382, 
            "commentable_type": "Proposal", 
            "created_at": "16/04/2016 14:01:28", 
            "flagged": false, 
            "hidden": false, 
            "id": 18221, 
            "moderator_id": null, 
            "permissions": {
                "hide": false, 
                "hide_author": false, 
                "vote": false
            }, 
            "total_dislikes": 0, 
            "total_likes": 0, 
            "total_votes": 0
        }, 
        {
            "administrator_id": null, 
            "alignment": 0, 
            "ancestry": null, 
            "as": null, 
            "author": {
                "avatar_image": "https://decidim.barcelona/assets/avatar-866795c99abc33a3160d1f3fa93ada46eb75e54134e777666b9ed16215b26534.png", 
                "erased": false, 
                "hidden": false, 
                "id": 9262, 
                "name": "Suport General - Decidim Barcelona", 
                "official": false, 
                "official_level": 0, 
                "role": null, 
                "verified_organization": null
            }, 
            "body": "<p><a href=\"https://decidim.barcelona/proposals/c-camelies-gracia\">https://decidim.barcelona/proposals/c-camelies-gracia</a></p>", 
            "commentable_id": 10382, 
            "commentable_type": "Proposal", 
            "created_at": "16/04/2016 18:33:12", 
            "flagged": false, 
            "hidden": false, 
            "id": 18385, 
            "moderator_id": null, 
            "permissions": {
                "hide": false, 
                "hide_author": false, 
                "vote": false
            }, 
            "total_dislikes": 0, 
            "total_likes": 0, 
            "total_votes": 0
        }, 
        {
            "administrator_id": null, 
            "alignment": 0, 
            "ancestry": null, 
            "as": null, 
            "author": {
                "avatar_image": "https://decidim.barcelona/assets/avatar-866795c99abc33a3160d1f3fa93ada46eb75e54134e777666b9ed16215b26534.png", 
                "erased": false, 
                "hidden": false, 
                "id": 9262, 
                "name": "Suport General - Decidim Barcelona", 
                "official": false, 
                "official_level": 0, 
                "role": null, 
                "verified_organization": null
            }, 
            "body": "<p><a href=\"https://decidim.barcelona/proposals/millorar-carrer-camelies\">https://decidim.barcelona/proposals/millorar-carrer-camelies</a></p>", 
            "commentable_id": 10382, 
            "commentable_type": "Proposal", 
            "created_at": "16/04/2016 18:33:21", 
            "flagged": false, 
            "hidden": false, 
            "id": 18386, 
            "moderator_id": null, 
            "permissions": {
                "hide": false, 
                "hide_author": false, 
                "vote": false
            }, 
            "total_dislikes": 0, 
            "total_likes": 0, 
            "total_votes": 0
        }
    ], 
    "meta": {
        "current_page": 2, 
        "next_page": null, 
        "prev_page": 1, 
        "total_count": 26, 
        "total_pages": 2
    }
}